%cross-section
%pA
inclusive & $\xx196 \pm \xx\xx21 \pm \xx\xx12$ \\
prompy    & $\xx138 \pm \xx\xx17 \pm \xx\xx\xx9$ \\
delayed   & $\xx\xx54 \pm \xx\xx\xx8 \pm \xx\xx\xx8$ \\

%Ap
inclusive & $\xx114 \pm \xx\xx28 \pm \xx\xx\xx7$ \\
prompt    & $\xx\xx93 \pm \xx\xx25 \pm \xx\xx\xx6$ \\
delayed   & $\xx\xx20 \pm \xx\xx\xx8 \pm \xx\xx\xx3$ \\

