%!PS-Adobe-2.0 EPSF-2.0
%%BoundingBox:  0 0 567 425
%%Title: ownpv_chi2.eps: pt Canvas
%%Creator: ROOT Version 5.34/18
%%CreationDate: Tue Sep 15 00:48:28 2015
%%EndComments
%%BeginProlog
80 dict begin
/s {stroke} def /l {lineto} def /m {moveto} def /t {translate} def
/r {rotate} def /rl {roll}  def /R {repeat} def
/d {rlineto} def /rm {rmoveto} def /gr {grestore} def /f {eofill} def
/c {setrgbcolor} def /black {0 setgray} def /sd {setdash} def
/cl {closepath} def /sf {scalefont setfont} def /lw {setlinewidth} def
/box {m dup 0 exch d exch 0 d 0 exch neg d cl} def
/NC{systemdict begin initclip end}def/C{NC box clip newpath}def
/bl {box s} def /bf {box f} def /Y { 0 exch d} def /X { 0 d} def 
/K {{pop pop 0 moveto} exch kshow} bind def
/ita {/ang 15 def gsave [1 0 ang dup sin exch cos div 1 0 0] concat} def 
/mp {newpath /y exch def /x exch def} def
/side {[w .77 mul w .23 mul] .385 w mul sd w 0 l currentpoint t -144 r} def
/mr {mp x y w2 0 360 arc} def /m24 {mr s} def /m20 {mr f} def
/mb {mp x y w2 add m w2 neg 0 d 0 w neg d w 0 d 0 w d cl} def
/mt {mp x y w2 add m w2 neg w neg d w 0 d cl} def
/m21 {mb f} def /m25 {mb s} def /m22 {mt f} def /m26{mt s} def
/m23 {mp x y w2 sub m w2 w d w neg 0 d cl f} def
/m27 {mp x y w2 add m w3 neg w2 neg d w3 w2 neg d w3 w2 d cl s} def
/m28 {mp x w2 sub y w2 sub w3 add m w3 0 d  0 w3 neg d w3 0 d 0 w3 d w3 0 d  0 w3 d w3 neg 0 d 0 w3 d w3 neg 0 d 0 w3 neg d w3 neg 0 d cl s } def
/m29 {mp gsave x w2 sub y w2 add w3 sub m currentpoint t 4 {side} repeat cl fill gr} def
/m30 {mp gsave x w2 sub y w2 add w3 sub m currentpoint t 4 {side} repeat cl s gr} def
/m31 {mp x y w2 sub m 0 w d x w2 sub y m w 0 d x w2 sub y w2 add m w w neg d x w2 sub y w2 sub m w w d s} def
/m32 {mp x y w2 sub m w2 w d w neg 0 d cl s} def
/m33 {mp x y w2 add m w3 neg w2 neg d w3 w2 neg d w3 w2 d cl f} def
/m34 {mp x w2 sub y w2 sub w3 add m w3 0 d  0 w3 neg d w3 0 d 0 w3 d w3 0 d  0 w3 d w3 neg 0 d 0 w3 d w3 neg 0 d 0 w3 neg d w3 neg 0 d cl f } def
/m2 {mp x y w2 sub m 0 w d x w2 sub y m w 0 d s} def
/m5 {mp x w2 sub y w2 sub m w w d x w2 sub y w2 add m w w neg d s} def
/reEncode {exch findfont dup length dict begin {1 index /FID eq  {pop pop} {def} ifelse } forall /Encoding exch def currentdict end dup /FontName get exch definefont pop } def [/Times-Bold /Times-Italic /Times-BoldItalic /Helvetica /Helvetica-Oblique
 /Helvetica-Bold /Helvetica-BoldOblique /Courier /Courier-Oblique /Courier-Bold /Courier-BoldOblique /Times-Roman /AvantGarde-Book /AvantGarde-BookOblique /AvantGarde-Demi /AvantGarde-DemiOblique /Bookman-Demi /Bookman-DemiItalic /Bookman-Light
 /Bookman-LightItalic /Helvetica-Narrow /Helvetica-Narrow-Bold /Helvetica-Narrow-BoldOblique /Helvetica-Narrow-Oblique /NewCenturySchlbk-Roman /NewCenturySchlbk-Bold /NewCenturySchlbk-BoldItalic /NewCenturySchlbk-Italic /Palatino-Bold
 /Palatino-BoldItalic /Palatino-Italic /Palatino-Roman ] {ISOLatin1Encoding reEncode } forall
%%EndProlog
%%BeginSetup
%%EndSetup
newpath  gsave  .25 .25 scale  gsave  0 0 t black[  ] 0 sd 6 lw 1 1 1 c 2268 1701 0 0 bf black 1 1 1 c 1837 1344 317 238 bf black 1837 1344 317 238 bl 1 1 1 c 1837 1344 317 238 bf black 1837 1344 317 238 bl 0 0 1 c 1 1 1 c 0 0 1 c 317 288 m 74 X s
 428 288 m 73 X s 3 lw /w 37 def /w2 {w 2 div} def /w3 {w 3 div} def 409 288 m22 6 lw 501 359 m 74 X s 611 359 m 74 X s 3 lw 593 359 m22 6 lw 685 528 m 73 X s 795 528 m 74 X s 3 lw 777 528 m22 6 lw 869 820 m 73 X s 979 820 m 73 X s 3 lw 960 820 m22 6
 lw 1052 1051 m 74 X s 1162 1051 m 74 X s 3 lw 1144 1051 m22 6 lw 1236 942 m 73 X s 1346 942 m 74 X s 3 lw 1328 942 m22 6 lw 1420 644 m 73 X s 1530 644 m 73 X s 3 lw 1511 644 m22 6 lw 1603 422 m 74 X s 1713 422 m 74 X s 3 lw 1695 422 m22 6 lw 1787
 316 m 74 X s 1897 316 m 74 X s 3 lw 1879 316 m22 6 lw 1971 274 m 73 X s 2081 274 m 73 X s 3 lw 2062 274 m22 6 lw black 317 238 m 1837 X s
 gsave  2268 1701 0 0 C 1933.96 50.2921 t 0 r /Helvetica findfont 96.0122 sf 0 0 m (/nodf) show NC gr 
 gsave  2268 1701 0 0 C 1897.38 77.7242 t 0 r /Helvetica findfont 64.0081 sf 0 0 m (2) show NC gr 
 gsave  2268 1701 0 0 C 1847.09 50.2921 t 0 r /Symbol findfont 96.0122 sf 0 0 m (c) show NC gr 
 gsave  2268 1701 0 0 C 1485.9 50.2921 t 0 r /Helvetica findfont 96.0122 sf 0 0 m (OWNPV) show NC gr  317 279 m -41 Y s 464 259 m -21 Y s 611 259 m -21 Y s 758 259 m -21 Y s 905 259 m -21 Y s 1052 279 m -41 Y s 1199 259 m -21 Y s 1346 259 m -21 Y s
 1493 259 m -21 Y s 1640 259 m -21 Y s 1787 279 m -41 Y s 1787 279 m -41 Y s 1934 259 m -21 Y s 2081 259 m -21 Y s
 gsave  2268 1701 0 0 C 260.605 146.304 t 0 r /Helvetica findfont 77.7242 sf 0 0 m (0.5) show NC gr 
 gsave  2268 1701 0 0 C 1037.85 146.304 t 0 r /Helvetica findfont 77.7242 sf 0 0 m (1) show NC gr 
 gsave  2268 1701 0 0 C 1728.22 146.304 t 0 r /Helvetica findfont 77.7242 sf 0 0 m (1.5) show NC gr  317 1582 m 1837 X s 317 1540 m 42 Y s 464 1561 m 21 Y s 611 1561 m 21 Y s 758 1561 m 21 Y s 905 1561 m 21 Y s 1052 1540 m 42 Y s 1199 1561 m 21 Y s
 1346 1561 m 21 Y s 1493 1561 m 21 Y s 1640 1561 m 21 Y s 1787 1540 m 42 Y s 1787 1540 m 42 Y s 1934 1561 m 21 Y s 2081 1561 m 21 Y s 317 238 m 1344 Y s
 gsave  2268 1701 0 0 C 160.02 969.266 t 90 r /Helvetica findfont 96.0122 sf 0 0 m (Arbitrary scale) show NC gr  371 238 m -54 X s 344 271 m -27 X s 344 303 m -27 X s 344 336 m -27 X s 344 369 m -27 X s 371 401 m -54 X s 344 434 m -27 X s 344 467 m
 -27 X s 344 499 m -27 X s 344 532 m -27 X s 371 564 m -54 X s 344 597 m -27 X s 344 630 m -27 X s 344 662 m -27 X s 344 695 m -27 X s 371 728 m -54 X s 344 760 m -27 X s 344 793 m -27 X s 344 826 m -27 X s 344 858 m -27 X s 371 891 m -54 X s 344 923
 m -27 X s 344 956 m -27 X s 344 989 m -27 X s 344 1021 m -27 X s 371 1054 m -54 X s 344 1087 m -27 X s 344 1119 m -27 X s 344 1152 m -27 X s 344 1185 m -27 X s 371 1217 m -54 X s 344 1250 m -27 X s 344 1283 m -27 X s 344 1315 m -27 X s 344 1348 m
 -27 X s 371 1380 m -54 X s 344 1413 m -27 X s 344 1446 m -27 X s 344 1478 m -27 X s 344 1511 m -27 X s 371 1544 m -54 X s 371 1544 m -54 X s 344 1576 m -27 X s
 gsave  2268 1701 0 0 C 260.605 210.312 t 0 r /Helvetica findfont 77.7242 sf 0 0 m (0) show NC gr 
 gsave  2268 1701 0 0 C 150.876 370.333 t 0 r /Helvetica findfont 77.7242 sf 0 0 m (0.05) show NC gr 
 gsave  2268 1701 0 0 C 205.74 534.925 t 0 r /Helvetica findfont 77.7242 sf 0 0 m (0.1) show NC gr 
 gsave  2268 1701 0 0 C 150.876 699.517 t 0 r /Helvetica findfont 77.7242 sf 0 0 m (0.15) show NC gr 
 gsave  2268 1701 0 0 C 196.596 859.538 t 0 r /Helvetica findfont 77.7242 sf 0 0 m (0.2) show NC gr 
 gsave  2268 1701 0 0 C 150.876 1024.13 t 0 r /Helvetica findfont 77.7242 sf 0 0 m (0.25) show NC gr 
 gsave  2268 1701 0 0 C 196.596 1188.72 t 0 r /Helvetica findfont 77.7242 sf 0 0 m (0.3) show NC gr 
 gsave  2268 1701 0 0 C 150.876 1348.74 t 0 r /Helvetica findfont 77.7242 sf 0 0 m (0.35) show NC gr 
 gsave  2268 1701 0 0 C 192.024 1513.34 t 0 r /Helvetica findfont 77.7242 sf 0 0 m (0.4) show NC gr  2154 238 m 1344 Y s 2101 238 m 53 X s 2127 271 m 27 X s 2127 303 m 27 X s 2127 336 m 27 X s 2127 369 m 27 X s 2101 401 m 53 X s 2127 434 m 27 X s
 2127 467 m 27 X s 2127 499 m 27 X s 2127 532 m 27 X s 2101 564 m 53 X s 2127 597 m 27 X s 2127 630 m 27 X s 2127 662 m 27 X s 2127 695 m 27 X s 2101 728 m 53 X s 2127 760 m 27 X s 2127 793 m 27 X s 2127 826 m 27 X s 2127 858 m 27 X s 2101 891 m 53 X
 s 2127 923 m 27 X s 2127 956 m 27 X s 2127 989 m 27 X s 2127 1021 m 27 X s 2101 1054 m 53 X s 2127 1087 m 27 X s 2127 1119 m 27 X s 2127 1152 m 27 X s 2127 1185 m 27 X s 2101 1217 m 53 X s 2127 1250 m 27 X s 2127 1283 m 27 X s 2127 1315 m 27 X s
 2127 1348 m 27 X s 2101 1380 m 53 X s 2127 1413 m 27 X s 2127 1446 m 27 X s 2127 1478 m 27 X s 2127 1511 m 27 X s 2101 1544 m 53 X s 2101 1544 m 53 X s 2127 1576 m 27 X s 1 1 1 c black 317 255 m 74 X s 428 255 m 73 X s 3 lw 409 255 m20 6 lw 593 248
 m 7 Y s 593 291 m 7 Y s 501 273 m 74 X s 611 273 m 74 X s 3 lw 593 273 m20 6 lw 777 388 m 49 Y s 777 474 m 49 Y s 685 456 m 73 X s 795 456 m 74 X s 3 lw 777 456 m20 6 lw 960 662 m 107 Y s 960 806 m 106 Y s 869 787 m 73 X s 979 787 m 73 X s 3 lw 960
 787 m20 6 lw 1144 1161 m 157 Y s 1144 1355 m 158 Y s 1052 1337 m 74 X s 1162 1337 m 74 X s 3 lw 1144 1337 m20 6 lw 1328 1035 m 141 Y s 1328 1213 m 141 Y s 1236 1194 m 73 X s 1346 1194 m 74 X s 3 lw 1328 1194 m20 6 lw 1511 397 m 63 Y s 1511 496 m 63
 Y s 1420 478 m 73 X s 1530 478 m 73 X s 3 lw 1511 478 m20 6 lw 1695 297 m 18 Y s 1695 352 m 18 Y s 1603 334 m 74 X s 1713 334 m 74 X s 3 lw 1695 334 m20 6 lw 1879 243 m 1 Y s 1879 280 m 1 Y s 1787 262 m 74 X s 1897 262 m 74 X s 3 lw 1879 262 m20 6
 lw 1971 269 m 73 X s 2081 269 m 73 X s 3 lw 2062 269 m20 6 lw 1 0 0 c 1 1 1 c 1 0 0 c 593 269 m 10 Y s 501 250 m 74 X s 611 250 m 74 X s 3 lw 593 250 m21 6 lw 777 238 m 8 Y s 777 282 m 86 Y s 685 264 m 73 X s 795 264 m 74 X s 3 lw 777 264 m21 6 lw
 960 427 m 255 Y s 960 719 m 255 Y s 869 701 m 73 X s 979 701 m 73 X s 3 lw 960 701 m21 6 lw 1144 918 m 410 Y s 1144 1365 m 217 Y s 1052 1347 m 74 X s 1162 1347 m 74 X s 3 lw 1144 1347 m21 6 lw 1328 1015 m 417 Y s 1328 1469 m 113 Y s 1236 1451 m 73 X
 s 1346 1451 m 74 X s 3 lw 1328 1451 m21 6 lw 1511 513 m 232 Y s 1511 781 m 232 Y s 1420 763 m 73 X s 1530 763 m 73 X s 3 lw 1511 763 m21 6 lw 1879 238 m 1 Y s 1879 275 m 8 Y s 1787 257 m 74 X s 1897 257 m 74 X s 3 lw 1879 257 m21 6 lw 0 0 1 c 1 1 1
 c 0 0 1 c 317 288 m 74 X s 428 288 m 73 X s 3 lw 409 288 m22 6 lw 501 359 m 74 X s 611 359 m 74 X s 3 lw 593 359 m22 6 lw 685 528 m 73 X s 795 528 m 74 X s 3 lw 777 528 m22 6 lw 869 820 m 73 X s 979 820 m 73 X s 3 lw 960 820 m22 6 lw 1052 1051 m 74
 X s 1162 1051 m 74 X s 3 lw 1144 1051 m22 6 lw 1236 942 m 73 X s 1346 942 m 74 X s 3 lw 1328 942 m22 6 lw 1420 644 m 73 X s 1530 644 m 73 X s 3 lw 1511 644 m22 6 lw 1603 422 m 74 X s 1713 422 m 74 X s 3 lw 1695 422 m22 6 lw 1787 316 m 74 X s 1897
 316 m 74 X s 3 lw 1879 316 m22 6 lw 1971 274 m 73 X s 2081 274 m 73 X s 3 lw 2062 274 m22 6 lw black 0.999 0.999 0.999 c 476 238 1542 1276 bf black
 gsave  2268 1701 0 0 C 1659.64 1458.47 t 0 r /Helvetica-Bold findfont 68.5801 sf 0 0 m (pPb\(Fwd\)) show NC gr  1560 1474 m 83 X s 1602 1450 m 48 Y s 3 lw 1602 1474 m20 6 lw
 gsave  2268 1701 0 0 C 1659.64 1380.75 t 0 r /Helvetica-Bold findfont 68.5801 sf 0 0 m (pPb\(Bwd\)) show NC gr  1 0 0 c 1560 1395 m 83 X s 1602 1371 m 47 Y s 3 lw 1602 1395 m21 6 lw black
 gsave  2268 1701 0 0 C 1659.64 1298.45 t 0 r /Helvetica-Bold findfont 68.5801 sf 0 0 m (pp MC) show NC gr  0 0 1 c 1560 1315 m 83 X s 1602 1291 m 48 Y s 3 lw 1602 1315 m22 6 lw black
 gsave  2268 1701 0 0 C 662.941 1289.31 t 0 r /Helvetica findfont 64.0081 sf 0 0 m ( = 5 TeV) show NC gr 
 gsave  2268 1701 0 0 C 603.505 1266.45 t 0 r /Helvetica findfont 41.1481 sf 0 0 m (NN) show NC gr 
 gsave  2268 1701 0 0 C 571.501 1289.31 t 0 r /Helvetica findfont 64.0081 sf 0 0 m (s) show NC gr  544 1326 m 9 -60 d s 0 lw 553 1266 m 9 78 d s 562 1344 m 101 X s
 gsave  2268 1701 0 0 C 406.909 1289.31 t 0 r /Helvetica findfont 64.0081 sf 0 0 m (pPb ) show NC gr 
 gsave  2268 1701 0 0 C 406.909 1380.75 t 0 r /Helvetica findfont 77.7242 sf 0 0 m (Preliminary) show NC gr 
 gsave  2268 1701 0 0 C 406.909 1467.61 t 0 r /Helvetica findfont 77.7242 sf 0 0 m (LHCb) show NC gr 
 gr  gr showpage
end
%%EOF
