%!PS-Adobe-2.0 EPSF-2.0
%%BoundingBox:  0 0 567 319
%%Title: result/MassFitBin/ApY_psip.eps: 
%%Creator: ROOT Version 5.34/18
%%CreationDate: Sat Sep 12 09:06:46 2015
%%EndComments
%%BeginProlog
80 dict begin
/s {stroke} def /l {lineto} def /m {moveto} def /t {translate} def
/r {rotate} def /rl {roll}  def /R {repeat} def
/d {rlineto} def /rm {rmoveto} def /gr {grestore} def /f {eofill} def
/c {setrgbcolor} def /black {0 setgray} def /sd {setdash} def
/cl {closepath} def /sf {scalefont setfont} def /lw {setlinewidth} def
/box {m dup 0 exch d exch 0 d 0 exch neg d cl} def
/NC{systemdict begin initclip end}def/C{NC box clip newpath}def
/bl {box s} def /bf {box f} def /Y { 0 exch d} def /X { 0 d} def 
/K {{pop pop 0 moveto} exch kshow} bind def
/ita {/ang 15 def gsave [1 0 ang dup sin exch cos div 1 0 0] concat} def 
/mp {newpath /y exch def /x exch def} def
/side {[w .77 mul w .23 mul] .385 w mul sd w 0 l currentpoint t -144 r} def
/mr {mp x y w2 0 360 arc} def /m24 {mr s} def /m20 {mr f} def
/mb {mp x y w2 add m w2 neg 0 d 0 w neg d w 0 d 0 w d cl} def
/mt {mp x y w2 add m w2 neg w neg d w 0 d cl} def
/m21 {mb f} def /m25 {mb s} def /m22 {mt f} def /m26{mt s} def
/m23 {mp x y w2 sub m w2 w d w neg 0 d cl f} def
/m27 {mp x y w2 add m w3 neg w2 neg d w3 w2 neg d w3 w2 d cl s} def
/m28 {mp x w2 sub y w2 sub w3 add m w3 0 d  0 w3 neg d w3 0 d 0 w3 d w3 0 d  0 w3 d w3 neg 0 d 0 w3 d w3 neg 0 d 0 w3 neg d w3 neg 0 d cl s } def
/m29 {mp gsave x w2 sub y w2 add w3 sub m currentpoint t 4 {side} repeat cl fill gr} def
/m30 {mp gsave x w2 sub y w2 add w3 sub m currentpoint t 4 {side} repeat cl s gr} def
/m31 {mp x y w2 sub m 0 w d x w2 sub y m w 0 d x w2 sub y w2 add m w w neg d x w2 sub y w2 sub m w w d s} def
/m32 {mp x y w2 sub m w2 w d w neg 0 d cl s} def
/m33 {mp x y w2 add m w3 neg w2 neg d w3 w2 neg d w3 w2 d cl f} def
/m34 {mp x w2 sub y w2 sub w3 add m w3 0 d  0 w3 neg d w3 0 d 0 w3 d w3 0 d  0 w3 d w3 neg 0 d 0 w3 d w3 neg 0 d 0 w3 neg d w3 neg 0 d cl f } def
/m2 {mp x y w2 sub m 0 w d x w2 sub y m w 0 d s} def
/m5 {mp x w2 sub y w2 sub m w w d x w2 sub y w2 add m w w neg d s} def
/reEncode {exch findfont dup length dict begin {1 index /FID eq  {pop pop} {def} ifelse } forall /Encoding exch def currentdict end dup /FontName get exch definefont pop } def [/Times-Bold /Times-Italic /Times-BoldItalic /Helvetica /Helvetica-Oblique
 /Helvetica-Bold /Helvetica-BoldOblique /Courier /Courier-Oblique /Courier-Bold /Courier-BoldOblique /Times-Roman /AvantGarde-Book /AvantGarde-BookOblique /AvantGarde-Demi /AvantGarde-DemiOblique /Bookman-Demi /Bookman-DemiItalic /Bookman-Light
 /Bookman-LightItalic /Helvetica-Narrow /Helvetica-Narrow-Bold /Helvetica-Narrow-BoldOblique /Helvetica-Narrow-Oblique /NewCenturySchlbk-Roman /NewCenturySchlbk-Bold /NewCenturySchlbk-BoldItalic /NewCenturySchlbk-Italic /Palatino-Bold
 /Palatino-BoldItalic /Palatino-Italic /Palatino-Roman ] {ISOLatin1Encoding reEncode } forall
%%EndProlog
%%BeginSetup
%%EndSetup
newpath  gsave  .25 .25 scale  gsave  0 0 t black[  ] 0 sd 6 lw 1 1 1 c 2268 1274 0 0 bf black 1 1 1 c 710 611 23 650 bf black 1 1 1 c 576 484 122 735 bf black 576 484 122 735 bl 1 1 1 c 576 484 122 735 bf black 576 484 122 735 bl 122 735 m 576 X s
 gsave  710 611 23 650 C 688.279 665.526 t 0 r /Helvetica findfont 34.1889 sf 0 0 m (]) show NC gr 
 gsave  710 611 23 650 C 675.006 680.694 t 0 r /Helvetica findfont 22.7926 sf 0 0 m (2) show NC gr 
 gsave  710 611 23 650 C 559.345 665.526 t 0 r /Helvetica findfont 34.1889 sf 0 0 m ( [MeV/c) show NC gr 
 gsave  710 611 23 650 C 546.072 657.941 t 0 r /Symbol findfont 22.7926 sf 0 0 m (m) show NC gr 
 gsave  710 611 23 650 C 532.8 657.941 t 0 r /Symbol findfont 22.7926 sf 0 0 m (m) show NC gr 
 gsave  710 611 23 650 C 506.254 665.526 t 0 r /Helvetica findfont 34.1889 sf 0 0 m (m) show NC gr  241 750 m -15 Y s 281 743 m -8 Y s 321 743 m -8 Y s 360 743 m -8 Y s 400 743 m -8 Y s 440 750 m -15 Y s 479 743 m -8 Y s 519 743 m -8 Y s 559 743 m -8
 Y s 598 743 m -8 Y s 638 750 m -15 Y s 241 750 m -15 Y s 202 743 m -8 Y s 162 743 m -8 Y s 122 743 m -8 Y s 638 750 m -15 Y s 678 743 m -8 Y s
 gsave  710 611 23 650 C 208.569 703.447 t 0 r /Helvetica findfont 28.4907 sf 0 0 m (3600) show NC gr 
 gsave  710 611 23 650 C 405.762 703.447 t 0 r /Helvetica findfont 28.4907 sf 0 0 m (3700) show NC gr 
 gsave  710 611 23 650 C 604.851 703.447 t 0 r /Helvetica findfont 28.4907 sf 0 0 m (3800) show NC gr  122 1219 m 576 X s 241 1204 m 15 Y s 281 1211 m 8 Y s 321 1211 m 8 Y s 360 1211 m 8 Y s 400 1211 m 8 Y s 440 1204 m 15 Y s 479 1211 m 8 Y s 519
 1211 m 8 Y s 559 1211 m 8 Y s 598 1211 m 8 Y s 638 1204 m 15 Y s 241 1204 m 15 Y s 202 1211 m 8 Y s 162 1211 m 8 Y s 122 1211 m 8 Y s 638 1204 m 15 Y s 678 1211 m 8 Y s 122 735 m 484 Y s
 gsave  710 611 23 650 C 66.3629 1209.7 t 90 r /Helvetica findfont 34.1889 sf 0 0 m (\)) show NC gr 
 gsave  710 611 23 650 C 51.1943 1196.43 t 90 r /Helvetica findfont 22.7926 sf 0 0 m (2) show NC gr 
 gsave  710 611 23 650 C 66.3629 908.224 t 90 r /Helvetica findfont 34.1889 sf 0 0 m (Events / \(10 MeV/c) show NC gr  139 735 m -17 X s 131 752 m -9 X s 131 769 m -9 X s 131 785 m -9 X s 131 802 m -9 X s 139 818 m -17 X s 131 835 m -9 X s 131 851 m
 -9 X s 131 868 m -9 X s 131 885 m -9 X s 139 901 m -17 X s 131 918 m -9 X s 131 934 m -9 X s 131 951 m -9 X s 131 968 m -9 X s 139 984 m -17 X s 131 1001 m -9 X s 131 1017 m -9 X s 131 1034 m -9 X s 131 1050 m -9 X s 139 1067 m -17 X s 131 1084 m -9
 X s 131 1100 m -9 X s 131 1117 m -9 X s 131 1133 m -9 X s 139 1150 m -17 X s 139 1150 m -17 X s 131 1166 m -9 X s 131 1183 m -9 X s 131 1200 m -9 X s 131 1216 m -9 X s
 gsave  710 611 23 650 C 102.389 724.304 t 0 r /Helvetica findfont 28.4907 sf 0 0 m (0) show NC gr 
 gsave  710 611 23 650 C 102.389 807.732 t 0 r /Helvetica findfont 28.4907 sf 0 0 m (5) show NC gr 
 gsave  710 611 23 650 C 87.2199 891.159 t 0 r /Helvetica findfont 28.4907 sf 0 0 m (10) show NC gr 
 gsave  710 611 23 650 C 85.3238 974.587 t 0 r /Helvetica findfont 28.4907 sf 0 0 m (15) show NC gr 
 gsave  710 611 23 650 C 87.2199 1056.12 t 0 r /Helvetica findfont 28.4907 sf 0 0 m (20) show NC gr 
 gsave  710 611 23 650 C 85.3238 1139.55 t 0 r /Helvetica findfont 28.4907 sf 0 0 m (25) show NC gr  698 735 m 484 Y s 681 735 m 17 X s 689 752 m 9 X s 689 769 m 9 X s 689 785 m 9 X s 689 802 m 9 X s 681 818 m 17 X s 689 835 m 9 X s 689 851 m 9 X s
 689 868 m 9 X s 689 885 m 9 X s 681 901 m 17 X s 689 918 m 9 X s 689 934 m 9 X s 689 951 m 9 X s 689 968 m 9 X s 681 984 m 17 X s 689 1001 m 9 X s 689 1017 m 9 X s 689 1034 m 9 X s 689 1050 m 9 X s 681 1067 m 17 X s 689 1084 m 9 X s 689 1100 m 9 X s
 689 1117 m 9 X s 689 1133 m 9 X s 681 1150 m 17 X s 681 1150 m 17 X s 689 1166 m 9 X s 689 1183 m 9 X s 689 1200 m 9 X s 689 1216 m 9 X s 132 918 m -10 X s 122 914 m 8 Y s 132 918 m 10 X s 142 914 m 8 Y s 132 918 m 73 Y s 128 991 m 8 X s 132 918 m
 -54 Y s 128 864 m 8 X s 152 984 m -10 X s 142 980 m 8 Y s 152 984 m 10 X s 162 980 m 8 Y s 152 984 m 82 Y s 148 1066 m 8 X s 152 984 m -63 Y s 148 921 m 8 X s 172 901 m -10 X s 162 897 m 8 Y s 172 901 m 10 X s 182 897 m 8 Y s 172 901 m 71 Y s 168
 972 m 8 X s 172 901 m -51 Y s 168 850 m 8 X s 192 901 m -10 X s 182 897 m 8 Y s 192 901 m 10 X s 202 897 m 8 Y s 192 901 m 71 Y s 188 972 m 7 X s 192 901 m -51 Y s 188 850 m 7 X s 211 918 m -9 X s 202 914 m 8 Y s 211 918 m 10 X s 221 914 m 8 Y s 211
 918 m 73 Y s 208 991 m 7 X s 211 918 m -54 Y s 208 864 m 7 X s 231 918 m -10 X s 221 914 m 8 Y s 231 918 m 10 X s 241 914 m 8 Y s 231 918 m 73 Y s 228 991 m 7 X s 231 918 m -54 Y s 228 864 m 7 X s 251 918 m -10 X s 241 914 m 8 Y s 251 918 m 10 X s
 261 914 m 8 Y s 251 918 m 73 Y s 247 991 m 8 X s 251 918 m -54 Y s 247 864 m 8 X s 271 918 m -10 X s 261 914 m 8 Y s 271 918 m 10 X s 281 914 m 8 Y s 271 918 m 73 Y s 267 991 m 8 X s 271 918 m -54 Y s 267 864 m 8 X s 291 1100 m -10 X s 281 1096 m 8
 Y s 291 1100 m 10 X s 301 1096 m 8 Y s 291 1100 m 96 Y s 287 1196 m 8 X s 291 1100 m -77 Y s 287 1023 m 8 X s 311 818 m -10 X s 301 815 m 7 Y s 311 818 m 10 X s 321 815 m 7 Y s 311 818 m 56 Y s 307 874 m 7 X s 311 818 m -35 Y s 307 783 m 7 X s 331
 934 m -10 X s 321 931 m 7 Y s 331 934 m 9 X s 340 931 m 7 Y s 331 934 m 76 Y s 327 1010 m 7 X s 331 934 m -56 Y s 327 878 m 7 X s 350 918 m -10 X s 340 914 m 8 Y s 350 918 m 10 X s 360 914 m 8 Y s 350 918 m 73 Y s 347 991 m 7 X s 350 918 m -54 Y s
 347 864 m 7 X s 370 885 m -10 X s 360 881 m 7 Y s 370 885 m 10 X s 380 881 m 7 Y s 370 885 m 68 Y s 366 953 m 8 X s 370 885 m -49 Y s 366 836 m 8 X s 390 951 m -10 X s 380 947 m 8 Y s 390 951 m 10 X s 400 947 m 8 Y s 390 951 m 78 Y s 386 1029 m 8 X
 s 390 951 m -59 Y s 386 892 m 8 X s 410 1017 m -10 X s 400 1013 m 8 Y s 410 1017 m 10 X s 420 1013 m 8 Y s 410 1017 m 86 Y s 406 1103 m 8 X s 410 1017 m -67 Y s 406 950 m 8 X s 430 1034 m -10 X s 420 1030 m 8 Y s 430 1034 m 10 X s 440 1030 m 8 Y s
 430 1034 m 88 Y s 426 1122 m 8 X s 430 1034 m -70 Y s 426 964 m 8 X s 450 951 m -10 X s 440 947 m 8 Y s 450 951 m 10 X s 460 947 m 8 Y s 450 951 m 78 Y s 446 1029 m 7 X s 450 951 m -59 Y s 446 892 m 7 X s 469 868 m -9 X s 460 864 m 8 Y s 469 868 m
 10 X s 479 864 m 8 Y s 469 868 m 65 Y s 466 933 m 7 X s 469 868 m -46 Y s 466 822 m 7 X s 489 918 m -10 X s 479 914 m 8 Y s 489 918 m 10 X s 499 914 m 8 Y s 489 918 m 73 Y s 486 991 m 7 X s 489 918 m -54 Y s 486 864 m 7 X s 509 918 m -10 X s 499 914
 m 8 Y s 509 918 m 10 X s 519 914 m 8 Y s 509 918 m 73 Y s 505 991 m 8 X s 509 918 m -54 Y s 505 864 m 8 X s 529 835 m -10 X s 519 831 m 8 Y s 529 835 m 10 X s 539 831 m 8 Y s 529 835 m 59 Y s 525 894 m 8 X s 529 835 m -40 Y s 525 795 m 8 X s 549 802
 m -10 X s 539 798 m 8 Y s 549 802 m 10 X s 559 798 m 8 Y s 549 802 m 52 Y s 545 854 m 8 X s 549 802 m -32 Y s 545 770 m 8 X s 569 968 m -10 X s 559 964 m 7 Y s 569 968 m 10 X s 579 964 m 7 Y s 569 968 m 80 Y s 565 1048 m 7 X s 569 968 m -62 Y s 565
 906 m 7 X s 589 885 m -10 X s 579 881 m 7 Y s 589 885 m 9 X s 598 881 m 7 Y s 589 885 m 68 Y s 585 953 m 7 X s 589 885 m -49 Y s 585 836 m 7 X s 608 835 m -10 X s 598 831 m 8 Y s 608 835 m 10 X s 618 831 m 8 Y s 608 835 m 59 Y s 605 894 m 7 X s 608
 835 m -40 Y s 605 795 m 7 X s 628 835 m -10 X s 618 831 m 8 Y s 628 835 m 10 X s 638 831 m 8 Y s 628 835 m 59 Y s 624 894 m 8 X s 628 835 m -40 Y s 624 795 m 8 X s 648 885 m -10 X s 638 881 m 7 Y s 648 885 m 10 X s 658 881 m 7 Y s 648 885 m 68 Y s
 644 953 m 8 X s 648 885 m -49 Y s 644 836 m 8 X s 668 868 m -10 X s 658 864 m 8 Y s 668 868 m 10 X s 678 864 m 8 Y s 668 868 m 65 Y s 664 933 m 8 X s 668 868 m -46 Y s 664 822 m 8 X s 688 951 m -10 X s 678 947 m 8 Y s 688 951 m 10 X s 698 947 m 8 Y
 s 688 951 m 78 Y s 684 1029 m 8 X s 688 951 m -59 Y s 684 892 m 8 X s 3 lw /w 15 def /w2 {w 2 div} def /w3 {w 3 div} def 132 918 152 984 172 901 192 901 211 918 231 918 251 918 271 918 291 1100 311 818 331 934 350 918 370 885 390 951 410 1017 430
 1034 450 951 469 868 489 918 509 918 529 835 549 802 569 968 589 885 608 835 628 835 648 885 668 868 688 951 29 { m20} R 6 lw 0 1 0 c[ 4 8] 0 sd 9 lw black 0 1 0 c 122 935 m cl s 122 935 m 20 -2 d 20 -3 d 20 -3 d 20 -2 d 19 -3 d 20 -2 d 20 -3 d 20
 -2 d 20 -3 d 20 -2 d 19 -2 d 20 -3 d 20 -2 d 20 -2 d 20 -2 d 20 -3 d 20 -2 d 19 -2 d 20 -2 d 20 -2 d 20 -2 d 20 -2 d 20 -2 d 19 -2 d 20 -2 d 20 -2 d 20 -2 d 20 -2 d 20 -2 d s 0 0 1 c[ 12 12] 0 sd black 0 0 1 c 122 736 m cl s 122 736 m 80 X 19 1 d 60
 X 20 1 d 20 1 d 10 1 d 9 2 d 5 1 d 5 2 d 3 1 d 2 2 d 3 3 d 2 3 d 3 3 d 2 4 d 3 5 d 2 5 d 3 5 d 2 6 d 3 6 d 2 7 d 10 27 d 3 7 d 2 6 d 3 6 d 2 5 d 2 4 d 3 3 d 1 2 d 1 1 d 2 X 1 1 d 5 X 1 -1 d 1 -1 d 2 -1 d 1 -2 d 2 -4 d 3 -4 d 2 -6 d 3 -5 d 2 -7 d 3
 -6 d 5 -14 d 5 -14 d 2 -6 d 3 -6 d 2 -6 d 3 -5 d 2 -5 d 3 -4 d 2 -4 d 3 -4 d 2 -2 d 2 -3 d 3 -2 d 2 -2 d 3 -2 d 2 -1 d 5 -2 d 5 -1 d 5 -1 d 15 X 10 -1 d 179 X s 1 0 0 c[  ] 0 sd black 1 0 0 c 122 936 m cl s 122 936 m 20 -3 d 20 -2 d 20 -3 d 20 -2 d
 19 -3 d 20 -2 d 20 -2 d 20 -2 d 20 -2 d 20 -1 d 10 -1 d 9 1 d 5 X 5 2 d 3 1 d 2 2 d 3 2 d 2 3 d 3 3 d 2 4 d 3 4 d 2 5 d 3 5 d 2 5 d 3 6 d 2 7 d 10 26 d 3 6 d 2 6 d 3 5 d 2 5 d 2 4 d 3 3 d 2 2 d 3 1 d 2 X 3 -1 d 2 -2 d 3 -3 d 2 -4 d 3 -5 d 2 -5 d 3
 -6 d 2 -7 d 3 -7 d 5 -14 d 5 -14 d 2 -7 d 3 -6 d 2 -6 d 3 -6 d 2 -5 d 3 -5 d 2 -4 d 3 -3 d 2 -3 d 2 -3 d 3 -3 d 2 -2 d 5 -3 d 5 -3 d 5 -1 d 5 -1 d 5 -1 d 20 -3 d 20 -2 d 20 -2 d 20 -2 d 19 -2 d 20 -2 d 20 -2 d 20 -2 d 20 -2 d 20 -2 d s black 6 lw
 122 735 m 576 X s 241 750 m -15 Y s 281 743 m -8 Y s 321 743 m -8 Y s 360 743 m -8 Y s 400 743 m -8 Y s 440 750 m -15 Y s 479 743 m -8 Y s 519 743 m -8 Y s 559 743 m -8 Y s 598 743 m -8 Y s 638 750 m -15 Y s 241 750 m -15 Y s 202 743 m -8 Y s 162
 743 m -8 Y s 122 743 m -8 Y s 638 750 m -15 Y s 678 743 m -8 Y s 122 1219 m 576 X s 241 1204 m 15 Y s 281 1211 m 8 Y s 321 1211 m 8 Y s 360 1211 m 8 Y s 400 1211 m 8 Y s 440 1204 m 15 Y s 479 1211 m 8 Y s 519 1211 m 8 Y s 559 1211 m 8 Y s 598 1211 m
 8 Y s 638 1204 m 15 Y s 241 1204 m 15 Y s 202 1211 m 8 Y s 162 1211 m 8 Y s 122 1211 m 8 Y s 638 1204 m 15 Y s 678 1211 m 8 Y s 122 735 m 484 Y s 139 735 m -17 X s 131 752 m -9 X s 131 769 m -9 X s 131 785 m -9 X s 131 802 m -9 X s 139 818 m -17 X s
 131 835 m -9 X s 131 851 m -9 X s 131 868 m -9 X s 131 885 m -9 X s 139 901 m -17 X s 131 918 m -9 X s 131 934 m -9 X s 131 951 m -9 X s 131 968 m -9 X s 139 984 m -17 X s 131 1001 m -9 X s 131 1017 m -9 X s 131 1034 m -9 X s 131 1050 m -9 X s 139
 1067 m -17 X s 131 1084 m -9 X s 131 1100 m -9 X s 131 1117 m -9 X s 131 1133 m -9 X s 139 1150 m -17 X s 139 1150 m -17 X s 131 1166 m -9 X s 131 1183 m -9 X s 131 1200 m -9 X s 131 1216 m -9 X s 698 735 m 484 Y s 681 735 m 17 X s 689 752 m 9 X s
 689 769 m 9 X s 689 785 m 9 X s 689 802 m 9 X s 681 818 m 17 X s 689 835 m 9 X s 689 851 m 9 X s 689 868 m 9 X s 689 885 m 9 X s 681 901 m 17 X s 689 918 m 9 X s 689 934 m 9 X s 689 951 m 9 X s 689 968 m 9 X s 681 984 m 17 X s 689 1001 m 9 X s 689
 1017 m 9 X s 689 1034 m 9 X s 689 1050 m 9 X s 681 1067 m 17 X s 689 1084 m 9 X s 689 1100 m 9 X s 689 1117 m 9 X s 689 1133 m 9 X s 681 1150 m 17 X s 681 1150 m 17 X s 689 1166 m 9 X s 689 1183 m 9 X s 689 1200 m 9 X s 689 1216 m 9 X s
 gsave  710 611 23 650 C 312.854 1063.7 t 0 r /Helvetica findfont 22.7926 sf 0 0 m ( = 5 TeV) show NC gr 
 gsave  710 611 23 650 C 291.997 1056.12 t 0 r /Helvetica findfont 15.1951 sf 0 0 m (NN) show NC gr 
 gsave  710 611 23 650 C 280.62 1063.7 t 0 r /Helvetica findfont 22.7926 sf 0 0 m (s) show NC gr  271 1077 m 4 -21 d s 0 lw 275 1056 m 4 29 d s 279 1085 m 34 X s
 gsave  710 611 23 650 C 163.063 1063.7 t 0 r /Helvetica findfont 22.7926 sf 0 0 m (pPb\(Bwd\) ) show NC gr 
 gsave  710 611 23 650 C 163.063 1099.73 t 0 r /Helvetica findfont 28.4907 sf 0 0 m (Preliminary) show NC gr 
 gsave  710 611 23 650 C 163.063 1130.07 t 0 r /Helvetica findfont 28.4907 sf 0 0 m (LHCb) show NC gr 
 gsave  710 611 23 650 C 608.643 1109.21 t 0 r /Helvetica findfont 28.4907 sf 0 0 m (2.5) show NC gr 
 gsave  710 611 23 650 C 591.578 1109.21 t 0 r /Symbol findfont 28.4907 sf 0 0 m (-) show NC gr 
 gsave  710 611 23 650 C 472.125 1109.21 t 0 r /Helvetica findfont 28.4907 sf 0 0 m (3.0 < y < ) show NC gr 
 gsave  710 611 23 650 C 455.06 1109.21 t 0 r /Symbol findfont 28.4907 sf 0 0 m (-) show NC gr 
 gsave  710 611 23 650 C 530.904 1078.87 t 0 r /Helvetica findfont 28.4907 sf 0 0 m ( <14 GeV/c) show NC gr 
 gsave  710 611 23 650 C 519.527 1063.7 t 0 r /Helvetica findfont 18.9938 sf 0 0 m (T) show NC gr 
 gsave  710 611 23 650 C 455.06 1078.87 t 0 r /Helvetica findfont 28.4907 sf 0 0 m ( 0< p) show NC gr  6 lw 1 1 1 c 710 611 779 650 bf black 1 1 1 c 576 484 878 735 bf black 576 484 878 735 bl 1 1 1 c 576 484 878 735 bf black 576 484 878 735 bl 878
 735 m 576 X s
 gsave  710 611 779 650 C 1444.82 665.526 t 0 r /Helvetica findfont 34.1889 sf 0 0 m (]) show NC gr 
 gsave  710 611 779 650 C 1431.54 680.694 t 0 r /Helvetica findfont 22.7926 sf 0 0 m (2) show NC gr 
 gsave  710 611 779 650 C 1315.88 665.526 t 0 r /Helvetica findfont 34.1889 sf 0 0 m ( [MeV/c) show NC gr 
 gsave  710 611 779 650 C 1302.61 657.941 t 0 r /Symbol findfont 22.7926 sf 0 0 m (m) show NC gr 
 gsave  710 611 779 650 C 1289.34 657.941 t 0 r /Symbol findfont 22.7926 sf 0 0 m (m) show NC gr 
 gsave  710 611 779 650 C 1262.79 665.526 t 0 r /Helvetica findfont 34.1889 sf 0 0 m (m) show NC gr  997 750 m -15 Y s 1037 743 m -8 Y s 1077 743 m -8 Y s 1116 743 m -8 Y s 1156 743 m -8 Y s 1196 750 m -15 Y s 1235 743 m -8 Y s 1275 743 m -8 Y s 1315
 743 m -8 Y s 1354 743 m -8 Y s 1394 750 m -15 Y s 997 750 m -15 Y s 957 743 m -8 Y s 918 743 m -8 Y s 878 743 m -8 Y s 1394 750 m -15 Y s 1434 743 m -8 Y s
 gsave  710 611 779 650 C 963.211 703.447 t 0 r /Helvetica findfont 28.4907 sf 0 0 m (3600) show NC gr 
 gsave  710 611 779 650 C 1162.3 703.447 t 0 r /Helvetica findfont 28.4907 sf 0 0 m (3700) show NC gr 
 gsave  710 611 779 650 C 1361.39 703.447 t 0 r /Helvetica findfont 28.4907 sf 0 0 m (3800) show NC gr  878 1219 m 576 X s 997 1204 m 15 Y s 1037 1211 m 8 Y s 1077 1211 m 8 Y s 1116 1211 m 8 Y s 1156 1211 m 8 Y s 1196 1204 m 15 Y s 1235 1211 m 8 Y s
 1275 1211 m 8 Y s 1315 1211 m 8 Y s 1354 1211 m 8 Y s 1394 1204 m 15 Y s 997 1204 m 15 Y s 957 1211 m 8 Y s 918 1211 m 8 Y s 878 1211 m 8 Y s 1394 1204 m 15 Y s 1434 1211 m 8 Y s 878 735 m 484 Y s
 gsave  710 611 779 650 C 822.9 1209.7 t 90 r /Helvetica findfont 34.1889 sf 0 0 m (\)) show NC gr 
 gsave  710 611 779 650 C 807.732 1196.43 t 90 r /Helvetica findfont 22.7926 sf 0 0 m (2) show NC gr 
 gsave  710 611 779 650 C 822.9 908.224 t 90 r /Helvetica findfont 34.1889 sf 0 0 m (Events / \(10 MeV/c) show NC gr  895 735 m -17 X s 886 745 m -8 X s 886 755 m -8 X s 886 765 m -8 X s 886 774 m -8 X s 895 784 m -17 X s 886 794 m -8 X s 886 803 m
 -8 X s 886 813 m -8 X s 886 823 m -8 X s 895 833 m -17 X s 886 842 m -8 X s 886 852 m -8 X s 886 862 m -8 X s 886 871 m -8 X s 895 881 m -17 X s 886 891 m -8 X s 886 901 m -8 X s 886 910 m -8 X s 886 920 m -8 X s 895 930 m -17 X s 886 939 m -8 X s
 886 949 m -8 X s 886 959 m -8 X s 886 969 m -8 X s 895 978 m -17 X s 886 988 m -8 X s 886 998 m -8 X s 886 1007 m -8 X s 886 1017 m -8 X s 895 1027 m -17 X s 886 1037 m -8 X s 886 1046 m -8 X s 886 1056 m -8 X s 886 1066 m -8 X s 895 1075 m -17 X s
 886 1085 m -8 X s 886 1095 m -8 X s 886 1105 m -8 X s 886 1114 m -8 X s 895 1124 m -17 X s 886 1134 m -8 X s 886 1143 m -8 X s 886 1153 m -8 X s 886 1163 m -8 X s 895 1173 m -17 X s 895 1173 m -17 X s 886 1182 m -8 X s 886 1192 m -8 X s 886 1202 m
 -8 X s 886 1211 m -8 X s
 gsave  710 611 779 650 C 858.926 724.304 t 0 r /Helvetica findfont 28.4907 sf 0 0 m (0) show NC gr 
 gsave  710 611 779 650 C 858.926 773.602 t 0 r /Helvetica findfont 28.4907 sf 0 0 m (5) show NC gr 
 gsave  710 611 779 650 C 843.757 822.901 t 0 r /Helvetica findfont 28.4907 sf 0 0 m (10) show NC gr 
 gsave  710 611 779 650 C 841.861 870.303 t 0 r /Helvetica findfont 28.4907 sf 0 0 m (15) show NC gr 
 gsave  710 611 779 650 C 843.757 919.601 t 0 r /Helvetica findfont 28.4907 sf 0 0 m (20) show NC gr 
 gsave  710 611 779 650 C 841.861 967.003 t 0 r /Helvetica findfont 28.4907 sf 0 0 m (25) show NC gr 
 gsave  710 611 779 650 C 843.757 1016.3 t 0 r /Helvetica findfont 28.4907 sf 0 0 m (30) show NC gr 
 gsave  710 611 779 650 C 841.861 1065.6 t 0 r /Helvetica findfont 28.4907 sf 0 0 m (35) show NC gr 
 gsave  710 611 779 650 C 843.757 1113 t 0 r /Helvetica findfont 28.4907 sf 0 0 m (40) show NC gr 
 gsave  710 611 779 650 C 841.861 1162.3 t 0 r /Helvetica findfont 28.4907 sf 0 0 m (45) show NC gr  1454 735 m 484 Y s 1437 735 m 17 X s 1445 745 m 9 X s 1445 755 m 9 X s 1445 765 m 9 X s 1445 774 m 9 X s 1437 784 m 17 X s 1445 794 m 9 X s 1445 803
 m 9 X s 1445 813 m 9 X s 1445 823 m 9 X s 1437 833 m 17 X s 1445 842 m 9 X s 1445 852 m 9 X s 1445 862 m 9 X s 1445 871 m 9 X s 1437 881 m 17 X s 1445 891 m 9 X s 1445 901 m 9 X s 1445 910 m 9 X s 1445 920 m 9 X s 1437 930 m 17 X s 1445 939 m 9 X s
 1445 949 m 9 X s 1445 959 m 9 X s 1445 969 m 9 X s 1437 978 m 17 X s 1445 988 m 9 X s 1445 998 m 9 X s 1445 1007 m 9 X s 1445 1017 m 9 X s 1437 1027 m 17 X s 1445 1037 m 9 X s 1445 1046 m 9 X s 1445 1056 m 9 X s 1445 1066 m 9 X s 1437 1075 m 17 X s
 1445 1085 m 9 X s 1445 1095 m 9 X s 1445 1105 m 9 X s 1445 1114 m 9 X s 1437 1124 m 17 X s 1445 1134 m 9 X s 1445 1143 m 9 X s 1445 1153 m 9 X s 1445 1163 m 9 X s 1437 1173 m 17 X s 1437 1173 m 17 X s 1445 1182 m 9 X s 1445 1192 m 9 X s 1445 1202 m
 9 X s 1445 1211 m 9 X s 888 910 m -10 X s 878 906 m 8 Y s 888 910 m 10 X s 898 906 m 8 Y s 888 910 m 52 Y s 884 962 m 8 X s 888 910 m -41 Y s 884 869 m 8 X s 908 969 m -10 X s 898 965 m 7 Y s 908 969 m 10 X s 918 965 m 7 Y s 908 969 m 58 Y s 904
 1027 m 8 X s 908 969 m -48 Y s 904 921 m 8 X s 928 998 m -10 X s 918 994 m 7 Y s 928 998 m 10 X s 938 994 m 7 Y s 928 998 m 60 Y s 924 1058 m 7 X s 928 998 m -50 Y s 924 948 m 7 X s 948 920 m -10 X s 938 916 m 8 Y s 948 920 m 9 X s 957 916 m 8 Y s
 948 920 m 53 Y s 944 973 m 7 X s 948 920 m -42 Y s 944 878 m 7 X s 967 969 m -10 X s 957 965 m 7 Y s 967 969 m 10 X s 977 965 m 7 Y s 967 969 m 58 Y s 964 1027 m 7 X s 967 969 m -48 Y s 964 921 m 7 X s 987 901 m -10 X s 977 897 m 7 Y s 987 901 m 10
 X s 997 897 m 7 Y s 987 901 m 50 Y s 983 951 m 8 X s 987 901 m -40 Y s 983 861 m 8 X s 1007 998 m -10 X s 997 994 m 7 Y s 1007 998 m 10 X s 1017 994 m 7 Y s 1007 998 m 60 Y s 1003 1058 m 8 X s 1007 998 m -50 Y s 1003 948 m 8 X s 1027 969 m -10 X s
 1017 965 m 7 Y s 1027 969 m 10 X s 1037 965 m 7 Y s 1027 969 m 58 Y s 1023 1027 m 8 X s 1027 969 m -48 Y s 1023 921 m 8 X s 1047 988 m -10 X s 1037 984 m 8 Y s 1047 988 m 10 X s 1057 984 m 8 Y s 1047 988 m 60 Y s 1043 1048 m 8 X s 1047 988 m -49 Y s
 1043 939 m 8 X s 1067 959 m -10 X s 1057 955 m 8 Y s 1067 959 m 10 X s 1077 955 m 8 Y s 1067 959 m 57 Y s 1063 1016 m 7 X s 1067 959 m -46 Y s 1063 913 m 7 X s 1086 930 m -9 X s 1077 926 m 7 Y s 1086 930 m 10 X s 1096 926 m 7 Y s 1086 930 m 54 Y s
 1083 984 m 7 X s 1086 930 m -43 Y s 1083 887 m 7 X s 1106 969 m -10 X s 1096 965 m 7 Y s 1106 969 m 10 X s 1116 965 m 7 Y s 1106 969 m 58 Y s 1103 1027 m 7 X s 1106 969 m -48 Y s 1103 921 m 7 X s 1126 949 m -10 X s 1116 945 m 8 Y s 1126 949 m 10 X s
 1136 945 m 8 Y s 1126 949 m 56 Y s 1122 1005 m 8 X s 1126 949 m -45 Y s 1122 904 m 8 X s 1146 1095 m -10 X s 1136 1091 m 8 Y s 1146 1095 m 10 X s 1156 1091 m 8 Y s 1146 1095 m 69 Y s 1142 1164 m 8 X s 1146 1095 m -59 Y s 1142 1036 m 8 X s 1166 1124
 m -10 X s 1156 1120 m 8 Y s 1166 1124 m 10 X s 1176 1120 m 8 Y s 1166 1124 m 72 Y s 1162 1196 m 8 X s 1166 1124 m -61 Y s 1162 1063 m 8 X s 1186 1007 m -10 X s 1176 1004 m 7 Y s 1186 1007 m 10 X s 1196 1004 m 7 Y s 1186 1007 m 62 Y s 1182 1069 m 7 X
 s 1186 1007 m -51 Y s 1182 956 m 7 X s 1206 998 m -10 X s 1196 994 m 7 Y s 1206 998 m 9 X s 1215 994 m 7 Y s 1206 998 m 60 Y s 1202 1058 m 7 X s 1206 998 m -50 Y s 1202 948 m 7 X s 1225 978 m -10 X s 1215 974 m 8 Y s 1225 978 m 10 X s 1235 974 m 8 Y
 s 1225 978 m 59 Y s 1222 1037 m 7 X s 1225 978 m -48 Y s 1222 930 m 7 X s 1245 1017 m -10 X s 1235 1013 m 8 Y s 1245 1017 m 10 X s 1255 1013 m 8 Y s 1245 1017 m 63 Y s 1241 1080 m 8 X s 1245 1017 m -52 Y s 1241 965 m 8 X s 1265 969 m -10 X s 1255
 965 m 7 Y s 1265 969 m 10 X s 1275 965 m 7 Y s 1265 969 m 58 Y s 1261 1027 m 8 X s 1265 969 m -48 Y s 1261 921 m 8 X s 1285 988 m -10 X s 1275 984 m 8 Y s 1285 988 m 10 X s 1295 984 m 8 Y s 1285 988 m 60 Y s 1281 1048 m 8 X s 1285 988 m -49 Y s 1281
 939 m 8 X s 1305 891 m -10 X s 1295 887 m 8 Y s 1305 891 m 10 X s 1315 887 m 8 Y s 1305 891 m 49 Y s 1301 940 m 8 X s 1305 891 m -39 Y s 1301 852 m 8 X s 1325 930 m -10 X s 1315 926 m 7 Y s 1325 930 m 10 X s 1335 926 m 7 Y s 1325 930 m 54 Y s 1321
 984 m 7 X s 1325 930 m -43 Y s 1321 887 m 7 X s 1344 1007 m -9 X s 1335 1004 m 7 Y s 1344 1007 m 10 X s 1354 1004 m 7 Y s 1344 1007 m 62 Y s 1341 1069 m 7 X s 1344 1007 m -51 Y s 1341 956 m 7 X s 1364 949 m -10 X s 1354 945 m 8 Y s 1364 949 m 10 X s
 1374 945 m 8 Y s 1364 949 m 56 Y s 1361 1005 m 7 X s 1364 949 m -45 Y s 1361 904 m 7 X s 1384 959 m -10 X s 1374 955 m 8 Y s 1384 959 m 10 X s 1394 955 m 8 Y s 1384 959 m 57 Y s 1380 1016 m 8 X s 1384 959 m -46 Y s 1380 913 m 8 X s 1404 988 m -10 X
 s 1394 984 m 8 Y s 1404 988 m 10 X s 1414 984 m 8 Y s 1404 988 m 60 Y s 1400 1048 m 8 X s 1404 988 m -49 Y s 1400 939 m 8 X s 1424 949 m -10 X s 1414 945 m 8 Y s 1424 949 m 10 X s 1434 945 m 8 Y s 1424 949 m 56 Y s 1420 1005 m 8 X s 1424 949 m -45 Y
 s 1420 904 m 8 X s 1444 901 m -10 X s 1434 897 m 7 Y s 1444 901 m 10 X s 1454 897 m 7 Y s 1444 901 m 50 Y s 1440 951 m 7 X s 1444 901 m -40 Y s 1440 861 m 7 X s 3 lw 888 910 908 969 928 998 948 920 967 969 987 901 1007 998 1027 969 1047 988 1067 959
 1086 930 1106 969 1126 949 1146 1095 1166 1124 1186 1007 1206 998 1225 978 1245 1017 1265 969 1285 988 1305 891 1325 930 1344 1007 1364 949 1384 959 1404 988 1424 949 1444 901 29 { m20} R 6 lw 0 1 0 c[ 4 8] 0 sd 9 lw black 0 1 0 c 878 954 m cl s 878
 954 m 40 X 20 1 d 238 X 20 1 d 218 X 20 1 d 20 X s 0 0 1 c[ 12 12] 0 sd black 0 0 1 c 878 736 m cl s 878 736 m 60 X 19 1 d 60 X 20 1 d 20 X 20 1 d 9 1 d 5 1 d 5 1 d 5 2 d 3 1 d 2 1 d 3 2 d 2 2 d 3 3 d 2 4 d 3 4 d 2 4 d 3 5 d 2 6 d 3 5 d 2 7 d 3 6 d
 2 7 d 10 29 d 2 7 d 3 6 d 2 6 d 3 5 d 2 4 d 3 4 d 1 1 d 1 1 d 2 1 d 1 1 d 4 X 1 -1 d 1 -1 d 1 -1 d 3 -2 d 2 -4 d 3 -5 d 2 -5 d 3 -6 d 2 -7 d 3 -7 d 5 -14 d 5 -15 d 2 -6 d 3 -7 d 2 -6 d 2 -6 d 3 -5 d 2 -5 d 3 -4 d 2 -4 d 3 -3 d 2 -3 d 3 -2 d 2 -2 d 3
 -2 d 2 -2 d 5 -2 d 5 -1 d 5 -1 d 5 -1 d 20 X 20 -1 d 159 X s 1 0 0 c[  ] 0 sd black 1 0 0 c 878 955 m cl s 878 955 m 40 X 20 1 d 59 X 20 1 d 20 X 20 1 d 20 1 d 9 1 d 5 1 d 5 1 d 5 2 d 3 1 d 2 1 d 3 2 d 2 2 d 3 3 d 2 4 d 3 4 d 2 4 d 3 5 d 2 5 d 3 6 d
 2 7 d 3 6 d 2 7 d 10 29 d 2 7 d 3 6 d 2 6 d 3 5 d 2 4 d 3 4 d 1 1 d 1 1 d 2 1 d 1 1 d 4 X 1 -1 d 1 -1 d 1 -1 d 3 -2 d 2 -4 d 3 -5 d 2 -5 d 3 -6 d 2 -7 d 3 -7 d 5 -14 d 5 -14 d 2 -7 d 3 -7 d 2 -6 d 2 -5 d 3 -6 d 2 -4 d 3 -5 d 2 -3 d 3 -4 d 2 -3 d 3
 -2 d 2 -2 d 3 -2 d 2 -1 d 5 -3 d 5 -1 d 5 -1 d 5 X 10 -1 d 149 X 20 1 d 20 X s black 6 lw 878 735 m 576 X s 997 750 m -15 Y s 1037 743 m -8 Y s 1077 743 m -8 Y s 1116 743 m -8 Y s 1156 743 m -8 Y s 1196 750 m -15 Y s 1235 743 m -8 Y s 1275 743 m -8
 Y s 1315 743 m -8 Y s 1354 743 m -8 Y s 1394 750 m -15 Y s 997 750 m -15 Y s 957 743 m -8 Y s 918 743 m -8 Y s 878 743 m -8 Y s 1394 750 m -15 Y s 1434 743 m -8 Y s 878 1219 m 576 X s 997 1204 m 15 Y s 1037 1211 m 8 Y s 1077 1211 m 8 Y s 1116 1211 m
 8 Y s 1156 1211 m 8 Y s 1196 1204 m 15 Y s 1235 1211 m 8 Y s 1275 1211 m 8 Y s 1315 1211 m 8 Y s 1354 1211 m 8 Y s 1394 1204 m 15 Y s 997 1204 m 15 Y s 957 1211 m 8 Y s 918 1211 m 8 Y s 878 1211 m 8 Y s 1394 1204 m 15 Y s 1434 1211 m 8 Y s 878 735 m
 484 Y s 895 735 m -17 X s 886 745 m -8 X s 886 755 m -8 X s 886 765 m -8 X s 886 774 m -8 X s 895 784 m -17 X s 886 794 m -8 X s 886 803 m -8 X s 886 813 m -8 X s 886 823 m -8 X s 895 833 m -17 X s 886 842 m -8 X s 886 852 m -8 X s 886 862 m -8 X s
 886 871 m -8 X s 895 881 m -17 X s 886 891 m -8 X s 886 901 m -8 X s 886 910 m -8 X s 886 920 m -8 X s 895 930 m -17 X s 886 939 m -8 X s 886 949 m -8 X s 886 959 m -8 X s 886 969 m -8 X s 895 978 m -17 X s 886 988 m -8 X s 886 998 m -8 X s 886 1007
 m -8 X s 886 1017 m -8 X s 895 1027 m -17 X s 886 1037 m -8 X s 886 1046 m -8 X s 886 1056 m -8 X s 886 1066 m -8 X s 895 1075 m -17 X s 886 1085 m -8 X s 886 1095 m -8 X s 886 1105 m -8 X s 886 1114 m -8 X s 895 1124 m -17 X s 886 1134 m -8 X s 886
 1143 m -8 X s 886 1153 m -8 X s 886 1163 m -8 X s 895 1173 m -17 X s 895 1173 m -17 X s 886 1182 m -8 X s 886 1192 m -8 X s 886 1202 m -8 X s 886 1211 m -8 X s 1454 735 m 484 Y s 1437 735 m 17 X s 1445 745 m 9 X s 1445 755 m 9 X s 1445 765 m 9 X s
 1445 774 m 9 X s 1437 784 m 17 X s 1445 794 m 9 X s 1445 803 m 9 X s 1445 813 m 9 X s 1445 823 m 9 X s 1437 833 m 17 X s 1445 842 m 9 X s 1445 852 m 9 X s 1445 862 m 9 X s 1445 871 m 9 X s 1437 881 m 17 X s 1445 891 m 9 X s 1445 901 m 9 X s 1445 910
 m 9 X s 1445 920 m 9 X s 1437 930 m 17 X s 1445 939 m 9 X s 1445 949 m 9 X s 1445 959 m 9 X s 1445 969 m 9 X s 1437 978 m 17 X s 1445 988 m 9 X s 1445 998 m 9 X s 1445 1007 m 9 X s 1445 1017 m 9 X s 1437 1027 m 17 X s 1445 1037 m 9 X s 1445 1046 m 9
 X s 1445 1056 m 9 X s 1445 1066 m 9 X s 1437 1075 m 17 X s 1445 1085 m 9 X s 1445 1095 m 9 X s 1445 1105 m 9 X s 1445 1114 m 9 X s 1437 1124 m 17 X s 1445 1134 m 9 X s 1445 1143 m 9 X s 1445 1153 m 9 X s 1445 1163 m 9 X s 1437 1173 m 17 X s 1437
 1173 m 17 X s 1445 1182 m 9 X s 1445 1192 m 9 X s 1445 1202 m 9 X s 1445 1211 m 9 X s
 gsave  710 611 779 650 C 1069.39 788.771 t 0 r /Helvetica findfont 22.7926 sf 0 0 m ( = 5 TeV) show NC gr 
 gsave  710 611 779 650 C 1048.53 781.187 t 0 r /Helvetica findfont 15.1951 sf 0 0 m (NN) show NC gr 
 gsave  710 611 779 650 C 1037.16 788.771 t 0 r /Helvetica findfont 22.7926 sf 0 0 m (s) show NC gr  1028 802 m 3 -21 d s 0 lw 1031 781 m 4 29 d s 1035 810 m 34 X s
 gsave  710 611 779 650 C 919.601 788.771 t 0 r /Helvetica findfont 22.7926 sf 0 0 m (pPb\(Bwd\) ) show NC gr 
 gsave  710 611 779 650 C 919.601 824.797 t 0 r /Helvetica findfont 28.4907 sf 0 0 m (Preliminary) show NC gr 
 gsave  710 611 779 650 C 919.601 855.134 t 0 r /Helvetica findfont 28.4907 sf 0 0 m (LHCb) show NC gr 
 gsave  710 611 779 650 C 1365.18 834.277 t 0 r /Helvetica findfont 28.4907 sf 0 0 m (3.0) show NC gr 
 gsave  710 611 779 650 C 1348.12 834.277 t 0 r /Symbol findfont 28.4907 sf 0 0 m (-) show NC gr 
 gsave  710 611 779 650 C 1228.66 834.277 t 0 r /Helvetica findfont 28.4907 sf 0 0 m (3.5 < y < ) show NC gr 
 gsave  710 611 779 650 C 1211.6 834.277 t 0 r /Symbol findfont 28.4907 sf 0 0 m (-) show NC gr 
 gsave  710 611 779 650 C 1287.44 803.94 t 0 r /Helvetica findfont 28.4907 sf 0 0 m ( <14 GeV/c) show NC gr 
 gsave  710 611 779 650 C 1276.06 788.771 t 0 r /Helvetica findfont 18.9938 sf 0 0 m (T) show NC gr 
 gsave  710 611 779 650 C 1211.6 803.94 t 0 r /Helvetica findfont 28.4907 sf 0 0 m ( 0< p) show NC gr  6 lw 1 1 1 c 711 611 1534 650 bf black 1 1 1 c 576 484 1634 735 bf black 576 484 1634 735 bl 1 1 1 c 576 484 1634 735 bf black 576 484 1634 735 bl
 1634 735 m 576 X s
 gsave  711 611 1534 650 C 2201.35 665.526 t 0 r /Helvetica findfont 34.1889 sf 0 0 m (]) show NC gr 
 gsave  711 611 1534 650 C 2188.08 680.694 t 0 r /Helvetica findfont 22.7926 sf 0 0 m (2) show NC gr 
 gsave  711 611 1534 650 C 2072.42 665.526 t 0 r /Helvetica findfont 34.1889 sf 0 0 m ( [MeV/c) show NC gr 
 gsave  711 611 1534 650 C 2059.15 657.941 t 0 r /Symbol findfont 22.7926 sf 0 0 m (m) show NC gr 
 gsave  711 611 1534 650 C 2045.87 657.941 t 0 r /Symbol findfont 22.7926 sf 0 0 m (m) show NC gr 
 gsave  711 611 1534 650 C 2019.33 665.526 t 0 r /Helvetica findfont 34.1889 sf 0 0 m (m) show NC gr  1753 750 m -15 Y s 1793 743 m -8 Y s 1832 743 m -8 Y s 1872 743 m -8 Y s 1912 743 m -8 Y s 1952 750 m -15 Y s 1991 743 m -8 Y s 2031 743 m -8 Y s
 2071 743 m -8 Y s 2110 743 m -8 Y s 2150 750 m -15 Y s 1753 750 m -15 Y s 1713 743 m -8 Y s 1674 743 m -8 Y s 1634 743 m -8 Y s 2150 750 m -15 Y s 2190 743 m -8 Y s
 gsave  711 611 1534 650 C 1719.75 703.447 t 0 r /Helvetica findfont 28.4907 sf 0 0 m (3600) show NC gr 
 gsave  711 611 1534 650 C 1918.84 703.447 t 0 r /Helvetica findfont 28.4907 sf 0 0 m (3700) show NC gr 
 gsave  711 611 1534 650 C 2116.03 703.447 t 0 r /Helvetica findfont 28.4907 sf 0 0 m (3800) show NC gr  1634 1219 m 576 X s 1753 1204 m 15 Y s 1793 1211 m 8 Y s 1832 1211 m 8 Y s 1872 1211 m 8 Y s 1912 1211 m 8 Y s 1952 1204 m 15 Y s 1991 1211 m 8 Y
 s 2031 1211 m 8 Y s 2071 1211 m 8 Y s 2110 1211 m 8 Y s 2150 1204 m 15 Y s 1753 1204 m 15 Y s 1713 1211 m 8 Y s 1674 1211 m 8 Y s 1634 1211 m 8 Y s 2150 1204 m 15 Y s 2190 1211 m 8 Y s 1634 735 m 484 Y s
 gsave  711 611 1534 650 C 1577.54 1209.7 t 90 r /Helvetica findfont 34.1889 sf 0 0 m (\)) show NC gr 
 gsave  711 611 1534 650 C 1562.37 1196.43 t 90 r /Helvetica findfont 22.7926 sf 0 0 m (2) show NC gr 
 gsave  711 611 1534 650 C 1577.54 908.224 t 90 r /Helvetica findfont 34.1889 sf 0 0 m (Events / \(10 MeV/c) show NC gr  1651 735 m -17 X s 1642 748 m -8 X s 1642 761 m -8 X s 1642 773 m -8 X s 1642 786 m -8 X s 1651 798 m -17 X s 1642 811 m -8 X s
 1642 824 m -8 X s 1642 836 m -8 X s 1642 849 m -8 X s 1651 861 m -17 X s 1642 874 m -8 X s 1642 887 m -8 X s 1642 899 m -8 X s 1642 912 m -8 X s 1651 924 m -17 X s 1642 937 m -8 X s 1642 950 m -8 X s 1642 962 m -8 X s 1642 975 m -8 X s 1651 987 m
 -17 X s 1642 1000 m -8 X s 1642 1013 m -8 X s 1642 1025 m -8 X s 1642 1038 m -8 X s 1651 1050 m -17 X s 1642 1063 m -8 X s 1642 1075 m -8 X s 1642 1088 m -8 X s 1642 1101 m -8 X s 1651 1113 m -17 X s 1642 1126 m -8 X s 1642 1138 m -8 X s 1642 1151 m
 -8 X s 1642 1164 m -8 X s 1651 1176 m -17 X s 1651 1176 m -17 X s 1642 1189 m -8 X s 1642 1201 m -8 X s 1642 1214 m -8 X s
 gsave  711 611 1534 650 C 1613.57 724.304 t 0 r /Helvetica findfont 28.4907 sf 0 0 m (0) show NC gr 
 gsave  711 611 1534 650 C 1613.57 788.771 t 0 r /Helvetica findfont 28.4907 sf 0 0 m (5) show NC gr 
 gsave  711 611 1534 650 C 1598.4 851.342 t 0 r /Helvetica findfont 28.4907 sf 0 0 m (10) show NC gr 
 gsave  711 611 1534 650 C 1596.5 913.913 t 0 r /Helvetica findfont 28.4907 sf 0 0 m (15) show NC gr 
 gsave  711 611 1534 650 C 1598.4 976.483 t 0 r /Helvetica findfont 28.4907 sf 0 0 m (20) show NC gr 
 gsave  711 611 1534 650 C 1596.5 1039.05 t 0 r /Helvetica findfont 28.4907 sf 0 0 m (25) show NC gr 
 gsave  711 611 1534 650 C 1598.4 1103.52 t 0 r /Helvetica findfont 28.4907 sf 0 0 m (30) show NC gr 
 gsave  711 611 1534 650 C 1596.5 1166.09 t 0 r /Helvetica findfont 28.4907 sf 0 0 m (35) show NC gr  2210 735 m 484 Y s 2193 735 m 17 X s 2201 748 m 9 X s 2201 761 m 9 X s 2201 773 m 9 X s 2201 786 m 9 X s 2193 798 m 17 X s 2201 811 m 9 X s 2201 824
 m 9 X s 2201 836 m 9 X s 2201 849 m 9 X s 2193 861 m 17 X s 2201 874 m 9 X s 2201 887 m 9 X s 2201 899 m 9 X s 2201 912 m 9 X s 2193 924 m 17 X s 2201 937 m 9 X s 2201 950 m 9 X s 2201 962 m 9 X s 2201 975 m 9 X s 2193 987 m 17 X s 2201 1000 m 9 X s
 2201 1013 m 9 X s 2201 1025 m 9 X s 2201 1038 m 9 X s 2193 1050 m 17 X s 2201 1063 m 9 X s 2201 1075 m 9 X s 2201 1088 m 9 X s 2201 1101 m 9 X s 2193 1113 m 17 X s 2201 1126 m 9 X s 2201 1138 m 9 X s 2201 1151 m 9 X s 2201 1164 m 9 X s 2193 1176 m
 17 X s 2193 1176 m 17 X s 2201 1189 m 9 X s 2201 1201 m 9 X s 2201 1214 m 9 X s 1644 950 m -10 X s 1634 946 m 7 Y s 1644 950 m 10 X s 1654 946 m 7 Y s 1644 950 m 65 Y s 1640 1015 m 8 X s 1644 950 m -52 Y s 1640 898 m 8 X s 1664 1013 m -10 X s 1654
 1009 m 7 Y s 1664 1013 m 10 X s 1674 1009 m 7 Y s 1664 1013 m 72 Y s 1660 1085 m 8 X s 1664 1013 m -59 Y s 1660 954 m 8 X s 1684 1063 m -10 X s 1674 1059 m 8 Y s 1684 1063 m 10 X s 1694 1059 m 8 Y s 1684 1063 m 78 Y s 1680 1141 m 7 X s 1684 1063 m
 -64 Y s 1680 999 m 7 X s 1703 1000 m -9 X s 1694 996 m 8 Y s 1703 1000 m 10 X s 1713 996 m 8 Y s 1703 1000 m 71 Y s 1700 1071 m 7 X s 1703 1000 m -57 Y s 1700 943 m 7 X s 1723 1063 m -10 X s 1713 1059 m 8 Y s 1723 1063 m 10 X s 1733 1059 m 8 Y s
 1723 1063 m 78 Y s 1719 1141 m 8 X s 1723 1063 m -64 Y s 1719 999 m 8 X s 1743 975 m -10 X s 1733 971 m 8 Y s 1743 975 m 10 X s 1753 971 m 8 Y s 1743 975 m 68 Y s 1739 1043 m 8 X s 1743 975 m -55 Y s 1739 920 m 8 X s 1763 1088 m -10 X s 1753 1084 m
 8 Y s 1763 1088 m 10 X s 1773 1084 m 8 Y s 1763 1088 m 80 Y s 1759 1168 m 8 X s 1763 1088 m -66 Y s 1759 1022 m 8 X s 1783 950 m -10 X s 1773 946 m 7 Y s 1783 950 m 10 X s 1793 946 m 7 Y s 1783 950 m 65 Y s 1779 1015 m 8 X s 1783 950 m -52 Y s 1779
 898 m 8 X s 1803 1013 m -10 X s 1793 1009 m 7 Y s 1803 1013 m 10 X s 1813 1009 m 7 Y s 1803 1013 m 72 Y s 1799 1085 m 7 X s 1803 1013 m -59 Y s 1799 954 m 7 X s 1823 1000 m -10 X s 1813 996 m 8 Y s 1823 1000 m 9 X s 1832 996 m 8 Y s 1823 1000 m 71 Y
 s 1819 1071 m 7 X s 1823 1000 m -57 Y s 1819 943 m 7 X s 1842 975 m -10 X s 1832 971 m 8 Y s 1842 975 m 10 X s 1852 971 m 8 Y s 1842 975 m 68 Y s 1839 1043 m 7 X s 1842 975 m -55 Y s 1839 920 m 7 X s 1862 1113 m -10 X s 1852 1109 m 8 Y s 1862 1113 m
 10 X s 1872 1109 m 8 Y s 1862 1113 m 83 Y s 1858 1196 m 8 X s 1862 1113 m -68 Y s 1858 1045 m 8 X s 1882 1013 m -10 X s 1872 1009 m 7 Y s 1882 1013 m 10 X s 1892 1009 m 7 Y s 1882 1013 m 72 Y s 1878 1085 m 8 X s 1882 1013 m -59 Y s 1878 954 m 8 X s
 1902 1025 m -10 X s 1892 1021 m 8 Y s 1902 1025 m 10 X s 1912 1021 m 8 Y s 1902 1025 m 74 Y s 1898 1099 m 8 X s 1902 1025 m -60 Y s 1898 965 m 8 X s 1922 1013 m -10 X s 1912 1009 m 7 Y s 1922 1013 m 10 X s 1932 1009 m 7 Y s 1922 1013 m 72 Y s 1918
 1085 m 8 X s 1922 1013 m -59 Y s 1918 954 m 8 X s 1942 1038 m -10 X s 1932 1034 m 7 Y s 1942 1038 m 10 X s 1952 1034 m 7 Y s 1942 1038 m 75 Y s 1938 1113 m 7 X s 1942 1038 m -62 Y s 1938 976 m 7 X s 1961 1013 m -9 X s 1952 1009 m 7 Y s 1961 1013 m
 10 X s 1971 1009 m 7 Y s 1961 1013 m 72 Y s 1958 1085 m 7 X s 1961 1013 m -59 Y s 1958 954 m 7 X s 1981 987 m -10 X s 1971 984 m 7 Y s 1981 987 m 10 X s 1991 984 m 7 Y s 1981 987 m 70 Y s 1977 1057 m 8 X s 1981 987 m -56 Y s 1977 931 m 8 X s 2001
 887 m -10 X s 1991 883 m 7 Y s 2001 887 m 10 X s 2011 883 m 7 Y s 2001 887 m 57 Y s 1997 944 m 8 X s 2001 887 m -43 Y s 1997 844 m 8 X s 2021 962 m -10 X s 2011 958 m 8 Y s 2021 962 m 10 X s 2031 958 m 8 Y s 2021 962 m 67 Y s 2017 1029 m 8 X s 2021
 962 m -53 Y s 2017 909 m 8 X s 2041 1050 m -10 X s 2031 1047 m 7 Y s 2041 1050 m 10 X s 2051 1047 m 7 Y s 2041 1050 m 77 Y s 2037 1127 m 8 X s 2041 1050 m -62 Y s 2037 988 m 8 X s 2061 937 m -10 X s 2051 933 m 8 Y s 2061 937 m 10 X s 2071 933 m 8 Y
 s 2061 937 m 64 Y s 2057 1001 m 7 X s 2061 937 m -50 Y s 2057 887 m 7 X s 2081 975 m -10 X s 2071 971 m 8 Y s 2081 975 m 9 X s 2090 971 m 8 Y s 2081 975 m 68 Y s 2077 1043 m 7 X s 2081 975 m -55 Y s 2077 920 m 7 X s 2100 1063 m -10 X s 2090 1059 m 8
 Y s 2100 1063 m 10 X s 2110 1059 m 8 Y s 2100 1063 m 78 Y s 2097 1141 m 7 X s 2100 1063 m -64 Y s 2097 999 m 7 X s 2120 987 m -10 X s 2110 984 m 7 Y s 2120 987 m 10 X s 2130 984 m 7 Y s 2120 987 m 70 Y s 2116 1057 m 8 X s 2120 987 m -56 Y s 2116 931
 m 8 X s 2140 924 m -10 X s 2130 921 m 7 Y s 2140 924 m 10 X s 2150 921 m 7 Y s 2140 924 m 63 Y s 2136 987 m 8 X s 2140 924 m -48 Y s 2136 876 m 8 X s 2160 899 m -10 X s 2150 895 m 8 Y s 2160 899 m 10 X s 2170 895 m 8 Y s 2160 899 m 59 Y s 2156 958 m
 8 X s 2160 899 m -45 Y s 2156 854 m 8 X s 2180 1063 m -10 X s 2170 1059 m 8 Y s 2180 1063 m 10 X s 2190 1059 m 8 Y s 2180 1063 m 78 Y s 2176 1141 m 8 X s 2180 1063 m -64 Y s 2176 999 m 8 X s 2200 1013 m -10 X s 2190 1009 m 7 Y s 2200 1013 m 10 X s
 2210 1009 m 7 Y s 2200 1013 m 72 Y s 2196 1085 m 7 X s 2200 1013 m -59 Y s 2196 954 m 7 X s 3 lw /w 16 def /w2 {w 2 div} def /w3 {w 3 div} def 1644 950 1664 1013 1684 1063 1703 1000 1723 1063 1743 975 1763 1088 1783 950 1803 1013 1823 1000 1842 975
 1862 1113 1882 1013 1902 1025 1922 1013 1942 1038 1961 1013 1981 987 2001 887 2021 962 2041 1050 2061 937 2081 975 2100 1063 2120 987 2140 924 2160 899 2180 1063 2200 1013 29 { m20} R 6 lw 0 1 0 c[ 4 8] 0 sd 9 lw black 0 1 0 c 1634 1017 m cl s 1634
 1017 m 20 -1 d 20 -2 d 20 -1 d 19 -2 d 20 -1 d 20 -2 d 20 -1 d 20 -2 d 20 -1 d 19 -1 d 20 -2 d 20 -1 d 20 -2 d 20 -1 d 20 -2 d 20 -1 d 19 -1 d 20 -2 d 20 -1 d 20 -2 d 20 -1 d 20 -1 d 19 -2 d 20 -1 d 20 -1 d 20 -2 d 20 -1 d 20 -1 d 20 -2 d s 0 0 1 c[
 12 12] 0 sd black 0 0 1 c 1634 736 m cl s 1634 736 m 179 X 10 1 d 19 X 5 1 d 5 X 3 1 d 2 X 3 1 d 2 X 3 1 d 2 1 d 3 1 d 2 1 d 3 2 d 2 1 d 3 2 d 2 1 d 3 2 d 2 2 d 5 4 d 5 4 d 5 4 d 2 1 d 3 2 d 2 1 d 3 2 d 2 1 d 3 1 d 2 X 3 1 d 2 X 3 -1 d 2 X 3 -1 d 2
 -1 d 3 -1 d 2 -1 d 3 -2 d 2 -1 d 3 -2 d 5 -4 d 4 -4 d 5 -4 d 3 -2 d 2 -1 d 3 -2 d 2 -1 d 3 -2 d 2 -1 d 3 -1 d 2 -1 d 3 -1 d 2 -1 d 3 -1 d 2 X 3 -1 d 2 X 5 -1 d 5 -1 d 25 X 20 -1 d 159 X s 1 0 0 c[  ] 0 sd black 1 0 0 c 1634 1018 m cl s 1634 1018 m
 20 -2 d 20 -1 d 20 -2 d 19 -1 d 20 -2 d 20 -1 d 20 -1 d 20 -2 d 20 -1 d 19 -1 d 25 X 3 1 d 2 X 5 2 d 3 1 d 2 1 d 3 1 d 2 1 d 5 3 d 5 3 d 5 4 d 5 3 d 5 4 d 2 1 d 3 2 d 2 1 d 3 1 d 2 1 d 3 1 d 10 X 2 -1 d 3 -1 d 2 -1 d 3 -1 d 2 -2 d 3 -2 d 2 -1 d 3 -2
 d 5 -5 d 9 -8 d 5 -4 d 5 -3 d 3 -2 d 2 -1 d 3 -2 d 2 -1 d 5 -2 d 5 -2 d 5 -1 d 5 -1 d 5 -1 d 5 -1 d 10 -1 d 10 -1 d 20 -1 d 20 -1 d 19 -2 d 20 -1 d 20 -1 d 20 -2 d 20 -1 d 20 -1 d 20 -2 d s black 6 lw 1634 735 m 576 X s 1753 750 m -15 Y s 1793 743 m
 -8 Y s 1832 743 m -8 Y s 1872 743 m -8 Y s 1912 743 m -8 Y s 1952 750 m -15 Y s 1991 743 m -8 Y s 2031 743 m -8 Y s 2071 743 m -8 Y s 2110 743 m -8 Y s 2150 750 m -15 Y s 1753 750 m -15 Y s 1713 743 m -8 Y s 1674 743 m -8 Y s 1634 743 m -8 Y s 2150
 750 m -15 Y s 2190 743 m -8 Y s 1634 1219 m 576 X s 1753 1204 m 15 Y s 1793 1211 m 8 Y s 1832 1211 m 8 Y s 1872 1211 m 8 Y s 1912 1211 m 8 Y s 1952 1204 m 15 Y s 1991 1211 m 8 Y s 2031 1211 m 8 Y s 2071 1211 m 8 Y s 2110 1211 m 8 Y s 2150 1204 m 15
 Y s 1753 1204 m 15 Y s 1713 1211 m 8 Y s 1674 1211 m 8 Y s 1634 1211 m 8 Y s 2150 1204 m 15 Y s 2190 1211 m 8 Y s 1634 735 m 484 Y s 1651 735 m -17 X s 1642 748 m -8 X s 1642 761 m -8 X s 1642 773 m -8 X s 1642 786 m -8 X s 1651 798 m -17 X s 1642
 811 m -8 X s 1642 824 m -8 X s 1642 836 m -8 X s 1642 849 m -8 X s 1651 861 m -17 X s 1642 874 m -8 X s 1642 887 m -8 X s 1642 899 m -8 X s 1642 912 m -8 X s 1651 924 m -17 X s 1642 937 m -8 X s 1642 950 m -8 X s 1642 962 m -8 X s 1642 975 m -8 X s
 1651 987 m -17 X s 1642 1000 m -8 X s 1642 1013 m -8 X s 1642 1025 m -8 X s 1642 1038 m -8 X s 1651 1050 m -17 X s 1642 1063 m -8 X s 1642 1075 m -8 X s 1642 1088 m -8 X s 1642 1101 m -8 X s 1651 1113 m -17 X s 1642 1126 m -8 X s 1642 1138 m -8 X s
 1642 1151 m -8 X s 1642 1164 m -8 X s 1651 1176 m -17 X s 1651 1176 m -17 X s 1642 1189 m -8 X s 1642 1201 m -8 X s 1642 1214 m -8 X s 2210 735 m 484 Y s 2193 735 m 17 X s 2201 748 m 9 X s 2201 761 m 9 X s 2201 773 m 9 X s 2201 786 m 9 X s 2193 798
 m 17 X s 2201 811 m 9 X s 2201 824 m 9 X s 2201 836 m 9 X s 2201 849 m 9 X s 2193 861 m 17 X s 2201 874 m 9 X s 2201 887 m 9 X s 2201 899 m 9 X s 2201 912 m 9 X s 2193 924 m 17 X s 2201 937 m 9 X s 2201 950 m 9 X s 2201 962 m 9 X s 2201 975 m 9 X s
 2193 987 m 17 X s 2201 1000 m 9 X s 2201 1013 m 9 X s 2201 1025 m 9 X s 2201 1038 m 9 X s 2193 1050 m 17 X s 2201 1063 m 9 X s 2201 1075 m 9 X s 2201 1088 m 9 X s 2201 1101 m 9 X s 2193 1113 m 17 X s 2201 1126 m 9 X s 2201 1138 m 9 X s 2201 1151 m 9
 X s 2201 1164 m 9 X s 2193 1176 m 17 X s 2193 1176 m 17 X s 2201 1189 m 9 X s 2201 1201 m 9 X s 2201 1214 m 9 X s
 gsave  711 611 1534 650 C 1825.93 788.771 t 0 r /Helvetica findfont 22.7926 sf 0 0 m ( = 5 TeV) show NC gr 
 gsave  711 611 1534 650 C 1805.07 781.187 t 0 r /Helvetica findfont 15.1951 sf 0 0 m (NN) show NC gr 
 gsave  711 611 1534 650 C 1793.7 788.771 t 0 r /Helvetica findfont 22.7926 sf 0 0 m (s) show NC gr  1784 802 m 4 -21 d s 0 lw 1788 781 m 4 29 d s 1792 810 m 34 X s
 gsave  711 611 1534 650 C 1676.14 788.771 t 0 r /Helvetica findfont 22.7926 sf 0 0 m (pPb\(Bwd\) ) show NC gr 
 gsave  711 611 1534 650 C 1676.14 824.797 t 0 r /Helvetica findfont 28.4907 sf 0 0 m (Preliminary) show NC gr 
 gsave  711 611 1534 650 C 1676.14 855.134 t 0 r /Helvetica findfont 28.4907 sf 0 0 m (LHCb) show NC gr 
 gsave  711 611 1534 650 C 2119.82 834.277 t 0 r /Helvetica findfont 28.4907 sf 0 0 m (3.5) show NC gr 
 gsave  711 611 1534 650 C 2102.76 834.277 t 0 r /Symbol findfont 28.4907 sf 0 0 m (-) show NC gr 
 gsave  711 611 1534 650 C 1983.3 834.277 t 0 r /Helvetica findfont 28.4907 sf 0 0 m (4.0 < y < ) show NC gr 
 gsave  711 611 1534 650 C 1966.24 834.277 t 0 r /Symbol findfont 28.4907 sf 0 0 m (-) show NC gr 
 gsave  711 611 1534 650 C 2042.08 803.94 t 0 r /Helvetica findfont 28.4907 sf 0 0 m ( <14 GeV/c) show NC gr 
 gsave  711 611 1534 650 C 2030.71 788.771 t 0 r /Helvetica findfont 18.9938 sf 0 0 m (T) show NC gr 
 gsave  711 611 1534 650 C 1966.24 803.94 t 0 r /Helvetica findfont 28.4907 sf 0 0 m ( 0< p) show NC gr  6 lw 1 1 1 c 710 611 23 13 bf black 1 1 1 c 576 484 122 98 bf black 576 484 122 98 bl 1 1 1 c 576 484 122 98 bf black 576 484 122 98 bl 122 98 m
 576 X s
 gsave  710 611 23 13 C 688.279 28.4413 t 0 r /Helvetica findfont 34.1889 sf 0 0 m (]) show NC gr 
 gsave  710 611 23 13 C 675.006 43.6099 t 0 r /Helvetica findfont 22.7926 sf 0 0 m (2) show NC gr 
 gsave  710 611 23 13 C 559.345 28.4413 t 0 r /Helvetica findfont 34.1889 sf 0 0 m ( [MeV/c) show NC gr 
 gsave  710 611 23 13 C 546.072 20.8569 t 0 r /Symbol findfont 22.7926 sf 0 0 m (m) show NC gr 
 gsave  710 611 23 13 C 532.8 20.8569 t 0 r /Symbol findfont 22.7926 sf 0 0 m (m) show NC gr 
 gsave  710 611 23 13 C 506.254 28.4413 t 0 r /Helvetica findfont 34.1889 sf 0 0 m (m) show NC gr  241 113 m -15 Y s 281 106 m -8 Y s 321 106 m -8 Y s 360 106 m -8 Y s 400 106 m -8 Y s 440 113 m -15 Y s 479 106 m -8 Y s 519 106 m -8 Y s 559 106 m -8
 Y s 598 106 m -8 Y s 638 113 m -15 Y s 241 113 m -15 Y s 202 106 m -8 Y s 162 106 m -8 Y s 122 106 m -8 Y s 638 113 m -15 Y s 678 106 m -8 Y s
 gsave  710 611 23 13 C 208.569 66.3629 t 0 r /Helvetica findfont 28.4907 sf 0 0 m (3600) show NC gr 
 gsave  710 611 23 13 C 405.762 66.3629 t 0 r /Helvetica findfont 28.4907 sf 0 0 m (3700) show NC gr 
 gsave  710 611 23 13 C 604.851 66.3629 t 0 r /Helvetica findfont 28.4907 sf 0 0 m (3800) show NC gr  122 582 m 576 X s 241 567 m 15 Y s 281 574 m 8 Y s 321 574 m 8 Y s 360 574 m 8 Y s 400 574 m 8 Y s 440 567 m 15 Y s 479 574 m 8 Y s 519 574 m 8 Y s
 559 574 m 8 Y s 598 574 m 8 Y s 638 567 m 15 Y s 241 567 m 15 Y s 202 574 m 8 Y s 162 574 m 8 Y s 122 574 m 8 Y s 638 567 m 15 Y s 678 574 m 8 Y s 122 98 m 484 Y s
 gsave  710 611 23 13 C 66.3629 572.617 t 90 r /Helvetica findfont 34.1889 sf 0 0 m (\)) show NC gr 
 gsave  710 611 23 13 C 51.1943 559.345 t 90 r /Helvetica findfont 22.7926 sf 0 0 m (2) show NC gr 
 gsave  710 611 23 13 C 66.3629 271.14 t 90 r /Helvetica findfont 34.1889 sf 0 0 m (Events / \(10 MeV/c) show NC gr  139 98 m -17 X s 131 108 m -9 X s 131 118 m -9 X s 131 128 m -9 X s 139 138 m -17 X s 131 148 m -9 X s 131 158 m -9 X s 131 167 m -9
 X s 139 177 m -17 X s 131 187 m -9 X s 131 197 m -9 X s 131 207 m -9 X s 139 217 m -17 X s 131 227 m -9 X s 131 236 m -9 X s 131 246 m -9 X s 139 256 m -17 X s 131 266 m -9 X s 131 276 m -9 X s 131 286 m -9 X s 139 296 m -17 X s 131 306 m -9 X s 131
 315 m -9 X s 131 325 m -9 X s 139 335 m -17 X s 131 345 m -9 X s 131 355 m -9 X s 131 365 m -9 X s 139 375 m -17 X s 131 384 m -9 X s 131 394 m -9 X s 131 404 m -9 X s 139 414 m -17 X s 131 424 m -9 X s 131 434 m -9 X s 131 444 m -9 X s 139 454 m
 -17 X s 131 463 m -9 X s 131 473 m -9 X s 131 483 m -9 X s 139 493 m -17 X s 131 503 m -9 X s 131 513 m -9 X s 131 523 m -9 X s 139 532 m -17 X s 131 542 m -9 X s 131 552 m -9 X s 131 562 m -9 X s 139 572 m -17 X s 139 572 m -17 X s
 gsave  710 611 23 13 C 102.389 87.2199 t 0 r /Helvetica findfont 28.4907 sf 0 0 m (0) show NC gr 
 gsave  710 611 23 13 C 102.389 127.038 t 0 r /Helvetica findfont 28.4907 sf 0 0 m (2) show NC gr 
 gsave  710 611 23 13 C 102.389 166.855 t 0 r /Helvetica findfont 28.4907 sf 0 0 m (4) show NC gr 
 gsave  710 611 23 13 C 102.389 206.673 t 0 r /Helvetica findfont 28.4907 sf 0 0 m (6) show NC gr 
 gsave  710 611 23 13 C 102.389 246.491 t 0 r /Helvetica findfont 28.4907 sf 0 0 m (8) show NC gr 
 gsave  710 611 23 13 C 87.2199 284.413 t 0 r /Helvetica findfont 28.4907 sf 0 0 m (10) show NC gr 
 gsave  710 611 23 13 C 85.3238 324.23 t 0 r /Helvetica findfont 28.4907 sf 0 0 m (12) show NC gr 
 gsave  710 611 23 13 C 85.3238 364.048 t 0 r /Helvetica findfont 28.4907 sf 0 0 m (14) show NC gr 
 gsave  710 611 23 13 C 85.3238 403.866 t 0 r /Helvetica findfont 28.4907 sf 0 0 m (16) show NC gr 
 gsave  710 611 23 13 C 85.3238 443.684 t 0 r /Helvetica findfont 28.4907 sf 0 0 m (18) show NC gr 
 gsave  710 611 23 13 C 87.2199 483.501 t 0 r /Helvetica findfont 28.4907 sf 0 0 m (20) show NC gr 
 gsave  710 611 23 13 C 85.3238 521.423 t 0 r /Helvetica findfont 28.4907 sf 0 0 m (22) show NC gr 
 gsave  710 611 23 13 C 85.3238 561.241 t 0 r /Helvetica findfont 28.4907 sf 0 0 m (24) show NC gr  698 98 m 484 Y s 681 98 m 17 X s 689 108 m 9 X s 689 118 m 9 X s 689 128 m 9 X s 681 138 m 17 X s 689 148 m 9 X s 689 158 m 9 X s 689 167 m 9 X s 681
 177 m 17 X s 689 187 m 9 X s 689 197 m 9 X s 689 207 m 9 X s 681 217 m 17 X s 689 227 m 9 X s 689 236 m 9 X s 689 246 m 9 X s 681 256 m 17 X s 689 266 m 9 X s 689 276 m 9 X s 689 286 m 9 X s 681 296 m 17 X s 689 306 m 9 X s 689 315 m 9 X s 689 325 m
 9 X s 681 335 m 17 X s 689 345 m 9 X s 689 355 m 9 X s 689 365 m 9 X s 681 375 m 17 X s 689 384 m 9 X s 689 394 m 9 X s 689 404 m 9 X s 681 414 m 17 X s 689 424 m 9 X s 689 434 m 9 X s 689 444 m 9 X s 681 454 m 17 X s 689 463 m 9 X s 689 473 m 9 X s
 689 483 m 9 X s 681 493 m 17 X s 689 503 m 9 X s 689 513 m 9 X s 689 523 m 9 X s 681 532 m 17 X s 689 542 m 9 X s 689 552 m 9 X s 689 562 m 9 X s 681 572 m 17 X s 681 572 m 17 X s 132 296 m -10 X s 122 292 m 7 Y s 132 296 m 10 X s 142 292 m 7 Y s
 132 296 m 84 Y s 128 380 m 8 X s 132 296 m -62 Y s 128 234 m 8 X s 152 335 m -10 X s 142 331 m 8 Y s 152 335 m 10 X s 162 331 m 8 Y s 152 335 m 90 Y s 148 425 m 8 X s 152 335 m -67 Y s 148 268 m 8 X s 172 276 m -10 X s 162 272 m 8 Y s 172 276 m 10 X
 s 182 272 m 8 Y s 172 276 m 81 Y s 168 357 m 8 X s 172 276 m -58 Y s 168 218 m 8 X s 192 315 m -10 X s 182 312 m 7 Y s 192 315 m 10 X s 202 312 m 7 Y s 192 315 m 88 Y s 188 403 m 7 X s 192 315 m -64 Y s 188 251 m 7 X s 211 315 m -9 X s 202 312 m 7 Y
 s 211 315 m 10 X s 221 312 m 7 Y s 211 315 m 88 Y s 208 403 m 7 X s 211 315 m -64 Y s 208 251 m 7 X s 231 256 m -10 X s 221 252 m 8 Y s 231 256 m 10 X s 241 252 m 8 Y s 231 256 m 78 Y s 228 334 m 7 X s 231 256 m -54 Y s 228 202 m 7 X s 251 217 m -10
 X s 241 213 m 8 Y s 251 217 m 10 X s 261 213 m 8 Y s 251 217 m 70 Y s 247 287 m 8 X s 251 217 m -47 Y s 247 170 m 8 X s 271 355 m -10 X s 261 351 m 8 Y s 271 355 m 10 X s 281 351 m 8 Y s 271 355 m 93 Y s 267 448 m 8 X s 271 355 m -70 Y s 267 285 m 8
 X s 291 434 m -10 X s 281 430 m 8 Y s 291 434 m 10 X s 301 430 m 8 Y s 291 434 m 102 Y s 287 536 m 8 X s 291 434 m -81 Y s 287 353 m 8 X s 311 315 m -10 X s 301 312 m 7 Y s 311 315 m 10 X s 321 312 m 7 Y s 311 315 m 88 Y s 307 403 m 7 X s 311 315 m
 -64 Y s 307 251 m 7 X s 331 276 m -10 X s 321 272 m 8 Y s 331 276 m 9 X s 340 272 m 8 Y s 331 276 m 81 Y s 327 357 m 7 X s 331 276 m -58 Y s 327 218 m 7 X s 350 236 m -10 X s 340 233 m 7 Y s 350 236 m 10 X s 360 233 m 7 Y s 350 236 m 75 Y s 347 311
 m 7 X s 350 236 m -50 Y s 347 186 m 7 X s 370 236 m -10 X s 360 233 m 7 Y s 370 236 m 10 X s 380 233 m 7 Y s 370 236 m 75 Y s 366 311 m 8 X s 370 236 m -50 Y s 366 186 m 8 X s 390 296 m -10 X s 380 292 m 7 Y s 390 296 m 10 X s 400 292 m 7 Y s 390
 296 m 84 Y s 386 380 m 8 X s 390 296 m -62 Y s 386 234 m 8 X s 410 454 m -10 X s 400 450 m 7 Y s 410 454 m 10 X s 420 450 m 7 Y s 410 454 m 105 Y s 406 559 m 8 X s 410 454 m -83 Y s 406 371 m 8 X s 430 355 m -10 X s 420 351 m 8 Y s 430 355 m 10 X s
 440 351 m 8 Y s 430 355 m 93 Y s 426 448 m 8 X s 430 355 m -70 Y s 426 285 m 8 X s 450 315 m -10 X s 440 312 m 7 Y s 450 315 m 10 X s 460 312 m 7 Y s 450 315 m 88 Y s 446 403 m 7 X s 450 315 m -64 Y s 446 251 m 7 X s 469 375 m -9 X s 460 371 m 7 Y s
 469 375 m 10 X s 479 371 m 7 Y s 469 375 m 95 Y s 466 470 m 7 X s 469 375 m -73 Y s 466 302 m 7 X s 489 315 m -10 X s 479 312 m 7 Y s 489 315 m 10 X s 499 312 m 7 Y s 489 315 m 88 Y s 486 403 m 7 X s 489 315 m -64 Y s 486 251 m 7 X s 509 177 m -10 X
 s 499 173 m 8 Y s 509 177 m 10 X s 519 173 m 8 Y s 509 177 m 63 Y s 505 240 m 8 X s 509 177 m -37 Y s 505 140 m 8 X s 529 236 m -10 X s 519 233 m 7 Y s 529 236 m 10 X s 539 233 m 7 Y s 529 236 m 75 Y s 525 311 m 8 X s 529 236 m -50 Y s 525 186 m 8 X
 s 549 276 m -10 X s 539 272 m 8 Y s 549 276 m 10 X s 559 272 m 8 Y s 549 276 m 81 Y s 545 357 m 8 X s 549 276 m -58 Y s 545 218 m 8 X s 569 414 m -10 X s 559 410 m 8 Y s 569 414 m 10 X s 579 410 m 8 Y s 569 414 m 100 Y s 565 514 m 7 X s 569 414 m
 -78 Y s 565 336 m 7 X s 589 177 m -10 X s 579 173 m 8 Y s 589 177 m 9 X s 598 173 m 8 Y s 589 177 m 63 Y s 585 240 m 7 X s 589 177 m -37 Y s 585 140 m 7 X s 608 236 m -10 X s 598 233 m 7 Y s 608 236 m 10 X s 618 233 m 7 Y s 608 236 m 75 Y s 605 311
 m 7 X s 608 236 m -50 Y s 605 186 m 7 X s 628 236 m -10 X s 618 233 m 7 Y s 628 236 m 10 X s 638 233 m 7 Y s 628 236 m 75 Y s 624 311 m 8 X s 628 236 m -50 Y s 624 186 m 8 X s 648 177 m -10 X s 638 173 m 8 Y s 648 177 m 10 X s 658 173 m 8 Y s 648
 177 m 63 Y s 644 240 m 8 X s 648 177 m -37 Y s 644 140 m 8 X s 668 276 m -10 X s 658 272 m 8 Y s 668 276 m 10 X s 678 272 m 8 Y s 668 276 m 81 Y s 664 357 m 8 X s 668 276 m -58 Y s 664 218 m 8 X s 688 355 m -10 X s 678 351 m 8 Y s 688 355 m 10 X s
 698 351 m 8 Y s 688 355 m 93 Y s 684 448 m 8 X s 688 355 m -70 Y s 684 285 m 8 X s 3 lw /w 15 def /w2 {w 2 div} def /w3 {w 3 div} def 132 296 152 335 172 276 192 315 211 315 231 256 251 217 271 355 291 434 311 315 331 276 350 236 370 236 390 296 410
 454 430 355 450 315 469 375 489 315 509 177 529 236 549 276 569 414 589 177 608 236 628 236 648 177 668 276 688 355 29 { m20} R 6 lw 0 1 0 c[ 4 8] 0 sd 9 lw black 0 1 0 c 122 307 m cl s 122 307 m 20 -2 d 20 -2 d 20 -2 d 20 -2 d 19 -1 d 20 -2 d 20 -2
 d 20 -2 d 20 -2 d 20 -1 d 19 -2 d 20 -2 d 20 -1 d 20 -2 d 20 -2 d 20 -1 d 20 -2 d 19 -2 d 20 -1 d 20 -2 d 20 -2 d 20 -1 d 20 -2 d 19 -1 d 20 -2 d 20 -1 d 20 -2 d 20 -1 d 20 -2 d s 0 0 1 c[ 12 12] 0 sd black 0 0 1 c 122 99 m cl s 122 99 m 99 X 20 1 d
 40 X 20 1 d 10 1 d 10 1 d 5 1 d 5 1 d 2 1 d 3 1 d 4 3 d 3 1 d 2 2 d 3 2 d 2 2 d 3 2 d 2 3 d 5 5 d 5 6 d 5 6 d 10 12 d 5 7 d 3 2 d 2 3 d 3 3 d 2 2 d 3 2 d 2 2 d 2 1 d 3 2 d 2 X 3 1 d 5 X 2 -1 d 3 -1 d 2 -1 d 3 -2 d 2 -2 d 3 -2 d 2 -2 d 3 -3 d 5 -6 d
 5 -6 d 5 -6 d 5 -6 d 5 -7 d 5 -5 d 4 -5 d 3 -3 d 2 -2 d 3 -2 d 2 -2 d 3 -1 d 2 -2 d 5 -2 d 5 -3 d 5 -1 d 5 -1 d 5 -1 d 5 -1 d 5 -1 d 20 X 20 -1 d 139 X s 1 0 0 c[  ] 0 sd black 1 0 0 c 122 308 m cl s 122 308 m 20 -2 d 20 -2 d 20 -2 d 20 -2 d 19 -1 d
 20 -2 d 20 -1 d 20 -2 d 20 -1 d 20 X 5 1 d 5 X 2 1 d 3 1 d 4 2 d 5 3 d 5 4 d 5 4 d 5 5 d 5 5 d 5 6 d 10 12 d 5 5 d 5 6 d 3 2 d 2 2 d 3 2 d 2 1 d 2 2 d 3 1 d 10 X 2 -1 d 3 -1 d 2 -2 d 3 -1 d 2 -2 d 3 -3 d 2 -2 d 3 -3 d 5 -6 d 20 -27 d 5 -6 d 4 -6 d 5
 -4 d 5 -5 d 5 -3 d 5 -3 d 5 -3 d 5 -2 d 5 -2 d 5 -1 d 5 -1 d 5 -1 d 10 -1 d 10 -1 d 20 -2 d 20 -2 d 19 -1 d 20 -2 d 20 -1 d 20 -2 d 20 -1 d 20 -2 d s black 6 lw 122 98 m 576 X s 241 113 m -15 Y s 281 106 m -8 Y s 321 106 m -8 Y s 360 106 m -8 Y s
 400 106 m -8 Y s 440 113 m -15 Y s 479 106 m -8 Y s 519 106 m -8 Y s 559 106 m -8 Y s 598 106 m -8 Y s 638 113 m -15 Y s 241 113 m -15 Y s 202 106 m -8 Y s 162 106 m -8 Y s 122 106 m -8 Y s 638 113 m -15 Y s 678 106 m -8 Y s 122 582 m 576 X s 241
 567 m 15 Y s 281 574 m 8 Y s 321 574 m 8 Y s 360 574 m 8 Y s 400 574 m 8 Y s 440 567 m 15 Y s 479 574 m 8 Y s 519 574 m 8 Y s 559 574 m 8 Y s 598 574 m 8 Y s 638 567 m 15 Y s 241 567 m 15 Y s 202 574 m 8 Y s 162 574 m 8 Y s 122 574 m 8 Y s 638 567 m
 15 Y s 678 574 m 8 Y s 122 98 m 484 Y s 139 98 m -17 X s 131 108 m -9 X s 131 118 m -9 X s 131 128 m -9 X s 139 138 m -17 X s 131 148 m -9 X s 131 158 m -9 X s 131 167 m -9 X s 139 177 m -17 X s 131 187 m -9 X s 131 197 m -9 X s 131 207 m -9 X s 139
 217 m -17 X s 131 227 m -9 X s 131 236 m -9 X s 131 246 m -9 X s 139 256 m -17 X s 131 266 m -9 X s 131 276 m -9 X s 131 286 m -9 X s 139 296 m -17 X s 131 306 m -9 X s 131 315 m -9 X s 131 325 m -9 X s 139 335 m -17 X s 131 345 m -9 X s 131 355 m
 -9 X s 131 365 m -9 X s 139 375 m -17 X s 131 384 m -9 X s 131 394 m -9 X s 131 404 m -9 X s 139 414 m -17 X s 131 424 m -9 X s 131 434 m -9 X s 131 444 m -9 X s 139 454 m -17 X s 131 463 m -9 X s 131 473 m -9 X s 131 483 m -9 X s 139 493 m -17 X s
 131 503 m -9 X s 131 513 m -9 X s 131 523 m -9 X s 139 532 m -17 X s 131 542 m -9 X s 131 552 m -9 X s 131 562 m -9 X s 139 572 m -17 X s 139 572 m -17 X s 698 98 m 484 Y s 681 98 m 17 X s 689 108 m 9 X s 689 118 m 9 X s 689 128 m 9 X s 681 138 m 17
 X s 689 148 m 9 X s 689 158 m 9 X s 689 167 m 9 X s 681 177 m 17 X s 689 187 m 9 X s 689 197 m 9 X s 689 207 m 9 X s 681 217 m 17 X s 689 227 m 9 X s 689 236 m 9 X s 689 246 m 9 X s 681 256 m 17 X s 689 266 m 9 X s 689 276 m 9 X s 689 286 m 9 X s
 681 296 m 17 X s 689 306 m 9 X s 689 315 m 9 X s 689 325 m 9 X s 681 335 m 17 X s 689 345 m 9 X s 689 355 m 9 X s 689 365 m 9 X s 681 375 m 17 X s 689 384 m 9 X s 689 394 m 9 X s 689 404 m 9 X s 681 414 m 17 X s 689 424 m 9 X s 689 434 m 9 X s 689
 444 m 9 X s 681 454 m 17 X s 689 463 m 9 X s 689 473 m 9 X s 689 483 m 9 X s 681 493 m 17 X s 689 503 m 9 X s 689 513 m 9 X s 689 523 m 9 X s 681 532 m 17 X s 689 542 m 9 X s 689 552 m 9 X s 689 562 m 9 X s 681 572 m 17 X s 681 572 m 17 X s
 gsave  710 611 23 13 C 312.854 426.619 t 0 r /Helvetica findfont 22.7926 sf 0 0 m ( = 5 TeV) show NC gr 
 gsave  710 611 23 13 C 291.997 419.035 t 0 r /Helvetica findfont 15.1951 sf 0 0 m (NN) show NC gr 
 gsave  710 611 23 13 C 280.62 426.619 t 0 r /Helvetica findfont 22.7926 sf 0 0 m (s) show NC gr  271 440 m 4 -21 d s 0 lw 275 419 m 4 28 d s 279 447 m 34 X s
 gsave  710 611 23 13 C 163.063 426.619 t 0 r /Helvetica findfont 22.7926 sf 0 0 m (pPb\(Bwd\) ) show NC gr 
 gsave  710 611 23 13 C 163.063 462.645 t 0 r /Helvetica findfont 28.4907 sf 0 0 m (Preliminary) show NC gr 
 gsave  710 611 23 13 C 163.063 492.982 t 0 r /Helvetica findfont 28.4907 sf 0 0 m (LHCb) show NC gr 
 gsave  710 611 23 13 C 608.643 472.125 t 0 r /Helvetica findfont 28.4907 sf 0 0 m (4.0) show NC gr 
 gsave  710 611 23 13 C 591.578 472.125 t 0 r /Symbol findfont 28.4907 sf 0 0 m (-) show NC gr 
 gsave  710 611 23 13 C 472.125 472.125 t 0 r /Helvetica findfont 28.4907 sf 0 0 m (4.5 < y < ) show NC gr 
 gsave  710 611 23 13 C 455.06 472.125 t 0 r /Symbol findfont 28.4907 sf 0 0 m (-) show NC gr 
 gsave  710 611 23 13 C 530.904 441.788 t 0 r /Helvetica findfont 28.4907 sf 0 0 m ( <14 GeV/c) show NC gr 
 gsave  710 611 23 13 C 519.527 426.619 t 0 r /Helvetica findfont 18.9938 sf 0 0 m (T) show NC gr 
 gsave  710 611 23 13 C 455.06 441.788 t 0 r /Helvetica findfont 28.4907 sf 0 0 m ( 0< p) show NC gr  6 lw 1 1 1 c 710 611 779 13 bf black 1 1 1 c 576 484 878 98 bf black 576 484 878 98 bl 1 1 1 c 576 484 878 98 bf black 576 484 878 98 bl 878 98 m
 576 X s
 gsave  710 611 779 13 C 1444.82 28.4413 t 0 r /Helvetica findfont 34.1889 sf 0 0 m (]) show NC gr 
 gsave  710 611 779 13 C 1431.54 43.6099 t 0 r /Helvetica findfont 22.7926 sf 0 0 m (2) show NC gr 
 gsave  710 611 779 13 C 1315.88 28.4413 t 0 r /Helvetica findfont 34.1889 sf 0 0 m ( [MeV/c) show NC gr 
 gsave  710 611 779 13 C 1302.61 20.8569 t 0 r /Symbol findfont 22.7926 sf 0 0 m (m) show NC gr 
 gsave  710 611 779 13 C 1289.34 20.8569 t 0 r /Symbol findfont 22.7926 sf 0 0 m (m) show NC gr 
 gsave  710 611 779 13 C 1262.79 28.4413 t 0 r /Helvetica findfont 34.1889 sf 0 0 m (m) show NC gr  997 113 m -15 Y s 1037 106 m -8 Y s 1077 106 m -8 Y s 1116 106 m -8 Y s 1156 106 m -8 Y s 1196 113 m -15 Y s 1235 106 m -8 Y s 1275 106 m -8 Y s 1315
 106 m -8 Y s 1354 106 m -8 Y s 1394 113 m -15 Y s 997 113 m -15 Y s 957 106 m -8 Y s 918 106 m -8 Y s 878 106 m -8 Y s 1394 113 m -15 Y s 1434 106 m -8 Y s
 gsave  710 611 779 13 C 963.211 66.3629 t 0 r /Helvetica findfont 28.4907 sf 0 0 m (3600) show NC gr 
 gsave  710 611 779 13 C 1162.3 66.3629 t 0 r /Helvetica findfont 28.4907 sf 0 0 m (3700) show NC gr 
 gsave  710 611 779 13 C 1361.39 66.3629 t 0 r /Helvetica findfont 28.4907 sf 0 0 m (3800) show NC gr  878 582 m 576 X s 997 567 m 15 Y s 1037 574 m 8 Y s 1077 574 m 8 Y s 1116 574 m 8 Y s 1156 574 m 8 Y s 1196 567 m 15 Y s 1235 574 m 8 Y s 1275 574
 m 8 Y s 1315 574 m 8 Y s 1354 574 m 8 Y s 1394 567 m 15 Y s 997 567 m 15 Y s 957 574 m 8 Y s 918 574 m 8 Y s 878 574 m 8 Y s 1394 567 m 15 Y s 1434 574 m 8 Y s 878 98 m 484 Y s
 gsave  710 611 779 13 C 822.9 572.617 t 90 r /Helvetica findfont 34.1889 sf 0 0 m (\)) show NC gr 
 gsave  710 611 779 13 C 807.732 559.345 t 90 r /Helvetica findfont 22.7926 sf 0 0 m (2) show NC gr 
 gsave  710 611 779 13 C 822.9 271.14 t 90 r /Helvetica findfont 34.1889 sf 0 0 m (Events / \(10 MeV/c) show NC gr  895 98 m -17 X s 886 109 m -8 X s 886 120 m -8 X s 886 131 m -8 X s 886 142 m -8 X s 895 153 m -17 X s 886 164 m -8 X s 886 175 m -8 X
 s 886 186 m -8 X s 886 197 m -8 X s 895 208 m -17 X s 886 219 m -8 X s 886 230 m -8 X s 886 241 m -8 X s 886 252 m -8 X s 895 263 m -17 X s 886 274 m -8 X s 886 285 m -8 X s 886 296 m -8 X s 886 307 m -8 X s 895 318 m -17 X s 886 329 m -8 X s 886
 340 m -8 X s 886 351 m -8 X s 886 362 m -8 X s 895 373 m -17 X s 886 384 m -8 X s 886 395 m -8 X s 886 406 m -8 X s 886 417 m -8 X s 895 428 m -17 X s 886 439 m -8 X s 886 450 m -8 X s 886 461 m -8 X s 886 472 m -8 X s 895 483 m -17 X s 886 494 m -8
 X s 886 505 m -8 X s 886 516 m -8 X s 886 527 m -8 X s 895 538 m -17 X s 895 538 m -17 X s 886 549 m -8 X s 886 559 m -8 X s 886 570 m -8 X s 886 581 m -8 X s
 gsave  710 611 779 13 C 858.926 87.2199 t 0 r /Helvetica findfont 28.4907 sf 0 0 m (0) show NC gr 
 gsave  710 611 779 13 C 862.718 142.206 t 0 r /Helvetica findfont 28.4907 sf 0 0 m (1) show NC gr 
 gsave  710 611 779 13 C 858.926 197.193 t 0 r /Helvetica findfont 28.4907 sf 0 0 m (2) show NC gr 
 gsave  710 611 779 13 C 858.926 252.179 t 0 r /Helvetica findfont 28.4907 sf 0 0 m (3) show NC gr 
 gsave  710 611 779 13 C 858.926 307.166 t 0 r /Helvetica findfont 28.4907 sf 0 0 m (4) show NC gr 
 gsave  710 611 779 13 C 858.926 362.152 t 0 r /Helvetica findfont 28.4907 sf 0 0 m (5) show NC gr 
 gsave  710 611 779 13 C 858.926 417.138 t 0 r /Helvetica findfont 28.4907 sf 0 0 m (6) show NC gr 
 gsave  710 611 779 13 C 858.926 472.125 t 0 r /Helvetica findfont 28.4907 sf 0 0 m (7) show NC gr 
 gsave  710 611 779 13 C 858.926 527.111 t 0 r /Helvetica findfont 28.4907 sf 0 0 m (8) show NC gr  1454 98 m 484 Y s 1437 98 m 17 X s 1445 109 m 9 X s 1445 120 m 9 X s 1445 131 m 9 X s 1445 142 m 9 X s 1437 153 m 17 X s 1445 164 m 9 X s 1445 175 m 9
 X s 1445 186 m 9 X s 1445 197 m 9 X s 1437 208 m 17 X s 1445 219 m 9 X s 1445 230 m 9 X s 1445 241 m 9 X s 1445 252 m 9 X s 1437 263 m 17 X s 1445 274 m 9 X s 1445 285 m 9 X s 1445 296 m 9 X s 1445 307 m 9 X s 1437 318 m 17 X s 1445 329 m 9 X s 1445
 340 m 9 X s 1445 351 m 9 X s 1445 362 m 9 X s 1437 373 m 17 X s 1445 384 m 9 X s 1445 395 m 9 X s 1445 406 m 9 X s 1445 417 m 9 X s 1437 428 m 17 X s 1445 439 m 9 X s 1445 450 m 9 X s 1445 461 m 9 X s 1445 472 m 9 X s 1437 483 m 17 X s 1445 494 m 9
 X s 1445 505 m 9 X s 1445 516 m 9 X s 1445 527 m 9 X s 1437 538 m 17 X s 1437 538 m 17 X s 1445 549 m 9 X s 1445 559 m 9 X s 1445 570 m 9 X s 1445 581 m 9 X s 888 208 m -10 X s 878 204 m 8 Y s 888 208 m 10 X s 898 204 m 8 Y s 888 208 m 145 Y s 884
 353 m 8 X s 888 208 m -71 Y s 884 137 m 8 X s 908 263 m -10 X s 898 259 m 8 Y s 908 263 m 10 X s 918 259 m 8 Y s 908 263 m 160 Y s 904 423 m 8 X s 908 263 m -90 Y s 904 173 m 8 X s 928 263 m -10 X s 918 259 m 8 Y s 928 263 m 10 X s 938 259 m 8 Y s
 928 263 m 160 Y s 924 423 m 7 X s 928 263 m -90 Y s 924 173 m 7 X s 948 208 m -10 X s 938 204 m 8 Y s 948 208 m 9 X s 957 204 m 8 Y s 948 208 m 145 Y s 944 353 m 7 X s 948 208 m -71 Y s 944 137 m 7 X s 967 318 m -10 X s 957 314 m 8 Y s 967 318 m 10
 X s 977 314 m 8 Y s 967 318 m 174 Y s 964 492 m 7 X s 967 318 m -105 Y s 964 213 m 7 X s 987 208 m -10 X s 977 204 m 8 Y s 987 208 m 10 X s 997 204 m 8 Y s 987 208 m 145 Y s 983 353 m 8 X s 987 208 m -71 Y s 983 137 m 8 X s 1007 208 m -10 X s 997
 204 m 8 Y s 1007 208 m 10 X s 1017 204 m 8 Y s 1007 208 m 145 Y s 1003 353 m 8 X s 1007 208 m -71 Y s 1003 137 m 8 X s 1027 153 m -10 X s 1017 149 m 8 Y s 1027 153 m 10 X s 1037 149 m 8 Y s 1027 153 m 126 Y s 1023 279 m 8 X s 1027 153 m -45 Y s 1023
 108 m 8 X s 1047 98 m -10 X s 1037 98 m 4 Y s 1047 98 m 10 X s 1057 98 m 4 Y s 1047 98 m 63 Y s 1043 161 m 8 X s 1067 98 m -10 X s 1057 98 m 4 Y s 1067 98 m 10 X s 1077 98 m 4 Y s 1067 98 m 63 Y s 1063 161 m 7 X s 1086 98 m -9 X s 1077 98 m 4 Y s
 1086 98 m 10 X s 1096 98 m 4 Y s 1086 98 m 63 Y s 1083 161 m 7 X s 1106 153 m -10 X s 1096 149 m 8 Y s 1106 153 m 10 X s 1116 149 m 8 Y s 1106 153 m 126 Y s 1103 279 m 7 X s 1106 153 m -45 Y s 1103 108 m 7 X s 1126 373 m -10 X s 1116 369 m 8 Y s
 1126 373 m 10 X s 1136 369 m 8 Y s 1126 373 m 186 Y s 1122 559 m 8 X s 1126 373 m -119 Y s 1122 254 m 8 X s 1146 208 m -10 X s 1136 204 m 8 Y s 1146 208 m 10 X s 1156 204 m 8 Y s 1146 208 m 145 Y s 1142 353 m 8 X s 1146 208 m -71 Y s 1142 137 m 8 X
 s 1166 208 m -10 X s 1156 204 m 8 Y s 1166 208 m 10 X s 1176 204 m 8 Y s 1166 208 m 145 Y s 1162 353 m 8 X s 1166 208 m -71 Y s 1162 137 m 8 X s 1186 153 m -10 X s 1176 149 m 8 Y s 1186 153 m 10 X s 1196 149 m 8 Y s 1186 153 m 126 Y s 1182 279 m 7 X
 s 1186 153 m -45 Y s 1182 108 m 7 X s 1206 318 m -10 X s 1196 314 m 8 Y s 1206 318 m 9 X s 1215 314 m 8 Y s 1206 318 m 174 Y s 1202 492 m 7 X s 1206 318 m -105 Y s 1202 213 m 7 X s 1225 208 m -10 X s 1215 204 m 8 Y s 1225 208 m 10 X s 1235 204 m 8 Y
 s 1225 208 m 145 Y s 1222 353 m 7 X s 1225 208 m -71 Y s 1222 137 m 7 X s 1245 263 m -10 X s 1235 259 m 8 Y s 1245 263 m 10 X s 1255 259 m 8 Y s 1245 263 m 160 Y s 1241 423 m 8 X s 1245 263 m -90 Y s 1241 173 m 8 X s 1265 373 m -10 X s 1255 369 m 8
 Y s 1265 373 m 10 X s 1275 369 m 8 Y s 1265 373 m 186 Y s 1261 559 m 8 X s 1265 373 m -119 Y s 1261 254 m 8 X s 1285 98 m -10 X s 1275 98 m 4 Y s 1285 98 m 10 X s 1295 98 m 4 Y s 1285 98 m 63 Y s 1281 161 m 8 X s 1305 153 m -10 X s 1295 149 m 8 Y s
 1305 153 m 10 X s 1315 149 m 8 Y s 1305 153 m 126 Y s 1301 279 m 8 X s 1305 153 m -45 Y s 1301 108 m 8 X s 1325 153 m -10 X s 1315 149 m 8 Y s 1325 153 m 10 X s 1335 149 m 8 Y s 1325 153 m 126 Y s 1321 279 m 7 X s 1325 153 m -45 Y s 1321 108 m 7 X s
 1344 318 m -9 X s 1335 314 m 8 Y s 1344 318 m 10 X s 1354 314 m 8 Y s 1344 318 m 174 Y s 1341 492 m 7 X s 1344 318 m -105 Y s 1341 213 m 7 X s 1364 208 m -10 X s 1354 204 m 8 Y s 1364 208 m 10 X s 1374 204 m 8 Y s 1364 208 m 145 Y s 1361 353 m 7 X s
 1364 208 m -71 Y s 1361 137 m 7 X s 1384 153 m -10 X s 1374 149 m 8 Y s 1384 153 m 10 X s 1394 149 m 8 Y s 1384 153 m 126 Y s 1380 279 m 8 X s 1384 153 m -45 Y s 1380 108 m 8 X s 1404 98 m -10 X s 1394 98 m 4 Y s 1404 98 m 10 X s 1414 98 m 4 Y s
 1404 98 m 63 Y s 1400 161 m 8 X s 1424 153 m -10 X s 1414 149 m 8 Y s 1424 153 m 10 X s 1434 149 m 8 Y s 1424 153 m 126 Y s 1420 279 m 8 X s 1424 153 m -45 Y s 1420 108 m 8 X s 1444 98 m -10 X s 1434 98 m 4 Y s 1444 98 m 10 X s 1454 98 m 4 Y s 1444
 98 m 63 Y s 1440 161 m 7 X s 3 lw 888 208 908 263 928 263 948 208 967 318 987 208 1007 208 1027 153 1047 98 1067 98 1086 98 1106 153 1126 373 1146 208 1166 208 1186 153 1206 318 1225 208 1245 263 1265 373 1285 98 1305 153 1325 153 1344 318 1364 208
 1384 153 1404 98 1424 153 1444 98 29 { m20} R 6 lw 0 1 0 c[ 4 8] 0 sd 9 lw black 0 1 0 c 878 221 m cl s 878 221 m 20 -3 d 20 -2 d 20 -3 d 19 -2 d 20 -2 d 20 -3 d 20 -2 d 20 -2 d 20 -2 d 20 -3 d 19 -2 d 20 -2 d 20 -2 d 20 -2 d 20 -2 d 20 -2 d 19 -1 d
 20 -2 d 20 -2 d 20 -2 d 20 -1 d 20 -2 d 20 -2 d 19 -1 d 20 -2 d 20 -1 d 20 -2 d 20 -1 d 20 -2 d s 0 0 1 c[ 12 12] 0 sd black 0 0 1 c 878 99 m cl s 878 99 m 99 X 20 1 d 40 X 10 1 d 10 X 10 1 d 5 X 5 1 d 4 1 d 3 1 d 2 1 d 5 2 d 5 2 d 5 3 d 5 4 d 5 3 d
 5 4 d 5 5 d 5 4 d 10 10 d 5 4 d 3 2 d 2 2 d 2 1 d 3 2 d 2 1 d 3 1 d 2 1 d 3 1 d 2 1 d 10 X 3 -1 d 2 -1 d 3 -1 d 2 -1 d 3 -2 d 2 -1 d 3 -2 d 5 -4 d 5 -4 d 5 -5 d 9 -9 d 5 -4 d 5 -4 d 5 -4 d 5 -3 d 5 -3 d 5 -3 d 5 -2 d 5 -1 d 5 -2 d 5 -1 d 5 X 5 -1 d
 5 -1 d 15 X 20 -1 d 139 X s 1 0 0 c[  ] 0 sd black 1 0 0 c 878 222 m cl s 878 222 m 20 -3 d 20 -2 d 20 -3 d 19 -2 d 20 -2 d 20 -3 d 20 -2 d 20 -1 d 20 -2 d 20 X 4 1 d 5 1 d 5 1 d 5 2 d 5 3 d 5 3 d 5 3 d 5 3 d 5 4 d 5 4 d 10 8 d 5 4 d 5 3 d 5 3 d 2 1
 d 3 1 d 2 1 d 3 1 d 7 X 3 -1 d 2 X 3 -1 d 2 -1 d 3 -1 d 2 -2 d 3 -2 d 5 -4 d 5 -4 d 5 -5 d 5 -5 d 9 -10 d 5 -5 d 5 -4 d 5 -4 d 5 -4 d 5 -3 d 5 -3 d 5 -2 d 5 -3 d 5 -1 d 5 -2 d 5 -1 d 5 -1 d 10 -2 d 10 -1 d 20 -2 d 20 -2 d 19 -1 d 20 -2 d 20 -1 d 20
 -2 d 20 -1 d 20 -2 d s black 6 lw 878 98 m 576 X s 997 113 m -15 Y s 1037 106 m -8 Y s 1077 106 m -8 Y s 1116 106 m -8 Y s 1156 106 m -8 Y s 1196 113 m -15 Y s 1235 106 m -8 Y s 1275 106 m -8 Y s 1315 106 m -8 Y s 1354 106 m -8 Y s 1394 113 m -15 Y
 s 997 113 m -15 Y s 957 106 m -8 Y s 918 106 m -8 Y s 878 106 m -8 Y s 1394 113 m -15 Y s 1434 106 m -8 Y s 878 582 m 576 X s 997 567 m 15 Y s 1037 574 m 8 Y s 1077 574 m 8 Y s 1116 574 m 8 Y s 1156 574 m 8 Y s 1196 567 m 15 Y s 1235 574 m 8 Y s
 1275 574 m 8 Y s 1315 574 m 8 Y s 1354 574 m 8 Y s 1394 567 m 15 Y s 997 567 m 15 Y s 957 574 m 8 Y s 918 574 m 8 Y s 878 574 m 8 Y s 1394 567 m 15 Y s 1434 574 m 8 Y s 878 98 m 484 Y s 895 98 m -17 X s 886 109 m -8 X s 886 120 m -8 X s 886 131 m -8
 X s 886 142 m -8 X s 895 153 m -17 X s 886 164 m -8 X s 886 175 m -8 X s 886 186 m -8 X s 886 197 m -8 X s 895 208 m -17 X s 886 219 m -8 X s 886 230 m -8 X s 886 241 m -8 X s 886 252 m -8 X s 895 263 m -17 X s 886 274 m -8 X s 886 285 m -8 X s 886
 296 m -8 X s 886 307 m -8 X s 895 318 m -17 X s 886 329 m -8 X s 886 340 m -8 X s 886 351 m -8 X s 886 362 m -8 X s 895 373 m -17 X s 886 384 m -8 X s 886 395 m -8 X s 886 406 m -8 X s 886 417 m -8 X s 895 428 m -17 X s 886 439 m -8 X s 886 450 m -8
 X s 886 461 m -8 X s 886 472 m -8 X s 895 483 m -17 X s 886 494 m -8 X s 886 505 m -8 X s 886 516 m -8 X s 886 527 m -8 X s 895 538 m -17 X s 895 538 m -17 X s 886 549 m -8 X s 886 559 m -8 X s 886 570 m -8 X s 886 581 m -8 X s 1454 98 m 484 Y s
 1437 98 m 17 X s 1445 109 m 9 X s 1445 120 m 9 X s 1445 131 m 9 X s 1445 142 m 9 X s 1437 153 m 17 X s 1445 164 m 9 X s 1445 175 m 9 X s 1445 186 m 9 X s 1445 197 m 9 X s 1437 208 m 17 X s 1445 219 m 9 X s 1445 230 m 9 X s 1445 241 m 9 X s 1445 252
 m 9 X s 1437 263 m 17 X s 1445 274 m 9 X s 1445 285 m 9 X s 1445 296 m 9 X s 1445 307 m 9 X s 1437 318 m 17 X s 1445 329 m 9 X s 1445 340 m 9 X s 1445 351 m 9 X s 1445 362 m 9 X s 1437 373 m 17 X s 1445 384 m 9 X s 1445 395 m 9 X s 1445 406 m 9 X s
 1445 417 m 9 X s 1437 428 m 17 X s 1445 439 m 9 X s 1445 450 m 9 X s 1445 461 m 9 X s 1445 472 m 9 X s 1437 483 m 17 X s 1445 494 m 9 X s 1445 505 m 9 X s 1445 516 m 9 X s 1445 527 m 9 X s 1437 538 m 17 X s 1437 538 m 17 X s 1445 549 m 9 X s 1445
 559 m 9 X s 1445 570 m 9 X s 1445 581 m 9 X s
 gsave  710 611 779 13 C 1069.39 426.619 t 0 r /Helvetica findfont 22.7926 sf 0 0 m ( = 5 TeV) show NC gr 
 gsave  710 611 779 13 C 1048.53 419.035 t 0 r /Helvetica findfont 15.1951 sf 0 0 m (NN) show NC gr 
 gsave  710 611 779 13 C 1037.16 426.619 t 0 r /Helvetica findfont 22.7926 sf 0 0 m (s) show NC gr  1028 440 m 3 -21 d s 0 lw 1031 419 m 4 28 d s 1035 447 m 34 X s
 gsave  710 611 779 13 C 919.601 426.619 t 0 r /Helvetica findfont 22.7926 sf 0 0 m (pPb\(Bwd\) ) show NC gr 
 gsave  710 611 779 13 C 919.601 462.645 t 0 r /Helvetica findfont 28.4907 sf 0 0 m (Preliminary) show NC gr 
 gsave  710 611 779 13 C 919.601 492.982 t 0 r /Helvetica findfont 28.4907 sf 0 0 m (LHCb) show NC gr 
 gsave  710 611 779 13 C 1365.18 472.125 t 0 r /Helvetica findfont 28.4907 sf 0 0 m (4.5) show NC gr 
 gsave  710 611 779 13 C 1348.12 472.125 t 0 r /Symbol findfont 28.4907 sf 0 0 m (-) show NC gr 
 gsave  710 611 779 13 C 1228.66 472.125 t 0 r /Helvetica findfont 28.4907 sf 0 0 m (5.0 < y < ) show NC gr 
 gsave  710 611 779 13 C 1211.6 472.125 t 0 r /Symbol findfont 28.4907 sf 0 0 m (-) show NC gr 
 gsave  710 611 779 13 C 1287.44 441.788 t 0 r /Helvetica findfont 28.4907 sf 0 0 m ( <14 GeV/c) show NC gr 
 gsave  710 611 779 13 C 1276.06 426.619 t 0 r /Helvetica findfont 18.9938 sf 0 0 m (T) show NC gr 
 gsave  710 611 779 13 C 1211.6 441.788 t 0 r /Helvetica findfont 28.4907 sf 0 0 m ( 0< p) show NC gr  6 lw 1 1 1 c 711 611 1534 13 bf
 gr  gr showpage
end
%%EOF
