%!PS-Adobe-2.0 EPSF-2.0
%%BoundingBox:  0 0 567 319
%%Title: result/MassFitBin/pAY_psip.eps: 
%%Creator: ROOT Version 5.34/18
%%CreationDate: Sat Sep 12 09:06:20 2015
%%EndComments
%%BeginProlog
80 dict begin
/s {stroke} def /l {lineto} def /m {moveto} def /t {translate} def
/r {rotate} def /rl {roll}  def /R {repeat} def
/d {rlineto} def /rm {rmoveto} def /gr {grestore} def /f {eofill} def
/c {setrgbcolor} def /black {0 setgray} def /sd {setdash} def
/cl {closepath} def /sf {scalefont setfont} def /lw {setlinewidth} def
/box {m dup 0 exch d exch 0 d 0 exch neg d cl} def
/NC{systemdict begin initclip end}def/C{NC box clip newpath}def
/bl {box s} def /bf {box f} def /Y { 0 exch d} def /X { 0 d} def 
/K {{pop pop 0 moveto} exch kshow} bind def
/ita {/ang 15 def gsave [1 0 ang dup sin exch cos div 1 0 0] concat} def 
/mp {newpath /y exch def /x exch def} def
/side {[w .77 mul w .23 mul] .385 w mul sd w 0 l currentpoint t -144 r} def
/mr {mp x y w2 0 360 arc} def /m24 {mr s} def /m20 {mr f} def
/mb {mp x y w2 add m w2 neg 0 d 0 w neg d w 0 d 0 w d cl} def
/mt {mp x y w2 add m w2 neg w neg d w 0 d cl} def
/m21 {mb f} def /m25 {mb s} def /m22 {mt f} def /m26{mt s} def
/m23 {mp x y w2 sub m w2 w d w neg 0 d cl f} def
/m27 {mp x y w2 add m w3 neg w2 neg d w3 w2 neg d w3 w2 d cl s} def
/m28 {mp x w2 sub y w2 sub w3 add m w3 0 d  0 w3 neg d w3 0 d 0 w3 d w3 0 d  0 w3 d w3 neg 0 d 0 w3 d w3 neg 0 d 0 w3 neg d w3 neg 0 d cl s } def
/m29 {mp gsave x w2 sub y w2 add w3 sub m currentpoint t 4 {side} repeat cl fill gr} def
/m30 {mp gsave x w2 sub y w2 add w3 sub m currentpoint t 4 {side} repeat cl s gr} def
/m31 {mp x y w2 sub m 0 w d x w2 sub y m w 0 d x w2 sub y w2 add m w w neg d x w2 sub y w2 sub m w w d s} def
/m32 {mp x y w2 sub m w2 w d w neg 0 d cl s} def
/m33 {mp x y w2 add m w3 neg w2 neg d w3 w2 neg d w3 w2 d cl f} def
/m34 {mp x w2 sub y w2 sub w3 add m w3 0 d  0 w3 neg d w3 0 d 0 w3 d w3 0 d  0 w3 d w3 neg 0 d 0 w3 d w3 neg 0 d 0 w3 neg d w3 neg 0 d cl f } def
/m2 {mp x y w2 sub m 0 w d x w2 sub y m w 0 d s} def
/m5 {mp x w2 sub y w2 sub m w w d x w2 sub y w2 add m w w neg d s} def
/reEncode {exch findfont dup length dict begin {1 index /FID eq  {pop pop} {def} ifelse } forall /Encoding exch def currentdict end dup /FontName get exch definefont pop } def [/Times-Bold /Times-Italic /Times-BoldItalic /Helvetica /Helvetica-Oblique
 /Helvetica-Bold /Helvetica-BoldOblique /Courier /Courier-Oblique /Courier-Bold /Courier-BoldOblique /Times-Roman /AvantGarde-Book /AvantGarde-BookOblique /AvantGarde-Demi /AvantGarde-DemiOblique /Bookman-Demi /Bookman-DemiItalic /Bookman-Light
 /Bookman-LightItalic /Helvetica-Narrow /Helvetica-Narrow-Bold /Helvetica-Narrow-BoldOblique /Helvetica-Narrow-Oblique /NewCenturySchlbk-Roman /NewCenturySchlbk-Bold /NewCenturySchlbk-BoldItalic /NewCenturySchlbk-Italic /Palatino-Bold
 /Palatino-BoldItalic /Palatino-Italic /Palatino-Roman ] {ISOLatin1Encoding reEncode } forall
%%EndProlog
%%BeginSetup
%%EndSetup
newpath  gsave  .25 .25 scale  gsave  0 0 t black[  ] 0 sd 6 lw 1 1 1 c 2268 1274 0 0 bf black 1 1 1 c 710 611 23 650 bf black 1 1 1 c 576 484 122 735 bf black 576 484 122 735 bl 1 1 1 c 576 484 122 735 bf black 576 484 122 735 bl 122 735 m 576 X s
 gsave  710 611 23 650 C 688.279 665.526 t 0 r /Helvetica findfont 34.1889 sf 0 0 m (]) show NC gr 
 gsave  710 611 23 650 C 675.006 680.694 t 0 r /Helvetica findfont 22.7926 sf 0 0 m (2) show NC gr 
 gsave  710 611 23 650 C 559.345 665.526 t 0 r /Helvetica findfont 34.1889 sf 0 0 m ( [MeV/c) show NC gr 
 gsave  710 611 23 650 C 546.072 657.941 t 0 r /Symbol findfont 22.7926 sf 0 0 m (m) show NC gr 
 gsave  710 611 23 650 C 532.8 657.941 t 0 r /Symbol findfont 22.7926 sf 0 0 m (m) show NC gr 
 gsave  710 611 23 650 C 506.254 665.526 t 0 r /Helvetica findfont 34.1889 sf 0 0 m (m) show NC gr  241 750 m -15 Y s 281 743 m -8 Y s 321 743 m -8 Y s 360 743 m -8 Y s 400 743 m -8 Y s 440 750 m -15 Y s 479 743 m -8 Y s 519 743 m -8 Y s 559 743 m -8
 Y s 598 743 m -8 Y s 638 750 m -15 Y s 241 750 m -15 Y s 202 743 m -8 Y s 162 743 m -8 Y s 122 743 m -8 Y s 638 750 m -15 Y s 678 743 m -8 Y s
 gsave  710 611 23 650 C 208.569 703.447 t 0 r /Helvetica findfont 28.4907 sf 0 0 m (3600) show NC gr 
 gsave  710 611 23 650 C 405.762 703.447 t 0 r /Helvetica findfont 28.4907 sf 0 0 m (3700) show NC gr 
 gsave  710 611 23 650 C 604.851 703.447 t 0 r /Helvetica findfont 28.4907 sf 0 0 m (3800) show NC gr  122 1219 m 576 X s 241 1204 m 15 Y s 281 1211 m 8 Y s 321 1211 m 8 Y s 360 1211 m 8 Y s 400 1211 m 8 Y s 440 1204 m 15 Y s 479 1211 m 8 Y s 519
 1211 m 8 Y s 559 1211 m 8 Y s 598 1211 m 8 Y s 638 1204 m 15 Y s 241 1204 m 15 Y s 202 1211 m 8 Y s 162 1211 m 8 Y s 122 1211 m 8 Y s 638 1204 m 15 Y s 678 1211 m 8 Y s 122 735 m 484 Y s
 gsave  710 611 23 650 C 66.3629 1209.7 t 90 r /Helvetica findfont 34.1889 sf 0 0 m (\)) show NC gr 
 gsave  710 611 23 650 C 51.1943 1196.43 t 90 r /Helvetica findfont 22.7926 sf 0 0 m (2) show NC gr 
 gsave  710 611 23 650 C 66.3629 908.224 t 90 r /Helvetica findfont 34.1889 sf 0 0 m (Events / \(10 MeV/c) show NC gr  139 735 m -17 X s 131 746 m -9 X s 131 756 m -9 X s 131 767 m -9 X s 131 777 m -9 X s 139 788 m -17 X s 131 798 m -9 X s 131 808 m
 -9 X s 131 819 m -9 X s 131 829 m -9 X s 139 840 m -17 X s 131 850 m -9 X s 131 861 m -9 X s 131 871 m -9 X s 131 881 m -9 X s 139 892 m -17 X s 131 902 m -9 X s 131 913 m -9 X s 131 923 m -9 X s 131 934 m -9 X s 139 944 m -17 X s 131 954 m -9 X s
 131 965 m -9 X s 131 975 m -9 X s 131 986 m -9 X s 139 996 m -17 X s 131 1007 m -9 X s 131 1017 m -9 X s 131 1027 m -9 X s 131 1038 m -9 X s 139 1048 m -17 X s 131 1059 m -9 X s 131 1069 m -9 X s 131 1079 m -9 X s 131 1090 m -9 X s 139 1100 m -17 X
 s 131 1111 m -9 X s 131 1121 m -9 X s 131 1132 m -9 X s 131 1142 m -9 X s 139 1152 m -17 X s 131 1163 m -9 X s 131 1173 m -9 X s 131 1184 m -9 X s 131 1194 m -9 X s 139 1205 m -17 X s 139 1205 m -17 X s 131 1215 m -9 X s
 gsave  710 611 23 650 C 102.389 724.304 t 0 r /Helvetica findfont 28.4907 sf 0 0 m (0) show NC gr 
 gsave  710 611 23 650 C 102.389 777.394 t 0 r /Helvetica findfont 28.4907 sf 0 0 m (5) show NC gr 
 gsave  710 611 23 650 C 87.2199 828.589 t 0 r /Helvetica findfont 28.4907 sf 0 0 m (10) show NC gr 
 gsave  710 611 23 650 C 85.3238 881.679 t 0 r /Helvetica findfont 28.4907 sf 0 0 m (15) show NC gr 
 gsave  710 611 23 650 C 87.2199 932.873 t 0 r /Helvetica findfont 28.4907 sf 0 0 m (20) show NC gr 
 gsave  710 611 23 650 C 85.3238 985.964 t 0 r /Helvetica findfont 28.4907 sf 0 0 m (25) show NC gr 
 gsave  710 611 23 650 C 87.2199 1037.16 t 0 r /Helvetica findfont 28.4907 sf 0 0 m (30) show NC gr 
 gsave  710 611 23 650 C 85.3238 1090.25 t 0 r /Helvetica findfont 28.4907 sf 0 0 m (35) show NC gr 
 gsave  710 611 23 650 C 87.2199 1141.44 t 0 r /Helvetica findfont 28.4907 sf 0 0 m (40) show NC gr 
 gsave  710 611 23 650 C 85.3238 1194.53 t 0 r /Helvetica findfont 28.4907 sf 0 0 m (45) show NC gr  698 735 m 484 Y s 681 735 m 17 X s 689 746 m 9 X s 689 756 m 9 X s 689 767 m 9 X s 689 777 m 9 X s 681 788 m 17 X s 689 798 m 9 X s 689 808 m 9 X s
 689 819 m 9 X s 689 829 m 9 X s 681 840 m 17 X s 689 850 m 9 X s 689 861 m 9 X s 689 871 m 9 X s 689 881 m 9 X s 681 892 m 17 X s 689 902 m 9 X s 689 913 m 9 X s 689 923 m 9 X s 689 934 m 9 X s 681 944 m 17 X s 689 954 m 9 X s 689 965 m 9 X s 689
 975 m 9 X s 689 986 m 9 X s 681 996 m 17 X s 689 1007 m 9 X s 689 1017 m 9 X s 689 1027 m 9 X s 689 1038 m 9 X s 681 1048 m 17 X s 689 1059 m 9 X s 689 1069 m 9 X s 689 1079 m 9 X s 689 1090 m 9 X s 681 1100 m 17 X s 689 1111 m 9 X s 689 1121 m 9 X
 s 689 1132 m 9 X s 689 1142 m 9 X s 681 1152 m 17 X s 689 1163 m 9 X s 689 1173 m 9 X s 689 1184 m 9 X s 689 1194 m 9 X s 681 1205 m 17 X s 681 1205 m 17 X s 689 1215 m 9 X s 132 881 m -10 X s 122 878 m 7 Y s 132 881 m 10 X s 142 878 m 7 Y s 132 881
 m 51 Y s 128 932 m 8 X s 132 881 m -38 Y s 128 843 m 8 X s 152 840 m -10 X s 142 836 m 7 Y s 152 840 m 10 X s 162 836 m 7 Y s 152 840 m 44 Y s 148 884 m 8 X s 152 840 m -33 Y s 148 807 m 8 X s 172 923 m -10 X s 162 919 m 8 Y s 172 923 m 10 X s 182
 919 m 8 Y s 172 923 m 56 Y s 168 979 m 8 X s 172 923 m -44 Y s 168 879 m 8 X s 192 902 m -10 X s 182 898 m 8 Y s 192 902 m 10 X s 202 898 m 8 Y s 192 902 m 53 Y s 188 955 m 7 X s 192 902 m -41 Y s 188 861 m 7 X s 211 798 m -9 X s 202 794 m 8 Y s 211
 798 m 10 X s 221 794 m 8 Y s 211 798 m 37 Y s 208 835 m 7 X s 211 798 m -25 Y s 208 773 m 7 X s 231 850 m -10 X s 221 846 m 8 Y s 231 850 m 10 X s 241 846 m 8 Y s 231 850 m 46 Y s 228 896 m 7 X s 231 850 m -34 Y s 228 816 m 7 X s 251 902 m -10 X s
 241 898 m 8 Y s 251 902 m 10 X s 261 898 m 8 Y s 251 902 m 53 Y s 247 955 m 8 X s 251 902 m -41 Y s 247 861 m 8 X s 271 850 m -10 X s 261 846 m 8 Y s 271 850 m 10 X s 281 846 m 8 Y s 271 850 m 46 Y s 267 896 m 8 X s 271 850 m -34 Y s 267 816 m 8 X s
 291 850 m -10 X s 281 846 m 8 Y s 291 850 m 10 X s 301 846 m 8 Y s 291 850 m 46 Y s 287 896 m 8 X s 291 850 m -34 Y s 287 816 m 8 X s 311 840 m -10 X s 301 836 m 7 Y s 311 840 m 10 X s 321 836 m 7 Y s 311 840 m 44 Y s 307 884 m 7 X s 311 840 m -33 Y
 s 307 807 m 7 X s 331 902 m -10 X s 321 898 m 8 Y s 331 902 m 9 X s 340 898 m 8 Y s 331 902 m 53 Y s 327 955 m 7 X s 331 902 m -41 Y s 327 861 m 7 X s 350 871 m -10 X s 340 867 m 8 Y s 350 871 m 10 X s 360 867 m 8 Y s 350 871 m 49 Y s 347 920 m 7 X
 s 350 871 m -37 Y s 347 834 m 7 X s 370 892 m -10 X s 360 888 m 8 Y s 370 892 m 10 X s 380 888 m 8 Y s 370 892 m 52 Y s 366 944 m 8 X s 370 892 m -40 Y s 366 852 m 8 X s 390 1038 m -10 X s 380 1034 m 8 Y s 390 1038 m 10 X s 400 1034 m 8 Y s 390 1038
 m 67 Y s 386 1105 m 8 X s 390 1038 m -56 Y s 386 982 m 8 X s 410 1121 m -10 X s 400 1117 m 8 Y s 410 1121 m 10 X s 420 1117 m 8 Y s 410 1121 m 75 Y s 406 1196 m 8 X s 410 1121 m -63 Y s 406 1058 m 8 X s 430 1017 m -10 X s 420 1013 m 8 Y s 430 1017 m
 10 X s 440 1013 m 8 Y s 430 1017 m 65 Y s 426 1082 m 8 X s 430 1017 m -54 Y s 426 963 m 8 X s 450 923 m -10 X s 440 919 m 8 Y s 450 923 m 10 X s 460 919 m 8 Y s 450 923 m 56 Y s 446 979 m 7 X s 450 923 m -44 Y s 446 879 m 7 X s 469 892 m -9 X s 460
 888 m 8 Y s 469 892 m 10 X s 479 888 m 8 Y s 469 892 m 52 Y s 466 944 m 7 X s 469 892 m -40 Y s 466 852 m 7 X s 489 913 m -10 X s 479 909 m 7 Y s 489 913 m 10 X s 499 909 m 7 Y s 489 913 m 54 Y s 486 967 m 7 X s 489 913 m -43 Y s 486 870 m 7 X s 509
 923 m -10 X s 499 919 m 8 Y s 509 923 m 10 X s 519 919 m 8 Y s 509 923 m 56 Y s 505 979 m 8 X s 509 923 m -44 Y s 505 879 m 8 X s 529 861 m -10 X s 519 857 m 7 Y s 529 861 m 10 X s 539 857 m 7 Y s 529 861 m 47 Y s 525 908 m 8 X s 529 861 m -36 Y s
 525 825 m 8 X s 549 902 m -10 X s 539 898 m 8 Y s 549 902 m 10 X s 559 898 m 8 Y s 549 902 m 53 Y s 545 955 m 8 X s 549 902 m -41 Y s 545 861 m 8 X s 569 892 m -10 X s 559 888 m 8 Y s 569 892 m 10 X s 579 888 m 8 Y s 569 892 m 52 Y s 565 944 m 7 X s
 569 892 m -40 Y s 565 852 m 7 X s 589 850 m -10 X s 579 846 m 8 Y s 589 850 m 9 X s 598 846 m 8 Y s 589 850 m 46 Y s 585 896 m 7 X s 589 850 m -34 Y s 585 816 m 7 X s 608 944 m -10 X s 598 940 m 8 Y s 608 944 m 10 X s 618 940 m 8 Y s 608 944 m 58 Y
 s 605 1002 m 7 X s 608 944 m -46 Y s 605 898 m 7 X s 628 861 m -10 X s 618 857 m 7 Y s 628 861 m 10 X s 638 857 m 7 Y s 628 861 m 47 Y s 624 908 m 8 X s 628 861 m -36 Y s 624 825 m 8 X s 648 913 m -10 X s 638 909 m 7 Y s 648 913 m 10 X s 658 909 m 7
 Y s 648 913 m 54 Y s 644 967 m 8 X s 648 913 m -43 Y s 644 870 m 8 X s 668 798 m -10 X s 658 794 m 8 Y s 668 798 m 10 X s 678 794 m 8 Y s 668 798 m 37 Y s 664 835 m 8 X s 668 798 m -25 Y s 664 773 m 8 X s 688 881 m -10 X s 678 878 m 7 Y s 688 881 m
 10 X s 698 878 m 7 Y s 688 881 m 51 Y s 684 932 m 8 X s 688 881 m -38 Y s 684 843 m 8 X s 3 lw /w 15 def /w2 {w 2 div} def /w3 {w 3 div} def 132 881 152 840 172 923 192 902 211 798 231 850 251 902 271 850 291 850 311 840 331 902 350 871 370 892 390
 1038 410 1121 430 1017 450 923 469 892 489 913 509 923 529 861 549 902 569 892 589 850 608 944 628 861 648 913 668 798 688 881 29 { m20} R 6 lw 0 1 0 c[ 4 8] 0 sd 9 lw black 0 1 0 c 122 864 m cl s 122 864 m 20 X 20 1 d 20 X 20 1 d 19 1 d 20 X 20 1 d
 20 1 d 20 X 20 1 d 19 X 20 1 d 20 1 d 20 X 20 1 d 20 1 d 20 X 19 1 d 20 1 d 20 X 20 1 d 20 1 d 20 X 19 1 d 20 1 d 20 X 20 1 d 20 1 d 20 X s 0 0 1 c[ 12 12] 0 sd black 0 0 1 c 122 737 m cl s 122 737 m 99 X 20 1 d 20 X 20 1 d 20 1 d 20 2 d 10 1 d 5 2
 d 4 1 d 5 3 d 3 1 d 2 3 d 3 3 d 2 4 d 3 5 d 2 5 d 3 6 d 2 7 d 3 8 d 2 9 d 3 9 d 2 9 d 3 11 d 2 10 d 10 44 d 3 10 d 2 9 d 3 9 d 2 8 d 2 6 d 3 5 d 1 2 d 1 1 d 2 1 d 1 1 d 4 X 1 -1 d 1 -2 d 1 -1 d 3 -5 d 2 -6 d 3 -7 d 2 -9 d 3 -9 d 2 -10 d 3 -11 d 5
 -22 d 5 -21 d 2 -11 d 3 -10 d 2 -9 d 3 -8 d 2 -8 d 3 -7 d 2 -7 d 3 -5 d 2 -5 d 2 -5 d 3 -3 d 2 -4 d 3 -2 d 2 -3 d 5 -3 d 5 -2 d 5 -2 d 5 X 10 -1 d 10 X 20 -1 d 159 X s 1 0 0 c[  ] 0 sd black 1 0 0 c 122 865 m cl s 122 865 m 20 X 20 1 d 20 1 d 20 1 d
 19 1 d 20 1 d 20 1 d 20 1 d 20 2 d 20 2 d 10 2 d 5 1 d 4 2 d 5 3 d 3 2 d 2 2 d 3 3 d 2 4 d 3 5 d 2 6 d 3 6 d 2 7 d 3 8 d 2 8 d 3 10 d 2 9 d 3 11 d 2 10 d 10 44 d 3 11 d 2 9 d 3 9 d 2 7 d 2 7 d 3 5 d 2 3 d 2 1 d 1 1 d 4 X 1 -1 d 2 -3 d 3 -5 d 2 -6 d
 3 -7 d 2 -8 d 3 -9 d 2 -10 d 3 -11 d 5 -22 d 5 -21 d 2 -10 d 3 -10 d 2 -9 d 3 -9 d 2 -7 d 3 -7 d 2 -7 d 3 -5 d 2 -5 d 2 -5 d 3 -3 d 2 -3 d 3 -3 d 2 -2 d 5 -3 d 5 -2 d 5 -2 d 5 X 10 -1 d 10 X 20 1 d 20 1 d 20 X 19 1 d 20 1 d 20 X 20 1 d 20 1 d 20 X s
 black 6 lw 122 735 m 576 X s 241 750 m -15 Y s 281 743 m -8 Y s 321 743 m -8 Y s 360 743 m -8 Y s 400 743 m -8 Y s 440 750 m -15 Y s 479 743 m -8 Y s 519 743 m -8 Y s 559 743 m -8 Y s 598 743 m -8 Y s 638 750 m -15 Y s 241 750 m -15 Y s 202 743 m -8
 Y s 162 743 m -8 Y s 122 743 m -8 Y s 638 750 m -15 Y s 678 743 m -8 Y s 122 1219 m 576 X s 241 1204 m 15 Y s 281 1211 m 8 Y s 321 1211 m 8 Y s 360 1211 m 8 Y s 400 1211 m 8 Y s 440 1204 m 15 Y s 479 1211 m 8 Y s 519 1211 m 8 Y s 559 1211 m 8 Y s
 598 1211 m 8 Y s 638 1204 m 15 Y s 241 1204 m 15 Y s 202 1211 m 8 Y s 162 1211 m 8 Y s 122 1211 m 8 Y s 638 1204 m 15 Y s 678 1211 m 8 Y s 122 735 m 484 Y s 139 735 m -17 X s 131 746 m -9 X s 131 756 m -9 X s 131 767 m -9 X s 131 777 m -9 X s 139
 788 m -17 X s 131 798 m -9 X s 131 808 m -9 X s 131 819 m -9 X s 131 829 m -9 X s 139 840 m -17 X s 131 850 m -9 X s 131 861 m -9 X s 131 871 m -9 X s 131 881 m -9 X s 139 892 m -17 X s 131 902 m -9 X s 131 913 m -9 X s 131 923 m -9 X s 131 934 m -9
 X s 139 944 m -17 X s 131 954 m -9 X s 131 965 m -9 X s 131 975 m -9 X s 131 986 m -9 X s 139 996 m -17 X s 131 1007 m -9 X s 131 1017 m -9 X s 131 1027 m -9 X s 131 1038 m -9 X s 139 1048 m -17 X s 131 1059 m -9 X s 131 1069 m -9 X s 131 1079 m -9
 X s 131 1090 m -9 X s 139 1100 m -17 X s 131 1111 m -9 X s 131 1121 m -9 X s 131 1132 m -9 X s 131 1142 m -9 X s 139 1152 m -17 X s 131 1163 m -9 X s 131 1173 m -9 X s 131 1184 m -9 X s 131 1194 m -9 X s 139 1205 m -17 X s 139 1205 m -17 X s 131
 1215 m -9 X s 698 735 m 484 Y s 681 735 m 17 X s 689 746 m 9 X s 689 756 m 9 X s 689 767 m 9 X s 689 777 m 9 X s 681 788 m 17 X s 689 798 m 9 X s 689 808 m 9 X s 689 819 m 9 X s 689 829 m 9 X s 681 840 m 17 X s 689 850 m 9 X s 689 861 m 9 X s 689
 871 m 9 X s 689 881 m 9 X s 681 892 m 17 X s 689 902 m 9 X s 689 913 m 9 X s 689 923 m 9 X s 689 934 m 9 X s 681 944 m 17 X s 689 954 m 9 X s 689 965 m 9 X s 689 975 m 9 X s 689 986 m 9 X s 681 996 m 17 X s 689 1007 m 9 X s 689 1017 m 9 X s 689 1027
 m 9 X s 689 1038 m 9 X s 681 1048 m 17 X s 689 1059 m 9 X s 689 1069 m 9 X s 689 1079 m 9 X s 689 1090 m 9 X s 681 1100 m 17 X s 689 1111 m 9 X s 689 1121 m 9 X s 689 1132 m 9 X s 689 1142 m 9 X s 681 1152 m 17 X s 689 1163 m 9 X s 689 1173 m 9 X s
 689 1184 m 9 X s 689 1194 m 9 X s 681 1205 m 17 X s 681 1205 m 17 X s 689 1215 m 9 X s
 gsave  710 611 23 650 C 312.854 1063.7 t 0 r /Helvetica findfont 22.7926 sf 0 0 m ( = 5 TeV) show NC gr 
 gsave  710 611 23 650 C 291.997 1056.12 t 0 r /Helvetica findfont 15.1951 sf 0 0 m (NN) show NC gr 
 gsave  710 611 23 650 C 280.62 1063.7 t 0 r /Helvetica findfont 22.7926 sf 0 0 m (s) show NC gr  271 1077 m 4 -21 d s 0 lw 275 1056 m 4 29 d s 279 1085 m 34 X s
 gsave  710 611 23 650 C 163.063 1063.7 t 0 r /Helvetica findfont 22.7926 sf 0 0 m (pPb\(Pwd\) ) show NC gr 
 gsave  710 611 23 650 C 163.063 1099.73 t 0 r /Helvetica findfont 28.4907 sf 0 0 m (Preliminary) show NC gr 
 gsave  710 611 23 650 C 163.063 1130.07 t 0 r /Helvetica findfont 28.4907 sf 0 0 m (LHCb) show NC gr 
 gsave  710 611 23 650 C 455.06 1109.21 t 0 r /Helvetica findfont 28.4907 sf 0 0 m (1.5< y <2.0) show NC gr 
 gsave  710 611 23 650 C 530.904 1078.87 t 0 r /Helvetica findfont 28.4907 sf 0 0 m ( <14 GeV/c) show NC gr 
 gsave  710 611 23 650 C 519.527 1063.7 t 0 r /Helvetica findfont 18.9938 sf 0 0 m (T) show NC gr 
 gsave  710 611 23 650 C 455.06 1078.87 t 0 r /Helvetica findfont 28.4907 sf 0 0 m ( 0< p) show NC gr  6 lw 1 1 1 c 710 611 779 650 bf black 1 1 1 c 576 484 878 735 bf black 576 484 878 735 bl 1 1 1 c 576 484 878 735 bf black 576 484 878 735 bl 878
 735 m 576 X s
 gsave  710 611 779 650 C 1444.82 665.526 t 0 r /Helvetica findfont 34.1889 sf 0 0 m (]) show NC gr 
 gsave  710 611 779 650 C 1431.54 680.694 t 0 r /Helvetica findfont 22.7926 sf 0 0 m (2) show NC gr 
 gsave  710 611 779 650 C 1315.88 665.526 t 0 r /Helvetica findfont 34.1889 sf 0 0 m ( [MeV/c) show NC gr 
 gsave  710 611 779 650 C 1302.61 657.941 t 0 r /Symbol findfont 22.7926 sf 0 0 m (m) show NC gr 
 gsave  710 611 779 650 C 1289.34 657.941 t 0 r /Symbol findfont 22.7926 sf 0 0 m (m) show NC gr 
 gsave  710 611 779 650 C 1262.79 665.526 t 0 r /Helvetica findfont 34.1889 sf 0 0 m (m) show NC gr  997 750 m -15 Y s 1037 743 m -8 Y s 1077 743 m -8 Y s 1116 743 m -8 Y s 1156 743 m -8 Y s 1196 750 m -15 Y s 1235 743 m -8 Y s 1275 743 m -8 Y s 1315
 743 m -8 Y s 1354 743 m -8 Y s 1394 750 m -15 Y s 997 750 m -15 Y s 957 743 m -8 Y s 918 743 m -8 Y s 878 743 m -8 Y s 1394 750 m -15 Y s 1434 743 m -8 Y s
 gsave  710 611 779 650 C 963.211 703.447 t 0 r /Helvetica findfont 28.4907 sf 0 0 m (3600) show NC gr 
 gsave  710 611 779 650 C 1162.3 703.447 t 0 r /Helvetica findfont 28.4907 sf 0 0 m (3700) show NC gr 
 gsave  710 611 779 650 C 1361.39 703.447 t 0 r /Helvetica findfont 28.4907 sf 0 0 m (3800) show NC gr  878 1219 m 576 X s 997 1204 m 15 Y s 1037 1211 m 8 Y s 1077 1211 m 8 Y s 1116 1211 m 8 Y s 1156 1211 m 8 Y s 1196 1204 m 15 Y s 1235 1211 m 8 Y s
 1275 1211 m 8 Y s 1315 1211 m 8 Y s 1354 1211 m 8 Y s 1394 1204 m 15 Y s 997 1204 m 15 Y s 957 1211 m 8 Y s 918 1211 m 8 Y s 878 1211 m 8 Y s 1394 1204 m 15 Y s 1434 1211 m 8 Y s 878 735 m 484 Y s
 gsave  710 611 779 650 C 822.9 1209.7 t 90 r /Helvetica findfont 34.1889 sf 0 0 m (\)) show NC gr 
 gsave  710 611 779 650 C 807.732 1196.43 t 90 r /Helvetica findfont 22.7926 sf 0 0 m (2) show NC gr 
 gsave  710 611 779 650 C 822.9 908.224 t 90 r /Helvetica findfont 34.1889 sf 0 0 m (Events / \(10 MeV/c) show NC gr  895 735 m -17 X s 886 746 m -8 X s 886 757 m -8 X s 886 767 m -8 X s 886 778 m -8 X s 895 788 m -17 X s 886 799 m -8 X s 886 810 m
 -8 X s 886 820 m -8 X s 886 831 m -8 X s 895 841 m -17 X s 886 852 m -8 X s 886 863 m -8 X s 886 873 m -8 X s 886 884 m -8 X s 895 894 m -17 X s 886 905 m -8 X s 886 916 m -8 X s 886 926 m -8 X s 886 937 m -8 X s 895 947 m -17 X s 886 958 m -8 X s
 886 969 m -8 X s 886 979 m -8 X s 886 990 m -8 X s 895 1000 m -17 X s 886 1011 m -8 X s 886 1022 m -8 X s 886 1032 m -8 X s 886 1043 m -8 X s 895 1053 m -17 X s 886 1064 m -8 X s 886 1075 m -8 X s 886 1085 m -8 X s 886 1096 m -8 X s 895 1106 m -17 X
 s 886 1117 m -8 X s 886 1128 m -8 X s 886 1138 m -8 X s 886 1149 m -8 X s 895 1159 m -17 X s 886 1170 m -8 X s 886 1181 m -8 X s 886 1191 m -8 X s 886 1202 m -8 X s 895 1212 m -17 X s 895 1212 m -17 X s
 gsave  710 611 779 650 C 858.926 724.304 t 0 r /Helvetica findfont 28.4907 sf 0 0 m (0) show NC gr 
 gsave  710 611 779 650 C 843.757 777.394 t 0 r /Helvetica findfont 28.4907 sf 0 0 m (10) show NC gr 
 gsave  710 611 779 650 C 843.757 830.485 t 0 r /Helvetica findfont 28.4907 sf 0 0 m (20) show NC gr 
 gsave  710 611 779 650 C 843.757 883.575 t 0 r /Helvetica findfont 28.4907 sf 0 0 m (30) show NC gr 
 gsave  710 611 779 650 C 843.757 936.666 t 0 r /Helvetica findfont 28.4907 sf 0 0 m (40) show NC gr 
 gsave  710 611 779 650 C 843.757 989.756 t 0 r /Helvetica findfont 28.4907 sf 0 0 m (50) show NC gr 
 gsave  710 611 779 650 C 843.757 1042.85 t 0 r /Helvetica findfont 28.4907 sf 0 0 m (60) show NC gr 
 gsave  710 611 779 650 C 843.757 1095.94 t 0 r /Helvetica findfont 28.4907 sf 0 0 m (70) show NC gr 
 gsave  710 611 779 650 C 843.757 1149.03 t 0 r /Helvetica findfont 28.4907 sf 0 0 m (80) show NC gr 
 gsave  710 611 779 650 C 843.757 1202.12 t 0 r /Helvetica findfont 28.4907 sf 0 0 m (90) show NC gr  1454 735 m 484 Y s 1437 735 m 17 X s 1445 746 m 9 X s 1445 757 m 9 X s 1445 767 m 9 X s 1445 778 m 9 X s 1437 788 m 17 X s 1445 799 m 9 X s 1445 810
 m 9 X s 1445 820 m 9 X s 1445 831 m 9 X s 1437 841 m 17 X s 1445 852 m 9 X s 1445 863 m 9 X s 1445 873 m 9 X s 1445 884 m 9 X s 1437 894 m 17 X s 1445 905 m 9 X s 1445 916 m 9 X s 1445 926 m 9 X s 1445 937 m 9 X s 1437 947 m 17 X s 1445 958 m 9 X s
 1445 969 m 9 X s 1445 979 m 9 X s 1445 990 m 9 X s 1437 1000 m 17 X s 1445 1011 m 9 X s 1445 1022 m 9 X s 1445 1032 m 9 X s 1445 1043 m 9 X s 1437 1053 m 17 X s 1445 1064 m 9 X s 1445 1075 m 9 X s 1445 1085 m 9 X s 1445 1096 m 9 X s 1437 1106 m 17 X
 s 1445 1117 m 9 X s 1445 1128 m 9 X s 1445 1138 m 9 X s 1445 1149 m 9 X s 1437 1159 m 17 X s 1445 1170 m 9 X s 1445 1181 m 9 X s 1445 1191 m 9 X s 1445 1202 m 9 X s 1437 1212 m 17 X s 1437 1212 m 17 X s 888 953 m -10 X s 878 949 m 8 Y s 888 953 m 10
 X s 898 949 m 8 Y s 888 953 m 39 Y s 884 992 m 8 X s 888 953 m -34 Y s 884 919 m 8 X s 908 953 m -10 X s 898 949 m 8 Y s 908 953 m 10 X s 918 949 m 8 Y s 908 953 m 39 Y s 904 992 m 8 X s 908 953 m -34 Y s 904 919 m 8 X s 928 990 m -10 X s 918 986 m
 8 Y s 928 990 m 10 X s 938 986 m 8 Y s 928 990 m 42 Y s 924 1032 m 7 X s 928 990 m -37 Y s 924 953 m 7 X s 948 974 m -10 X s 938 970 m 8 Y s 948 974 m 9 X s 957 970 m 8 Y s 948 974 m 41 Y s 944 1015 m 7 X s 948 974 m -35 Y s 944 939 m 7 X s 967 1000
 m -10 X s 957 997 m 7 Y s 967 1000 m 10 X s 977 997 m 7 Y s 967 1000 m 44 Y s 964 1044 m 7 X s 967 1000 m -37 Y s 964 963 m 7 X s 987 932 m -10 X s 977 928 m 7 Y s 987 932 m 10 X s 997 928 m 7 Y s 987 932 m 37 Y s 983 969 m 8 X s 987 932 m -33 Y s
 983 899 m 8 X s 1007 958 m -10 X s 997 954 m 8 Y s 1007 958 m 10 X s 1017 954 m 8 Y s 1007 958 m 40 Y s 1003 998 m 8 X s 1007 958 m -34 Y s 1003 924 m 8 X s 1027 963 m -10 X s 1017 960 m 7 Y s 1027 963 m 10 X s 1037 960 m 7 Y s 1027 963 m 41 Y s
 1023 1004 m 8 X s 1027 963 m -34 Y s 1023 929 m 8 X s 1047 926 m -10 X s 1037 922 m 8 Y s 1047 926 m 10 X s 1057 922 m 8 Y s 1047 926 m 38 Y s 1043 964 m 8 X s 1047 926 m -31 Y s 1043 895 m 8 X s 1067 1016 m -10 X s 1057 1013 m 7 Y s 1067 1016 m 10
 X s 1077 1013 m 7 Y s 1067 1016 m 45 Y s 1063 1061 m 7 X s 1067 1016 m -38 Y s 1063 978 m 7 X s 1086 942 m -9 X s 1077 938 m 8 Y s 1086 942 m 10 X s 1096 938 m 8 Y s 1086 942 m 39 Y s 1083 981 m 7 X s 1086 942 m -33 Y s 1083 909 m 7 X s 1106 979 m
 -10 X s 1096 975 m 8 Y s 1106 979 m 10 X s 1116 975 m 8 Y s 1106 979 m 42 Y s 1103 1021 m 7 X s 1106 979 m -36 Y s 1103 943 m 7 X s 1126 1011 m -10 X s 1116 1007 m 8 Y s 1126 1011 m 10 X s 1136 1007 m 8 Y s 1126 1011 m 44 Y s 1122 1055 m 8 X s 1126
 1011 m -38 Y s 1122 973 m 8 X s 1146 1085 m -10 X s 1136 1081 m 8 Y s 1146 1085 m 10 X s 1156 1081 m 8 Y s 1146 1085 m 49 Y s 1142 1134 m 8 X s 1146 1085 m -43 Y s 1142 1042 m 8 X s 1166 1144 m -10 X s 1156 1140 m 7 Y s 1166 1144 m 10 X s 1176 1140
 m 7 Y s 1166 1144 m 52 Y s 1162 1196 m 8 X s 1166 1144 m -47 Y s 1162 1097 m 8 X s 1186 1064 m -10 X s 1176 1060 m 8 Y s 1186 1064 m 10 X s 1196 1060 m 8 Y s 1186 1064 m 47 Y s 1182 1111 m 7 X s 1186 1064 m -42 Y s 1182 1022 m 7 X s 1206 1069 m -10
 X s 1196 1066 m 7 Y s 1206 1069 m 9 X s 1215 1066 m 7 Y s 1206 1069 m 48 Y s 1202 1117 m 7 X s 1206 1069 m -42 Y s 1202 1027 m 7 X s 1225 969 m -10 X s 1215 965 m 7 Y s 1225 969 m 10 X s 1235 965 m 7 Y s 1225 969 m 40 Y s 1222 1009 m 7 X s 1225 969
 m -35 Y s 1222 934 m 7 X s 1245 937 m -10 X s 1235 933 m 8 Y s 1245 937 m 10 X s 1255 933 m 8 Y s 1245 937 m 38 Y s 1241 975 m 8 X s 1245 937 m -33 Y s 1241 904 m 8 X s 1265 905 m -10 X s 1255 901 m 8 Y s 1265 905 m 10 X s 1275 901 m 8 Y s 1265 905
 m 36 Y s 1261 941 m 8 X s 1265 905 m -30 Y s 1261 875 m 8 X s 1285 942 m -10 X s 1275 938 m 8 Y s 1285 942 m 10 X s 1295 938 m 8 Y s 1285 942 m 39 Y s 1281 981 m 8 X s 1285 942 m -33 Y s 1281 909 m 8 X s 1305 985 m -10 X s 1295 981 m 7 Y s 1305 985
 m 10 X s 1315 981 m 7 Y s 1305 985 m 41 Y s 1301 1026 m 8 X s 1305 985 m -37 Y s 1301 948 m 8 X s 1325 958 m -10 X s 1315 954 m 8 Y s 1325 958 m 10 X s 1335 954 m 8 Y s 1325 958 m 40 Y s 1321 998 m 7 X s 1325 958 m -34 Y s 1321 924 m 7 X s 1344 921
 m -9 X s 1335 917 m 8 Y s 1344 921 m 10 X s 1354 917 m 8 Y s 1344 921 m 37 Y s 1341 958 m 7 X s 1344 921 m -31 Y s 1341 890 m 7 X s 1364 958 m -10 X s 1354 954 m 8 Y s 1364 958 m 10 X s 1374 954 m 8 Y s 1364 958 m 40 Y s 1361 998 m 7 X s 1364 958 m
 -34 Y s 1361 924 m 7 X s 1384 974 m -10 X s 1374 970 m 8 Y s 1384 974 m 10 X s 1394 970 m 8 Y s 1384 974 m 41 Y s 1380 1015 m 8 X s 1384 974 m -35 Y s 1380 939 m 8 X s 1404 894 m -10 X s 1394 891 m 7 Y s 1404 894 m 10 X s 1414 891 m 7 Y s 1404 894 m
 35 Y s 1400 929 m 8 X s 1404 894 m -28 Y s 1400 866 m 8 X s 1424 947 m -10 X s 1414 944 m 7 Y s 1424 947 m 10 X s 1434 944 m 7 Y s 1424 947 m 40 Y s 1420 987 m 8 X s 1424 947 m -33 Y s 1420 914 m 8 X s 1444 942 m -10 X s 1434 938 m 8 Y s 1444 942 m
 10 X s 1454 938 m 8 Y s 1444 942 m 39 Y s 1440 981 m 7 X s 1444 942 m -33 Y s 1440 909 m 7 X s 3 lw 888 953 908 953 928 990 948 974 967 1000 987 932 1007 958 1027 963 1047 926 1067 1016 1086 942 1106 979 1126 1011 1146 1085 1166 1144 1186 1064 1206
 1069 1225 969 1245 937 1265 905 1285 942 1305 985 1325 958 1344 921 1364 958 1384 974 1404 894 1424 947 1444 942 29 { m20} R 6 lw 0 1 0 c[ 4 8] 0 sd 9 lw black 0 1 0 c 878 968 m cl s 878 968 m 20 -1 d 20 -1 d 20 -1 d 19 -1 d 20 -1 d 20 -2 d 20 -1 d
 20 -1 d 20 -1 d 20 -1 d 19 -1 d 20 -1 d 20 -1 d 20 -1 d 20 -1 d 20 -1 d 19 -1 d 20 -1 d 20 -1 d 20 -1 d 20 -1 d 20 -1 d 20 -1 d 19 -1 d 20 -1 d 20 -1 d 20 -1 d 20 -1 d 20 -1 d s 0 0 1 c[ 12 12] 0 sd black 0 0 1 c 878 737 m cl s 878 737 m 99 X 20 1 d
 40 X 20 1 d 20 2 d 9 1 d 10 2 d 5 2 d 5 3 d 3 2 d 2 2 d 3 4 d 2 4 d 3 5 d 2 6 d 3 6 d 2 7 d 3 8 d 2 8 d 3 9 d 2 9 d 5 19 d 5 20 d 2 10 d 3 9 d 2 9 d 3 8 d 2 7 d 3 6 d 2 5 d 3 4 d 1 1 d 1 1 d 4 X 1 -1 d 2 -1 d 1 -1 d 2 -4 d 3 -5 d 2 -7 d 3 -7 d 2 -8
 d 3 -9 d 5 -20 d 5 -20 d 5 -19 d 2 -9 d 2 -9 d 3 -8 d 2 -7 d 3 -7 d 2 -6 d 3 -5 d 2 -5 d 3 -4 d 2 -4 d 3 -3 d 2 -2 d 3 -3 d 2 -1 d 5 -3 d 5 -2 d 5 -1 d 10 -1 d 10 X 20 -1 d 159 X s 1 0 0 c[  ] 0 sd black 1 0 0 c 878 969 m cl s 878 969 m 20 -1 d 20
 -1 d 20 -1 d 19 -1 d 20 -1 d 20 X 20 -1 d 20 -1 d 20 X 20 1 d 9 1 d 10 1 d 5 2 d 5 2 d 3 2 d 2 2 d 3 4 d 2 4 d 3 5 d 2 5 d 3 6 d 2 7 d 3 8 d 2 8 d 3 8 d 2 10 d 5 19 d 5 20 d 2 9 d 3 9 d 2 9 d 3 8 d 2 7 d 3 6 d 2 5 d 3 3 d 2 2 d 3 X 2 -1 d 3 -3 d 2
 -4 d 3 -5 d 2 -6 d 3 -8 d 2 -8 d 3 -9 d 5 -20 d 5 -20 d 5 -20 d 2 -9 d 2 -9 d 3 -8 d 2 -8 d 3 -6 d 2 -7 d 3 -5 d 2 -5 d 3 -4 d 2 -4 d 3 -3 d 2 -3 d 5 -4 d 5 -3 d 5 -2 d 5 -1 d 10 -2 d 10 -1 d 20 -1 d 20 -1 d 20 -1 d 19 -1 d 20 -1 d 20 -1 d 20 -1 d
 20 -1 d 20 -1 d s black 6 lw 878 735 m 576 X s 997 750 m -15 Y s 1037 743 m -8 Y s 1077 743 m -8 Y s 1116 743 m -8 Y s 1156 743 m -8 Y s 1196 750 m -15 Y s 1235 743 m -8 Y s 1275 743 m -8 Y s 1315 743 m -8 Y s 1354 743 m -8 Y s 1394 750 m -15 Y s
 997 750 m -15 Y s 957 743 m -8 Y s 918 743 m -8 Y s 878 743 m -8 Y s 1394 750 m -15 Y s 1434 743 m -8 Y s 878 1219 m 576 X s 997 1204 m 15 Y s 1037 1211 m 8 Y s 1077 1211 m 8 Y s 1116 1211 m 8 Y s 1156 1211 m 8 Y s 1196 1204 m 15 Y s 1235 1211 m 8 Y
 s 1275 1211 m 8 Y s 1315 1211 m 8 Y s 1354 1211 m 8 Y s 1394 1204 m 15 Y s 997 1204 m 15 Y s 957 1211 m 8 Y s 918 1211 m 8 Y s 878 1211 m 8 Y s 1394 1204 m 15 Y s 1434 1211 m 8 Y s 878 735 m 484 Y s 895 735 m -17 X s 886 746 m -8 X s 886 757 m -8 X
 s 886 767 m -8 X s 886 778 m -8 X s 895 788 m -17 X s 886 799 m -8 X s 886 810 m -8 X s 886 820 m -8 X s 886 831 m -8 X s 895 841 m -17 X s 886 852 m -8 X s 886 863 m -8 X s 886 873 m -8 X s 886 884 m -8 X s 895 894 m -17 X s 886 905 m -8 X s 886
 916 m -8 X s 886 926 m -8 X s 886 937 m -8 X s 895 947 m -17 X s 886 958 m -8 X s 886 969 m -8 X s 886 979 m -8 X s 886 990 m -8 X s 895 1000 m -17 X s 886 1011 m -8 X s 886 1022 m -8 X s 886 1032 m -8 X s 886 1043 m -8 X s 895 1053 m -17 X s 886
 1064 m -8 X s 886 1075 m -8 X s 886 1085 m -8 X s 886 1096 m -8 X s 895 1106 m -17 X s 886 1117 m -8 X s 886 1128 m -8 X s 886 1138 m -8 X s 886 1149 m -8 X s 895 1159 m -17 X s 886 1170 m -8 X s 886 1181 m -8 X s 886 1191 m -8 X s 886 1202 m -8 X s
 895 1212 m -17 X s 895 1212 m -17 X s 1454 735 m 484 Y s 1437 735 m 17 X s 1445 746 m 9 X s 1445 757 m 9 X s 1445 767 m 9 X s 1445 778 m 9 X s 1437 788 m 17 X s 1445 799 m 9 X s 1445 810 m 9 X s 1445 820 m 9 X s 1445 831 m 9 X s 1437 841 m 17 X s
 1445 852 m 9 X s 1445 863 m 9 X s 1445 873 m 9 X s 1445 884 m 9 X s 1437 894 m 17 X s 1445 905 m 9 X s 1445 916 m 9 X s 1445 926 m 9 X s 1445 937 m 9 X s 1437 947 m 17 X s 1445 958 m 9 X s 1445 969 m 9 X s 1445 979 m 9 X s 1445 990 m 9 X s 1437 1000
 m 17 X s 1445 1011 m 9 X s 1445 1022 m 9 X s 1445 1032 m 9 X s 1445 1043 m 9 X s 1437 1053 m 17 X s 1445 1064 m 9 X s 1445 1075 m 9 X s 1445 1085 m 9 X s 1445 1096 m 9 X s 1437 1106 m 17 X s 1445 1117 m 9 X s 1445 1128 m 9 X s 1445 1138 m 9 X s 1445
 1149 m 9 X s 1437 1159 m 17 X s 1445 1170 m 9 X s 1445 1181 m 9 X s 1445 1191 m 9 X s 1445 1202 m 9 X s 1437 1212 m 17 X s 1437 1212 m 17 X s
 gsave  710 611 779 650 C 1069.39 788.771 t 0 r /Helvetica findfont 22.7926 sf 0 0 m ( = 5 TeV) show NC gr 
 gsave  710 611 779 650 C 1048.53 781.187 t 0 r /Helvetica findfont 15.1951 sf 0 0 m (NN) show NC gr 
 gsave  710 611 779 650 C 1037.16 788.771 t 0 r /Helvetica findfont 22.7926 sf 0 0 m (s) show NC gr  1028 802 m 3 -21 d s 0 lw 1031 781 m 4 29 d s 1035 810 m 34 X s
 gsave  710 611 779 650 C 919.601 788.771 t 0 r /Helvetica findfont 22.7926 sf 0 0 m (pPb\(Pwd\) ) show NC gr 
 gsave  710 611 779 650 C 919.601 824.797 t 0 r /Helvetica findfont 28.4907 sf 0 0 m (Preliminary) show NC gr 
 gsave  710 611 779 650 C 919.601 855.134 t 0 r /Helvetica findfont 28.4907 sf 0 0 m (LHCb) show NC gr 
 gsave  710 611 779 650 C 1211.6 834.277 t 0 r /Helvetica findfont 28.4907 sf 0 0 m (2.0< y <2.5) show NC gr 
 gsave  710 611 779 650 C 1287.44 803.94 t 0 r /Helvetica findfont 28.4907 sf 0 0 m ( <14 GeV/c) show NC gr 
 gsave  710 611 779 650 C 1276.06 788.771 t 0 r /Helvetica findfont 18.9938 sf 0 0 m (T) show NC gr 
 gsave  710 611 779 650 C 1211.6 803.94 t 0 r /Helvetica findfont 28.4907 sf 0 0 m ( 0< p) show NC gr  6 lw 1 1 1 c 711 611 1534 650 bf black 1 1 1 c 576 484 1634 735 bf black 576 484 1634 735 bl 1 1 1 c 576 484 1634 735 bf black 576 484 1634 735 bl
 1634 735 m 576 X s
 gsave  711 611 1534 650 C 2201.35 665.526 t 0 r /Helvetica findfont 34.1889 sf 0 0 m (]) show NC gr 
 gsave  711 611 1534 650 C 2188.08 680.694 t 0 r /Helvetica findfont 22.7926 sf 0 0 m (2) show NC gr 
 gsave  711 611 1534 650 C 2072.42 665.526 t 0 r /Helvetica findfont 34.1889 sf 0 0 m ( [MeV/c) show NC gr 
 gsave  711 611 1534 650 C 2059.15 657.941 t 0 r /Symbol findfont 22.7926 sf 0 0 m (m) show NC gr 
 gsave  711 611 1534 650 C 2045.87 657.941 t 0 r /Symbol findfont 22.7926 sf 0 0 m (m) show NC gr 
 gsave  711 611 1534 650 C 2019.33 665.526 t 0 r /Helvetica findfont 34.1889 sf 0 0 m (m) show NC gr  1753 750 m -15 Y s 1793 743 m -8 Y s 1832 743 m -8 Y s 1872 743 m -8 Y s 1912 743 m -8 Y s 1952 750 m -15 Y s 1991 743 m -8 Y s 2031 743 m -8 Y s
 2071 743 m -8 Y s 2110 743 m -8 Y s 2150 750 m -15 Y s 1753 750 m -15 Y s 1713 743 m -8 Y s 1674 743 m -8 Y s 1634 743 m -8 Y s 2150 750 m -15 Y s 2190 743 m -8 Y s
 gsave  711 611 1534 650 C 1719.75 703.447 t 0 r /Helvetica findfont 28.4907 sf 0 0 m (3600) show NC gr 
 gsave  711 611 1534 650 C 1918.84 703.447 t 0 r /Helvetica findfont 28.4907 sf 0 0 m (3700) show NC gr 
 gsave  711 611 1534 650 C 2116.03 703.447 t 0 r /Helvetica findfont 28.4907 sf 0 0 m (3800) show NC gr  1634 1219 m 576 X s 1753 1204 m 15 Y s 1793 1211 m 8 Y s 1832 1211 m 8 Y s 1872 1211 m 8 Y s 1912 1211 m 8 Y s 1952 1204 m 15 Y s 1991 1211 m 8 Y
 s 2031 1211 m 8 Y s 2071 1211 m 8 Y s 2110 1211 m 8 Y s 2150 1204 m 15 Y s 1753 1204 m 15 Y s 1713 1211 m 8 Y s 1674 1211 m 8 Y s 1634 1211 m 8 Y s 2150 1204 m 15 Y s 2190 1211 m 8 Y s 1634 735 m 484 Y s
 gsave  711 611 1534 650 C 1577.54 1209.7 t 90 r /Helvetica findfont 34.1889 sf 0 0 m (\)) show NC gr 
 gsave  711 611 1534 650 C 1562.37 1196.43 t 90 r /Helvetica findfont 22.7926 sf 0 0 m (2) show NC gr 
 gsave  711 611 1534 650 C 1577.54 908.224 t 90 r /Helvetica findfont 34.1889 sf 0 0 m (Events / \(10 MeV/c) show NC gr  1651 735 m -17 X s 1642 746 m -8 X s 1642 756 m -8 X s 1642 766 m -8 X s 1642 776 m -8 X s 1651 786 m -17 X s 1642 796 m -8 X s
 1642 806 m -8 X s 1642 816 m -8 X s 1642 826 m -8 X s 1651 837 m -17 X s 1642 847 m -8 X s 1642 857 m -8 X s 1642 867 m -8 X s 1642 877 m -8 X s 1651 887 m -17 X s 1642 897 m -8 X s 1642 907 m -8 X s 1642 917 m -8 X s 1642 928 m -8 X s 1651 938 m
 -17 X s 1642 948 m -8 X s 1642 958 m -8 X s 1642 968 m -8 X s 1642 978 m -8 X s 1651 988 m -17 X s 1642 998 m -8 X s 1642 1008 m -8 X s 1642 1019 m -8 X s 1642 1029 m -8 X s 1651 1039 m -17 X s 1642 1049 m -8 X s 1642 1059 m -8 X s 1642 1069 m -8 X
 s 1642 1079 m -8 X s 1651 1089 m -17 X s 1642 1099 m -8 X s 1642 1109 m -8 X s 1642 1120 m -8 X s 1642 1130 m -8 X s 1651 1140 m -17 X s 1642 1150 m -8 X s 1642 1160 m -8 X s 1642 1170 m -8 X s 1642 1180 m -8 X s 1651 1190 m -17 X s 1651 1190 m -17
 X s 1642 1200 m -8 X s 1642 1211 m -8 X s
 gsave  711 611 1534 650 C 1613.57 724.304 t 0 r /Helvetica findfont 28.4907 sf 0 0 m (0) show NC gr 
 gsave  711 611 1534 650 C 1598.4 775.498 t 0 r /Helvetica findfont 28.4907 sf 0 0 m (10) show NC gr 
 gsave  711 611 1534 650 C 1598.4 826.693 t 0 r /Helvetica findfont 28.4907 sf 0 0 m (20) show NC gr 
 gsave  711 611 1534 650 C 1598.4 875.991 t 0 r /Helvetica findfont 28.4907 sf 0 0 m (30) show NC gr 
 gsave  711 611 1534 650 C 1598.4 927.185 t 0 r /Helvetica findfont 28.4907 sf 0 0 m (40) show NC gr 
 gsave  711 611 1534 650 C 1598.4 978.379 t 0 r /Helvetica findfont 28.4907 sf 0 0 m (50) show NC gr 
 gsave  711 611 1534 650 C 1598.4 1027.68 t 0 r /Helvetica findfont 28.4907 sf 0 0 m (60) show NC gr 
 gsave  711 611 1534 650 C 1598.4 1078.87 t 0 r /Helvetica findfont 28.4907 sf 0 0 m (70) show NC gr 
 gsave  711 611 1534 650 C 1598.4 1130.07 t 0 r /Helvetica findfont 28.4907 sf 0 0 m (80) show NC gr 
 gsave  711 611 1534 650 C 1598.4 1179.36 t 0 r /Helvetica findfont 28.4907 sf 0 0 m (90) show NC gr  2210 735 m 484 Y s 2193 735 m 17 X s 2201 746 m 9 X s 2201 756 m 9 X s 2201 766 m 9 X s 2201 776 m 9 X s 2193 786 m 17 X s 2201 796 m 9 X s 2201 806
 m 9 X s 2201 816 m 9 X s 2201 826 m 9 X s 2193 837 m 17 X s 2201 847 m 9 X s 2201 857 m 9 X s 2201 867 m 9 X s 2201 877 m 9 X s 2193 887 m 17 X s 2201 897 m 9 X s 2201 907 m 9 X s 2201 917 m 9 X s 2201 928 m 9 X s 2193 938 m 17 X s 2201 948 m 9 X s
 2201 958 m 9 X s 2201 968 m 9 X s 2201 978 m 9 X s 2193 988 m 17 X s 2201 998 m 9 X s 2201 1008 m 9 X s 2201 1019 m 9 X s 2201 1029 m 9 X s 2193 1039 m 17 X s 2201 1049 m 9 X s 2201 1059 m 9 X s 2201 1069 m 9 X s 2201 1079 m 9 X s 2193 1089 m 17 X s
 2201 1099 m 9 X s 2201 1109 m 9 X s 2201 1120 m 9 X s 2201 1130 m 9 X s 2193 1140 m 17 X s 2201 1150 m 9 X s 2201 1160 m 9 X s 2201 1170 m 9 X s 2201 1180 m 9 X s 2193 1190 m 17 X s 2193 1190 m 17 X s 2201 1200 m 9 X s 2201 1211 m 9 X s 1644 953 m
 -10 X s 1634 949 m 8 Y s 1644 953 m 10 X s 1654 949 m 8 Y s 1644 953 m 38 Y s 1640 991 m 8 X s 1644 953 m -33 Y s 1640 920 m 8 X s 1664 933 m -10 X s 1654 929 m 7 Y s 1664 933 m 10 X s 1674 929 m 7 Y s 1664 933 m 36 Y s 1660 969 m 8 X s 1664 933 m
 -32 Y s 1660 901 m 8 X s 1684 872 m -10 X s 1674 868 m 8 Y s 1684 872 m 10 X s 1694 868 m 8 Y s 1684 872 m 32 Y s 1680 904 m 7 X s 1684 872 m -26 Y s 1680 846 m 7 X s 1703 1029 m -9 X s 1694 1025 m 7 Y s 1703 1029 m 10 X s 1713 1025 m 7 Y s 1703
 1029 m 43 Y s 1700 1072 m 7 X s 1703 1029 m -39 Y s 1700 990 m 7 X s 1723 983 m -10 X s 1713 979 m 8 Y s 1723 983 m 10 X s 1733 979 m 8 Y s 1723 983 m 41 Y s 1719 1024 m 8 X s 1723 983 m -35 Y s 1719 948 m 8 X s 1743 978 m -10 X s 1733 974 m 8 Y s
 1743 978 m 10 X s 1753 974 m 8 Y s 1743 978 m 40 Y s 1739 1018 m 8 X s 1743 978 m -35 Y s 1739 943 m 8 X s 1763 963 m -10 X s 1753 959 m 8 Y s 1763 963 m 10 X s 1773 959 m 8 Y s 1763 963 m 39 Y s 1759 1002 m 8 X s 1763 963 m -34 Y s 1759 929 m 8 X s
 1783 993 m -10 X s 1773 989 m 8 Y s 1783 993 m 10 X s 1793 989 m 8 Y s 1783 993 m 42 Y s 1779 1035 m 8 X s 1783 993 m -36 Y s 1779 957 m 8 X s 1803 978 m -10 X s 1793 974 m 8 Y s 1803 978 m 10 X s 1813 974 m 8 Y s 1803 978 m 40 Y s 1799 1018 m 7 X s
 1803 978 m -35 Y s 1799 943 m 7 X s 1823 943 m -10 X s 1813 939 m 7 Y s 1823 943 m 9 X s 1832 939 m 7 Y s 1823 943 m 37 Y s 1819 980 m 7 X s 1823 943 m -33 Y s 1819 910 m 7 X s 1842 978 m -10 X s 1832 974 m 8 Y s 1842 978 m 10 X s 1852 974 m 8 Y s
 1842 978 m 40 Y s 1839 1018 m 7 X s 1842 978 m -35 Y s 1839 943 m 7 X s 1862 988 m -10 X s 1852 984 m 8 Y s 1862 988 m 10 X s 1872 984 m 8 Y s 1862 988 m 41 Y s 1858 1029 m 8 X s 1862 988 m -35 Y s 1858 953 m 8 X s 1882 983 m -10 X s 1872 979 m 8 Y
 s 1882 983 m 10 X s 1892 979 m 8 Y s 1882 983 m 41 Y s 1878 1024 m 8 X s 1882 983 m -35 Y s 1878 948 m 8 X s 1902 1029 m -10 X s 1892 1025 m 7 Y s 1902 1029 m 10 X s 1912 1025 m 7 Y s 1902 1029 m 43 Y s 1898 1072 m 8 X s 1902 1029 m -39 Y s 1898 990
 m 8 X s 1922 1145 m -10 X s 1912 1141 m 8 Y s 1922 1145 m 10 X s 1932 1141 m 8 Y s 1922 1145 m 51 Y s 1918 1196 m 8 X s 1922 1145 m -46 Y s 1918 1099 m 8 X s 1942 1084 m -10 X s 1932 1080 m 8 Y s 1942 1084 m 10 X s 1952 1080 m 8 Y s 1942 1084 m 47 Y
 s 1938 1131 m 7 X s 1942 1084 m -42 Y s 1938 1042 m 7 X s 1961 1029 m -9 X s 1952 1025 m 7 Y s 1961 1029 m 10 X s 1971 1025 m 7 Y s 1961 1029 m 43 Y s 1958 1072 m 7 X s 1961 1029 m -39 Y s 1958 990 m 7 X s 1981 938 m -10 X s 1971 934 m 7 Y s 1981
 938 m 10 X s 1991 934 m 7 Y s 1981 938 m 37 Y s 1977 975 m 8 X s 1981 938 m -32 Y s 1977 906 m 8 X s 2001 963 m -10 X s 1991 959 m 8 Y s 2001 963 m 10 X s 2011 959 m 8 Y s 2001 963 m 39 Y s 1997 1002 m 8 X s 2001 963 m -34 Y s 1997 929 m 8 X s 2021
 943 m -10 X s 2011 939 m 7 Y s 2021 943 m 10 X s 2031 939 m 7 Y s 2021 943 m 37 Y s 2017 980 m 8 X s 2021 943 m -33 Y s 2017 910 m 8 X s 2041 938 m -10 X s 2031 934 m 7 Y s 2041 938 m 10 X s 2051 934 m 7 Y s 2041 938 m 37 Y s 2037 975 m 8 X s 2041
 938 m -32 Y s 2037 906 m 8 X s 2061 978 m -10 X s 2051 974 m 8 Y s 2061 978 m 10 X s 2071 974 m 8 Y s 2061 978 m 40 Y s 2057 1018 m 7 X s 2061 978 m -35 Y s 2057 943 m 7 X s 2081 943 m -10 X s 2071 939 m 7 Y s 2081 943 m 9 X s 2090 939 m 7 Y s 2081
 943 m 37 Y s 2077 980 m 7 X s 2081 943 m -33 Y s 2077 910 m 7 X s 2100 948 m -10 X s 2090 944 m 8 Y s 2100 948 m 10 X s 2110 944 m 8 Y s 2100 948 m 38 Y s 2097 986 m 7 X s 2100 948 m -33 Y s 2097 915 m 7 X s 2120 978 m -10 X s 2110 974 m 8 Y s 2120
 978 m 10 X s 2130 974 m 8 Y s 2120 978 m 40 Y s 2116 1018 m 8 X s 2120 978 m -35 Y s 2116 943 m 8 X s 2140 938 m -10 X s 2130 934 m 7 Y s 2140 938 m 10 X s 2150 934 m 7 Y s 2140 938 m 37 Y s 2136 975 m 8 X s 2140 938 m -32 Y s 2136 906 m 8 X s 2160
 948 m -10 X s 2150 944 m 8 Y s 2160 948 m 10 X s 2170 944 m 8 Y s 2160 948 m 38 Y s 2156 986 m 8 X s 2160 948 m -33 Y s 2156 915 m 8 X s 2180 912 m -10 X s 2170 909 m 7 Y s 2180 912 m 10 X s 2190 909 m 7 Y s 2180 912 m 36 Y s 2176 948 m 8 X s 2180
 912 m -29 Y s 2176 883 m 8 X s 2200 968 m -10 X s 2190 964 m 8 Y s 2200 968 m 10 X s 2210 964 m 8 Y s 2200 968 m 40 Y s 2196 1008 m 7 X s 2200 968 m -34 Y s 2196 934 m 7 X s 3 lw /w 16 def /w2 {w 2 div} def /w3 {w 3 div} def 1644 953 1664 933 1684
 872 1703 1029 1723 983 1743 978 1763 963 1783 993 1803 978 1823 943 1842 978 1862 988 1882 983 1902 1029 1922 1145 1942 1084 1961 1029 1981 938 2001 963 2021 943 2041 938 2061 978 2081 943 2100 948 2120 978 2140 938 2160 948 2180 912 2200 968 29 {
 m20} R 6 lw 0 1 0 c[ 4 8] 0 sd 9 lw black 0 1 0 c 1634 961 m cl s 1634 961 m 20 X 20 -1 d 20 X 19 -1 d 20 X 20 -1 d 20 X 20 -1 d 20 X 19 -1 d 20 X 20 -1 d 20 X 20 -1 d 20 X 20 -1 d 19 X 20 -1 d 20 X 20 -1 d 20 X 20 -1 d 19 X 20 -1 d 20 X 20 -1 d 20
 X 20 -1 d 20 X s 0 0 1 c[ 12 12] 0 sd black 0 0 1 c 1634 736 m cl s 1634 736 m 20 X 20 1 d 79 X 20 1 d 20 X 20 1 d 19 2 d 10 1 d 5 1 d 5 1 d 5 3 d 3 1 d 2 2 d 3 3 d 2 3 d 3 3 d 2 4 d 3 4 d 2 5 d 3 5 d 2 5 d 3 6 d 2 6 d 5 13 d 10 28 d 5 13 d 2 6 d 3
 6 d 2 5 d 3 4 d 2 4 d 3 3 d 2 2 d 3 1 d 2 X 3 -1 d 2 -1 d 3 -3 d 2 -3 d 3 -4 d 2 -5 d 3 -6 d 2 -5 d 3 -7 d 4 -13 d 5 -14 d 5 -14 d 5 -13 d 3 -6 d 2 -5 d 3 -5 d 2 -5 d 3 -4 d 2 -4 d 3 -4 d 2 -3 d 3 -3 d 2 -2 d 3 -3 d 2 -1 d 5 -3 d 5 -2 d 5 -2 d 5 -1
 d 10 -1 d 20 X 20 -1 d 139 X s 1 0 0 c[  ] 0 sd black 1 0 0 c 1634 962 m cl s 1634 962 m 20 X 20 -1 d 39 X 20 -1 d 80 X 19 1 d 10 2 d 5 X 5 2 d 5 2 d 3 1 d 2 2 d 3 3 d 2 3 d 3 3 d 2 4 d 3 4 d 2 4 d 3 5 d 2 6 d 3 6 d 2 6 d 5 13 d 10 27 d 5 13 d 2 6 d
 3 6 d 2 5 d 3 4 d 2 4 d 3 2 d 2 2 d 3 1 d 5 X 2 -2 d 3 -3 d 2 -3 d 3 -4 d 2 -5 d 3 -6 d 2 -6 d 3 -6 d 4 -13 d 5 -15 d 5 -13 d 5 -13 d 3 -6 d 2 -6 d 3 -5 d 2 -5 d 3 -4 d 2 -4 d 3 -4 d 2 -3 d 3 -3 d 2 -3 d 5 -4 d 5 -3 d 5 -2 d 5 -2 d 5 -1 d 10 -1 d 20
 -1 d 20 -1 d 19 X 20 -1 d 20 X 20 -1 d 20 X 20 -1 d 20 X s black 6 lw 1634 735 m 576 X s 1753 750 m -15 Y s 1793 743 m -8 Y s 1832 743 m -8 Y s 1872 743 m -8 Y s 1912 743 m -8 Y s 1952 750 m -15 Y s 1991 743 m -8 Y s 2031 743 m -8 Y s 2071 743 m -8
 Y s 2110 743 m -8 Y s 2150 750 m -15 Y s 1753 750 m -15 Y s 1713 743 m -8 Y s 1674 743 m -8 Y s 1634 743 m -8 Y s 2150 750 m -15 Y s 2190 743 m -8 Y s 1634 1219 m 576 X s 1753 1204 m 15 Y s 1793 1211 m 8 Y s 1832 1211 m 8 Y s 1872 1211 m 8 Y s 1912
 1211 m 8 Y s 1952 1204 m 15 Y s 1991 1211 m 8 Y s 2031 1211 m 8 Y s 2071 1211 m 8 Y s 2110 1211 m 8 Y s 2150 1204 m 15 Y s 1753 1204 m 15 Y s 1713 1211 m 8 Y s 1674 1211 m 8 Y s 1634 1211 m 8 Y s 2150 1204 m 15 Y s 2190 1211 m 8 Y s 1634 735 m 484 Y
 s 1651 735 m -17 X s 1642 746 m -8 X s 1642 756 m -8 X s 1642 766 m -8 X s 1642 776 m -8 X s 1651 786 m -17 X s 1642 796 m -8 X s 1642 806 m -8 X s 1642 816 m -8 X s 1642 826 m -8 X s 1651 837 m -17 X s 1642 847 m -8 X s 1642 857 m -8 X s 1642 867 m
 -8 X s 1642 877 m -8 X s 1651 887 m -17 X s 1642 897 m -8 X s 1642 907 m -8 X s 1642 917 m -8 X s 1642 928 m -8 X s 1651 938 m -17 X s 1642 948 m -8 X s 1642 958 m -8 X s 1642 968 m -8 X s 1642 978 m -8 X s 1651 988 m -17 X s 1642 998 m -8 X s 1642
 1008 m -8 X s 1642 1019 m -8 X s 1642 1029 m -8 X s 1651 1039 m -17 X s 1642 1049 m -8 X s 1642 1059 m -8 X s 1642 1069 m -8 X s 1642 1079 m -8 X s 1651 1089 m -17 X s 1642 1099 m -8 X s 1642 1109 m -8 X s 1642 1120 m -8 X s 1642 1130 m -8 X s 1651
 1140 m -17 X s 1642 1150 m -8 X s 1642 1160 m -8 X s 1642 1170 m -8 X s 1642 1180 m -8 X s 1651 1190 m -17 X s 1651 1190 m -17 X s 1642 1200 m -8 X s 1642 1211 m -8 X s 2210 735 m 484 Y s 2193 735 m 17 X s 2201 746 m 9 X s 2201 756 m 9 X s 2201 766
 m 9 X s 2201 776 m 9 X s 2193 786 m 17 X s 2201 796 m 9 X s 2201 806 m 9 X s 2201 816 m 9 X s 2201 826 m 9 X s 2193 837 m 17 X s 2201 847 m 9 X s 2201 857 m 9 X s 2201 867 m 9 X s 2201 877 m 9 X s 2193 887 m 17 X s 2201 897 m 9 X s 2201 907 m 9 X s
 2201 917 m 9 X s 2201 928 m 9 X s 2193 938 m 17 X s 2201 948 m 9 X s 2201 958 m 9 X s 2201 968 m 9 X s 2201 978 m 9 X s 2193 988 m 17 X s 2201 998 m 9 X s 2201 1008 m 9 X s 2201 1019 m 9 X s 2201 1029 m 9 X s 2193 1039 m 17 X s 2201 1049 m 9 X s
 2201 1059 m 9 X s 2201 1069 m 9 X s 2201 1079 m 9 X s 2193 1089 m 17 X s 2201 1099 m 9 X s 2201 1109 m 9 X s 2201 1120 m 9 X s 2201 1130 m 9 X s 2193 1140 m 17 X s 2201 1150 m 9 X s 2201 1160 m 9 X s 2201 1170 m 9 X s 2201 1180 m 9 X s 2193 1190 m
 17 X s 2193 1190 m 17 X s 2201 1200 m 9 X s 2201 1211 m 9 X s
 gsave  711 611 1534 650 C 1825.93 788.771 t 0 r /Helvetica findfont 22.7926 sf 0 0 m ( = 5 TeV) show NC gr 
 gsave  711 611 1534 650 C 1805.07 781.187 t 0 r /Helvetica findfont 15.1951 sf 0 0 m (NN) show NC gr 
 gsave  711 611 1534 650 C 1793.7 788.771 t 0 r /Helvetica findfont 22.7926 sf 0 0 m (s) show NC gr  1784 802 m 4 -21 d s 0 lw 1788 781 m 4 29 d s 1792 810 m 34 X s
 gsave  711 611 1534 650 C 1676.14 788.771 t 0 r /Helvetica findfont 22.7926 sf 0 0 m (pPb\(Pwd\) ) show NC gr 
 gsave  711 611 1534 650 C 1676.14 824.797 t 0 r /Helvetica findfont 28.4907 sf 0 0 m (Preliminary) show NC gr 
 gsave  711 611 1534 650 C 1676.14 855.134 t 0 r /Helvetica findfont 28.4907 sf 0 0 m (LHCb) show NC gr 
 gsave  711 611 1534 650 C 1966.24 834.277 t 0 r /Helvetica findfont 28.4907 sf 0 0 m (2.5< y <3.0) show NC gr 
 gsave  711 611 1534 650 C 2042.08 803.94 t 0 r /Helvetica findfont 28.4907 sf 0 0 m ( <14 GeV/c) show NC gr 
 gsave  711 611 1534 650 C 2030.71 788.771 t 0 r /Helvetica findfont 18.9938 sf 0 0 m (T) show NC gr 
 gsave  711 611 1534 650 C 1966.24 803.94 t 0 r /Helvetica findfont 28.4907 sf 0 0 m ( 0< p) show NC gr  6 lw 1 1 1 c 710 611 23 13 bf black 1 1 1 c 576 484 122 98 bf black 576 484 122 98 bl 1 1 1 c 576 484 122 98 bf black 576 484 122 98 bl 122 98 m
 576 X s
 gsave  710 611 23 13 C 688.279 28.4413 t 0 r /Helvetica findfont 34.1889 sf 0 0 m (]) show NC gr 
 gsave  710 611 23 13 C 675.006 43.6099 t 0 r /Helvetica findfont 22.7926 sf 0 0 m (2) show NC gr 
 gsave  710 611 23 13 C 559.345 28.4413 t 0 r /Helvetica findfont 34.1889 sf 0 0 m ( [MeV/c) show NC gr 
 gsave  710 611 23 13 C 546.072 20.8569 t 0 r /Symbol findfont 22.7926 sf 0 0 m (m) show NC gr 
 gsave  710 611 23 13 C 532.8 20.8569 t 0 r /Symbol findfont 22.7926 sf 0 0 m (m) show NC gr 
 gsave  710 611 23 13 C 506.254 28.4413 t 0 r /Helvetica findfont 34.1889 sf 0 0 m (m) show NC gr  241 113 m -15 Y s 281 106 m -8 Y s 321 106 m -8 Y s 360 106 m -8 Y s 400 106 m -8 Y s 440 113 m -15 Y s 479 106 m -8 Y s 519 106 m -8 Y s 559 106 m -8
 Y s 598 106 m -8 Y s 638 113 m -15 Y s 241 113 m -15 Y s 202 106 m -8 Y s 162 106 m -8 Y s 122 106 m -8 Y s 638 113 m -15 Y s 678 106 m -8 Y s
 gsave  710 611 23 13 C 208.569 66.3629 t 0 r /Helvetica findfont 28.4907 sf 0 0 m (3600) show NC gr 
 gsave  710 611 23 13 C 405.762 66.3629 t 0 r /Helvetica findfont 28.4907 sf 0 0 m (3700) show NC gr 
 gsave  710 611 23 13 C 604.851 66.3629 t 0 r /Helvetica findfont 28.4907 sf 0 0 m (3800) show NC gr  122 582 m 576 X s 241 567 m 15 Y s 281 574 m 8 Y s 321 574 m 8 Y s 360 574 m 8 Y s 400 574 m 8 Y s 440 567 m 15 Y s 479 574 m 8 Y s 519 574 m 8 Y s
 559 574 m 8 Y s 598 574 m 8 Y s 638 567 m 15 Y s 241 567 m 15 Y s 202 574 m 8 Y s 162 574 m 8 Y s 122 574 m 8 Y s 638 567 m 15 Y s 678 574 m 8 Y s 122 98 m 484 Y s
 gsave  710 611 23 13 C 66.3629 572.617 t 90 r /Helvetica findfont 34.1889 sf 0 0 m (\)) show NC gr 
 gsave  710 611 23 13 C 51.1943 559.345 t 90 r /Helvetica findfont 22.7926 sf 0 0 m (2) show NC gr 
 gsave  710 611 23 13 C 66.3629 271.14 t 90 r /Helvetica findfont 34.1889 sf 0 0 m (Events / \(10 MeV/c) show NC gr  139 98 m -17 X s 131 115 m -9 X s 131 133 m -9 X s 131 150 m -9 X s 131 167 m -9 X s 139 184 m -17 X s 131 201 m -9 X s 131 218 m -9
 X s 131 235 m -9 X s 131 252 m -9 X s 139 269 m -17 X s 131 286 m -9 X s 131 304 m -9 X s 131 321 m -9 X s 131 338 m -9 X s 139 355 m -17 X s 131 372 m -9 X s 131 389 m -9 X s 131 406 m -9 X s 131 423 m -9 X s 139 440 m -17 X s 131 457 m -9 X s 131
 474 m -9 X s 131 492 m -9 X s 131 509 m -9 X s 139 526 m -17 X s 139 526 m -17 X s 131 543 m -9 X s 131 560 m -9 X s 131 577 m -9 X s
 gsave  710 611 23 13 C 102.389 87.2199 t 0 r /Helvetica findfont 28.4907 sf 0 0 m (0) show NC gr 
 gsave  710 611 23 13 C 87.2199 172.544 t 0 r /Helvetica findfont 28.4907 sf 0 0 m (10) show NC gr 
 gsave  710 611 23 13 C 87.2199 259.764 t 0 r /Helvetica findfont 28.4907 sf 0 0 m (20) show NC gr 
 gsave  710 611 23 13 C 87.2199 345.087 t 0 r /Helvetica findfont 28.4907 sf 0 0 m (30) show NC gr 
 gsave  710 611 23 13 C 87.2199 430.411 t 0 r /Helvetica findfont 28.4907 sf 0 0 m (40) show NC gr 
 gsave  710 611 23 13 C 87.2199 515.735 t 0 r /Helvetica findfont 28.4907 sf 0 0 m (50) show NC gr  698 98 m 484 Y s 681 98 m 17 X s 689 115 m 9 X s 689 133 m 9 X s 689 150 m 9 X s 689 167 m 9 X s 681 184 m 17 X s 689 201 m 9 X s 689 218 m 9 X s 689
 235 m 9 X s 689 252 m 9 X s 681 269 m 17 X s 689 286 m 9 X s 689 304 m 9 X s 689 321 m 9 X s 689 338 m 9 X s 681 355 m 17 X s 689 372 m 9 X s 689 389 m 9 X s 689 406 m 9 X s 689 423 m 9 X s 681 440 m 17 X s 689 457 m 9 X s 689 474 m 9 X s 689 492 m
 9 X s 689 509 m 9 X s 681 526 m 17 X s 681 526 m 17 X s 689 543 m 9 X s 689 560 m 9 X s 689 577 m 9 X s 132 329 m -10 X s 122 325 m 8 Y s 132 329 m 10 X s 142 325 m 8 Y s 132 329 m 54 Y s 128 383 m 8 X s 132 329 m -44 Y s 128 285 m 8 X s 152 355 m
 -10 X s 142 351 m 8 Y s 152 355 m 10 X s 162 351 m 8 Y s 152 355 m 56 Y s 148 411 m 8 X s 152 355 m -47 Y s 148 308 m 8 X s 172 269 m -10 X s 162 266 m 7 Y s 172 269 m 10 X s 182 266 m 7 Y s 172 269 m 48 Y s 168 317 m 8 X s 172 269 m -38 Y s 168 231
 m 8 X s 192 261 m -10 X s 182 257 m 8 Y s 192 261 m 10 X s 202 257 m 8 Y s 192 261 m 46 Y s 188 307 m 7 X s 192 261 m -37 Y s 188 224 m 7 X s 211 269 m -9 X s 202 266 m 7 Y s 211 269 m 10 X s 221 266 m 7 Y s 211 269 m 48 Y s 208 317 m 7 X s 211 269
 m -38 Y s 208 231 m 7 X s 231 286 m -10 X s 221 283 m 7 Y s 231 286 m 10 X s 241 283 m 7 Y s 231 286 m 50 Y s 228 336 m 7 X s 231 286 m -39 Y s 228 247 m 7 X s 251 363 m -10 X s 241 360 m 7 Y s 251 363 m 10 X s 261 360 m 7 Y s 251 363 m 57 Y s 247
 420 m 8 X s 251 363 m -47 Y s 247 316 m 8 X s 271 321 m -10 X s 261 317 m 7 Y s 271 321 m 10 X s 281 317 m 7 Y s 271 321 m 52 Y s 267 373 m 8 X s 271 321 m -44 Y s 267 277 m 8 X s 291 261 m -10 X s 281 257 m 8 Y s 291 261 m 10 X s 301 257 m 8 Y s
 291 261 m 46 Y s 287 307 m 8 X s 291 261 m -37 Y s 287 224 m 8 X s 311 329 m -10 X s 301 325 m 8 Y s 311 329 m 10 X s 321 325 m 8 Y s 311 329 m 54 Y s 307 383 m 7 X s 311 329 m -44 Y s 307 285 m 7 X s 331 321 m -10 X s 321 317 m 7 Y s 331 321 m 9 X
 s 340 317 m 7 Y s 331 321 m 52 Y s 327 373 m 7 X s 331 321 m -44 Y s 327 277 m 7 X s 350 346 m -10 X s 340 342 m 8 Y s 350 346 m 10 X s 360 342 m 8 Y s 350 346 m 55 Y s 347 401 m 7 X s 350 346 m -46 Y s 347 300 m 7 X s 370 346 m -10 X s 360 342 m 8
 Y s 370 346 m 10 X s 380 342 m 8 Y s 370 346 m 55 Y s 366 401 m 8 X s 370 346 m -46 Y s 366 300 m 8 X s 390 389 m -10 X s 380 385 m 8 Y s 390 389 m 10 X s 400 385 m 8 Y s 390 389 m 59 Y s 386 448 m 8 X s 390 389 m -50 Y s 386 339 m 8 X s 410 492 m
 -10 X s 400 488 m 7 Y s 410 492 m 10 X s 420 488 m 7 Y s 410 492 m 67 Y s 406 559 m 8 X s 410 492 m -58 Y s 406 434 m 8 X s 430 432 m -10 X s 420 428 m 8 Y s 430 432 m 10 X s 440 428 m 8 Y s 430 432 m 62 Y s 426 494 m 8 X s 430 432 m -53 Y s 426 379
 m 8 X s 450 372 m -10 X s 440 368 m 8 Y s 450 372 m 10 X s 460 368 m 8 Y s 450 372 m 57 Y s 446 429 m 7 X s 450 372 m -48 Y s 446 324 m 7 X s 469 338 m -9 X s 460 334 m 8 Y s 469 338 m 10 X s 479 334 m 8 Y s 469 338 m 54 Y s 466 392 m 7 X s 469 338
 m -45 Y s 466 293 m 7 X s 489 312 m -10 X s 479 308 m 8 Y s 489 312 m 10 X s 499 308 m 8 Y s 489 312 m 52 Y s 486 364 m 7 X s 489 312 m -42 Y s 486 270 m 7 X s 509 235 m -10 X s 499 231 m 8 Y s 509 235 m 10 X s 519 231 m 8 Y s 509 235 m 44 Y s 505
 279 m 8 X s 509 235 m -34 Y s 505 201 m 8 X s 529 278 m -10 X s 519 274 m 8 Y s 529 278 m 10 X s 539 274 m 8 Y s 529 278 m 48 Y s 525 326 m 8 X s 529 278 m -39 Y s 525 239 m 8 X s 549 278 m -10 X s 539 274 m 8 Y s 549 278 m 10 X s 559 274 m 8 Y s
 549 278 m 48 Y s 545 326 m 8 X s 549 278 m -39 Y s 545 239 m 8 X s 569 338 m -10 X s 559 334 m 8 Y s 569 338 m 10 X s 579 334 m 8 Y s 569 338 m 54 Y s 565 392 m 7 X s 569 338 m -45 Y s 565 293 m 7 X s 589 252 m -10 X s 579 248 m 8 Y s 589 252 m 9 X
 s 598 248 m 8 Y s 589 252 m 46 Y s 585 298 m 7 X s 589 252 m -36 Y s 585 216 m 7 X s 608 252 m -10 X s 598 248 m 8 Y s 608 252 m 10 X s 618 248 m 8 Y s 608 252 m 46 Y s 605 298 m 7 X s 608 252 m -36 Y s 605 216 m 7 X s 628 261 m -10 X s 618 257 m 8
 Y s 628 261 m 10 X s 638 257 m 8 Y s 628 261 m 46 Y s 624 307 m 8 X s 628 261 m -37 Y s 624 224 m 8 X s 648 261 m -10 X s 638 257 m 8 Y s 648 261 m 10 X s 658 257 m 8 Y s 648 261 m 46 Y s 644 307 m 8 X s 648 261 m -37 Y s 644 224 m 8 X s 668 261 m
 -10 X s 658 257 m 8 Y s 668 261 m 10 X s 678 257 m 8 Y s 668 261 m 46 Y s 664 307 m 8 X s 668 261 m -37 Y s 664 224 m 8 X s 688 218 m -10 X s 678 214 m 8 Y s 688 218 m 10 X s 698 214 m 8 Y s 688 218 m 41 Y s 684 259 m 8 X s 688 218 m -32 Y s 684 186
 m 8 X s 3 lw /w 15 def /w2 {w 2 div} def /w3 {w 3 div} def 132 329 152 355 172 269 192 261 211 269 231 286 251 363 271 321 291 261 311 329 331 321 350 346 370 346 390 389 410 492 430 432 450 372 469 338 489 312 509 235 529 278 549 278 569 338 589
 252 608 252 628 261 648 261 668 261 688 218 29 { m20} R 6 lw 0 1 0 c[ 4 8] 0 sd 9 lw black 0 1 0 c 122 316 m cl s 122 316 m 20 -2 d 20 -2 d 20 -3 d 20 -2 d 19 -3 d 20 -2 d 20 -2 d 20 -3 d 20 -2 d 20 -2 d 19 -2 d 20 -2 d 20 -3 d 20 -2 d 20 -2 d 20 -2
 d 20 -2 d 19 -2 d 20 -2 d 20 -2 d 20 -2 d 20 -2 d 20 -2 d 19 -2 d 20 -2 d 20 -1 d 20 -2 d 20 -2 d 20 -2 d s 0 0 1 c[ 12 12] 0 sd black 0 0 1 c 122 100 m cl s 122 100 m 80 X 19 1 d 40 X 20 1 d 20 2 d 10 1 d 10 1 d 5 1 d 5 2 d 5 2 d 2 1 d 2 2 d 3 3 d
 2 2 d 3 4 d 2 3 d 3 4 d 2 5 d 3 5 d 2 5 d 3 5 d 2 6 d 5 13 d 5 14 d 5 15 d 5 15 d 5 15 d 3 6 d 2 7 d 3 6 d 2 6 d 2 5 d 3 4 d 2 3 d 3 3 d 2 2 d 3 1 d 2 X 3 -1 d 2 -1 d 3 -3 d 2 -3 d 3 -4 d 2 -5 d 3 -5 d 2 -6 d 3 -6 d 5 -14 d 5 -15 d 5 -15 d 5 -15 d 5
 -13 d 4 -13 d 3 -6 d 2 -5 d 3 -5 d 2 -4 d 3 -4 d 2 -4 d 3 -4 d 2 -3 d 5 -5 d 5 -4 d 5 -3 d 5 -2 d 5 -1 d 5 -1 d 10 -2 d 10 X 20 -1 d 139 X s 1 0 0 c[  ] 0 sd black 1 0 0 c 122 318 m cl s 122 318 m 20 -3 d 20 -2 d 20 -2 d 20 -2 d 19 -2 d 20 -2 d 20
 -2 d 20 -2 d 20 -1 d 10 X 10 1 d 10 1 d 5 2 d 4 3 d 3 2 d 2 2 d 5 7 d 5 8 d 5 9 d 5 11 d 5 12 d 5 14 d 5 14 d 5 15 d 5 14 d 5 13 d 3 5 d 2 6 d 2 4 d 3 4 d 2 4 d 3 2 d 2 2 d 5 X 3 -1 d 2 -2 d 3 -2 d 2 -4 d 3 -4 d 2 -5 d 3 -6 d 2 -6 d 3 -7 d 5 -14 d 5
 -15 d 10 -31 d 5 -14 d 4 -13 d 5 -12 d 5 -10 d 5 -8 d 5 -7 d 5 -6 d 5 -4 d 5 -3 d 5 -3 d 5 -2 d 5 -2 d 10 -2 d 10 -2 d 20 -2 d 20 -2 d 19 -2 d 20 -2 d 20 -1 d 20 -2 d 20 -2 d 20 -2 d s black 6 lw 122 98 m 576 X s 241 113 m -15 Y s 281 106 m -8 Y s
 321 106 m -8 Y s 360 106 m -8 Y s 400 106 m -8 Y s 440 113 m -15 Y s 479 106 m -8 Y s 519 106 m -8 Y s 559 106 m -8 Y s 598 106 m -8 Y s 638 113 m -15 Y s 241 113 m -15 Y s 202 106 m -8 Y s 162 106 m -8 Y s 122 106 m -8 Y s 638 113 m -15 Y s 678 106
 m -8 Y s 122 582 m 576 X s 241 567 m 15 Y s 281 574 m 8 Y s 321 574 m 8 Y s 360 574 m 8 Y s 400 574 m 8 Y s 440 567 m 15 Y s 479 574 m 8 Y s 519 574 m 8 Y s 559 574 m 8 Y s 598 574 m 8 Y s 638 567 m 15 Y s 241 567 m 15 Y s 202 574 m 8 Y s 162 574 m
 8 Y s 122 574 m 8 Y s 638 567 m 15 Y s 678 574 m 8 Y s 122 98 m 484 Y s 139 98 m -17 X s 131 115 m -9 X s 131 133 m -9 X s 131 150 m -9 X s 131 167 m -9 X s 139 184 m -17 X s 131 201 m -9 X s 131 218 m -9 X s 131 235 m -9 X s 131 252 m -9 X s 139
 269 m -17 X s 131 286 m -9 X s 131 304 m -9 X s 131 321 m -9 X s 131 338 m -9 X s 139 355 m -17 X s 131 372 m -9 X s 131 389 m -9 X s 131 406 m -9 X s 131 423 m -9 X s 139 440 m -17 X s 131 457 m -9 X s 131 474 m -9 X s 131 492 m -9 X s 131 509 m -9
 X s 139 526 m -17 X s 139 526 m -17 X s 131 543 m -9 X s 131 560 m -9 X s 131 577 m -9 X s 698 98 m 484 Y s 681 98 m 17 X s 689 115 m 9 X s 689 133 m 9 X s 689 150 m 9 X s 689 167 m 9 X s 681 184 m 17 X s 689 201 m 9 X s 689 218 m 9 X s 689 235 m 9
 X s 689 252 m 9 X s 681 269 m 17 X s 689 286 m 9 X s 689 304 m 9 X s 689 321 m 9 X s 689 338 m 9 X s 681 355 m 17 X s 689 372 m 9 X s 689 389 m 9 X s 689 406 m 9 X s 689 423 m 9 X s 681 440 m 17 X s 689 457 m 9 X s 689 474 m 9 X s 689 492 m 9 X s
 689 509 m 9 X s 681 526 m 17 X s 681 526 m 17 X s 689 543 m 9 X s 689 560 m 9 X s 689 577 m 9 X s
 gsave  710 611 23 13 C 312.854 426.619 t 0 r /Helvetica findfont 22.7926 sf 0 0 m ( = 5 TeV) show NC gr 
 gsave  710 611 23 13 C 291.997 419.035 t 0 r /Helvetica findfont 15.1951 sf 0 0 m (NN) show NC gr 
 gsave  710 611 23 13 C 280.62 426.619 t 0 r /Helvetica findfont 22.7926 sf 0 0 m (s) show NC gr  271 440 m 4 -21 d s 0 lw 275 419 m 4 28 d s 279 447 m 34 X s
 gsave  710 611 23 13 C 163.063 426.619 t 0 r /Helvetica findfont 22.7926 sf 0 0 m (pPb\(Pwd\) ) show NC gr 
 gsave  710 611 23 13 C 163.063 462.645 t 0 r /Helvetica findfont 28.4907 sf 0 0 m (Preliminary) show NC gr 
 gsave  710 611 23 13 C 163.063 492.982 t 0 r /Helvetica findfont 28.4907 sf 0 0 m (LHCb) show NC gr 
 gsave  710 611 23 13 C 455.06 472.125 t 0 r /Helvetica findfont 28.4907 sf 0 0 m (3.0< y <3.5) show NC gr 
 gsave  710 611 23 13 C 530.904 441.788 t 0 r /Helvetica findfont 28.4907 sf 0 0 m ( <14 GeV/c) show NC gr 
 gsave  710 611 23 13 C 519.527 426.619 t 0 r /Helvetica findfont 18.9938 sf 0 0 m (T) show NC gr 
 gsave  710 611 23 13 C 455.06 441.788 t 0 r /Helvetica findfont 28.4907 sf 0 0 m ( 0< p) show NC gr  6 lw 1 1 1 c 710 611 779 13 bf black 1 1 1 c 576 484 878 98 bf black 576 484 878 98 bl 1 1 1 c 576 484 878 98 bf black 576 484 878 98 bl 878 98 m
 576 X s
 gsave  710 611 779 13 C 1444.82 28.4413 t 0 r /Helvetica findfont 34.1889 sf 0 0 m (]) show NC gr 
 gsave  710 611 779 13 C 1431.54 43.6099 t 0 r /Helvetica findfont 22.7926 sf 0 0 m (2) show NC gr 
 gsave  710 611 779 13 C 1315.88 28.4413 t 0 r /Helvetica findfont 34.1889 sf 0 0 m ( [MeV/c) show NC gr 
 gsave  710 611 779 13 C 1302.61 20.8569 t 0 r /Symbol findfont 22.7926 sf 0 0 m (m) show NC gr 
 gsave  710 611 779 13 C 1289.34 20.8569 t 0 r /Symbol findfont 22.7926 sf 0 0 m (m) show NC gr 
 gsave  710 611 779 13 C 1262.79 28.4413 t 0 r /Helvetica findfont 34.1889 sf 0 0 m (m) show NC gr  997 113 m -15 Y s 1037 106 m -8 Y s 1077 106 m -8 Y s 1116 106 m -8 Y s 1156 106 m -8 Y s 1196 113 m -15 Y s 1235 106 m -8 Y s 1275 106 m -8 Y s 1315
 106 m -8 Y s 1354 106 m -8 Y s 1394 113 m -15 Y s 997 113 m -15 Y s 957 106 m -8 Y s 918 106 m -8 Y s 878 106 m -8 Y s 1394 113 m -15 Y s 1434 106 m -8 Y s
 gsave  710 611 779 13 C 963.211 66.3629 t 0 r /Helvetica findfont 28.4907 sf 0 0 m (3600) show NC gr 
 gsave  710 611 779 13 C 1162.3 66.3629 t 0 r /Helvetica findfont 28.4907 sf 0 0 m (3700) show NC gr 
 gsave  710 611 779 13 C 1361.39 66.3629 t 0 r /Helvetica findfont 28.4907 sf 0 0 m (3800) show NC gr  878 582 m 576 X s 997 567 m 15 Y s 1037 574 m 8 Y s 1077 574 m 8 Y s 1116 574 m 8 Y s 1156 574 m 8 Y s 1196 567 m 15 Y s 1235 574 m 8 Y s 1275 574
 m 8 Y s 1315 574 m 8 Y s 1354 574 m 8 Y s 1394 567 m 15 Y s 997 567 m 15 Y s 957 574 m 8 Y s 918 574 m 8 Y s 878 574 m 8 Y s 1394 567 m 15 Y s 1434 574 m 8 Y s 878 98 m 484 Y s
 gsave  710 611 779 13 C 822.9 572.617 t 90 r /Helvetica findfont 34.1889 sf 0 0 m (\)) show NC gr 
 gsave  710 611 779 13 C 807.732 559.345 t 90 r /Helvetica findfont 22.7926 sf 0 0 m (2) show NC gr 
 gsave  710 611 779 13 C 822.9 271.14 t 90 r /Helvetica findfont 34.1889 sf 0 0 m (Events / \(10 MeV/c) show NC gr  895 98 m -17 X s 886 110 m -8 X s 886 121 m -8 X s 886 133 m -8 X s 895 144 m -17 X s 886 156 m -8 X s 886 168 m -8 X s 886 179 m -8 X
 s 895 191 m -17 X s 886 202 m -8 X s 886 214 m -8 X s 886 225 m -8 X s 895 237 m -17 X s 886 248 m -8 X s 886 260 m -8 X s 886 271 m -8 X s 895 283 m -17 X s 886 294 m -8 X s 886 306 m -8 X s 886 317 m -8 X s 895 329 m -17 X s 886 340 m -8 X s 886
 352 m -8 X s 886 364 m -8 X s 895 375 m -17 X s 886 387 m -8 X s 886 398 m -8 X s 886 410 m -8 X s 895 421 m -17 X s 886 433 m -8 X s 886 444 m -8 X s 886 456 m -8 X s 895 467 m -17 X s 886 479 m -8 X s 886 490 m -8 X s 886 502 m -8 X s 895 513 m
 -17 X s 886 525 m -8 X s 886 536 m -8 X s 886 548 m -8 X s 895 559 m -17 X s 895 559 m -17 X s 886 571 m -8 X s
 gsave  710 611 779 13 C 858.926 87.2199 t 0 r /Helvetica findfont 28.4907 sf 0 0 m (0) show NC gr 
 gsave  710 611 779 13 C 858.926 134.622 t 0 r /Helvetica findfont 28.4907 sf 0 0 m (2) show NC gr 
 gsave  710 611 779 13 C 858.926 180.128 t 0 r /Helvetica findfont 28.4907 sf 0 0 m (4) show NC gr 
 gsave  710 611 779 13 C 858.926 225.634 t 0 r /Helvetica findfont 28.4907 sf 0 0 m (6) show NC gr 
 gsave  710 611 779 13 C 858.926 273.036 t 0 r /Helvetica findfont 28.4907 sf 0 0 m (8) show NC gr 
 gsave  710 611 779 13 C 843.757 318.542 t 0 r /Helvetica findfont 28.4907 sf 0 0 m (10) show NC gr 
 gsave  710 611 779 13 C 841.861 364.048 t 0 r /Helvetica findfont 28.4907 sf 0 0 m (12) show NC gr 
 gsave  710 611 779 13 C 841.861 411.45 t 0 r /Helvetica findfont 28.4907 sf 0 0 m (14) show NC gr 
 gsave  710 611 779 13 C 841.861 456.956 t 0 r /Helvetica findfont 28.4907 sf 0 0 m (16) show NC gr 
 gsave  710 611 779 13 C 841.861 502.462 t 0 r /Helvetica findfont 28.4907 sf 0 0 m (18) show NC gr 
 gsave  710 611 779 13 C 843.757 549.864 t 0 r /Helvetica findfont 28.4907 sf 0 0 m (20) show NC gr  1454 98 m 484 Y s 1437 98 m 17 X s 1445 110 m 9 X s 1445 121 m 9 X s 1445 133 m 9 X s 1437 144 m 17 X s 1445 156 m 9 X s 1445 168 m 9 X s 1445 179 m
 9 X s 1437 191 m 17 X s 1445 202 m 9 X s 1445 214 m 9 X s 1445 225 m 9 X s 1437 237 m 17 X s 1445 248 m 9 X s 1445 260 m 9 X s 1445 271 m 9 X s 1437 283 m 17 X s 1445 294 m 9 X s 1445 306 m 9 X s 1445 317 m 9 X s 1437 329 m 17 X s 1445 340 m 9 X s
 1445 352 m 9 X s 1445 364 m 9 X s 1437 375 m 17 X s 1445 387 m 9 X s 1445 398 m 9 X s 1445 410 m 9 X s 1437 421 m 17 X s 1445 433 m 9 X s 1445 444 m 9 X s 1445 456 m 9 X s 1437 467 m 17 X s 1445 479 m 9 X s 1445 490 m 9 X s 1445 502 m 9 X s 1437 513
 m 17 X s 1445 525 m 9 X s 1445 536 m 9 X s 1445 548 m 9 X s 1437 559 m 17 X s 1437 559 m 17 X s 1445 571 m 9 X s 888 214 m -10 X s 878 210 m 7 Y s 888 214 m 10 X s 898 210 m 7 Y s 888 214 m 78 Y s 884 292 m 8 X s 888 214 m -50 Y s 884 164 m 8 X s
 908 144 m -10 X s 898 141 m 7 Y s 908 144 m 10 X s 918 141 m 7 Y s 908 144 m 61 Y s 904 205 m 8 X s 908 144 m -29 Y s 904 115 m 8 X s 928 260 m -10 X s 918 256 m 8 Y s 928 260 m 10 X s 938 256 m 8 Y s 928 260 m 87 Y s 924 347 m 7 X s 928 260 m -60 Y
 s 924 200 m 7 X s 948 306 m -10 X s 938 302 m 8 Y s 948 306 m 9 X s 957 302 m 8 Y s 948 306 m 95 Y s 944 401 m 7 X s 948 306 m -68 Y s 944 238 m 7 X s 967 306 m -10 X s 957 302 m 8 Y s 967 306 m 10 X s 977 302 m 8 Y s 967 306 m 95 Y s 964 401 m 7 X
 s 967 306 m -68 Y s 964 238 m 7 X s 987 260 m -10 X s 977 256 m 8 Y s 987 260 m 10 X s 997 256 m 8 Y s 987 260 m 87 Y s 983 347 m 8 X s 987 260 m -60 Y s 983 200 m 8 X s 1007 191 m -10 X s 997 187 m 7 Y s 1007 191 m 10 X s 1017 187 m 7 Y s 1007 191
 m 73 Y s 1003 264 m 8 X s 1007 191 m -45 Y s 1003 146 m 8 X s 1027 237 m -10 X s 1017 233 m 7 Y s 1027 237 m 10 X s 1037 233 m 7 Y s 1027 237 m 82 Y s 1023 319 m 8 X s 1027 237 m -55 Y s 1023 182 m 8 X s 1047 214 m -10 X s 1037 210 m 7 Y s 1047 214
 m 10 X s 1057 210 m 7 Y s 1047 214 m 78 Y s 1043 292 m 8 X s 1047 214 m -50 Y s 1043 164 m 8 X s 1067 260 m -10 X s 1057 256 m 8 Y s 1067 260 m 10 X s 1077 256 m 8 Y s 1067 260 m 87 Y s 1063 347 m 7 X s 1067 260 m -60 Y s 1063 200 m 7 X s 1086 352 m
 -9 X s 1077 348 m 8 Y s 1086 352 m 10 X s 1096 348 m 8 Y s 1086 352 m 102 Y s 1083 454 m 7 X s 1086 352 m -75 Y s 1083 277 m 7 X s 1106 283 m -10 X s 1096 279 m 8 Y s 1106 283 m 10 X s 1116 279 m 8 Y s 1106 283 m 91 Y s 1103 374 m 7 X s 1106 283 m
 -64 Y s 1103 219 m 7 X s 1126 398 m -10 X s 1116 394 m 8 Y s 1126 398 m 10 X s 1136 394 m 8 Y s 1126 398 m 108 Y s 1122 506 m 8 X s 1126 398 m -82 Y s 1122 316 m 8 X s 1146 260 m -10 X s 1136 256 m 8 Y s 1146 260 m 10 X s 1156 256 m 8 Y s 1146 260 m
 87 Y s 1142 347 m 8 X s 1146 260 m -60 Y s 1142 200 m 8 X s 1166 444 m -10 X s 1156 440 m 8 Y s 1166 444 m 10 X s 1176 440 m 8 Y s 1166 444 m 115 Y s 1162 559 m 8 X s 1166 444 m -88 Y s 1162 356 m 8 X s 1186 283 m -10 X s 1176 279 m 8 Y s 1186 283 m
 10 X s 1196 279 m 8 Y s 1186 283 m 91 Y s 1182 374 m 7 X s 1186 283 m -64 Y s 1182 219 m 7 X s 1206 283 m -10 X s 1196 279 m 8 Y s 1206 283 m 9 X s 1215 279 m 8 Y s 1206 283 m 91 Y s 1202 374 m 7 X s 1206 283 m -64 Y s 1202 219 m 7 X s 1225 306 m
 -10 X s 1215 302 m 8 Y s 1225 306 m 10 X s 1235 302 m 8 Y s 1225 306 m 95 Y s 1222 401 m 7 X s 1225 306 m -68 Y s 1222 238 m 7 X s 1245 237 m -10 X s 1235 233 m 7 Y s 1245 237 m 10 X s 1255 233 m 7 Y s 1245 237 m 82 Y s 1241 319 m 8 X s 1245 237 m
 -55 Y s 1241 182 m 8 X s 1265 168 m -10 X s 1255 164 m 7 Y s 1265 168 m 10 X s 1275 164 m 7 Y s 1265 168 m 67 Y s 1261 235 m 8 X s 1265 168 m -38 Y s 1261 130 m 8 X s 1285 144 m -10 X s 1275 141 m 7 Y s 1285 144 m 10 X s 1295 141 m 7 Y s 1285 144 m
 61 Y s 1281 205 m 8 X s 1285 144 m -29 Y s 1281 115 m 8 X s 1305 260 m -10 X s 1295 256 m 8 Y s 1305 260 m 10 X s 1315 256 m 8 Y s 1305 260 m 87 Y s 1301 347 m 8 X s 1305 260 m -60 Y s 1301 200 m 8 X s 1325 168 m -10 X s 1315 164 m 7 Y s 1325 168 m
 10 X s 1335 164 m 7 Y s 1325 168 m 67 Y s 1321 235 m 7 X s 1325 168 m -38 Y s 1321 130 m 7 X s 1344 168 m -9 X s 1335 164 m 7 Y s 1344 168 m 10 X s 1354 164 m 7 Y s 1344 168 m 67 Y s 1341 235 m 7 X s 1344 168 m -38 Y s 1341 130 m 7 X s 1364 306 m
 -10 X s 1354 302 m 8 Y s 1364 306 m 10 X s 1374 302 m 8 Y s 1364 306 m 95 Y s 1361 401 m 7 X s 1364 306 m -68 Y s 1361 238 m 7 X s 1384 237 m -10 X s 1374 233 m 7 Y s 1384 237 m 10 X s 1394 233 m 7 Y s 1384 237 m 82 Y s 1380 319 m 8 X s 1384 237 m
 -55 Y s 1380 182 m 8 X s 1404 168 m -10 X s 1394 164 m 7 Y s 1404 168 m 10 X s 1414 164 m 7 Y s 1404 168 m 67 Y s 1400 235 m 8 X s 1404 168 m -38 Y s 1400 130 m 8 X s 1424 168 m -10 X s 1414 164 m 7 Y s 1424 168 m 10 X s 1434 164 m 7 Y s 1424 168 m
 67 Y s 1420 235 m 8 X s 1424 168 m -38 Y s 1420 130 m 8 X s 1444 168 m -10 X s 1434 164 m 7 Y s 1444 168 m 10 X s 1454 164 m 7 Y s 1444 168 m 67 Y s 1440 235 m 7 X s 1444 168 m -38 Y s 1440 130 m 7 X s 3 lw 888 214 908 144 928 260 948 306 967 306
 987 260 1007 191 1027 237 1047 214 1067 260 1086 352 1106 283 1126 398 1146 260 1166 444 1186 283 1206 283 1225 306 1245 237 1265 168 1285 144 1305 260 1325 168 1344 168 1364 306 1384 237 1404 168 1424 168 1444 168 29 { m20} R 6 lw 0 1 0 c[ 4 8] 0
 sd 9 lw black 0 1 0 c 878 248 m cl s 878 248 m 20 -2 d 20 -2 d 20 -2 d 19 -3 d 20 -2 d 20 -2 d 20 -2 d 20 -2 d 20 -2 d 20 -2 d 19 -2 d 20 -2 d 20 -2 d 20 -2 d 20 -2 d 20 -1 d 19 -2 d 20 -2 d 20 -2 d 20 -1 d 20 -2 d 20 -2 d 20 -1 d 19 -2 d 20 -2 d 20
 -1 d 20 -2 d 20 -1 d 20 -2 d s 0 0 1 c[ 12 12] 0 sd black 0 0 1 c 878 100 m cl s 878 100 m 40 X 20 1 d 39 X 20 1 d 20 1 d 10 1 d 10 1 d 10 2 d 5 1 d 5 2 d 5 3 d 2 2 d 3 2 d 5 6 d 5 6 d 4 8 d 5 8 d 5 10 d 5 10 d 5 12 d 5 12 d 10 24 d 5 11 d 5 11 d 3
 4 d 2 4 d 3 4 d 2 4 d 3 2 d 2 2 d 3 2 d 2 1 d 5 X 2 -1 d 3 -1 d 2 -2 d 3 -3 d 2 -3 d 3 -4 d 2 -4 d 3 -4 d 2 -5 d 3 -6 d 5 -11 d 5 -12 d 10 -24 d 5 -11 d 5 -11 d 4 -10 d 5 -9 d 5 -7 d 5 -7 d 5 -5 d 5 -5 d 5 -3 d 5 -3 d 5 -3 d 5 -1 d 5 -2 d 5 X 10 -2
 d 20 X 20 -1 d 139 X s 1 0 0 c[  ] 0 sd black 1 0 0 c 878 250 m cl s 878 250 m 20 -2 d 20 -2 d 20 -2 d 19 -2 d 20 -2 d 20 -1 d 20 -1 d 20 X 10 1 d 5 X 5 2 d 5 2 d 2 2 d 3 2 d 5 5 d 5 6 d 4 7 d 5 8 d 5 9 d 5 10 d 5 11 d 5 11 d 10 24 d 5 10 d 5 10 d 3
 5 d 2 4 d 3 3 d 2 3 d 3 3 d 2 2 d 3 1 d 2 1 d 5 X 2 -2 d 3 -1 d 2 -3 d 3 -2 d 2 -4 d 3 -4 d 2 -4 d 3 -5 d 5 -11 d 5 -11 d 5 -13 d 10 -25 d 5 -12 d 5 -11 d 4 -10 d 5 -9 d 5 -8 d 5 -7 d 5 -6 d 5 -5 d 5 -4 d 5 -4 d 5 -2 d 5 -2 d 10 -3 d 10 -2 d 20 -3 d
 20 -2 d 20 -1 d 19 -2 d 20 -2 d 20 -1 d 20 -2 d 20 -1 d 20 -2 d s black 6 lw 878 98 m 576 X s 997 113 m -15 Y s 1037 106 m -8 Y s 1077 106 m -8 Y s 1116 106 m -8 Y s 1156 106 m -8 Y s 1196 113 m -15 Y s 1235 106 m -8 Y s 1275 106 m -8 Y s 1315 106 m
 -8 Y s 1354 106 m -8 Y s 1394 113 m -15 Y s 997 113 m -15 Y s 957 106 m -8 Y s 918 106 m -8 Y s 878 106 m -8 Y s 1394 113 m -15 Y s 1434 106 m -8 Y s 878 582 m 576 X s 997 567 m 15 Y s 1037 574 m 8 Y s 1077 574 m 8 Y s 1116 574 m 8 Y s 1156 574 m 8
 Y s 1196 567 m 15 Y s 1235 574 m 8 Y s 1275 574 m 8 Y s 1315 574 m 8 Y s 1354 574 m 8 Y s 1394 567 m 15 Y s 997 567 m 15 Y s 957 574 m 8 Y s 918 574 m 8 Y s 878 574 m 8 Y s 1394 567 m 15 Y s 1434 574 m 8 Y s 878 98 m 484 Y s 895 98 m -17 X s 886 110
 m -8 X s 886 121 m -8 X s 886 133 m -8 X s 895 144 m -17 X s 886 156 m -8 X s 886 168 m -8 X s 886 179 m -8 X s 895 191 m -17 X s 886 202 m -8 X s 886 214 m -8 X s 886 225 m -8 X s 895 237 m -17 X s 886 248 m -8 X s 886 260 m -8 X s 886 271 m -8 X s
 895 283 m -17 X s 886 294 m -8 X s 886 306 m -8 X s 886 317 m -8 X s 895 329 m -17 X s 886 340 m -8 X s 886 352 m -8 X s 886 364 m -8 X s 895 375 m -17 X s 886 387 m -8 X s 886 398 m -8 X s 886 410 m -8 X s 895 421 m -17 X s 886 433 m -8 X s 886 444
 m -8 X s 886 456 m -8 X s 895 467 m -17 X s 886 479 m -8 X s 886 490 m -8 X s 886 502 m -8 X s 895 513 m -17 X s 886 525 m -8 X s 886 536 m -8 X s 886 548 m -8 X s 895 559 m -17 X s 895 559 m -17 X s 886 571 m -8 X s 1454 98 m 484 Y s 1437 98 m 17 X
 s 1445 110 m 9 X s 1445 121 m 9 X s 1445 133 m 9 X s 1437 144 m 17 X s 1445 156 m 9 X s 1445 168 m 9 X s 1445 179 m 9 X s 1437 191 m 17 X s 1445 202 m 9 X s 1445 214 m 9 X s 1445 225 m 9 X s 1437 237 m 17 X s 1445 248 m 9 X s 1445 260 m 9 X s 1445
 271 m 9 X s 1437 283 m 17 X s 1445 294 m 9 X s 1445 306 m 9 X s 1445 317 m 9 X s 1437 329 m 17 X s 1445 340 m 9 X s 1445 352 m 9 X s 1445 364 m 9 X s 1437 375 m 17 X s 1445 387 m 9 X s 1445 398 m 9 X s 1445 410 m 9 X s 1437 421 m 17 X s 1445 433 m 9
 X s 1445 444 m 9 X s 1445 456 m 9 X s 1437 467 m 17 X s 1445 479 m 9 X s 1445 490 m 9 X s 1445 502 m 9 X s 1437 513 m 17 X s 1445 525 m 9 X s 1445 536 m 9 X s 1445 548 m 9 X s 1437 559 m 17 X s 1437 559 m 17 X s 1445 571 m 9 X s
 gsave  710 611 779 13 C 1069.39 426.619 t 0 r /Helvetica findfont 22.7926 sf 0 0 m ( = 5 TeV) show NC gr 
 gsave  710 611 779 13 C 1048.53 419.035 t 0 r /Helvetica findfont 15.1951 sf 0 0 m (NN) show NC gr 
 gsave  710 611 779 13 C 1037.16 426.619 t 0 r /Helvetica findfont 22.7926 sf 0 0 m (s) show NC gr  1028 440 m 3 -21 d s 0 lw 1031 419 m 4 28 d s 1035 447 m 34 X s
 gsave  710 611 779 13 C 919.601 426.619 t 0 r /Helvetica findfont 22.7926 sf 0 0 m (pPb\(Pwd\) ) show NC gr 
 gsave  710 611 779 13 C 919.601 462.645 t 0 r /Helvetica findfont 28.4907 sf 0 0 m (Preliminary) show NC gr 
 gsave  710 611 779 13 C 919.601 492.982 t 0 r /Helvetica findfont 28.4907 sf 0 0 m (LHCb) show NC gr 
 gsave  710 611 779 13 C 1211.6 472.125 t 0 r /Helvetica findfont 28.4907 sf 0 0 m (3.5< y <4.0) show NC gr 
 gsave  710 611 779 13 C 1287.44 441.788 t 0 r /Helvetica findfont 28.4907 sf 0 0 m ( <14 GeV/c) show NC gr 
 gsave  710 611 779 13 C 1276.06 426.619 t 0 r /Helvetica findfont 18.9938 sf 0 0 m (T) show NC gr 
 gsave  710 611 779 13 C 1211.6 441.788 t 0 r /Helvetica findfont 28.4907 sf 0 0 m ( 0< p) show NC gr  6 lw 1 1 1 c 711 611 1534 13 bf
 gr  gr showpage
end
%%EOF
