3686	0	15.8061	0	30.8611	15.671	790.176	31.7006	0.925548	
3686	0	16.6035	0	20.0886	10.8386	357.92	21.3378	1.05963	
3686	0	17.639	0	22.7221	11.3947	317.282	20.6011	1.3481	
3686	0	18.4126	0	12.7249	5.54554	51.2795	8.32485	0.472828	
3686	0	20	0	8.4574	4.06658	21.5714	5.44345	0.768373	
