%!PS-Adobe-2.0 EPSF-2.0
%%BoundingBox:  0 0 567 425
%%Title: mu_m_pt_chi2.eps: mpt Canvas
%%Creator: ROOT Version 5.34/18
%%CreationDate: Tue Sep 15 00:49:20 2015
%%EndComments
%%BeginProlog
80 dict begin
/s {stroke} def /l {lineto} def /m {moveto} def /t {translate} def
/r {rotate} def /rl {roll}  def /R {repeat} def
/d {rlineto} def /rm {rmoveto} def /gr {grestore} def /f {eofill} def
/c {setrgbcolor} def /black {0 setgray} def /sd {setdash} def
/cl {closepath} def /sf {scalefont setfont} def /lw {setlinewidth} def
/box {m dup 0 exch d exch 0 d 0 exch neg d cl} def
/NC{systemdict begin initclip end}def/C{NC box clip newpath}def
/bl {box s} def /bf {box f} def /Y { 0 exch d} def /X { 0 d} def 
/K {{pop pop 0 moveto} exch kshow} bind def
/ita {/ang 15 def gsave [1 0 ang dup sin exch cos div 1 0 0] concat} def 
/mp {newpath /y exch def /x exch def} def
/side {[w .77 mul w .23 mul] .385 w mul sd w 0 l currentpoint t -144 r} def
/mr {mp x y w2 0 360 arc} def /m24 {mr s} def /m20 {mr f} def
/mb {mp x y w2 add m w2 neg 0 d 0 w neg d w 0 d 0 w d cl} def
/mt {mp x y w2 add m w2 neg w neg d w 0 d cl} def
/m21 {mb f} def /m25 {mb s} def /m22 {mt f} def /m26{mt s} def
/m23 {mp x y w2 sub m w2 w d w neg 0 d cl f} def
/m27 {mp x y w2 add m w3 neg w2 neg d w3 w2 neg d w3 w2 d cl s} def
/m28 {mp x w2 sub y w2 sub w3 add m w3 0 d  0 w3 neg d w3 0 d 0 w3 d w3 0 d  0 w3 d w3 neg 0 d 0 w3 d w3 neg 0 d 0 w3 neg d w3 neg 0 d cl s } def
/m29 {mp gsave x w2 sub y w2 add w3 sub m currentpoint t 4 {side} repeat cl fill gr} def
/m30 {mp gsave x w2 sub y w2 add w3 sub m currentpoint t 4 {side} repeat cl s gr} def
/m31 {mp x y w2 sub m 0 w d x w2 sub y m w 0 d x w2 sub y w2 add m w w neg d x w2 sub y w2 sub m w w d s} def
/m32 {mp x y w2 sub m w2 w d w neg 0 d cl s} def
/m33 {mp x y w2 add m w3 neg w2 neg d w3 w2 neg d w3 w2 d cl f} def
/m34 {mp x w2 sub y w2 sub w3 add m w3 0 d  0 w3 neg d w3 0 d 0 w3 d w3 0 d  0 w3 d w3 neg 0 d 0 w3 d w3 neg 0 d 0 w3 neg d w3 neg 0 d cl f } def
/m2 {mp x y w2 sub m 0 w d x w2 sub y m w 0 d s} def
/m5 {mp x w2 sub y w2 sub m w w d x w2 sub y w2 add m w w neg d s} def
/reEncode {exch findfont dup length dict begin {1 index /FID eq  {pop pop} {def} ifelse } forall /Encoding exch def currentdict end dup /FontName get exch definefont pop } def [/Times-Bold /Times-Italic /Times-BoldItalic /Helvetica /Helvetica-Oblique
 /Helvetica-Bold /Helvetica-BoldOblique /Courier /Courier-Oblique /Courier-Bold /Courier-BoldOblique /Times-Roman /AvantGarde-Book /AvantGarde-BookOblique /AvantGarde-Demi /AvantGarde-DemiOblique /Bookman-Demi /Bookman-DemiItalic /Bookman-Light
 /Bookman-LightItalic /Helvetica-Narrow /Helvetica-Narrow-Bold /Helvetica-Narrow-BoldOblique /Helvetica-Narrow-Oblique /NewCenturySchlbk-Roman /NewCenturySchlbk-Bold /NewCenturySchlbk-BoldItalic /NewCenturySchlbk-Italic /Palatino-Bold
 /Palatino-BoldItalic /Palatino-Italic /Palatino-Roman ] {ISOLatin1Encoding reEncode } forall
%%EndProlog
%%BeginSetup
%%EndSetup
newpath  gsave  .25 .25 scale  gsave  0 0 t black[  ] 0 sd 6 lw 1 1 1 c 2268 1701 0 0 bf black 1 1 1 c 1837 1344 317 238 bf black 1837 1344 317 238 bl 1 1 1 c 1837 1344 317 238 bf black 1837 1344 317 238 bl 0 0 1 c 1 1 1 c 0 0 1 c 317 637 m 74 X s
 428 637 m 73 X s 3 lw /w 37 def /w2 {w 2 div} def /w3 {w 3 div} def 409 637 m22 6 lw 501 1403 m 74 X s 611 1403 m 74 X s 3 lw 593 1403 m22 6 lw 685 641 m 73 X s 795 641 m 74 X s 3 lw 777 641 m22 6 lw 869 372 m 73 X s 979 372 m 73 X s 3 lw 960 372
 m22 6 lw 1052 288 m 74 X s 1162 288 m 74 X s 3 lw 1144 288 m22 6 lw 1236 260 m 73 X s 1346 260 m 74 X s 3 lw 1328 260 m22 6 lw 1420 246 m 73 X s 1530 246 m 73 X s 3 lw 1511 246 m22 6 lw 1603 241 m 74 X s 1713 241 m 74 X s 3 lw 1695 241 m22 6 lw 1787
 239 m 74 X s 1897 239 m 74 X s 3 lw 1879 239 m22 6 lw black 317 238 m 1837 X s
 gsave  2268 1701 0 0 C 2125.98 64.0081 t 0 r /Helvetica findfont 96.0122 sf 0 0 m (\)) show NC gr 
 gsave  2268 1701 0 0 C 2103.12 109.728 t 0 r /Helvetica findfont 64.0081 sf 0 0 m (\255) show NC gr 
 gsave  2268 1701 0 0 C 2048.26 64.0081 t 0 r /Symbol findfont 96.0122 sf 0 0 m (m) show NC gr 
 gsave  2268 1701 0 0 C 2016.26 64.0081 t 0 r /Helvetica findfont 96.0122 sf 0 0 m (\() show NC gr 
 gsave  2268 1701 0 0 C 1975.11 13.716 t 0 r /Helvetica findfont 64.0081 sf 0 0 m (T) show NC gr 
 gsave  2268 1701 0 0 C 1920.24 64.0081 t 0 r /Helvetica findfont 96.0122 sf 0 0 m (p) show NC gr  317 279 m -41 Y s 440 259 m -21 Y s 562 259 m -21 Y s 685 259 m -21 Y s 807 259 m -21 Y s 930 279 m -41 Y s 1052 259 m -21 Y s 1175 259 m -21 Y s 1297
 259 m -21 Y s 1420 259 m -21 Y s 1542 279 m -41 Y s 1665 259 m -21 Y s 1787 259 m -21 Y s 1909 259 m -21 Y s 2032 259 m -21 Y s 2154 279 m -41 Y s
 gsave  2268 1701 0 0 C 292.609 146.304 t 0 r /Helvetica findfont 77.7242 sf 0 0 m (0) show NC gr 
 gsave  2268 1701 0 0 C 905.258 146.304 t 0 r /Helvetica findfont 77.7242 sf 0 0 m (5) show NC gr 
 gsave  2268 1701 0 0 C 1495.05 146.304 t 0 r /Helvetica findfont 77.7242 sf 0 0 m (10) show NC gr 
 gsave  2268 1701 0 0 C 2107.7 146.304 t 0 r /Helvetica findfont 77.7242 sf 0 0 m (15) show NC gr  317 1582 m 1837 X s 317 1540 m 42 Y s 440 1561 m 21 Y s 562 1561 m 21 Y s 685 1561 m 21 Y s 807 1561 m 21 Y s 930 1540 m 42 Y s 1052 1561 m 21 Y s 1175
 1561 m 21 Y s 1297 1561 m 21 Y s 1420 1561 m 21 Y s 1542 1540 m 42 Y s 1665 1561 m 21 Y s 1787 1561 m 21 Y s 1909 1561 m 21 Y s 2032 1561 m 21 Y s 2154 1540 m 42 Y s 317 238 m 1344 Y s
 gsave  2268 1701 0 0 C 160.02 969.266 t 90 r /Helvetica findfont 96.0122 sf 0 0 m (Arbitrary scale) show NC gr  371 238 m -54 X s 344 282 m -27 X s 344 325 m -27 X s 344 369 m -27 X s 344 413 m -27 X s 371 456 m -54 X s 344 500 m -27 X s 344 544 m
 -27 X s 344 587 m -27 X s 344 631 m -27 X s 371 675 m -54 X s 344 718 m -27 X s 344 762 m -27 X s 344 805 m -27 X s 344 849 m -27 X s 371 893 m -54 X s 344 936 m -27 X s 344 980 m -27 X s 344 1024 m -27 X s 344 1067 m -27 X s 371 1111 m -54 X s 344
 1155 m -27 X s 344 1198 m -27 X s 344 1242 m -27 X s 344 1286 m -27 X s 371 1329 m -54 X s 344 1373 m -27 X s 344 1416 m -27 X s 344 1460 m -27 X s 344 1504 m -27 X s 371 1547 m -54 X s 371 1547 m -54 X s
 gsave  2268 1701 0 0 C 260.605 210.312 t 0 r /Helvetica findfont 77.7242 sf 0 0 m (0) show NC gr 
 gsave  2268 1701 0 0 C 205.74 425.197 t 0 r /Helvetica findfont 77.7242 sf 0 0 m (0.1) show NC gr 
 gsave  2268 1701 0 0 C 196.596 644.653 t 0 r /Helvetica findfont 77.7242 sf 0 0 m (0.2) show NC gr 
 gsave  2268 1701 0 0 C 196.596 864.11 t 0 r /Helvetica findfont 77.7242 sf 0 0 m (0.3) show NC gr 
 gsave  2268 1701 0 0 C 192.024 1078.99 t 0 r /Helvetica findfont 77.7242 sf 0 0 m (0.4) show NC gr 
 gsave  2268 1701 0 0 C 196.596 1298.45 t 0 r /Helvetica findfont 77.7242 sf 0 0 m (0.5) show NC gr 
 gsave  2268 1701 0 0 C 196.596 1517.91 t 0 r /Helvetica findfont 77.7242 sf 0 0 m (0.6) show NC gr  2154 238 m 1344 Y s 2101 238 m 53 X s 2127 282 m 27 X s 2127 325 m 27 X s 2127 369 m 27 X s 2127 413 m 27 X s 2101 456 m 53 X s 2127 500 m 27 X s
 2127 544 m 27 X s 2127 587 m 27 X s 2127 631 m 27 X s 2101 675 m 53 X s 2127 718 m 27 X s 2127 762 m 27 X s 2127 805 m 27 X s 2127 849 m 27 X s 2101 893 m 53 X s 2127 936 m 27 X s 2127 980 m 27 X s 2127 1024 m 27 X s 2127 1067 m 27 X s 2101 1111 m
 53 X s 2127 1155 m 27 X s 2127 1198 m 27 X s 2127 1242 m 27 X s 2127 1286 m 27 X s 2101 1329 m 53 X s 2127 1373 m 27 X s 2127 1416 m 27 X s 2127 1460 m 27 X s 2127 1504 m 27 X s 2101 1547 m 53 X s 2101 1547 m 53 X s 1 1 1 c black 409 481 m 84 Y s
 409 602 m 83 Y s 317 583 m 74 X s 428 583 m 73 X s 3 lw 409 583 m20 6 lw 593 1314 m 127 Y s 593 1477 m 105 Y s 501 1459 m 74 X s 611 1459 m 74 X s 3 lw 593 1459 m20 6 lw 777 634 m 52 Y s 777 723 m 51 Y s 685 704 m 73 X s 795 704 m 74 X s 3 lw 777
 704 m20 6 lw 960 306 m 14 Y s 960 356 m 14 Y s 869 338 m 73 X s 979 338 m 73 X s 3 lw 960 338 m20 6 lw 1144 262 m 2 Y s 1144 300 m 1 Y s 1052 282 m 74 X s 1162 282 m 74 X s 3 lw 1144 282 m20 6 lw 1236 242 m 73 X s 1346 242 m 74 X s 3 lw 1328 242 m20
 6 lw 1420 241 m 73 X s 1530 241 m 73 X s 3 lw 1511 241 m20 6 lw 1 0 0 c 1 1 1 c 1 0 0 c 409 613 m 253 Y s 409 903 m 253 Y s 317 885 m 74 X s 428 885 m 73 X s 3 lw 409 885 m21 6 lw 593 856 m 340 Y s 593 1233 m 340 Y s 501 1215 m 74 X s 611 1215 m 74
 X s 3 lw 593 1215 m21 6 lw 777 513 m 137 Y s 777 687 m 136 Y s 685 668 m 73 X s 795 668 m 74 X s 3 lw 777 668 m21 6 lw 960 241 m 35 Y s 960 313 m 35 Y s 869 294 m 73 X s 979 294 m 73 X s 3 lw 960 294 m21 6 lw 1144 259 m 3 Y s 1052 240 m 74 X s 1162
 240 m 74 X s 3 lw 1144 240 m21 6 lw 1328 269 m 30 Y s 1328 336 m 31 Y s 1236 318 m 73 X s 1346 318 m 74 X s 3 lw 1328 318 m21 6 lw 0 0 1 c 1 1 1 c 0 0 1 c 317 637 m 74 X s 428 637 m 73 X s 3 lw 409 637 m22 6 lw 501 1403 m 74 X s 611 1403 m 74 X s 3
 lw 593 1403 m22 6 lw 685 641 m 73 X s 795 641 m 74 X s 3 lw 777 641 m22 6 lw 869 372 m 73 X s 979 372 m 73 X s 3 lw 960 372 m22 6 lw 1052 288 m 74 X s 1162 288 m 74 X s 3 lw 1144 288 m22 6 lw 1236 260 m 73 X s 1346 260 m 74 X s 3 lw 1328 260 m22 6
 lw 1420 246 m 73 X s 1530 246 m 73 X s 3 lw 1511 246 m22 6 lw 1603 241 m 74 X s 1713 241 m 74 X s 3 lw 1695 241 m22 6 lw 1787 239 m 74 X s 1897 239 m 74 X s 3 lw 1879 239 m22 6 lw black 0.999 0.999 0.999 c 476 239 1315 935 bf black
 gsave  2268 1701 0 0 C 1431.04 1120.14 t 0 r /Helvetica-Bold findfont 68.5801 sf 0 0 m (pPb\(Fwd\)) show NC gr  1333 1134 m 83 X s 1375 1110 m 48 Y s 3 lw 1375 1134 m20 6 lw
 gsave  2268 1701 0 0 C 1431.04 1037.85 t 0 r /Helvetica-Bold findfont 68.5801 sf 0 0 m (pPb\(Bwd\)) show NC gr  1 0 0 c 1333 1054 m 83 X s 1375 1031 m 47 Y s 3 lw 1375 1054 m21 6 lw black
 gsave  2268 1701 0 0 C 1431.04 960.122 t 0 r /Helvetica-Bold findfont 68.5801 sf 0 0 m (pp MC) show NC gr  0 0 1 c 1333 975 m 83 X s 1375 951 m 48 Y s 3 lw 1375 975 m22 6 lw black
 gsave  2268 1701 0 0 C 1568.2 1289.31 t 0 r /Helvetica findfont 64.0081 sf 0 0 m ( = 5 TeV) show NC gr 
 gsave  2268 1701 0 0 C 1508.76 1266.45 t 0 r /Helvetica findfont 41.1481 sf 0 0 m (NN) show NC gr 
 gsave  2268 1701 0 0 C 1476.76 1289.31 t 0 r /Helvetica findfont 64.0081 sf 0 0 m (s) show NC gr  1449 1326 m 9 -60 d s 0 lw 1458 1266 m 10 78 d s 1468 1344 m 100 X s
 gsave  2268 1701 0 0 C 1312.17 1289.31 t 0 r /Helvetica findfont 64.0081 sf 0 0 m (pPb ) show NC gr 
 gsave  2268 1701 0 0 C 1312.17 1380.75 t 0 r /Helvetica findfont 77.7242 sf 0 0 m (Preliminary) show NC gr 
 gsave  2268 1701 0 0 C 1312.17 1467.61 t 0 r /Helvetica findfont 77.7242 sf 0 0 m (LHCb) show NC gr 
 gr  gr showpage
end
%%EOF
