%!PS-Adobe-2.0 EPSF-2.0
%%BoundingBox:  0 0 567 425
%%Title: mu_p_Tracking_chi2.eps: pt Canvas
%%Creator: ROOT Version 5.34/18
%%CreationDate: Tue Sep 15 00:49:18 2015
%%EndComments
%%BeginProlog
80 dict begin
/s {stroke} def /l {lineto} def /m {moveto} def /t {translate} def
/r {rotate} def /rl {roll}  def /R {repeat} def
/d {rlineto} def /rm {rmoveto} def /gr {grestore} def /f {eofill} def
/c {setrgbcolor} def /black {0 setgray} def /sd {setdash} def
/cl {closepath} def /sf {scalefont setfont} def /lw {setlinewidth} def
/box {m dup 0 exch d exch 0 d 0 exch neg d cl} def
/NC{systemdict begin initclip end}def/C{NC box clip newpath}def
/bl {box s} def /bf {box f} def /Y { 0 exch d} def /X { 0 d} def 
/K {{pop pop 0 moveto} exch kshow} bind def
/ita {/ang 15 def gsave [1 0 ang dup sin exch cos div 1 0 0] concat} def 
/mp {newpath /y exch def /x exch def} def
/side {[w .77 mul w .23 mul] .385 w mul sd w 0 l currentpoint t -144 r} def
/mr {mp x y w2 0 360 arc} def /m24 {mr s} def /m20 {mr f} def
/mb {mp x y w2 add m w2 neg 0 d 0 w neg d w 0 d 0 w d cl} def
/mt {mp x y w2 add m w2 neg w neg d w 0 d cl} def
/m21 {mb f} def /m25 {mb s} def /m22 {mt f} def /m26{mt s} def
/m23 {mp x y w2 sub m w2 w d w neg 0 d cl f} def
/m27 {mp x y w2 add m w3 neg w2 neg d w3 w2 neg d w3 w2 d cl s} def
/m28 {mp x w2 sub y w2 sub w3 add m w3 0 d  0 w3 neg d w3 0 d 0 w3 d w3 0 d  0 w3 d w3 neg 0 d 0 w3 d w3 neg 0 d 0 w3 neg d w3 neg 0 d cl s } def
/m29 {mp gsave x w2 sub y w2 add w3 sub m currentpoint t 4 {side} repeat cl fill gr} def
/m30 {mp gsave x w2 sub y w2 add w3 sub m currentpoint t 4 {side} repeat cl s gr} def
/m31 {mp x y w2 sub m 0 w d x w2 sub y m w 0 d x w2 sub y w2 add m w w neg d x w2 sub y w2 sub m w w d s} def
/m32 {mp x y w2 sub m w2 w d w neg 0 d cl s} def
/m33 {mp x y w2 add m w3 neg w2 neg d w3 w2 neg d w3 w2 d cl f} def
/m34 {mp x w2 sub y w2 sub w3 add m w3 0 d  0 w3 neg d w3 0 d 0 w3 d w3 0 d  0 w3 d w3 neg 0 d 0 w3 d w3 neg 0 d 0 w3 neg d w3 neg 0 d cl f } def
/m2 {mp x y w2 sub m 0 w d x w2 sub y m w 0 d s} def
/m5 {mp x w2 sub y w2 sub m w w d x w2 sub y w2 add m w w neg d s} def
/reEncode {exch findfont dup length dict begin {1 index /FID eq  {pop pop} {def} ifelse } forall /Encoding exch def currentdict end dup /FontName get exch definefont pop } def [/Times-Bold /Times-Italic /Times-BoldItalic /Helvetica /Helvetica-Oblique
 /Helvetica-Bold /Helvetica-BoldOblique /Courier /Courier-Oblique /Courier-Bold /Courier-BoldOblique /Times-Roman /AvantGarde-Book /AvantGarde-BookOblique /AvantGarde-Demi /AvantGarde-DemiOblique /Bookman-Demi /Bookman-DemiItalic /Bookman-Light
 /Bookman-LightItalic /Helvetica-Narrow /Helvetica-Narrow-Bold /Helvetica-Narrow-BoldOblique /Helvetica-Narrow-Oblique /NewCenturySchlbk-Roman /NewCenturySchlbk-Bold /NewCenturySchlbk-BoldItalic /NewCenturySchlbk-Italic /Palatino-Bold
 /Palatino-BoldItalic /Palatino-Italic /Palatino-Roman ] {ISOLatin1Encoding reEncode } forall
%%EndProlog
%%BeginSetup
%%EndSetup
newpath  gsave  .25 .25 scale  gsave  0 0 t black[  ] 0 sd 6 lw 1 1 1 c 2268 1701 0 0 bf black 1 1 1 c 1837 1344 317 238 bf black 1837 1344 317 238 bl 1 1 1 c 1837 1344 317 238 bf black 1837 1344 317 238 bl 0 0 1 c 1 1 1 c 0 0 1 c 317 239 m 74 X s
 428 239 m 73 X s 3 lw /w 37 def /w2 {w 2 div} def /w3 {w 3 div} def 409 239 m22 6 lw 501 407 m 74 X s 611 407 m 74 X s 3 lw 593 407 m22 6 lw 685 1309 m 73 X s 795 1309 m 74 X s 3 lw 777 1309 m22 6 lw 869 1118 m 73 X s 979 1118 m 73 X s 3 lw 960 1118
 m22 6 lw 1052 435 m 74 X s 1162 435 m 74 X s 3 lw 1144 435 m22 6 lw 1236 263 m 73 X s 1346 263 m 74 X s 3 lw 1328 263 m22 6 lw 1420 242 m 73 X s 1530 242 m 73 X s 3 lw 1511 242 m22 6 lw 1603 239 m 74 X s 1713 239 m 74 X s 3 lw 1695 239 m22 6 lw 1787
 238 m 74 X s 1897 238 m 74 X s 3 lw 1879 238 m22 6 lw black 317 238 m 1837 X s
 gsave  2268 1701 0 0 C 1933.96 50.2921 t 0 r /Helvetica findfont 96.0122 sf 0 0 m (/nodf) show NC gr 
 gsave  2268 1701 0 0 C 1897.38 77.7242 t 0 r /Helvetica findfont 64.0081 sf 0 0 m (2) show NC gr 
 gsave  2268 1701 0 0 C 1847.09 50.2921 t 0 r /Symbol findfont 96.0122 sf 0 0 m (c) show NC gr 
 gsave  2268 1701 0 0 C 1481.33 50.2921 t 0 r /Helvetica findfont 96.0122 sf 0 0 m (Tracking) show NC gr 
 gsave  2268 1701 0 0 C 1444.75 82.2962 t 0 r /Helvetica findfont 64.0081 sf 0 0 m (+) show NC gr 
 gsave  2268 1701 0 0 C 1389.89 50.2921 t 0 r /Symbol findfont 96.0122 sf 0 0 m (m) show NC gr  317 279 m -41 Y s 422 259 m -21 Y s 527 259 m -21 Y s 632 259 m -21 Y s 737 259 m -21 Y s 842 279 m -41 Y s 947 259 m -21 Y s 1052 259 m -21 Y s 1157 259
 m -21 Y s 1262 259 m -21 Y s 1367 279 m -41 Y s 1472 259 m -21 Y s 1577 259 m -21 Y s 1682 259 m -21 Y s 1787 259 m -21 Y s 1892 279 m -41 Y s 1892 279 m -41 Y s 1997 259 m -21 Y s 2102 259 m -21 Y s
 gsave  2268 1701 0 0 C 292.609 146.304 t 0 r /Helvetica findfont 77.7242 sf 0 0 m (0) show NC gr 
 gsave  2268 1701 0 0 C 827.534 146.304 t 0 r /Helvetica findfont 77.7242 sf 0 0 m (1) show NC gr 
 gsave  2268 1701 0 0 C 1344.17 146.304 t 0 r /Helvetica findfont 77.7242 sf 0 0 m (2) show NC gr 
 gsave  2268 1701 0 0 C 1865.38 146.304 t 0 r /Helvetica findfont 77.7242 sf 0 0 m (3) show NC gr  317 1582 m 1837 X s 317 1540 m 42 Y s 422 1561 m 21 Y s 527 1561 m 21 Y s 632 1561 m 21 Y s 737 1561 m 21 Y s 842 1540 m 42 Y s 947 1561 m 21 Y s 1052
 1561 m 21 Y s 1157 1561 m 21 Y s 1262 1561 m 21 Y s 1367 1540 m 42 Y s 1472 1561 m 21 Y s 1577 1561 m 21 Y s 1682 1561 m 21 Y s 1787 1561 m 21 Y s 1892 1540 m 42 Y s 1892 1540 m 42 Y s 1997 1561 m 21 Y s 2102 1561 m 21 Y s 317 238 m 1344 Y s
 gsave  2268 1701 0 0 C 160.02 969.266 t 90 r /Helvetica findfont 96.0122 sf 0 0 m (Arbitrary scale) show NC gr  371 238 m -54 X s 344 285 m -27 X s 344 332 m -27 X s 344 379 m -27 X s 344 426 m -27 X s 371 473 m -54 X s 344 520 m -27 X s 344 567 m
 -27 X s 344 614 m -27 X s 344 660 m -27 X s 371 707 m -54 X s 344 754 m -27 X s 344 801 m -27 X s 344 848 m -27 X s 344 895 m -27 X s 371 942 m -54 X s 344 989 m -27 X s 344 1036 m -27 X s 344 1083 m -27 X s 344 1130 m -27 X s 371 1177 m -54 X s 344
 1224 m -27 X s 344 1271 m -27 X s 344 1318 m -27 X s 344 1364 m -27 X s 371 1411 m -54 X s 371 1411 m -54 X s 344 1458 m -27 X s 344 1505 m -27 X s 344 1552 m -27 X s
 gsave  2268 1701 0 0 C 260.605 210.312 t 0 r /Helvetica findfont 77.7242 sf 0 0 m (0) show NC gr 
 gsave  2268 1701 0 0 C 205.74 443.485 t 0 r /Helvetica findfont 77.7242 sf 0 0 m (0.1) show NC gr 
 gsave  2268 1701 0 0 C 196.596 676.657 t 0 r /Helvetica findfont 77.7242 sf 0 0 m (0.2) show NC gr 
 gsave  2268 1701 0 0 C 196.596 914.402 t 0 r /Helvetica findfont 77.7242 sf 0 0 m (0.3) show NC gr 
 gsave  2268 1701 0 0 C 192.024 1147.57 t 0 r /Helvetica findfont 77.7242 sf 0 0 m (0.4) show NC gr 
 gsave  2268 1701 0 0 C 196.596 1380.75 t 0 r /Helvetica findfont 77.7242 sf 0 0 m (0.5) show NC gr  2154 238 m 1344 Y s 2101 238 m 53 X s 2127 285 m 27 X s 2127 332 m 27 X s 2127 379 m 27 X s 2127 426 m 27 X s 2101 473 m 53 X s 2127 520 m 27 X s
 2127 567 m 27 X s 2127 614 m 27 X s 2127 660 m 27 X s 2101 707 m 53 X s 2127 754 m 27 X s 2127 801 m 27 X s 2127 848 m 27 X s 2127 895 m 27 X s 2101 942 m 53 X s 2127 989 m 27 X s 2127 1036 m 27 X s 2127 1083 m 27 X s 2127 1130 m 27 X s 2101 1177 m
 53 X s 2127 1224 m 27 X s 2127 1271 m 27 X s 2127 1318 m 27 X s 2127 1364 m 27 X s 2101 1411 m 53 X s 2101 1411 m 53 X s 2127 1458 m 27 X s 2127 1505 m 27 X s 2127 1552 m 27 X s 1 1 1 c black 593 472 m 48 Y s 593 557 m 48 Y s 501 538 m 74 X s 611
 538 m 74 X s 3 lw 593 538 m20 6 lw 777 1316 m 124 Y s 777 1476 m 106 Y s 685 1458 m 73 X s 795 1458 m 74 X s 3 lw 777 1458 m20 6 lw 960 656 m 97 Y s 960 790 m 97 Y s 869 772 m 73 X s 979 772 m 73 X s 3 lw 960 772 m20 6 lw 1144 382 m 49 Y s 1144 468
 m 49 Y s 1052 450 m 74 X s 1162 450 m 74 X s 3 lw 1144 450 m20 6 lw 1328 276 m 16 Y s 1328 328 m 16 Y s 1236 310 m 73 X s 1346 310 m 74 X s 3 lw 1328 310 m20 6 lw 1511 244 m s 1511 281 m s 1420 263 m 73 X s 1530 263 m 73 X s 3 lw 1511 263 m20 6 lw 1
 0 0 c 1 1 1 c 1 0 0 c 409 238 m s 409 275 m s 317 257 m 74 X s 428 257 m 73 X s 3 lw 409 257 m21 6 lw 593 393 m 140 Y s 593 569 m 140 Y s 501 551 m 74 X s 611 551 m 74 X s 3 lw 593 551 m21 6 lw 777 987 m 297 Y s 777 1321 m 261 Y s 685 1303 m 73 X s
 795 1303 m 74 X s 3 lw 777 1303 m21 6 lw 960 482 m 277 Y s 960 796 m 277 Y s 869 778 m 73 X s 979 778 m 73 X s 3 lw 960 778 m21 6 lw 1144 408 m 188 Y s 1144 632 m 188 Y s 1052 614 m 74 X s 1162 614 m 74 X s 3 lw 1144 614 m21 6 lw 1328 238 m 40 Y s
 1328 315 m 90 Y s 1236 297 m 73 X s 1346 297 m 74 X s 3 lw 1328 297 m21 6 lw 0 0 1 c 1 1 1 c 0 0 1 c 317 239 m 74 X s 428 239 m 73 X s 3 lw 409 239 m22 6 lw 501 407 m 74 X s 611 407 m 74 X s 3 lw 593 407 m22 6 lw 685 1309 m 73 X s 795 1309 m 74 X s
 3 lw 777 1309 m22 6 lw 869 1118 m 73 X s 979 1118 m 73 X s 3 lw 960 1118 m22 6 lw 1052 435 m 74 X s 1162 435 m 74 X s 3 lw 1144 435 m22 6 lw 1236 263 m 73 X s 1346 263 m 74 X s 3 lw 1328 263 m22 6 lw 1420 242 m 73 X s 1530 242 m 73 X s 3 lw 1511 242
 m22 6 lw 1603 239 m 74 X s 1713 239 m 74 X s 3 lw 1695 239 m22 6 lw 1787 238 m 74 X s 1897 238 m 74 X s 3 lw 1879 238 m22 6 lw black 0.999 0.999 0.999 c 476 239 1315 935 bf black
 gsave  2268 1701 0 0 C 1431.04 1120.14 t 0 r /Helvetica-Bold findfont 68.5801 sf 0 0 m (pPb\(Fwd\)) show NC gr  1333 1134 m 83 X s 1375 1110 m 48 Y s 3 lw 1375 1134 m20 6 lw
 gsave  2268 1701 0 0 C 1431.04 1037.85 t 0 r /Helvetica-Bold findfont 68.5801 sf 0 0 m (pPb\(Bwd\)) show NC gr  1 0 0 c 1333 1054 m 83 X s 1375 1031 m 47 Y s 3 lw 1375 1054 m21 6 lw black
 gsave  2268 1701 0 0 C 1431.04 960.122 t 0 r /Helvetica-Bold findfont 68.5801 sf 0 0 m (pp MC) show NC gr  0 0 1 c 1333 975 m 83 X s 1375 951 m 48 Y s 3 lw 1375 975 m22 6 lw black
 gsave  2268 1701 0 0 C 1568.2 1289.31 t 0 r /Helvetica findfont 64.0081 sf 0 0 m ( = 5 TeV) show NC gr 
 gsave  2268 1701 0 0 C 1508.76 1266.45 t 0 r /Helvetica findfont 41.1481 sf 0 0 m (NN) show NC gr 
 gsave  2268 1701 0 0 C 1476.76 1289.31 t 0 r /Helvetica findfont 64.0081 sf 0 0 m (s) show NC gr  1449 1326 m 9 -60 d s 0 lw 1458 1266 m 10 78 d s 1468 1344 m 100 X s
 gsave  2268 1701 0 0 C 1312.17 1289.31 t 0 r /Helvetica findfont 64.0081 sf 0 0 m (pPb ) show NC gr 
 gsave  2268 1701 0 0 C 1312.17 1380.75 t 0 r /Helvetica findfont 77.7242 sf 0 0 m (Preliminary) show NC gr 
 gsave  2268 1701 0 0 C 1312.17 1467.61 t 0 r /Helvetica findfont 77.7242 sf 0 0 m (LHCb) show NC gr 
 gr  gr showpage
end
%%EOF
