%!PS-Adobe-2.0 EPSF-2.0
%%BoundingBox:  0 0 567 425
%%Title: p.eps: pt Canvas
%%Creator: ROOT Version 5.34/18
%%CreationDate: Tue Sep 15 00:49:17 2015
%%EndComments
%%BeginProlog
80 dict begin
/s {stroke} def /l {lineto} def /m {moveto} def /t {translate} def
/r {rotate} def /rl {roll}  def /R {repeat} def
/d {rlineto} def /rm {rmoveto} def /gr {grestore} def /f {eofill} def
/c {setrgbcolor} def /black {0 setgray} def /sd {setdash} def
/cl {closepath} def /sf {scalefont setfont} def /lw {setlinewidth} def
/box {m dup 0 exch d exch 0 d 0 exch neg d cl} def
/NC{systemdict begin initclip end}def/C{NC box clip newpath}def
/bl {box s} def /bf {box f} def /Y { 0 exch d} def /X { 0 d} def 
/K {{pop pop 0 moveto} exch kshow} bind def
/ita {/ang 15 def gsave [1 0 ang dup sin exch cos div 1 0 0] concat} def 
/mp {newpath /y exch def /x exch def} def
/side {[w .77 mul w .23 mul] .385 w mul sd w 0 l currentpoint t -144 r} def
/mr {mp x y w2 0 360 arc} def /m24 {mr s} def /m20 {mr f} def
/mb {mp x y w2 add m w2 neg 0 d 0 w neg d w 0 d 0 w d cl} def
/mt {mp x y w2 add m w2 neg w neg d w 0 d cl} def
/m21 {mb f} def /m25 {mb s} def /m22 {mt f} def /m26{mt s} def
/m23 {mp x y w2 sub m w2 w d w neg 0 d cl f} def
/m27 {mp x y w2 add m w3 neg w2 neg d w3 w2 neg d w3 w2 d cl s} def
/m28 {mp x w2 sub y w2 sub w3 add m w3 0 d  0 w3 neg d w3 0 d 0 w3 d w3 0 d  0 w3 d w3 neg 0 d 0 w3 d w3 neg 0 d 0 w3 neg d w3 neg 0 d cl s } def
/m29 {mp gsave x w2 sub y w2 add w3 sub m currentpoint t 4 {side} repeat cl fill gr} def
/m30 {mp gsave x w2 sub y w2 add w3 sub m currentpoint t 4 {side} repeat cl s gr} def
/m31 {mp x y w2 sub m 0 w d x w2 sub y m w 0 d x w2 sub y w2 add m w w neg d x w2 sub y w2 sub m w w d s} def
/m32 {mp x y w2 sub m w2 w d w neg 0 d cl s} def
/m33 {mp x y w2 add m w3 neg w2 neg d w3 w2 neg d w3 w2 d cl f} def
/m34 {mp x w2 sub y w2 sub w3 add m w3 0 d  0 w3 neg d w3 0 d 0 w3 d w3 0 d  0 w3 d w3 neg 0 d 0 w3 d w3 neg 0 d 0 w3 neg d w3 neg 0 d cl f } def
/m2 {mp x y w2 sub m 0 w d x w2 sub y m w 0 d s} def
/m5 {mp x w2 sub y w2 sub m w w d x w2 sub y w2 add m w w neg d s} def
/reEncode {exch findfont dup length dict begin {1 index /FID eq  {pop pop} {def} ifelse } forall /Encoding exch def currentdict end dup /FontName get exch definefont pop } def [/Times-Bold /Times-Italic /Times-BoldItalic /Helvetica /Helvetica-Oblique
 /Helvetica-Bold /Helvetica-BoldOblique /Courier /Courier-Oblique /Courier-Bold /Courier-BoldOblique /Times-Roman /AvantGarde-Book /AvantGarde-BookOblique /AvantGarde-Demi /AvantGarde-DemiOblique /Bookman-Demi /Bookman-DemiItalic /Bookman-Light
 /Bookman-LightItalic /Helvetica-Narrow /Helvetica-Narrow-Bold /Helvetica-Narrow-BoldOblique /Helvetica-Narrow-Oblique /NewCenturySchlbk-Roman /NewCenturySchlbk-Bold /NewCenturySchlbk-BoldItalic /NewCenturySchlbk-Italic /Palatino-Bold
 /Palatino-BoldItalic /Palatino-Italic /Palatino-Roman ] {ISOLatin1Encoding reEncode } forall
%%EndProlog
%%BeginSetup
%%EndSetup
newpath  gsave  .25 .25 scale  gsave  0 0 t black[  ] 0 sd 6 lw 1 1 1 c 2268 1701 0 0 bf black 1 1 1 c 1837 1344 317 238 bf black 1837 1344 317 238 bl 1 1 1 c 1837 1344 317 238 bf black 1837 1344 317 238 bl 0 0 1 c 1 1 1 c 0 0 1 c 317 609 m 74 X s
 428 609 m 73 X s 3 lw /w 37 def /w2 {w 2 div} def /w3 {w 3 div} def 409 609 m22 6 lw 501 1179 m 74 X s 611 1179 m 74 X s 3 lw 593 1179 m22 6 lw 685 787 m 73 X s 795 787 m 74 X s 3 lw 777 787 m22 6 lw 869 536 m 73 X s 979 536 m 73 X s 3 lw 960 536
 m22 6 lw 1052 404 m 74 X s 1162 404 m 74 X s 3 lw 1144 404 m22 6 lw 1236 329 m 73 X s 1346 329 m 74 X s 3 lw 1328 329 m22 6 lw 1420 285 m 73 X s 1530 285 m 73 X s 3 lw 1511 285 m22 6 lw 1603 264 m 74 X s 1713 264 m 74 X s 3 lw 1695 264 m22 6 lw 1787
 253 m 74 X s 1897 253 m 74 X s 3 lw 1879 253 m22 6 lw 1971 246 m 73 X s 2081 246 m 73 X s 3 lw 2062 246 m22 6 lw black 317 238 m 1837 X s
 gsave  2268 1701 0 0 C 1705.36 50.2921 t 0 r /Helvetica findfont 96.0122 sf 0 0 m (p [GeV / c]) show NC gr  317 279 m -41 Y s 440 259 m -21 Y s 562 259 m -21 Y s 685 259 m -21 Y s 807 259 m -21 Y s 930 279 m -41 Y s 1052 259 m -21 Y s 1175 259 m -21
 Y s 1297 259 m -21 Y s 1420 259 m -21 Y s 1542 279 m -41 Y s 1665 259 m -21 Y s 1787 259 m -21 Y s 1909 259 m -21 Y s 2032 259 m -21 Y s 2154 279 m -41 Y s
 gsave  2268 1701 0 0 C 292.609 146.304 t 0 r /Helvetica findfont 77.7242 sf 0 0 m (0) show NC gr 
 gsave  2268 1701 0 0 C 864.11 146.304 t 0 r /Helvetica findfont 77.7242 sf 0 0 m (100) show NC gr 
 gsave  2268 1701 0 0 C 1476.76 146.304 t 0 r /Helvetica findfont 77.7242 sf 0 0 m (200) show NC gr 
 gsave  2268 1701 0 0 C 2089.41 146.304 t 0 r /Helvetica findfont 77.7242 sf 0 0 m (300) show NC gr  317 1582 m 1837 X s 317 1540 m 42 Y s 440 1561 m 21 Y s 562 1561 m 21 Y s 685 1561 m 21 Y s 807 1561 m 21 Y s 930 1540 m 42 Y s 1052 1561 m 21 Y s
 1175 1561 m 21 Y s 1297 1561 m 21 Y s 1420 1561 m 21 Y s 1542 1540 m 42 Y s 1665 1561 m 21 Y s 1787 1561 m 21 Y s 1909 1561 m 21 Y s 2032 1561 m 21 Y s 2154 1540 m 42 Y s 317 238 m 1344 Y s
 gsave  2268 1701 0 0 C 160.02 969.266 t 90 r /Helvetica findfont 96.0122 sf 0 0 m (Arbitrary scale) show NC gr  371 238 m -54 X s 344 288 m -27 X s 344 339 m -27 X s 344 389 m -27 X s 344 439 m -27 X s 371 489 m -54 X s 344 540 m -27 X s 344 590 m
 -27 X s 344 640 m -27 X s 344 690 m -27 X s 371 741 m -54 X s 344 791 m -27 X s 344 841 m -27 X s 344 891 m -27 X s 344 941 m -27 X s 371 992 m -54 X s 344 1042 m -27 X s 344 1092 m -27 X s 344 1142 m -27 X s 344 1193 m -27 X s 371 1243 m -54 X s
 344 1293 m -27 X s 344 1343 m -27 X s 344 1394 m -27 X s 344 1444 m -27 X s 371 1494 m -54 X s 371 1494 m -54 X s 344 1544 m -27 X s
 gsave  2268 1701 0 0 C 260.605 210.312 t 0 r /Helvetica findfont 77.7242 sf 0 0 m (0) show NC gr 
 gsave  2268 1701 0 0 C 205.74 461.773 t 0 r /Helvetica findfont 77.7242 sf 0 0 m (0.1) show NC gr 
 gsave  2268 1701 0 0 C 196.596 708.661 t 0 r /Helvetica findfont 77.7242 sf 0 0 m (0.2) show NC gr 
 gsave  2268 1701 0 0 C 196.596 960.122 t 0 r /Helvetica findfont 77.7242 sf 0 0 m (0.3) show NC gr 
 gsave  2268 1701 0 0 C 192.024 1211.58 t 0 r /Helvetica findfont 77.7242 sf 0 0 m (0.4) show NC gr 
 gsave  2268 1701 0 0 C 196.596 1463.04 t 0 r /Helvetica findfont 77.7242 sf 0 0 m (0.5) show NC gr  2154 238 m 1344 Y s 2101 238 m 53 X s 2127 288 m 27 X s 2127 339 m 27 X s 2127 389 m 27 X s 2127 439 m 27 X s 2101 489 m 53 X s 2127 540 m 27 X s
 2127 590 m 27 X s 2127 640 m 27 X s 2127 690 m 27 X s 2101 741 m 53 X s 2127 791 m 27 X s 2127 841 m 27 X s 2127 891 m 27 X s 2127 941 m 27 X s 2101 992 m 53 X s 2127 1042 m 27 X s 2127 1092 m 27 X s 2127 1142 m 27 X s 2127 1193 m 27 X s 2101 1243 m
 53 X s 2127 1293 m 27 X s 2127 1343 m 27 X s 2127 1394 m 27 X s 2127 1444 m 27 X s 2101 1494 m 53 X s 2101 1494 m 53 X s 2127 1544 m 27 X s 1 1 1 c black 409 675 m 81 Y s 409 793 m 81 Y s 317 774 m 74 X s 428 774 m 73 X s 3 lw 409 774 m20 6 lw 593
 974 m 131 Y s 593 1141 m 131 Y s 501 1123 m 74 X s 611 1123 m 74 X s 3 lw 593 1123 m20 6 lw 777 613 m 83 Y s 777 733 m 82 Y s 685 714 m 73 X s 795 714 m 74 X s 3 lw 777 714 m20 6 lw 960 416 m 45 Y s 960 498 m 45 Y s 869 480 m 73 X s 979 480 m 73 X s
 3 lw 960 480 m20 6 lw 1144 366 m 27 Y s 1144 429 m 27 Y s 1052 411 m 74 X s 1162 411 m 74 X s 3 lw 1144 411 m20 6 lw 1328 318 m 15 Y s 1328 370 m 15 Y s 1236 352 m 73 X s 1346 352 m 74 X s 3 lw 1328 352 m20 6 lw 1511 284 m 6 Y s 1511 327 m 6 Y s
 1420 308 m 73 X s 1530 308 m 73 X s 3 lw 1511 308 m20 6 lw 1603 251 m 74 X s 1713 251 m 74 X s 3 lw 1695 251 m20 6 lw 1971 245 m 73 X s 2081 245 m 73 X s 3 lw 2062 245 m20 6 lw 1 0 0 c 1 1 1 c 1 0 0 c 409 468 m 243 Y s 409 747 m 243 Y s 317 729 m 74
 X s 428 729 m 73 X s 3 lw 409 729 m21 6 lw 593 1076 m 362 Y s 593 1475 m 107 Y s 501 1457 m 74 X s 611 1457 m 74 X s 3 lw 593 1457 m21 6 lw 777 392 m 225 Y s 777 653 m 224 Y s 685 635 m 73 X s 795 635 m 74 X s 3 lw 777 635 m21 6 lw 960 264 m 132 Y s
 960 433 m 132 Y s 869 415 m 73 X s 979 415 m 73 X s 3 lw 960 415 m21 6 lw 1144 286 m 69 Y s 1144 392 m 68 Y s 1052 373 m 74 X s 1162 373 m 74 X s 3 lw 1144 373 m21 6 lw 1328 238 m 14 Y s 1328 289 m 28 Y s 1236 271 m 73 X s 1346 271 m 74 X s 3 lw
 1328 271 m21 6 lw 1695 265 m 28 Y s 1695 330 m 28 Y s 1603 312 m 74 X s 1713 312 m 74 X s 3 lw 1695 312 m21 6 lw 2062 238 m 6 Y s 2062 280 m 6 Y s 1971 262 m 73 X s 2081 262 m 73 X s 3 lw 2062 262 m21 6 lw 0 0 1 c 1 1 1 c 0 0 1 c 317 609 m 74 X s
 428 609 m 73 X s 3 lw 409 609 m22 6 lw 501 1179 m 74 X s 611 1179 m 74 X s 3 lw 593 1179 m22 6 lw 685 787 m 73 X s 795 787 m 74 X s 3 lw 777 787 m22 6 lw 869 536 m 73 X s 979 536 m 73 X s 3 lw 960 536 m22 6 lw 1052 404 m 74 X s 1162 404 m 74 X s 3
 lw 1144 404 m22 6 lw 1236 329 m 73 X s 1346 329 m 74 X s 3 lw 1328 329 m22 6 lw 1420 285 m 73 X s 1530 285 m 73 X s 3 lw 1511 285 m22 6 lw 1603 264 m 74 X s 1713 264 m 74 X s 3 lw 1695 264 m22 6 lw 1787 253 m 74 X s 1897 253 m 74 X s 3 lw 1879 253
 m22 6 lw 1971 246 m 73 X s 2081 246 m 73 X s 3 lw 2062 246 m22 6 lw black 0.999 0.999 0.999 c 476 239 1315 935 bf black
 gsave  2268 1701 0 0 C 1431.04 1120.14 t 0 r /Helvetica-Bold findfont 68.5801 sf 0 0 m (pPb\(Fwd\)) show NC gr  1333 1134 m 83 X s 1375 1110 m 48 Y s 3 lw 1375 1134 m20 6 lw
 gsave  2268 1701 0 0 C 1431.04 1037.85 t 0 r /Helvetica-Bold findfont 68.5801 sf 0 0 m (pPb\(Bwd\)) show NC gr  1 0 0 c 1333 1054 m 83 X s 1375 1031 m 47 Y s 3 lw 1375 1054 m21 6 lw black
 gsave  2268 1701 0 0 C 1431.04 960.122 t 0 r /Helvetica-Bold findfont 68.5801 sf 0 0 m (pp MC) show NC gr  0 0 1 c 1333 975 m 83 X s 1375 951 m 48 Y s 3 lw 1375 975 m22 6 lw black
 gsave  2268 1701 0 0 C 1568.2 1289.31 t 0 r /Helvetica findfont 64.0081 sf 0 0 m ( = 5 TeV) show NC gr 
 gsave  2268 1701 0 0 C 1508.76 1266.45 t 0 r /Helvetica findfont 41.1481 sf 0 0 m (NN) show NC gr 
 gsave  2268 1701 0 0 C 1476.76 1289.31 t 0 r /Helvetica findfont 64.0081 sf 0 0 m (s) show NC gr  1449 1326 m 9 -60 d s 0 lw 1458 1266 m 10 78 d s 1468 1344 m 100 X s
 gsave  2268 1701 0 0 C 1312.17 1289.31 t 0 r /Helvetica findfont 64.0081 sf 0 0 m (pPb ) show NC gr 
 gsave  2268 1701 0 0 C 1312.17 1380.75 t 0 r /Helvetica findfont 77.7242 sf 0 0 m (Preliminary) show NC gr 
 gsave  2268 1701 0 0 C 1312.17 1467.61 t 0 r /Helvetica findfont 77.7242 sf 0 0 m (LHCb) show NC gr 
 gr  gr showpage
end
%%EOF
