%!PS-Adobe-2.0 EPSF-2.0
%%BoundingBox:  0 0 567 425
%%Title: y.eps: pt Canvas
%%Creator: ROOT Version 5.34/18
%%CreationDate: Tue Sep 15 00:49:18 2015
%%EndComments
%%BeginProlog
80 dict begin
/s {stroke} def /l {lineto} def /m {moveto} def /t {translate} def
/r {rotate} def /rl {roll}  def /R {repeat} def
/d {rlineto} def /rm {rmoveto} def /gr {grestore} def /f {eofill} def
/c {setrgbcolor} def /black {0 setgray} def /sd {setdash} def
/cl {closepath} def /sf {scalefont setfont} def /lw {setlinewidth} def
/box {m dup 0 exch d exch 0 d 0 exch neg d cl} def
/NC{systemdict begin initclip end}def/C{NC box clip newpath}def
/bl {box s} def /bf {box f} def /Y { 0 exch d} def /X { 0 d} def 
/K {{pop pop 0 moveto} exch kshow} bind def
/ita {/ang 15 def gsave [1 0 ang dup sin exch cos div 1 0 0] concat} def 
/mp {newpath /y exch def /x exch def} def
/side {[w .77 mul w .23 mul] .385 w mul sd w 0 l currentpoint t -144 r} def
/mr {mp x y w2 0 360 arc} def /m24 {mr s} def /m20 {mr f} def
/mb {mp x y w2 add m w2 neg 0 d 0 w neg d w 0 d 0 w d cl} def
/mt {mp x y w2 add m w2 neg w neg d w 0 d cl} def
/m21 {mb f} def /m25 {mb s} def /m22 {mt f} def /m26{mt s} def
/m23 {mp x y w2 sub m w2 w d w neg 0 d cl f} def
/m27 {mp x y w2 add m w3 neg w2 neg d w3 w2 neg d w3 w2 d cl s} def
/m28 {mp x w2 sub y w2 sub w3 add m w3 0 d  0 w3 neg d w3 0 d 0 w3 d w3 0 d  0 w3 d w3 neg 0 d 0 w3 d w3 neg 0 d 0 w3 neg d w3 neg 0 d cl s } def
/m29 {mp gsave x w2 sub y w2 add w3 sub m currentpoint t 4 {side} repeat cl fill gr} def
/m30 {mp gsave x w2 sub y w2 add w3 sub m currentpoint t 4 {side} repeat cl s gr} def
/m31 {mp x y w2 sub m 0 w d x w2 sub y m w 0 d x w2 sub y w2 add m w w neg d x w2 sub y w2 sub m w w d s} def
/m32 {mp x y w2 sub m w2 w d w neg 0 d cl s} def
/m33 {mp x y w2 add m w3 neg w2 neg d w3 w2 neg d w3 w2 d cl f} def
/m34 {mp x w2 sub y w2 sub w3 add m w3 0 d  0 w3 neg d w3 0 d 0 w3 d w3 0 d  0 w3 d w3 neg 0 d 0 w3 d w3 neg 0 d 0 w3 neg d w3 neg 0 d cl f } def
/m2 {mp x y w2 sub m 0 w d x w2 sub y m w 0 d s} def
/m5 {mp x w2 sub y w2 sub m w w d x w2 sub y w2 add m w w neg d s} def
/reEncode {exch findfont dup length dict begin {1 index /FID eq  {pop pop} {def} ifelse } forall /Encoding exch def currentdict end dup /FontName get exch definefont pop } def [/Times-Bold /Times-Italic /Times-BoldItalic /Helvetica /Helvetica-Oblique
 /Helvetica-Bold /Helvetica-BoldOblique /Courier /Courier-Oblique /Courier-Bold /Courier-BoldOblique /Times-Roman /AvantGarde-Book /AvantGarde-BookOblique /AvantGarde-Demi /AvantGarde-DemiOblique /Bookman-Demi /Bookman-DemiItalic /Bookman-Light
 /Bookman-LightItalic /Helvetica-Narrow /Helvetica-Narrow-Bold /Helvetica-Narrow-BoldOblique /Helvetica-Narrow-Oblique /NewCenturySchlbk-Roman /NewCenturySchlbk-Bold /NewCenturySchlbk-BoldItalic /NewCenturySchlbk-Italic /Palatino-Bold
 /Palatino-BoldItalic /Palatino-Italic /Palatino-Roman ] {ISOLatin1Encoding reEncode } forall
%%EndProlog
%%BeginSetup
%%EndSetup
newpath  gsave  .25 .25 scale  gsave  0 0 t black[  ] 0 sd 6 lw 1 1 1 c 2268 1701 0 0 bf black 1 1 1 c 1837 1344 317 238 bf black 1837 1344 317 238 bl 1 1 1 c 1837 1344 317 238 bf black 1837 1344 317 238 bl 0 0 1 c 1 1 1 c 0 0 1 c 685 373 m 73 X s
 795 373 m 74 X s 3 lw /w 37 def /w2 {w 2 div} def /w3 {w 3 div} def 777 373 m22 6 lw 869 930 m 73 X s 979 930 m 73 X s 3 lw 960 930 m22 6 lw 1052 1148 m 74 X s 1162 1148 m 74 X s 3 lw 1144 1148 m22 6 lw 1236 1096 m 73 X s 1346 1096 m 74 X s 3 lw
 1328 1096 m22 6 lw 1420 906 m 73 X s 1530 906 m 73 X s 3 lw 1511 906 m22 6 lw 1603 638 m 74 X s 1713 638 m 74 X s 3 lw 1695 638 m22 6 lw 1787 358 m 74 X s 1897 358 m 74 X s 3 lw 1879 358 m22 6 lw black 317 238 m 1837 X s
 gsave  2268 1701 0 0 C 2103.12 59.4361 t 0 r /Helvetica findfont 96.0122 sf 0 0 m (y) show NC gr  317 279 m -41 Y s 409 259 m -21 Y s 501 259 m -21 Y s 593 259 m -21 Y s 685 259 m -21 Y s 777 279 m -41 Y s 869 259 m -21 Y s 960 259 m -21 Y s 1052
 259 m -21 Y s 1144 259 m -21 Y s 1236 279 m -41 Y s 1328 259 m -21 Y s 1420 259 m -21 Y s 1511 259 m -21 Y s 1603 259 m -21 Y s 1695 279 m -41 Y s 1787 259 m -21 Y s 1879 259 m -21 Y s 1971 259 m -21 Y s 2062 259 m -21 Y s 2154 279 m -41 Y s
 gsave  2268 1701 0 0 C 301.753 146.304 t 0 r /Helvetica findfont 77.7242 sf 0 0 m (1) show NC gr 
 gsave  2268 1701 0 0 C 749.81 146.304 t 0 r /Helvetica findfont 77.7242 sf 0 0 m (2) show NC gr 
 gsave  2268 1701 0 0 C 1211.58 146.304 t 0 r /Helvetica findfont 77.7242 sf 0 0 m (3) show NC gr 
 gsave  2268 1701 0 0 C 1668.78 146.304 t 0 r /Helvetica findfont 77.7242 sf 0 0 m (4) show NC gr 
 gsave  2268 1701 0 0 C 2130.56 146.304 t 0 r /Helvetica findfont 77.7242 sf 0 0 m (5) show NC gr  317 1582 m 1837 X s 317 1540 m 42 Y s 409 1561 m 21 Y s 501 1561 m 21 Y s 593 1561 m 21 Y s 685 1561 m 21 Y s 777 1540 m 42 Y s 869 1561 m 21 Y s 960
 1561 m 21 Y s 1052 1561 m 21 Y s 1144 1561 m 21 Y s 1236 1540 m 42 Y s 1328 1561 m 21 Y s 1420 1561 m 21 Y s 1511 1561 m 21 Y s 1603 1561 m 21 Y s 1695 1540 m 42 Y s 1787 1561 m 21 Y s 1879 1561 m 21 Y s 1971 1561 m 21 Y s 2062 1561 m 21 Y s 2154
 1540 m 42 Y s 317 238 m 1344 Y s
 gsave  2268 1701 0 0 C 160.02 969.266 t 90 r /Helvetica findfont 96.0122 sf 0 0 m (Arbitrary scale) show NC gr  371 238 m -54 X s 344 276 m -27 X s 344 314 m -27 X s 344 352 m -27 X s 344 389 m -27 X s 371 427 m -54 X s 344 465 m -27 X s 344 503 m
 -27 X s 344 541 m -27 X s 344 578 m -27 X s 371 616 m -54 X s 344 654 m -27 X s 344 692 m -27 X s 344 730 m -27 X s 344 768 m -27 X s 371 805 m -54 X s 344 843 m -27 X s 344 881 m -27 X s 344 919 m -27 X s 344 957 m -27 X s 371 995 m -54 X s 344
 1032 m -27 X s 344 1070 m -27 X s 344 1108 m -27 X s 344 1146 m -27 X s 371 1184 m -54 X s 344 1221 m -27 X s 344 1259 m -27 X s 344 1297 m -27 X s 344 1335 m -27 X s 371 1373 m -54 X s 344 1411 m -27 X s 344 1448 m -27 X s 344 1486 m -27 X s 344
 1524 m -27 X s 371 1562 m -54 X s 371 1562 m -54 X s
 gsave  2268 1701 0 0 C 260.605 210.312 t 0 r /Helvetica findfont 77.7242 sf 0 0 m (0) show NC gr 
 gsave  2268 1701 0 0 C 150.876 397.765 t 0 r /Helvetica findfont 77.7242 sf 0 0 m (0.05) show NC gr 
 gsave  2268 1701 0 0 C 205.74 585.217 t 0 r /Helvetica findfont 77.7242 sf 0 0 m (0.1) show NC gr 
 gsave  2268 1701 0 0 C 150.876 777.242 t 0 r /Helvetica findfont 77.7242 sf 0 0 m (0.15) show NC gr 
 gsave  2268 1701 0 0 C 196.596 964.694 t 0 r /Helvetica findfont 77.7242 sf 0 0 m (0.2) show NC gr 
 gsave  2268 1701 0 0 C 150.876 1152.15 t 0 r /Helvetica findfont 77.7242 sf 0 0 m (0.25) show NC gr 
 gsave  2268 1701 0 0 C 196.596 1344.17 t 0 r /Helvetica findfont 77.7242 sf 0 0 m (0.3) show NC gr 
 gsave  2268 1701 0 0 C 150.876 1531.62 t 0 r /Helvetica findfont 77.7242 sf 0 0 m (0.35) show NC gr  2154 238 m 1344 Y s 2101 238 m 53 X s 2127 276 m 27 X s 2127 314 m 27 X s 2127 352 m 27 X s 2127 389 m 27 X s 2101 427 m 53 X s 2127 465 m 27 X s
 2127 503 m 27 X s 2127 541 m 27 X s 2127 578 m 27 X s 2101 616 m 53 X s 2127 654 m 27 X s 2127 692 m 27 X s 2127 730 m 27 X s 2127 768 m 27 X s 2101 805 m 53 X s 2127 843 m 27 X s 2127 881 m 27 X s 2127 919 m 27 X s 2127 957 m 27 X s 2101 995 m 53 X
 s 2127 1032 m 27 X s 2127 1070 m 27 X s 2127 1108 m 27 X s 2127 1146 m 27 X s 2101 1184 m 53 X s 2127 1221 m 27 X s 2127 1259 m 27 X s 2127 1297 m 27 X s 2127 1335 m 27 X s 2101 1373 m 53 X s 2127 1411 m 27 X s 2127 1448 m 27 X s 2127 1486 m 27 X s
 2127 1524 m 27 X s 2101 1562 m 53 X s 2101 1562 m 53 X s 1 1 1 c black 777 307 m 37 Y s 777 380 m 37 Y s 685 362 m 73 X s 795 362 m 74 X s 3 lw 777 362 m20 6 lw 960 1080 m 131 Y s 960 1248 m 131 Y s 869 1229 m 73 X s 979 1229 m 73 X s 3 lw 960 1229
 m20 6 lw 1144 746 m 150 Y s 1144 933 m 151 Y s 1052 915 m 74 X s 1162 915 m 74 X s 3 lw 1144 915 m20 6 lw 1328 1067 m 158 Y s 1328 1262 m 158 Y s 1236 1243 m 73 X s 1346 1243 m 74 X s 3 lw 1328 1243 m20 6 lw 1511 650 m 119 Y s 1511 805 m 119 Y s
 1420 787 m 73 X s 1530 787 m 73 X s 3 lw 1511 787 m20 6 lw 1695 472 m 75 Y s 1695 584 m 74 Y s 1603 565 m 74 X s 1713 565 m 74 X s 3 lw 1695 565 m20 6 lw 1879 302 m 26 Y s 1879 365 m 27 Y s 1787 347 m 74 X s 1897 347 m 74 X s 3 lw 1879 347 m20 6 lw
 1 0 0 c 1 1 1 c 1 0 0 c 777 336 m 132 Y s 777 504 m 132 Y s 685 486 m 73 X s 795 486 m 74 X s 3 lw 777 486 m21 6 lw 960 660 m 349 Y s 960 1046 m 349 Y s 869 1027 m 73 X s 979 1027 m 73 X s 3 lw 960 1027 m21 6 lw 1144 1007 m 434 Y s 1144 1478 m 104 Y
 s 1052 1460 m 74 X s 1162 1460 m 74 X s 3 lw 1144 1460 m21 6 lw 1328 727 m 396 Y s 1328 1160 m 396 Y s 1236 1141 m 73 X s 1346 1141 m 74 X s 3 lw 1328 1141 m21 6 lw 1511 238 m 179 Y s 1511 454 m 305 Y s 1420 436 m 73 X s 1530 436 m 73 X s 3 lw 1511
 436 m21 6 lw 1695 312 m 196 Y s 1695 545 m 195 Y s 1603 526 m 74 X s 1713 526 m 74 X s 3 lw 1695 526 m21 6 lw 1879 266 m 88 Y s 1879 391 m 89 Y s 1787 373 m 74 X s 1897 373 m 74 X s 3 lw 1879 373 m21 6 lw 0 0 1 c 1 1 1 c 0 0 1 c 685 373 m 73 X s 795
 373 m 74 X s 3 lw 777 373 m22 6 lw 869 930 m 73 X s 979 930 m 73 X s 3 lw 960 930 m22 6 lw 1052 1148 m 74 X s 1162 1148 m 74 X s 3 lw 1144 1148 m22 6 lw 1236 1096 m 73 X s 1346 1096 m 74 X s 3 lw 1328 1096 m22 6 lw 1420 906 m 73 X s 1530 906 m 73 X
 s 3 lw 1511 906 m22 6 lw 1603 638 m 74 X s 1713 638 m 74 X s 3 lw 1695 638 m22 6 lw 1787 358 m 74 X s 1897 358 m 74 X s 3 lw 1879 358 m22 6 lw black 0.999 0.999 0.999 c 476 238 1542 1276 bf black
 gsave  2268 1701 0 0 C 1659.64 1458.47 t 0 r /Helvetica-Bold findfont 68.5801 sf 0 0 m (pPb\(Fwd\)) show NC gr  1560 1474 m 83 X s 1602 1450 m 48 Y s 3 lw 1602 1474 m20 6 lw
 gsave  2268 1701 0 0 C 1659.64 1380.75 t 0 r /Helvetica-Bold findfont 68.5801 sf 0 0 m (pPb\(Bwd\)) show NC gr  1 0 0 c 1560 1395 m 83 X s 1602 1371 m 47 Y s 3 lw 1602 1395 m21 6 lw black
 gsave  2268 1701 0 0 C 1659.64 1298.45 t 0 r /Helvetica-Bold findfont 68.5801 sf 0 0 m (pp MC) show NC gr  0 0 1 c 1560 1315 m 83 X s 1602 1291 m 48 Y s 3 lw 1602 1315 m22 6 lw black
 gsave  2268 1701 0 0 C 662.941 1289.31 t 0 r /Helvetica findfont 64.0081 sf 0 0 m ( = 5 TeV) show NC gr 
 gsave  2268 1701 0 0 C 603.505 1266.45 t 0 r /Helvetica findfont 41.1481 sf 0 0 m (NN) show NC gr 
 gsave  2268 1701 0 0 C 571.501 1289.31 t 0 r /Helvetica findfont 64.0081 sf 0 0 m (s) show NC gr  544 1326 m 9 -60 d s 0 lw 553 1266 m 9 78 d s 562 1344 m 101 X s
 gsave  2268 1701 0 0 C 406.909 1289.31 t 0 r /Helvetica findfont 64.0081 sf 0 0 m (pPb ) show NC gr 
 gsave  2268 1701 0 0 C 406.909 1380.75 t 0 r /Helvetica findfont 77.7242 sf 0 0 m (Preliminary) show NC gr 
 gsave  2268 1701 0 0 C 406.909 1467.61 t 0 r /Helvetica findfont 77.7242 sf 0 0 m (LHCb) show NC gr 
 gr  gr showpage
end
%%EOF
