%!PS-Adobe-2.0 EPSF-2.0
%%BoundingBox:  0 0 567 426
%%Title: aCanvas.eps: pt Canvas
%%Creator: ROOT Version 6.04/00
%%CreationDate: Tue Jul 14 12:47:35 2015
%%DocumentNeededResources: ProcSet (FontSetInit)
%%EndComments
%%BeginProlog
80 dict begin
/s {stroke} def /l {lineto} def /m {moveto} def /t {translate} def
/r {rotate} def /rl {roll}  def /R {repeat} def
/d {rlineto} def /rm {rmoveto} def /gr {grestore} def /f {eofill} def
/c {setrgbcolor} def /black {0 setgray} def /sd {setdash} def
/cl {closepath} def /sf {scalefont setfont} def /lw {setlinewidth} def
/box {m dup 0 exch d exch 0 d 0 exch neg d cl} def
/NC{systemdict begin initclip end}def/C{NC box clip newpath}def
/bl {box s} def /bf {gsave box gsave f grestore 1 lw [] 0 sd s grestore} def /Y { 0 exch d} def /X { 0 d} def 
/K {{pop pop 0 moveto} exch kshow} bind def
/ita {/ang 15 def gsave [1 0 ang dup sin exch cos div 1 0 0] concat} def 
/mp {newpath /y exch def /x exch def} def
/side {[w .77 mul w .23 mul] .385 w mul sd w 0 l currentpoint t -144 r} def
/mr {mp x y w2 0 360 arc} def /m24 {mr s} def /m20 {mr f} def
/mb {mp x y w2 add m w2 neg 0 d 0 w neg d w 0 d 0 w d cl} def
/mt {mp x y w2 add m w2 neg w neg d w 0 d cl} def
/m21 {mb f} def /m25 {mb s} def /m22 {mt f} def /m26{mt s} def
/m23 {mp x y w2 sub m w2 w d w neg 0 d cl f} def
/m27 {mp x y w2 add m w3 neg w2 neg d w3 w2 neg d w3 w2 d cl s} def
/m28 {mp x w2 sub y w2 sub w3 add m w3 0 d  0 w3 neg d w3 0 d 0 w3 d w3 0 d  0 w3 d w3 neg 0 d 0 w3 d w3 neg 0 d 0 w3 neg d w3 neg 0 d cl s } def
/m29 {mp gsave x w2 sub y w2 add w3 sub m currentpoint t 4 {side} repeat cl fill gr} def
/m30 {mp gsave x w2 sub y w2 add w3 sub m currentpoint t 4 {side} repeat cl s gr} def
/m31 {mp x y w2 sub m 0 w d x w2 sub y m w 0 d x w2 sub y w2 add m w w neg d x w2 sub y w2 sub m w w d s} def
/m32 {mp x y w2 sub m w2 w d w neg 0 d cl s} def
/m33 {mp x y w2 add m w3 neg w2 neg d w3 w2 neg d w3 w2 d cl f} def
/m34 {mp x w2 sub y w2 sub w3 add m w3 0 d  0 w3 neg d w3 0 d 0 w3 d w3 0 d  0 w3 d w3 neg 0 d 0 w3 d w3 neg 0 d 0 w3 neg d w3 neg 0 d cl f } def
/m2 {mp x y w2 sub m 0 w d x w2 sub y m w 0 d s} def
/m5 {mp x w2 sub y w2 sub m w w d x w2 sub y w2 add m w w neg d s} def
%%IncludeResource: ProcSet (FontSetInit)
%%IncludeResource: font Times-Roman
%%IncludeResource: font Times-Italic
%%IncludeResource: font Times-Bold
%%IncludeResource: font Times-BoldItalic
%%IncludeResource: font Helvetica
%%IncludeResource: font Helvetica-Oblique
%%IncludeResource: font Helvetica-Bold
%%IncludeResource: font Helvetica-BoldOblique
%%IncludeResource: font Courier
%%IncludeResource: font Courier-Oblique
%%IncludeResource: font Courier-Bold
%%IncludeResource: font Courier-BoldOblique
%%IncludeResource: font Symbol
%%IncludeResource: font ZapfDingbats
/reEncode {exch findfont dup length dict begin {1 index /FID eq  {pop pop} {def} ifelse } forall /Encoding exch def currentdict end dup /FontName get exch definefont pop } def [/Times-Bold /Times-Italic /Times-BoldItalic /Helvetica /Helvetica-Oblique
 /Helvetica-Bold /Helvetica-BoldOblique /Courier /Courier-Oblique /Courier-Bold /Courier-BoldOblique /Times-Roman /AvantGarde-Book /AvantGarde-BookOblique /AvantGarde-Demi /AvantGarde-DemiOblique /Bookman-Demi /Bookman-DemiItalic /Bookman-Light
 /Bookman-LightItalic /Helvetica-Narrow /Helvetica-Narrow-Bold /Helvetica-Narrow-BoldOblique /Helvetica-Narrow-Oblique /NewCenturySchlbk-Roman /NewCenturySchlbk-Bold /NewCenturySchlbk-BoldItalic /NewCenturySchlbk-Italic /Palatino-Bold
 /Palatino-BoldItalic /Palatino-Italic /Palatino-Roman ] {ISOLatin1Encoding reEncode } forall
%%EndProlog
%%BeginSetup
%%EndSetup
newpath  gsave  .25 .25 scale  gsave  0 0 t black[  ] 0 sd 6 lw 1 1 1 c 2268 1703 0 0 bf black 1 1 1 c 1837 1346 317 272 bf black 1837 1346 317 272 bl 1 1 1 c 1837 1346 317 272 bf black 1837 1346 317 272 bl 0 0 1 c 1 1 1 c 0 0 1 c 685 508 m 73 X s
 795 508 m 74 X s 3 lw /w 36 def /w2 {w 2 div} def /w3 {w 3 div} def 777 508 m23 6 lw 869 1022 m 73 X s 979 1022 m 73 X s 3 lw 960 1022 m23 6 lw 1052 1223 m 74 X s 1162 1223 m 74 X s 3 lw 1144 1223 m23 6 lw 1236 1172 m 74 X s 1346 1172 m 74 X s 3 lw
 1328 1172 m23 6 lw 1420 996 m 73 X s 1530 996 m 73 X s 3 lw 1511 996 m23 6 lw 1603 747 m 74 X s 1713 747 m 74 X s 3 lw 1695 747 m23 6 lw 1787 496 m 74 X s 1897 496 m 74 X s 3 lw 1879 496 m23 6 lw black 317 272 m 1837 X s
 gsave  2268 1703 0 0 C 2094.68 68.3047 t 0 r /Times-Roman findfont 113.841 sf 0 0 m (y) show NC gr  317 314 m -42 Y s 409 293 m -21 Y s 501 293 m -21 Y s 593 293 m -21 Y s 685 293 m -21 Y s 777 314 m -42 Y s 869 293 m -21 Y s 960 293 m -21 Y s 1052
 293 m -21 Y s 1144 293 m -21 Y s 1236 314 m -42 Y s 1328 293 m -21 Y s 1420 293 m -21 Y s 1511 293 m -21 Y s 1603 293 m -21 Y s 1695 314 m -42 Y s 1787 293 m -21 Y s 1879 293 m -21 Y s 1971 293 m -21 Y s 2062 293 m -21 Y s 2154 314 m -42 Y s
 gsave  2268 1703 0 0 C 291.433 177.592 t 0 r /Times-Roman findfont 95.6266 sf 0 0 m (1) show NC gr 
 gsave  2268 1703 0 0 C 751.352 177.592 t 0 r /Times-Roman findfont 95.6266 sf 0 0 m (2) show NC gr 
 gsave  2268 1703 0 0 C 1211.27 177.592 t 0 r /Times-Roman findfont 95.6266 sf 0 0 m (3) show NC gr 
 gsave  2268 1703 0 0 C 1671.19 177.592 t 0 r /Times-Roman findfont 95.6266 sf 0 0 m (4) show NC gr 
 gsave  2268 1703 0 0 C 2131.11 177.592 t 0 r /Times-Roman findfont 95.6266 sf 0 0 m (5) show NC gr  317 1618 m 1837 X s 317 1577 m 41 Y s 409 1597 m 21 Y s 501 1597 m 21 Y s 593 1597 m 21 Y s 685 1597 m 21 Y s 777 1577 m 41 Y s 869 1597 m 21 Y s 960
 1597 m 21 Y s 1052 1597 m 21 Y s 1144 1597 m 21 Y s 1236 1577 m 41 Y s 1328 1597 m 21 Y s 1420 1597 m 21 Y s 1511 1597 m 21 Y s 1603 1597 m 21 Y s 1695 1577 m 41 Y s 1787 1597 m 21 Y s 1879 1597 m 21 Y s 1971 1597 m 21 Y s 2062 1597 m 21 Y s 2154
 1577 m 41 Y s 317 272 m 1346 Y s
 gsave  2268 1703 0 0 C 54.6438 942.605 t 90 r /Times-Roman findfont 113.841 sf 0 0 m (Arbitrary scale) show NC gr  371 385 m -54 X s 344 419 m -27 X s 344 454 m -27 X s 344 489 m -27 X s 344 523 m -27 X s 371 558 m -54 X s 344 593 m -27 X s 344 628
 m -27 X s 344 662 m -27 X s 344 697 m -27 X s 371 732 m -54 X s 344 766 m -27 X s 344 801 m -27 X s 344 836 m -27 X s 344 871 m -27 X s 371 905 m -54 X s 344 940 m -27 X s 344 975 m -27 X s 344 1009 m -27 X s 344 1044 m -27 X s 371 1079 m -54 X s
 344 1114 m -27 X s 344 1148 m -27 X s 344 1183 m -27 X s 344 1218 m -27 X s 371 1253 m -54 X s 344 1287 m -27 X s 344 1322 m -27 X s 344 1357 m -27 X s 344 1391 m -27 X s 371 1426 m -54 X s 344 1461 m -27 X s 344 1496 m -27 X s 344 1530 m -27 X s
 344 1565 m -27 X s 371 1600 m -54 X s 371 385 m -54 X s 344 350 m -27 X s 344 315 m -27 X s 344 280 m -27 X s 371 1600 m -54 X s
 gsave  2268 1703 0 0 C 245.897 350.631 t 0 r /Times-Roman findfont 95.6266 sf 0 0 m (0) show NC gr 
 gsave  2268 1703 0 0 C 127.502 523.669 t 0 r /Times-Roman findfont 95.6266 sf 0 0 m (0.05) show NC gr 
 gsave  2268 1703 0 0 C 177.592 696.708 t 0 r /Times-Roman findfont 95.6266 sf 0 0 m (0.1) show NC gr 
 gsave  2268 1703 0 0 C 127.502 869.747 t 0 r /Times-Roman findfont 95.6266 sf 0 0 m (0.15) show NC gr 
 gsave  2268 1703 0 0 C 173.039 1042.79 t 0 r /Times-Roman findfont 95.6266 sf 0 0 m (0.2) show NC gr 
 gsave  2268 1703 0 0 C 127.502 1220.38 t 0 r /Times-Roman findfont 95.6266 sf 0 0 m (0.25) show NC gr 
 gsave  2268 1703 0 0 C 177.592 1393.42 t 0 r /Times-Roman findfont 95.6266 sf 0 0 m (0.3) show NC gr 
 gsave  2268 1703 0 0 C 127.502 1566.45 t 0 r /Times-Roman findfont 95.6266 sf 0 0 m (0.35) show NC gr  2154 272 m 1346 Y s 2101 385 m 53 X s 2127 419 m 27 X s 2127 454 m 27 X s 2127 489 m 27 X s 2127 523 m 27 X s 2101 558 m 53 X s 2127 593 m 27 X s
 2127 628 m 27 X s 2127 662 m 27 X s 2127 697 m 27 X s 2101 732 m 53 X s 2127 766 m 27 X s 2127 801 m 27 X s 2127 836 m 27 X s 2127 871 m 27 X s 2101 905 m 53 X s 2127 940 m 27 X s 2127 975 m 27 X s 2127 1009 m 27 X s 2127 1044 m 27 X s 2101 1079 m
 53 X s 2127 1114 m 27 X s 2127 1148 m 27 X s 2127 1183 m 27 X s 2127 1218 m 27 X s 2101 1253 m 53 X s 2127 1287 m 27 X s 2127 1322 m 27 X s 2127 1357 m 27 X s 2127 1391 m 27 X s 2101 1426 m 53 X s 2127 1461 m 27 X s 2127 1496 m 27 X s 2127 1530 m 27
 X s 2127 1565 m 27 X s 2101 1600 m 53 X s 2101 385 m 53 X s 2127 350 m 27 X s 2127 315 m 27 X s 2127 280 m 27 X s 2101 1600 m 53 X s 1 1 1 c black 777 475 m 119 Y s 777 631 m 119 Y s 685 612 m 73 X s 795 612 m 74 X s 3 lw 777 612 m20 6 lw 960 771 m
 320 Y s 960 1127 m 320 Y s 869 1109 m 73 X s 979 1109 m 73 X s 3 lw 960 1109 m20 6 lw 1144 1090 m 398 Y s 1144 1524 m 94 Y s 1052 1506 m 74 X s 1162 1506 m 74 X s 3 lw 1144 1506 m20 6 lw 1328 833 m 363 Y s 1328 1232 m 363 Y s 1236 1214 m 74 X s 1346
 1214 m 74 X s 3 lw 1328 1214 m20 6 lw 1511 272 m 276 Y s 1511 584 m 279 Y s 1420 566 m 73 X s 1530 566 m 73 X s 3 lw 1511 566 m20 6 lw 1695 453 m 178 Y s 1695 667 m 178 Y s 1603 649 m 74 X s 1713 649 m 74 X s 3 lw 1695 649 m20 6 lw 1879 410 m 80 Y s
 1879 526 m 80 Y s 1787 508 m 74 X s 1897 508 m 74 X s 3 lw 1879 508 m20 6 lw 1 0 0 c 1 1 1 c 1 0 0 c 777 448 m 32 Y s 777 517 m 32 Y s 685 498 m 73 X s 795 498 m 74 X s 3 lw 777 498 m21 6 lw 960 1158 m 118 Y s 960 1313 m 119 Y s 869 1295 m 73 X s
 979 1295 m 73 X s 3 lw 960 1295 m21 6 lw 1144 851 m 136 Y s 1144 1024 m 137 Y s 1052 1006 m 74 X s 1162 1006 m 74 X s 3 lw 1144 1006 m21 6 lw 1328 1145 m 144 Y s 1328 1325 m 144 Y s 1236 1307 m 74 X s 1346 1307 m 74 X s 3 lw 1328 1307 m21 6 lw 1511
 763 m 107 Y s 1511 907 m 107 Y s 1420 889 m 73 X s 1530 889 m 73 X s 3 lw 1511 889 m21 6 lw 1695 600 m 67 Y s 1695 703 m 67 Y s 1603 685 m 74 X s 1713 685 m 74 X s 3 lw 1695 685 m21 6 lw 1879 443 m 23 Y s 1879 503 m 23 Y s 1787 484 m 74 X s 1897 484
 m 74 X s 3 lw 1879 484 m21 6 lw 0 1 0 c 1 1 1 c 0 1 0 c 685 534 m 73 X s 795 534 m 74 X s 3 lw 777 534 m22 6 lw 869 1019 m 73 X s 979 1019 m 73 X s 3 lw 960 1019 m22 6 lw 1052 1220 m 74 X s 1162 1220 m 74 X s 3 lw 1144 1220 m22 6 lw 1236 1169 m 74 X
 s 1346 1169 m 74 X s 3 lw 1328 1169 m22 6 lw 1420 993 m 73 X s 1530 993 m 73 X s 3 lw 1511 993 m22 6 lw 1603 745 m 74 X s 1713 745 m 74 X s 3 lw 1695 745 m22 6 lw 1787 483 m 74 X s 1897 483 m 74 X s 3 lw 1879 483 m22 6 lw 0 0 1 c 1 1 1 c 0 0 1 c 685
 508 m 73 X s 795 508 m 74 X s 3 lw 777 508 m23 6 lw 869 1022 m 73 X s 979 1022 m 73 X s 3 lw 960 1022 m23 6 lw 1052 1223 m 74 X s 1162 1223 m 74 X s 3 lw 1144 1223 m23 6 lw 1236 1172 m 74 X s 1346 1172 m 74 X s 3 lw 1328 1172 m23 6 lw 1420 996 m 73
 X s 1530 996 m 73 X s 3 lw 1511 996 m23 6 lw 1603 747 m 74 X s 1713 747 m 74 X s 3 lw 1695 747 m23 6 lw 1787 496 m 74 X s 1897 496 m 74 X s 3 lw 1879 496 m23 6 lw black 1 1 1 c 476 239 1542 1277 bf black
 gsave  2268 1703 0 0 C 1657.53 1475.38 t 0 r /Helvetica-Bold findfont 50.0901 sf 0 0 m (pPb\(Fwd\)) show NC gr  1560 1486 m 83 X s 1602 1468 m 36 Y s 3 lw 1602 1486 m20 6 lw
 gsave  2268 1703 0 0 C 1657.53 1416.18 t 0 r /Helvetica-Bold findfont 50.0901 sf 0 0 m (pPb\(Bwd\)) show NC gr  1 0 0 c 1560 1426 m 83 X s 1602 1408 m 36 Y s 3 lw 1602 1426 m21 6 lw black
 gsave  2268 1703 0 0 C 1657.53 1356.99 t 0 r /Helvetica-Bold findfont 50.0901 sf 0 0 m (pPb MC\(Fwd\)) show NC gr  0 1 0 c 1560 1367 m 83 X s 1602 1349 m 36 Y s 3 lw 1602 1367 m22 6 lw black
 gsave  2268 1703 0 0 C 1657.53 1297.79 t 0 r /Helvetica-Bold findfont 50.0901 sf 0 0 m (pPb MC\(Bwd\)) show NC gr  0 0 1 c 1560 1307 m 83 X s 1602 1289 m 36 Y s 3 lw 1602 1307 m23 6 lw black
 gsave  2268 1703 0 0 C 637.511 1293.24 t 0 r /Times-Roman findfont 63.7511 sf 0 0 m ( = 5 TeV) show NC gr 
 gsave  2268 1703 0 0 C 578.313 1270.47 t 0 r /Times-Roman findfont 40.9828 sf 0 0 m (NN) show NC gr 
 gsave  2268 1703 0 0 C 555.545 1293.24 t 0 r /Times-Roman findfont 63.7511 sf 0 0 m (s) show NC gr  528 1325 m 9 -59 d s
 gsave  2268 1703 0 0 C 405.275 1293.24 t 0 r /Times-Roman findfont 63.7511 sf 0 0 m (pPb ) show NC gr 
 gsave  2268 1703 0 0 C 405.275 1384.31 t 0 r /Times-Roman findfont 77.412 sf 0 0 m (Preliminary) show NC gr 
 gsave  2268 1703 0 0 C 405.275 1461.72 t 0 r /Times-Roman findfont 77.412 sf 0 0 m (LHCb) show NC gr 
 gr  gr showpage
end
%%EOF
