%!PS-Adobe-2.0 EPSF-2.0
%%BoundingBox:  0 0 567 425
%%Title: mu_m_Tracking_chi2.eps: pt Canvas
%%Creator: ROOT Version 5.34/25
%%CreationDate: Fri Aug 28 20:01:50 2015
%%EndComments
%%BeginProlog
80 dict begin
/s {stroke} def /l {lineto} def /m {moveto} def /t {translate} def
/r {rotate} def /rl {roll}  def /R {repeat} def
/d {rlineto} def /rm {rmoveto} def /gr {grestore} def /f {eofill} def
/c {setrgbcolor} def /black {0 setgray} def /sd {setdash} def
/cl {closepath} def /sf {scalefont setfont} def /lw {setlinewidth} def
/box {m dup 0 exch d exch 0 d 0 exch neg d cl} def
/NC{systemdict begin initclip end}def/C{NC box clip newpath}def
/bl {box s} def /bf {box f} def /Y { 0 exch d} def /X { 0 d} def 
/K {{pop pop 0 moveto} exch kshow} bind def
/ita {/ang 15 def gsave [1 0 ang dup sin exch cos div 1 0 0] concat} def 
/mp {newpath /y exch def /x exch def} def
/side {[w .77 mul w .23 mul] .385 w mul sd w 0 l currentpoint t -144 r} def
/mr {mp x y w2 0 360 arc} def /m24 {mr s} def /m20 {mr f} def
/mb {mp x y w2 add m w2 neg 0 d 0 w neg d w 0 d 0 w d cl} def
/mt {mp x y w2 add m w2 neg w neg d w 0 d cl} def
/m21 {mb f} def /m25 {mb s} def /m22 {mt f} def /m26{mt s} def
/m23 {mp x y w2 sub m w2 w d w neg 0 d cl f} def
/m27 {mp x y w2 add m w3 neg w2 neg d w3 w2 neg d w3 w2 d cl s} def
/m28 {mp x w2 sub y w2 sub w3 add m w3 0 d  0 w3 neg d w3 0 d 0 w3 d w3 0 d  0 w3 d w3 neg 0 d 0 w3 d w3 neg 0 d 0 w3 neg d w3 neg 0 d cl s } def
/m29 {mp gsave x w2 sub y w2 add w3 sub m currentpoint t 4 {side} repeat cl fill gr} def
/m30 {mp gsave x w2 sub y w2 add w3 sub m currentpoint t 4 {side} repeat cl s gr} def
/m31 {mp x y w2 sub m 0 w d x w2 sub y m w 0 d x w2 sub y w2 add m w w neg d x w2 sub y w2 sub m w w d s} def
/m32 {mp x y w2 sub m w2 w d w neg 0 d cl s} def
/m33 {mp x y w2 add m w3 neg w2 neg d w3 w2 neg d w3 w2 d cl f} def
/m34 {mp x w2 sub y w2 sub w3 add m w3 0 d  0 w3 neg d w3 0 d 0 w3 d w3 0 d  0 w3 d w3 neg 0 d 0 w3 d w3 neg 0 d 0 w3 neg d w3 neg 0 d cl f } def
/m2 {mp x y w2 sub m 0 w d x w2 sub y m w 0 d s} def
/m5 {mp x w2 sub y w2 sub m w w d x w2 sub y w2 add m w w neg d s} def
/reEncode {exch findfont dup length dict begin {1 index /FID eq  {pop pop} {def} ifelse } forall /Encoding exch def currentdict end dup /FontName get exch definefont pop } def [/Times-Bold /Times-Italic /Times-BoldItalic /Helvetica /Helvetica-Oblique
 /Helvetica-Bold /Helvetica-BoldOblique /Courier /Courier-Oblique /Courier-Bold /Courier-BoldOblique /Times-Roman /AvantGarde-Book /AvantGarde-BookOblique /AvantGarde-Demi /AvantGarde-DemiOblique /Bookman-Demi /Bookman-DemiItalic /Bookman-Light
 /Bookman-LightItalic /Helvetica-Narrow /Helvetica-Narrow-Bold /Helvetica-Narrow-BoldOblique /Helvetica-Narrow-Oblique /NewCenturySchlbk-Roman /NewCenturySchlbk-Bold /NewCenturySchlbk-BoldItalic /NewCenturySchlbk-Italic /Palatino-Bold
 /Palatino-BoldItalic /Palatino-Italic /Palatino-Roman ] {ISOLatin1Encoding reEncode } forall
%%EndProlog
%%BeginSetup
%%EndSetup
newpath  gsave  .25 .25 scale  gsave  0 0 t black[  ] 0 sd 6 lw 1 1 1 c 2268 1701 0 0 bf black 1 1 1 c 1837 1344 317 238 bf black 1837 1344 317 238 bl 1 1 1 c 1837 1344 317 238 bf black 1837 1344 317 238 bl 0 0 1 c 1 1 1 c 0 0 1 c 317 239 m 74 X s
 428 239 m 73 X s 3 lw /w 37 def /w2 {w 2 div} def /w3 {w 3 div} def 409 239 m22 6 lw 501 422 m 74 X s 611 422 m 74 X s 3 lw 593 422 m22 6 lw 685 1281 m 73 X s 795 1281 m 74 X s 3 lw 777 1281 m22 6 lw 869 964 m 73 X s 979 964 m 73 X s 3 lw 960 964
 m22 6 lw 1052 371 m 74 X s 1162 371 m 74 X s 3 lw 1144 371 m22 6 lw 1236 251 m 73 X s 1346 251 m 74 X s 3 lw 1328 251 m22 6 lw 1420 240 m 73 X s 1530 240 m 73 X s 3 lw 1511 240 m22 6 lw 1603 239 m 74 X s 1713 239 m 74 X s 3 lw 1695 239 m22 6 lw 1787
 238 m 74 X s 1897 238 m 74 X s 3 lw 1879 238 m22 6 lw black 317 238 m 1837 X s
 gsave  2268 1701 0 0 C 1933.96 50.2921 t 0 r /Helvetica findfont 96.0122 sf 0 0 m (/nodf) show NC gr 
 gsave  2268 1701 0 0 C 1897.38 77.7242 t 0 r /Helvetica findfont 64.0081 sf 0 0 m (2) show NC gr 
 gsave  2268 1701 0 0 C 1847.09 50.2921 t 0 r /Symbol findfont 96.0122 sf 0 0 m (c) show NC gr 
 gsave  2268 1701 0 0 C 1481.33 50.2921 t 0 r /Helvetica findfont 96.0122 sf 0 0 m (Tracking) show NC gr 
 gsave  2268 1701 0 0 C 1458.47 91.4402 t 0 r /Helvetica findfont 64.0081 sf 0 0 m (\255) show NC gr 
 gsave  2268 1701 0 0 C 1403.61 50.2921 t 0 r /Symbol findfont 96.0122 sf 0 0 m (m) show NC gr  317 279 m -41 Y s 422 259 m -21 Y s 527 259 m -21 Y s 632 259 m -21 Y s 737 259 m -21 Y s 842 279 m -41 Y s 947 259 m -21 Y s 1052 259 m -21 Y s 1157 259
 m -21 Y s 1262 259 m -21 Y s 1367 279 m -41 Y s 1472 259 m -21 Y s 1577 259 m -21 Y s 1682 259 m -21 Y s 1787 259 m -21 Y s 1892 279 m -41 Y s 1892 279 m -41 Y s 1997 259 m -21 Y s 2102 259 m -21 Y s
 gsave  2268 1701 0 0 C 292.609 146.304 t 0 r /Helvetica findfont 77.7242 sf 0 0 m (0) show NC gr 
 gsave  2268 1701 0 0 C 827.534 146.304 t 0 r /Helvetica findfont 77.7242 sf 0 0 m (1) show NC gr 
 gsave  2268 1701 0 0 C 1344.17 146.304 t 0 r /Helvetica findfont 77.7242 sf 0 0 m (2) show NC gr 
 gsave  2268 1701 0 0 C 1865.38 146.304 t 0 r /Helvetica findfont 77.7242 sf 0 0 m (3) show NC gr  317 1582 m 1837 X s 317 1540 m 42 Y s 422 1561 m 21 Y s 527 1561 m 21 Y s 632 1561 m 21 Y s 737 1561 m 21 Y s 842 1540 m 42 Y s 947 1561 m 21 Y s 1052
 1561 m 21 Y s 1157 1561 m 21 Y s 1262 1561 m 21 Y s 1367 1540 m 42 Y s 1472 1561 m 21 Y s 1577 1561 m 21 Y s 1682 1561 m 21 Y s 1787 1561 m 21 Y s 1892 1540 m 42 Y s 1892 1540 m 42 Y s 1997 1561 m 21 Y s 2102 1561 m 21 Y s 317 238 m 1344 Y s
 gsave  2268 1701 0 0 C 160.02 969.266 t 90 r /Helvetica findfont 96.0122 sf 0 0 m (Arbitrary scale) show NC gr  371 238 m -54 X s 344 280 m -27 X s 344 322 m -27 X s 344 364 m -27 X s 344 406 m -27 X s 371 448 m -54 X s 344 490 m -27 X s 344 532 m
 -27 X s 344 574 m -27 X s 344 616 m -27 X s 371 658 m -54 X s 344 700 m -27 X s 344 742 m -27 X s 344 784 m -27 X s 344 826 m -27 X s 371 868 m -54 X s 344 910 m -27 X s 344 952 m -27 X s 344 994 m -27 X s 344 1036 m -27 X s 371 1078 m -54 X s 344
 1120 m -27 X s 344 1163 m -27 X s 344 1205 m -27 X s 344 1247 m -27 X s 371 1289 m -54 X s 344 1331 m -27 X s 344 1373 m -27 X s 344 1415 m -27 X s 344 1457 m -27 X s 371 1499 m -54 X s 371 1499 m -54 X s 344 1541 m -27 X s
 gsave  2268 1701 0 0 C 260.605 210.312 t 0 r /Helvetica findfont 77.7242 sf 0 0 m (0) show NC gr 
 gsave  2268 1701 0 0 C 205.74 420.625 t 0 r /Helvetica findfont 77.7242 sf 0 0 m (0.1) show NC gr 
 gsave  2268 1701 0 0 C 196.596 626.365 t 0 r /Helvetica findfont 77.7242 sf 0 0 m (0.2) show NC gr 
 gsave  2268 1701 0 0 C 196.596 836.678 t 0 r /Helvetica findfont 77.7242 sf 0 0 m (0.3) show NC gr 
 gsave  2268 1701 0 0 C 192.024 1046.99 t 0 r /Helvetica findfont 77.7242 sf 0 0 m (0.4) show NC gr 
 gsave  2268 1701 0 0 C 196.596 1257.3 t 0 r /Helvetica findfont 77.7242 sf 0 0 m (0.5) show NC gr 
 gsave  2268 1701 0 0 C 196.596 1467.61 t 0 r /Helvetica findfont 77.7242 sf 0 0 m (0.6) show NC gr  2154 238 m 1344 Y s 2101 238 m 53 X s 2127 280 m 27 X s 2127 322 m 27 X s 2127 364 m 27 X s 2127 406 m 27 X s 2101 448 m 53 X s 2127 490 m 27 X s
 2127 532 m 27 X s 2127 574 m 27 X s 2127 616 m 27 X s 2101 658 m 53 X s 2127 700 m 27 X s 2127 742 m 27 X s 2127 784 m 27 X s 2127 826 m 27 X s 2101 868 m 53 X s 2127 910 m 27 X s 2127 952 m 27 X s 2127 994 m 27 X s 2127 1036 m 27 X s 2101 1078 m 53
 X s 2127 1120 m 27 X s 2127 1163 m 27 X s 2127 1205 m 27 X s 2127 1247 m 27 X s 2101 1289 m 53 X s 2127 1331 m 27 X s 2127 1373 m 27 X s 2127 1415 m 27 X s 2127 1457 m 27 X s 2101 1499 m 53 X s 2101 1499 m 53 X s 2127 1541 m 27 X s 1 1 1 c black 317
 240 m 74 X s 428 240 m 73 X s 3 lw 409 240 m20 6 lw 593 451 m 43 Y s 593 530 m 43 Y s 501 512 m 74 X s 611 512 m 74 X s 3 lw 593 512 m20 6 lw 777 1034 m 104 Y s 777 1175 m 103 Y s 685 1156 m 73 X s 795 1156 m 74 X s 3 lw 777 1156 m20 6 lw 960 796 m
 90 Y s 960 922 m 90 Y s 869 904 m 73 X s 979 904 m 73 X s 3 lw 960 904 m20 6 lw 1144 369 m 44 Y s 1144 449 m 44 Y s 1052 431 m 74 X s 1162 431 m 74 X s 3 lw 1144 431 m20 6 lw 1328 269 m 15 Y s 1328 321 m 15 Y s 1236 302 m 73 X s 1346 302 m 74 X s 3
 lw 1328 302 m20 6 lw 1 0 0 c 1 1 1 c 1 0 0 c 593 238 m 62 Y s 593 337 m 104 Y s 501 319 m 74 X s 611 319 m 74 X s 3 lw 593 319 m21 6 lw 777 1158 m 281 Y s 777 1476 m 106 Y s 685 1458 m 73 X s 795 1458 m 74 X s 3 lw 777 1458 m21 6 lw 960 465 m 252 Y
 s 960 754 m 253 Y s 869 736 m 73 X s 979 736 m 73 X s 3 lw 960 736 m21 6 lw 1144 380 m 151 Y s 1144 568 m 151 Y s 1052 549 m 74 X s 1162 549 m 74 X s 3 lw 1144 549 m21 6 lw 1328 273 m 61 Y s 1236 255 m 73 X s 1346 255 m 74 X s 3 lw 1328 255 m21 6 lw
 1695 262 m 11 Y s 1603 244 m 74 X s 1713 244 m 74 X s 3 lw 1695 244 m21 6 lw 0 0 1 c 1 1 1 c 0 0 1 c 317 239 m 74 X s 428 239 m 73 X s 3 lw 409 239 m22 6 lw 501 422 m 74 X s 611 422 m 74 X s 3 lw 593 422 m22 6 lw 685 1281 m 73 X s 795 1281 m 74 X s
 3 lw 777 1281 m22 6 lw 869 964 m 73 X s 979 964 m 73 X s 3 lw 960 964 m22 6 lw 1052 371 m 74 X s 1162 371 m 74 X s 3 lw 1144 371 m22 6 lw 1236 251 m 73 X s 1346 251 m 74 X s 3 lw 1328 251 m22 6 lw 1420 240 m 73 X s 1530 240 m 73 X s 3 lw 1511 240
 m22 6 lw 1603 239 m 74 X s 1713 239 m 74 X s 3 lw 1695 239 m22 6 lw 1787 238 m 74 X s 1897 238 m 74 X s 3 lw 1879 238 m22 6 lw black 1 1 1 c 476 239 1315 935 bf black
 gsave  2268 1701 0 0 C 1431.04 1120.14 t 0 r /Helvetica-Bold findfont 68.5801 sf 0 0 m (pPb\(Fwd\)) show NC gr  1333 1134 m 83 X s 1375 1110 m 48 Y s 3 lw 1375 1134 m20 6 lw
 gsave  2268 1701 0 0 C 1431.04 1037.85 t 0 r /Helvetica-Bold findfont 68.5801 sf 0 0 m (pPb\(Bwd\)) show NC gr  1 0 0 c 1333 1054 m 83 X s 1375 1031 m 47 Y s 3 lw 1375 1054 m21 6 lw black
 gsave  2268 1701 0 0 C 1431.04 960.122 t 0 r /Helvetica-Bold findfont 68.5801 sf 0 0 m (pp MC) show NC gr  0 0 1 c 1333 975 m 83 X s 1375 951 m 48 Y s 3 lw 1375 975 m22 6 lw black
 gsave  2268 1701 0 0 C 1568.2 1289.31 t 0 r /Helvetica findfont 64.0081 sf 0 0 m ( = 5 TeV) show NC gr 
 gsave  2268 1701 0 0 C 1508.76 1266.45 t 0 r /Helvetica findfont 41.1481 sf 0 0 m (NN) show NC gr 
 gsave  2268 1701 0 0 C 1476.76 1289.31 t 0 r /Helvetica findfont 64.0081 sf 0 0 m (s) show NC gr  1449 1326 m 9 -60 d s 0 lw 1458 1266 m 10 78 d s 1468 1344 m 100 X s
 gsave  2268 1701 0 0 C 1312.17 1289.31 t 0 r /Helvetica findfont 64.0081 sf 0 0 m (pPb ) show NC gr 
 gsave  2268 1701 0 0 C 1312.17 1380.75 t 0 r /Helvetica findfont 77.7242 sf 0 0 m (Preliminary) show NC gr 
 gsave  2268 1701 0 0 C 1312.17 1467.61 t 0 r /Helvetica findfont 77.7242 sf 0 0 m (LHCb) show NC gr 
 gr  gr showpage
end
%%EOF
