%!PS-Adobe-2.0 EPSF-2.0
%%BoundingBox:  0 0 567 425
%%Title: mu_m_p_chi2.eps: mp Canvas
%%Creator: ROOT Version 5.34/25
%%CreationDate: Fri Aug 28 20:01:54 2015
%%EndComments
%%BeginProlog
80 dict begin
/s {stroke} def /l {lineto} def /m {moveto} def /t {translate} def
/r {rotate} def /rl {roll}  def /R {repeat} def
/d {rlineto} def /rm {rmoveto} def /gr {grestore} def /f {eofill} def
/c {setrgbcolor} def /black {0 setgray} def /sd {setdash} def
/cl {closepath} def /sf {scalefont setfont} def /lw {setlinewidth} def
/box {m dup 0 exch d exch 0 d 0 exch neg d cl} def
/NC{systemdict begin initclip end}def/C{NC box clip newpath}def
/bl {box s} def /bf {box f} def /Y { 0 exch d} def /X { 0 d} def 
/K {{pop pop 0 moveto} exch kshow} bind def
/ita {/ang 15 def gsave [1 0 ang dup sin exch cos div 1 0 0] concat} def 
/mp {newpath /y exch def /x exch def} def
/side {[w .77 mul w .23 mul] .385 w mul sd w 0 l currentpoint t -144 r} def
/mr {mp x y w2 0 360 arc} def /m24 {mr s} def /m20 {mr f} def
/mb {mp x y w2 add m w2 neg 0 d 0 w neg d w 0 d 0 w d cl} def
/mt {mp x y w2 add m w2 neg w neg d w 0 d cl} def
/m21 {mb f} def /m25 {mb s} def /m22 {mt f} def /m26{mt s} def
/m23 {mp x y w2 sub m w2 w d w neg 0 d cl f} def
/m27 {mp x y w2 add m w3 neg w2 neg d w3 w2 neg d w3 w2 d cl s} def
/m28 {mp x w2 sub y w2 sub w3 add m w3 0 d  0 w3 neg d w3 0 d 0 w3 d w3 0 d  0 w3 d w3 neg 0 d 0 w3 d w3 neg 0 d 0 w3 neg d w3 neg 0 d cl s } def
/m29 {mp gsave x w2 sub y w2 add w3 sub m currentpoint t 4 {side} repeat cl fill gr} def
/m30 {mp gsave x w2 sub y w2 add w3 sub m currentpoint t 4 {side} repeat cl s gr} def
/m31 {mp x y w2 sub m 0 w d x w2 sub y m w 0 d x w2 sub y w2 add m w w neg d x w2 sub y w2 sub m w w d s} def
/m32 {mp x y w2 sub m w2 w d w neg 0 d cl s} def
/m33 {mp x y w2 add m w3 neg w2 neg d w3 w2 neg d w3 w2 d cl f} def
/m34 {mp x w2 sub y w2 sub w3 add m w3 0 d  0 w3 neg d w3 0 d 0 w3 d w3 0 d  0 w3 d w3 neg 0 d 0 w3 d w3 neg 0 d 0 w3 neg d w3 neg 0 d cl f } def
/m2 {mp x y w2 sub m 0 w d x w2 sub y m w 0 d s} def
/m5 {mp x w2 sub y w2 sub m w w d x w2 sub y w2 add m w w neg d s} def
/reEncode {exch findfont dup length dict begin {1 index /FID eq  {pop pop} {def} ifelse } forall /Encoding exch def currentdict end dup /FontName get exch definefont pop } def [/Times-Bold /Times-Italic /Times-BoldItalic /Helvetica /Helvetica-Oblique
 /Helvetica-Bold /Helvetica-BoldOblique /Courier /Courier-Oblique /Courier-Bold /Courier-BoldOblique /Times-Roman /AvantGarde-Book /AvantGarde-BookOblique /AvantGarde-Demi /AvantGarde-DemiOblique /Bookman-Demi /Bookman-DemiItalic /Bookman-Light
 /Bookman-LightItalic /Helvetica-Narrow /Helvetica-Narrow-Bold /Helvetica-Narrow-BoldOblique /Helvetica-Narrow-Oblique /NewCenturySchlbk-Roman /NewCenturySchlbk-Bold /NewCenturySchlbk-BoldItalic /NewCenturySchlbk-Italic /Palatino-Bold
 /Palatino-BoldItalic /Palatino-Italic /Palatino-Roman ] {ISOLatin1Encoding reEncode } forall
%%EndProlog
%%BeginSetup
%%EndSetup
newpath  gsave  .25 .25 scale  gsave  0 0 t black[  ] 0 sd 6 lw 1 1 1 c 2268 1701 0 0 bf black 1 1 1 c 1837 1344 317 238 bf black 1837 1344 317 238 bl 1 1 1 c 1837 1344 317 238 bf black 1837 1344 317 238 bl 0 0 1 c 1 1 1 c 0 0 1 c 317 1153 m 74 X s
 428 1153 m 73 X s 3 lw /w 37 def /w2 {w 2 div} def /w3 {w 3 div} def 409 1153 m22 6 lw 501 782 m 74 X s 611 782 m 74 X s 3 lw 593 782 m22 6 lw 685 458 m 73 X s 795 458 m 74 X s 3 lw 777 458 m22 6 lw 869 334 m 73 X s 979 334 m 73 X s 3 lw 960 334 m22
 6 lw 1052 281 m 74 X s 1162 281 m 74 X s 3 lw 1144 281 m22 6 lw 1236 258 m 73 X s 1346 258 m 74 X s 3 lw 1328 258 m22 6 lw 1420 248 m 73 X s 1530 248 m 73 X s 3 lw 1511 248 m22 6 lw 1603 243 m 74 X s 1713 243 m 74 X s 3 lw 1695 243 m22 6 lw 1787 241
 m 74 X s 1897 241 m 74 X s 3 lw 1879 241 m22 6 lw 1971 240 m 73 X s 2081 240 m 73 X s 3 lw 2062 240 m22 6 lw black 317 238 m 1837 X s
 gsave  2268 1701 0 0 C 2125.98 50.2921 t 0 r /Helvetica findfont 96.0122 sf 0 0 m (\)) show NC gr 
 gsave  2268 1701 0 0 C 2103.12 96.0122 t 0 r /Helvetica findfont 64.0081 sf 0 0 m (\255) show NC gr 
 gsave  2268 1701 0 0 C 2048.26 50.2921 t 0 r /Symbol findfont 96.0122 sf 0 0 m (m) show NC gr 
 gsave  2268 1701 0 0 C 1965.96 50.2921 t 0 r /Helvetica findfont 96.0122 sf 0 0 m (p\() show NC gr  317 279 m -41 Y s 391 259 m -21 Y s 464 259 m -21 Y s 538 259 m -21 Y s 611 259 m -21 Y s 685 279 m -41 Y s 758 259 m -21 Y s 832 259 m -21 Y s 905
 259 m -21 Y s 979 259 m -21 Y s 1052 279 m -41 Y s 1126 259 m -21 Y s 1199 259 m -21 Y s 1273 259 m -21 Y s 1346 259 m -21 Y s 1420 279 m -41 Y s 1493 259 m -21 Y s 1567 259 m -21 Y s 1640 259 m -21 Y s 1713 259 m -21 Y s 1787 279 m -41 Y s 1860 259
 m -21 Y s 1934 259 m -21 Y s 2007 259 m -21 Y s 2081 259 m -21 Y s 2154 279 m -41 Y s
 gsave  2268 1701 0 0 C 292.609 146.304 t 0 r /Helvetica findfont 77.7242 sf 0 0 m (0) show NC gr 
 gsave  2268 1701 0 0 C 635.509 146.304 t 0 r /Helvetica findfont 77.7242 sf 0 0 m (50) show NC gr 
 gsave  2268 1701 0 0 C 987.554 146.304 t 0 r /Helvetica findfont 77.7242 sf 0 0 m (100) show NC gr 
 gsave  2268 1701 0 0 C 1353.31 146.304 t 0 r /Helvetica findfont 77.7242 sf 0 0 m (150) show NC gr 
 gsave  2268 1701 0 0 C 1719.08 146.304 t 0 r /Helvetica findfont 77.7242 sf 0 0 m (200) show NC gr 
 gsave  2268 1701 0 0 C 2089.41 146.304 t 0 r /Helvetica findfont 77.7242 sf 0 0 m (250) show NC gr  317 1582 m 1837 X s 317 1540 m 42 Y s 391 1561 m 21 Y s 464 1561 m 21 Y s 538 1561 m 21 Y s 611 1561 m 21 Y s 685 1540 m 42 Y s 758 1561 m 21 Y s 832
 1561 m 21 Y s 905 1561 m 21 Y s 979 1561 m 21 Y s 1052 1540 m 42 Y s 1126 1561 m 21 Y s 1199 1561 m 21 Y s 1273 1561 m 21 Y s 1346 1561 m 21 Y s 1420 1540 m 42 Y s 1493 1561 m 21 Y s 1567 1561 m 21 Y s 1640 1561 m 21 Y s 1713 1561 m 21 Y s 1787 1540
 m 42 Y s 1860 1561 m 21 Y s 1934 1561 m 21 Y s 2007 1561 m 21 Y s 2081 1561 m 21 Y s 2154 1540 m 42 Y s 317 238 m 1344 Y s
 gsave  2268 1701 0 0 C 160.02 969.266 t 90 r /Helvetica findfont 96.0122 sf 0 0 m (Arbitrary scale) show NC gr  371 238 m -54 X s 344 275 m -27 X s 344 312 m -27 X s 344 349 m -27 X s 344 387 m -27 X s 371 424 m -54 X s 344 461 m -27 X s 344 498 m
 -27 X s 344 535 m -27 X s 344 572 m -27 X s 371 609 m -54 X s 344 646 m -27 X s 344 684 m -27 X s 344 721 m -27 X s 344 758 m -27 X s 371 795 m -54 X s 344 832 m -27 X s 344 869 m -27 X s 344 906 m -27 X s 344 944 m -27 X s 371 981 m -54 X s 344
 1018 m -27 X s 344 1055 m -27 X s 344 1092 m -27 X s 344 1129 m -27 X s 371 1166 m -54 X s 344 1203 m -27 X s 344 1241 m -27 X s 344 1278 m -27 X s 344 1315 m -27 X s 371 1352 m -54 X s 344 1389 m -27 X s 344 1426 m -27 X s 344 1463 m -27 X s 344
 1500 m -27 X s 371 1538 m -54 X s 371 1538 m -54 X s 344 1575 m -27 X s
 gsave  2268 1701 0 0 C 260.605 210.312 t 0 r /Helvetica findfont 77.7242 sf 0 0 m (0) show NC gr 
 gsave  2268 1701 0 0 C 205.74 393.193 t 0 r /Helvetica findfont 77.7242 sf 0 0 m (0.1) show NC gr 
 gsave  2268 1701 0 0 C 196.596 580.645 t 0 r /Helvetica findfont 77.7242 sf 0 0 m (0.2) show NC gr 
 gsave  2268 1701 0 0 C 196.596 763.526 t 0 r /Helvetica findfont 77.7242 sf 0 0 m (0.3) show NC gr 
 gsave  2268 1701 0 0 C 192.024 950.978 t 0 r /Helvetica findfont 77.7242 sf 0 0 m (0.4) show NC gr 
 gsave  2268 1701 0 0 C 196.596 1138.43 t 0 r /Helvetica findfont 77.7242 sf 0 0 m (0.5) show NC gr 
 gsave  2268 1701 0 0 C 196.596 1321.31 t 0 r /Helvetica findfont 77.7242 sf 0 0 m (0.6) show NC gr 
 gsave  2268 1701 0 0 C 192.024 1508.76 t 0 r /Helvetica findfont 77.7242 sf 0 0 m (0.7) show NC gr  2154 238 m 1344 Y s 2101 238 m 53 X s 2127 275 m 27 X s 2127 312 m 27 X s 2127 349 m 27 X s 2127 387 m 27 X s 2101 424 m 53 X s 2127 461 m 27 X s
 2127 498 m 27 X s 2127 535 m 27 X s 2127 572 m 27 X s 2101 609 m 53 X s 2127 646 m 27 X s 2127 684 m 27 X s 2127 721 m 27 X s 2127 758 m 27 X s 2101 795 m 53 X s 2127 832 m 27 X s 2127 869 m 27 X s 2127 906 m 27 X s 2127 944 m 27 X s 2101 981 m 53 X
 s 2127 1018 m 27 X s 2127 1055 m 27 X s 2127 1092 m 27 X s 2127 1129 m 27 X s 2101 1166 m 53 X s 2127 1203 m 27 X s 2127 1241 m 27 X s 2127 1278 m 27 X s 2127 1315 m 27 X s 2101 1352 m 53 X s 2127 1389 m 27 X s 2127 1426 m 27 X s 2127 1463 m 27 X s
 2127 1500 m 27 X s 2101 1538 m 53 X s 2101 1538 m 53 X s 2127 1575 m 27 X s 1 1 1 c black 409 991 m 106 Y s 409 1133 m 105 Y s 317 1115 m 74 X s 428 1115 m 73 X s 3 lw 409 1115 m20 6 lw 593 749 m 70 Y s 593 855 m 70 Y s 501 837 m 74 X s 611 837 m 74
 X s 3 lw 593 837 m20 6 lw 777 374 m 34 Y s 777 445 m 33 Y s 685 426 m 73 X s 795 426 m 74 X s 3 lw 777 426 m20 6 lw 960 313 m 15 Y s 960 365 m 15 Y s 869 346 m 73 X s 979 346 m 73 X s 3 lw 960 346 m20 6 lw 1144 268 m 2 Y s 1144 307 m 2 Y s 1052 288
 m 74 X s 1162 288 m 74 X s 3 lw 1144 288 m20 6 lw 1236 258 m 73 X s 1346 258 m 74 X s 3 lw 1328 258 m20 6 lw 1420 244 m 73 X s 1530 244 m 73 X s 3 lw 1511 244 m20 6 lw 1603 241 m 74 X s 1713 241 m 74 X s 3 lw 1695 241 m20 6 lw 1971 243 m 73 X s 2081
 243 m 73 X s 3 lw 2062 243 m20 6 lw 1 0 0 c 1 1 1 c 1 0 0 c 409 1133 m 307 Y s 409 1476 m 106 Y s 317 1458 m 74 X s 428 1458 m 73 X s 3 lw 409 1458 m21 6 lw 593 547 m 189 Y s 593 772 m 189 Y s 501 754 m 74 X s 611 754 m 74 X s 3 lw 593 754 m21 6 lw
 777 238 m 28 Y s 777 302 m 94 Y s 685 284 m 73 X s 795 284 m 74 X s 3 lw 777 284 m21 6 lw 960 238 m 19 Y s 960 294 m 53 Y s 869 276 m 73 X s 979 276 m 73 X s 3 lw 960 276 m21 6 lw 1328 238 m 8 Y s 1328 282 m 10 Y s 1236 264 m 73 X s 1346 264 m 74 X
 s 3 lw 1328 264 m21 6 lw 1695 248 m 7 Y s 1695 291 m 6 Y s 1603 273 m 74 X s 1713 273 m 74 X s 3 lw 1695 273 m21 6 lw 0 0 1 c 1 1 1 c 0 0 1 c 317 1153 m 74 X s 428 1153 m 73 X s 3 lw 409 1153 m22 6 lw 501 782 m 74 X s 611 782 m 74 X s 3 lw 593 782
 m22 6 lw 685 458 m 73 X s 795 458 m 74 X s 3 lw 777 458 m22 6 lw 869 334 m 73 X s 979 334 m 73 X s 3 lw 960 334 m22 6 lw 1052 281 m 74 X s 1162 281 m 74 X s 3 lw 1144 281 m22 6 lw 1236 258 m 73 X s 1346 258 m 74 X s 3 lw 1328 258 m22 6 lw 1420 248 m
 73 X s 1530 248 m 73 X s 3 lw 1511 248 m22 6 lw 1603 243 m 74 X s 1713 243 m 74 X s 3 lw 1695 243 m22 6 lw 1787 241 m 74 X s 1897 241 m 74 X s 3 lw 1879 241 m22 6 lw 1971 240 m 73 X s 2081 240 m 73 X s 3 lw 2062 240 m22 6 lw black 1 1 1 c 476 239
 1315 935 bf black
 gsave  2268 1701 0 0 C 1431.04 1120.14 t 0 r /Helvetica-Bold findfont 68.5801 sf 0 0 m (pPb\(Fwd\)) show NC gr  1333 1134 m 83 X s 1375 1110 m 48 Y s 3 lw 1375 1134 m20 6 lw
 gsave  2268 1701 0 0 C 1431.04 1037.85 t 0 r /Helvetica-Bold findfont 68.5801 sf 0 0 m (pPb\(Bwd\)) show NC gr  1 0 0 c 1333 1054 m 83 X s 1375 1031 m 47 Y s 3 lw 1375 1054 m21 6 lw black
 gsave  2268 1701 0 0 C 1431.04 960.122 t 0 r /Helvetica-Bold findfont 68.5801 sf 0 0 m (pp MC) show NC gr  0 0 1 c 1333 975 m 83 X s 1375 951 m 48 Y s 3 lw 1375 975 m22 6 lw black
 gsave  2268 1701 0 0 C 1568.2 1289.31 t 0 r /Helvetica findfont 64.0081 sf 0 0 m ( = 5 TeV) show NC gr 
 gsave  2268 1701 0 0 C 1508.76 1266.45 t 0 r /Helvetica findfont 41.1481 sf 0 0 m (NN) show NC gr 
 gsave  2268 1701 0 0 C 1476.76 1289.31 t 0 r /Helvetica findfont 64.0081 sf 0 0 m (s) show NC gr  1449 1326 m 9 -60 d s 0 lw 1458 1266 m 10 78 d s 1468 1344 m 100 X s
 gsave  2268 1701 0 0 C 1312.17 1289.31 t 0 r /Helvetica findfont 64.0081 sf 0 0 m (pPb ) show NC gr 
 gsave  2268 1701 0 0 C 1312.17 1380.75 t 0 r /Helvetica findfont 77.7242 sf 0 0 m (Preliminary) show NC gr 
 gsave  2268 1701 0 0 C 1312.17 1467.61 t 0 r /Helvetica findfont 77.7242 sf 0 0 m (LHCb) show NC gr 
 gr  gr showpage
end
%%EOF
