%!PS-Adobe-2.0 EPSF-2.0
%%BoundingBox:  0 0 567 425
%%Title: mu_p_pt_chi2.eps: ppt Canvas
%%Creator: ROOT Version 5.34/25
%%CreationDate: Fri Aug 28 20:01:54 2015
%%EndComments
%%BeginProlog
80 dict begin
/s {stroke} def /l {lineto} def /m {moveto} def /t {translate} def
/r {rotate} def /rl {roll}  def /R {repeat} def
/d {rlineto} def /rm {rmoveto} def /gr {grestore} def /f {eofill} def
/c {setrgbcolor} def /black {0 setgray} def /sd {setdash} def
/cl {closepath} def /sf {scalefont setfont} def /lw {setlinewidth} def
/box {m dup 0 exch d exch 0 d 0 exch neg d cl} def
/NC{systemdict begin initclip end}def/C{NC box clip newpath}def
/bl {box s} def /bf {box f} def /Y { 0 exch d} def /X { 0 d} def 
/K {{pop pop 0 moveto} exch kshow} bind def
/ita {/ang 15 def gsave [1 0 ang dup sin exch cos div 1 0 0] concat} def 
/mp {newpath /y exch def /x exch def} def
/side {[w .77 mul w .23 mul] .385 w mul sd w 0 l currentpoint t -144 r} def
/mr {mp x y w2 0 360 arc} def /m24 {mr s} def /m20 {mr f} def
/mb {mp x y w2 add m w2 neg 0 d 0 w neg d w 0 d 0 w d cl} def
/mt {mp x y w2 add m w2 neg w neg d w 0 d cl} def
/m21 {mb f} def /m25 {mb s} def /m22 {mt f} def /m26{mt s} def
/m23 {mp x y w2 sub m w2 w d w neg 0 d cl f} def
/m27 {mp x y w2 add m w3 neg w2 neg d w3 w2 neg d w3 w2 d cl s} def
/m28 {mp x w2 sub y w2 sub w3 add m w3 0 d  0 w3 neg d w3 0 d 0 w3 d w3 0 d  0 w3 d w3 neg 0 d 0 w3 d w3 neg 0 d 0 w3 neg d w3 neg 0 d cl s } def
/m29 {mp gsave x w2 sub y w2 add w3 sub m currentpoint t 4 {side} repeat cl fill gr} def
/m30 {mp gsave x w2 sub y w2 add w3 sub m currentpoint t 4 {side} repeat cl s gr} def
/m31 {mp x y w2 sub m 0 w d x w2 sub y m w 0 d x w2 sub y w2 add m w w neg d x w2 sub y w2 sub m w w d s} def
/m32 {mp x y w2 sub m w2 w d w neg 0 d cl s} def
/m33 {mp x y w2 add m w3 neg w2 neg d w3 w2 neg d w3 w2 d cl f} def
/m34 {mp x w2 sub y w2 sub w3 add m w3 0 d  0 w3 neg d w3 0 d 0 w3 d w3 0 d  0 w3 d w3 neg 0 d 0 w3 d w3 neg 0 d 0 w3 neg d w3 neg 0 d cl f } def
/m2 {mp x y w2 sub m 0 w d x w2 sub y m w 0 d s} def
/m5 {mp x w2 sub y w2 sub m w w d x w2 sub y w2 add m w w neg d s} def
/reEncode {exch findfont dup length dict begin {1 index /FID eq  {pop pop} {def} ifelse } forall /Encoding exch def currentdict end dup /FontName get exch definefont pop } def [/Times-Bold /Times-Italic /Times-BoldItalic /Helvetica /Helvetica-Oblique
 /Helvetica-Bold /Helvetica-BoldOblique /Courier /Courier-Oblique /Courier-Bold /Courier-BoldOblique /Times-Roman /AvantGarde-Book /AvantGarde-BookOblique /AvantGarde-Demi /AvantGarde-DemiOblique /Bookman-Demi /Bookman-DemiItalic /Bookman-Light
 /Bookman-LightItalic /Helvetica-Narrow /Helvetica-Narrow-Bold /Helvetica-Narrow-BoldOblique /Helvetica-Narrow-Oblique /NewCenturySchlbk-Roman /NewCenturySchlbk-Bold /NewCenturySchlbk-BoldItalic /NewCenturySchlbk-Italic /Palatino-Bold
 /Palatino-BoldItalic /Palatino-Italic /Palatino-Roman ] {ISOLatin1Encoding reEncode } forall
%%EndProlog
%%BeginSetup
%%EndSetup
newpath  gsave  .25 .25 scale  gsave  0 0 t black[  ] 0 sd 6 lw 1 1 1 c 2268 1701 0 0 bf black 1 1 1 c 1837 1344 317 238 bf black 1837 1344 317 238 bl 1 1 1 c 1837 1344 317 238 bf black 1837 1344 317 238 bl 0 0 1 c 1 1 1 c 0 0 1 c 317 654 m 74 X s
 428 654 m 73 X s 3 lw /w 37 def /w2 {w 2 div} def /w3 {w 3 div} def 409 654 m22 6 lw 501 1375 m 74 X s 611 1375 m 74 X s 3 lw 593 1375 m22 6 lw 685 622 m 73 X s 795 622 m 74 X s 3 lw 777 622 m22 6 lw 869 358 m 73 X s 979 358 m 73 X s 3 lw 960 358
 m22 6 lw 1052 283 m 74 X s 1162 283 m 74 X s 3 lw 1144 283 m22 6 lw 1236 256 m 73 X s 1346 256 m 74 X s 3 lw 1328 256 m22 6 lw 1420 245 m 73 X s 1530 245 m 73 X s 3 lw 1511 245 m22 6 lw 1603 241 m 74 X s 1713 241 m 74 X s 3 lw 1695 241 m22 6 lw 1787
 239 m 74 X s 1897 239 m 74 X s 3 lw 1879 239 m22 6 lw black 317 238 m 1837 X s
 gsave  2268 1701 0 0 C 2125.98 64.0081 t 0 r /Helvetica findfont 96.0122 sf 0 0 m (\)) show NC gr 
 gsave  2268 1701 0 0 C 2089.41 100.584 t 0 r /Helvetica findfont 64.0081 sf 0 0 m (+) show NC gr 
 gsave  2268 1701 0 0 C 2034.54 64.0081 t 0 r /Symbol findfont 96.0122 sf 0 0 m (m) show NC gr 
 gsave  2268 1701 0 0 C 2002.54 64.0081 t 0 r /Helvetica findfont 96.0122 sf 0 0 m (\() show NC gr 
 gsave  2268 1701 0 0 C 1961.39 13.716 t 0 r /Helvetica findfont 64.0081 sf 0 0 m (T) show NC gr 
 gsave  2268 1701 0 0 C 1906.53 64.0081 t 0 r /Helvetica findfont 96.0122 sf 0 0 m (p) show NC gr  317 279 m -41 Y s 440 259 m -21 Y s 562 259 m -21 Y s 685 259 m -21 Y s 807 259 m -21 Y s 930 279 m -41 Y s 1052 259 m -21 Y s 1175 259 m -21 Y s 1297
 259 m -21 Y s 1420 259 m -21 Y s 1542 279 m -41 Y s 1665 259 m -21 Y s 1787 259 m -21 Y s 1909 259 m -21 Y s 2032 259 m -21 Y s 2154 279 m -41 Y s
 gsave  2268 1701 0 0 C 292.609 146.304 t 0 r /Helvetica findfont 77.7242 sf 0 0 m (0) show NC gr 
 gsave  2268 1701 0 0 C 905.258 146.304 t 0 r /Helvetica findfont 77.7242 sf 0 0 m (5) show NC gr 
 gsave  2268 1701 0 0 C 1495.05 146.304 t 0 r /Helvetica findfont 77.7242 sf 0 0 m (10) show NC gr 
 gsave  2268 1701 0 0 C 2107.7 146.304 t 0 r /Helvetica findfont 77.7242 sf 0 0 m (15) show NC gr  317 1582 m 1837 X s 317 1540 m 42 Y s 440 1561 m 21 Y s 562 1561 m 21 Y s 685 1561 m 21 Y s 807 1561 m 21 Y s 930 1540 m 42 Y s 1052 1561 m 21 Y s 1175
 1561 m 21 Y s 1297 1561 m 21 Y s 1420 1561 m 21 Y s 1542 1540 m 42 Y s 1665 1561 m 21 Y s 1787 1561 m 21 Y s 1909 1561 m 21 Y s 2032 1561 m 21 Y s 2154 1540 m 42 Y s 317 238 m 1344 Y s
 gsave  2268 1701 0 0 C 160.02 969.266 t 90 r /Helvetica findfont 96.0122 sf 0 0 m (Arbitrary scale) show NC gr  371 238 m -54 X s 344 281 m -27 X s 344 323 m -27 X s 344 366 m -27 X s 344 409 m -27 X s 371 451 m -54 X s 344 494 m -27 X s 344 536 m
 -27 X s 344 579 m -27 X s 344 622 m -27 X s 371 664 m -54 X s 344 707 m -27 X s 344 749 m -27 X s 344 792 m -27 X s 344 835 m -27 X s 371 877 m -54 X s 344 920 m -27 X s 344 962 m -27 X s 344 1005 m -27 X s 344 1047 m -27 X s 371 1090 m -54 X s 344
 1133 m -27 X s 344 1175 m -27 X s 344 1218 m -27 X s 344 1260 m -27 X s 371 1303 m -54 X s 344 1346 m -27 X s 344 1388 m -27 X s 344 1431 m -27 X s 344 1473 m -27 X s 371 1516 m -54 X s 371 1516 m -54 X s 344 1559 m -27 X s
 gsave  2268 1701 0 0 C 260.605 210.312 t 0 r /Helvetica findfont 77.7242 sf 0 0 m (0) show NC gr 
 gsave  2268 1701 0 0 C 205.74 420.625 t 0 r /Helvetica findfont 77.7242 sf 0 0 m (0.1) show NC gr 
 gsave  2268 1701 0 0 C 196.596 635.509 t 0 r /Helvetica findfont 77.7242 sf 0 0 m (0.2) show NC gr 
 gsave  2268 1701 0 0 C 196.596 845.822 t 0 r /Helvetica findfont 77.7242 sf 0 0 m (0.3) show NC gr 
 gsave  2268 1701 0 0 C 192.024 1060.71 t 0 r /Helvetica findfont 77.7242 sf 0 0 m (0.4) show NC gr 
 gsave  2268 1701 0 0 C 196.596 1275.59 t 0 r /Helvetica findfont 77.7242 sf 0 0 m (0.5) show NC gr 
 gsave  2268 1701 0 0 C 196.596 1485.9 t 0 r /Helvetica findfont 77.7242 sf 0 0 m (0.6) show NC gr  2154 238 m 1344 Y s 2101 238 m 53 X s 2127 281 m 27 X s 2127 323 m 27 X s 2127 366 m 27 X s 2127 409 m 27 X s 2101 451 m 53 X s 2127 494 m 27 X s 2127
 536 m 27 X s 2127 579 m 27 X s 2127 622 m 27 X s 2101 664 m 53 X s 2127 707 m 27 X s 2127 749 m 27 X s 2127 792 m 27 X s 2127 835 m 27 X s 2101 877 m 53 X s 2127 920 m 27 X s 2127 962 m 27 X s 2127 1005 m 27 X s 2127 1047 m 27 X s 2101 1090 m 53 X s
 2127 1133 m 27 X s 2127 1175 m 27 X s 2127 1218 m 27 X s 2127 1260 m 27 X s 2101 1303 m 53 X s 2127 1346 m 27 X s 2127 1388 m 27 X s 2127 1431 m 27 X s 2127 1473 m 27 X s 2101 1516 m 53 X s 2101 1516 m 53 X s 2127 1559 m 27 X s 1 1 1 c black 409 545
 m 80 Y s 409 662 m 80 Y s 317 643 m 74 X s 428 643 m 73 X s 3 lw 409 643 m20 6 lw 593 1314 m 127 Y s 593 1477 m 105 Y s 501 1459 m 74 X s 611 1459 m 74 X s 3 lw 593 1459 m20 6 lw 777 495 m 44 Y s 777 576 m 44 Y s 685 557 m 73 X s 795 557 m 74 X s 3
 lw 777 557 m20 6 lw 960 313 m 13 Y s 960 363 m 13 Y s 869 344 m 73 X s 979 344 m 73 X s 3 lw 960 344 m20 6 lw 1144 267 m 2 Y s 1144 306 m 3 Y s 1052 288 m 74 X s 1162 288 m 74 X s 3 lw 1144 288 m20 6 lw 1236 260 m 73 X s 1346 260 m 74 X s 3 lw 1328
 260 m20 6 lw 1420 246 m 73 X s 1530 246 m 73 X s 3 lw 1511 246 m20 6 lw 1 0 0 c 1 1 1 c 1 0 0 c 409 409 m 239 Y s 409 685 m 238 Y s 317 666 m 74 X s 428 666 m 73 X s 3 lw 409 666 m21 6 lw 593 1059 m 339 Y s 593 1434 m 148 Y s 501 1416 m 74 X s 611
 1416 m 74 X s 3 lw 593 1416 m21 6 lw 777 455 m 129 Y s 777 621 m 129 Y s 685 602 m 73 X s 795 602 m 74 X s 3 lw 777 602 m21 6 lw 960 271 m 49 Y s 960 356 m 49 Y s 869 338 m 73 X s 979 338 m 73 X s 3 lw 960 338 m21 6 lw 1144 245 m 6 Y s 1144 288 m 6
 Y s 1052 270 m 74 X s 1162 270 m 74 X s 3 lw 1144 270 m21 6 lw 1328 245 m 8 Y s 1328 290 m 9 Y s 1236 272 m 73 X s 1346 272 m 74 X s 3 lw 1328 272 m21 6 lw 0 0 1 c 1 1 1 c 0 0 1 c 317 654 m 74 X s 428 654 m 73 X s 3 lw 409 654 m22 6 lw 501 1375 m 74
 X s 611 1375 m 74 X s 3 lw 593 1375 m22 6 lw 685 622 m 73 X s 795 622 m 74 X s 3 lw 777 622 m22 6 lw 869 358 m 73 X s 979 358 m 73 X s 3 lw 960 358 m22 6 lw 1052 283 m 74 X s 1162 283 m 74 X s 3 lw 1144 283 m22 6 lw 1236 256 m 73 X s 1346 256 m 74 X
 s 3 lw 1328 256 m22 6 lw 1420 245 m 73 X s 1530 245 m 73 X s 3 lw 1511 245 m22 6 lw 1603 241 m 74 X s 1713 241 m 74 X s 3 lw 1695 241 m22 6 lw 1787 239 m 74 X s 1897 239 m 74 X s 3 lw 1879 239 m22 6 lw black 1 1 1 c 476 239 1315 935 bf black
 gsave  2268 1701 0 0 C 1431.04 1120.14 t 0 r /Helvetica-Bold findfont 68.5801 sf 0 0 m (pPb\(Fwd\)) show NC gr  1333 1134 m 83 X s 1375 1110 m 48 Y s 3 lw 1375 1134 m20 6 lw
 gsave  2268 1701 0 0 C 1431.04 1037.85 t 0 r /Helvetica-Bold findfont 68.5801 sf 0 0 m (pPb\(Bwd\)) show NC gr  1 0 0 c 1333 1054 m 83 X s 1375 1031 m 47 Y s 3 lw 1375 1054 m21 6 lw black
 gsave  2268 1701 0 0 C 1431.04 960.122 t 0 r /Helvetica-Bold findfont 68.5801 sf 0 0 m (pp MC) show NC gr  0 0 1 c 1333 975 m 83 X s 1375 951 m 48 Y s 3 lw 1375 975 m22 6 lw black
 gsave  2268 1701 0 0 C 1568.2 1289.31 t 0 r /Helvetica findfont 64.0081 sf 0 0 m ( = 5 TeV) show NC gr 
 gsave  2268 1701 0 0 C 1508.76 1266.45 t 0 r /Helvetica findfont 41.1481 sf 0 0 m (NN) show NC gr 
 gsave  2268 1701 0 0 C 1476.76 1289.31 t 0 r /Helvetica findfont 64.0081 sf 0 0 m (s) show NC gr  1449 1326 m 9 -60 d s 0 lw 1458 1266 m 10 78 d s 1468 1344 m 100 X s
 gsave  2268 1701 0 0 C 1312.17 1289.31 t 0 r /Helvetica findfont 64.0081 sf 0 0 m (pPb ) show NC gr 
 gsave  2268 1701 0 0 C 1312.17 1380.75 t 0 r /Helvetica findfont 77.7242 sf 0 0 m (Preliminary) show NC gr 
 gsave  2268 1701 0 0 C 1312.17 1467.61 t 0 r /Helvetica findfont 77.7242 sf 0 0 m (LHCb) show NC gr 
 gr  gr showpage
end
%%EOF
