%!PS-Adobe-2.0 EPSF-2.0
%%BoundingBox:  0 0 567 425
%%Title: mu_p_p_chi2.eps: pp Canvas
%%Creator: ROOT Version 5.34/25
%%CreationDate: Fri Aug 28 20:01:53 2015
%%EndComments
%%BeginProlog
80 dict begin
/s {stroke} def /l {lineto} def /m {moveto} def /t {translate} def
/r {rotate} def /rl {roll}  def /R {repeat} def
/d {rlineto} def /rm {rmoveto} def /gr {grestore} def /f {eofill} def
/c {setrgbcolor} def /black {0 setgray} def /sd {setdash} def
/cl {closepath} def /sf {scalefont setfont} def /lw {setlinewidth} def
/box {m dup 0 exch d exch 0 d 0 exch neg d cl} def
/NC{systemdict begin initclip end}def/C{NC box clip newpath}def
/bl {box s} def /bf {box f} def /Y { 0 exch d} def /X { 0 d} def 
/K {{pop pop 0 moveto} exch kshow} bind def
/ita {/ang 15 def gsave [1 0 ang dup sin exch cos div 1 0 0] concat} def 
/mp {newpath /y exch def /x exch def} def
/side {[w .77 mul w .23 mul] .385 w mul sd w 0 l currentpoint t -144 r} def
/mr {mp x y w2 0 360 arc} def /m24 {mr s} def /m20 {mr f} def
/mb {mp x y w2 add m w2 neg 0 d 0 w neg d w 0 d 0 w d cl} def
/mt {mp x y w2 add m w2 neg w neg d w 0 d cl} def
/m21 {mb f} def /m25 {mb s} def /m22 {mt f} def /m26{mt s} def
/m23 {mp x y w2 sub m w2 w d w neg 0 d cl f} def
/m27 {mp x y w2 add m w3 neg w2 neg d w3 w2 neg d w3 w2 d cl s} def
/m28 {mp x w2 sub y w2 sub w3 add m w3 0 d  0 w3 neg d w3 0 d 0 w3 d w3 0 d  0 w3 d w3 neg 0 d 0 w3 d w3 neg 0 d 0 w3 neg d w3 neg 0 d cl s } def
/m29 {mp gsave x w2 sub y w2 add w3 sub m currentpoint t 4 {side} repeat cl fill gr} def
/m30 {mp gsave x w2 sub y w2 add w3 sub m currentpoint t 4 {side} repeat cl s gr} def
/m31 {mp x y w2 sub m 0 w d x w2 sub y m w 0 d x w2 sub y w2 add m w w neg d x w2 sub y w2 sub m w w d s} def
/m32 {mp x y w2 sub m w2 w d w neg 0 d cl s} def
/m33 {mp x y w2 add m w3 neg w2 neg d w3 w2 neg d w3 w2 d cl f} def
/m34 {mp x w2 sub y w2 sub w3 add m w3 0 d  0 w3 neg d w3 0 d 0 w3 d w3 0 d  0 w3 d w3 neg 0 d 0 w3 d w3 neg 0 d 0 w3 neg d w3 neg 0 d cl f } def
/m2 {mp x y w2 sub m 0 w d x w2 sub y m w 0 d s} def
/m5 {mp x w2 sub y w2 sub m w w d x w2 sub y w2 add m w w neg d s} def
/reEncode {exch findfont dup length dict begin {1 index /FID eq  {pop pop} {def} ifelse } forall /Encoding exch def currentdict end dup /FontName get exch definefont pop } def [/Times-Bold /Times-Italic /Times-BoldItalic /Helvetica /Helvetica-Oblique
 /Helvetica-Bold /Helvetica-BoldOblique /Courier /Courier-Oblique /Courier-Bold /Courier-BoldOblique /Times-Roman /AvantGarde-Book /AvantGarde-BookOblique /AvantGarde-Demi /AvantGarde-DemiOblique /Bookman-Demi /Bookman-DemiItalic /Bookman-Light
 /Bookman-LightItalic /Helvetica-Narrow /Helvetica-Narrow-Bold /Helvetica-Narrow-BoldOblique /Helvetica-Narrow-Oblique /NewCenturySchlbk-Roman /NewCenturySchlbk-Bold /NewCenturySchlbk-BoldItalic /NewCenturySchlbk-Italic /Palatino-Bold
 /Palatino-BoldItalic /Palatino-Italic /Palatino-Roman ] {ISOLatin1Encoding reEncode } forall
%%EndProlog
%%BeginSetup
%%EndSetup
newpath  gsave  .25 .25 scale  gsave  0 0 t black[  ] 0 sd 6 lw 1 1 1 c 2268 1701 0 0 bf black 1 1 1 c 1837 1344 317 238 bf black 1837 1344 317 238 bl 1 1 1 c 1837 1344 317 238 bf black 1837 1344 317 238 bl 0 0 1 c 1 1 1 c 0 0 1 c 317 1233 m 74 X s
 428 1233 m 73 X s 3 lw /w 37 def /w2 {w 2 div} def /w3 {w 3 div} def 409 1233 m22 6 lw 501 830 m 74 X s 611 830 m 74 X s 3 lw 593 830 m22 6 lw 685 476 m 73 X s 795 476 m 74 X s 3 lw 777 476 m22 6 lw 869 341 m 73 X s 979 341 m 73 X s 3 lw 960 341 m22
 6 lw 1052 284 m 74 X s 1162 284 m 74 X s 3 lw 1144 284 m22 6 lw 1236 259 m 73 X s 1346 259 m 74 X s 3 lw 1328 259 m22 6 lw 1420 248 m 73 X s 1530 248 m 73 X s 3 lw 1511 248 m22 6 lw 1603 243 m 74 X s 1713 243 m 74 X s 3 lw 1695 243 m22 6 lw 1787 241
 m 74 X s 1897 241 m 74 X s 3 lw 1879 241 m22 6 lw 1971 240 m 73 X s 2081 240 m 73 X s 3 lw 2062 240 m22 6 lw black 317 238 m 1837 X s
 gsave  2268 1701 0 0 C 2125.98 50.2921 t 0 r /Helvetica findfont 96.0122 sf 0 0 m (\)) show NC gr 
 gsave  2268 1701 0 0 C 2089.41 86.8682 t 0 r /Helvetica findfont 64.0081 sf 0 0 m (+) show NC gr 
 gsave  2268 1701 0 0 C 2034.54 50.2921 t 0 r /Symbol findfont 96.0122 sf 0 0 m (m) show NC gr 
 gsave  2268 1701 0 0 C 1952.25 50.2921 t 0 r /Helvetica findfont 96.0122 sf 0 0 m (p\() show NC gr  317 279 m -41 Y s 391 259 m -21 Y s 464 259 m -21 Y s 538 259 m -21 Y s 611 259 m -21 Y s 685 279 m -41 Y s 758 259 m -21 Y s 832 259 m -21 Y s 905
 259 m -21 Y s 979 259 m -21 Y s 1052 279 m -41 Y s 1126 259 m -21 Y s 1199 259 m -21 Y s 1273 259 m -21 Y s 1346 259 m -21 Y s 1420 279 m -41 Y s 1493 259 m -21 Y s 1567 259 m -21 Y s 1640 259 m -21 Y s 1713 259 m -21 Y s 1787 279 m -41 Y s 1860 259
 m -21 Y s 1934 259 m -21 Y s 2007 259 m -21 Y s 2081 259 m -21 Y s 2154 279 m -41 Y s
 gsave  2268 1701 0 0 C 292.609 146.304 t 0 r /Helvetica findfont 77.7242 sf 0 0 m (0) show NC gr 
 gsave  2268 1701 0 0 C 635.509 146.304 t 0 r /Helvetica findfont 77.7242 sf 0 0 m (50) show NC gr 
 gsave  2268 1701 0 0 C 987.554 146.304 t 0 r /Helvetica findfont 77.7242 sf 0 0 m (100) show NC gr 
 gsave  2268 1701 0 0 C 1353.31 146.304 t 0 r /Helvetica findfont 77.7242 sf 0 0 m (150) show NC gr 
 gsave  2268 1701 0 0 C 1719.08 146.304 t 0 r /Helvetica findfont 77.7242 sf 0 0 m (200) show NC gr 
 gsave  2268 1701 0 0 C 2089.41 146.304 t 0 r /Helvetica findfont 77.7242 sf 0 0 m (250) show NC gr  317 1582 m 1837 X s 317 1540 m 42 Y s 391 1561 m 21 Y s 464 1561 m 21 Y s 538 1561 m 21 Y s 611 1561 m 21 Y s 685 1540 m 42 Y s 758 1561 m 21 Y s 832
 1561 m 21 Y s 905 1561 m 21 Y s 979 1561 m 21 Y s 1052 1540 m 42 Y s 1126 1561 m 21 Y s 1199 1561 m 21 Y s 1273 1561 m 21 Y s 1346 1561 m 21 Y s 1420 1540 m 42 Y s 1493 1561 m 21 Y s 1567 1561 m 21 Y s 1640 1561 m 21 Y s 1713 1561 m 21 Y s 1787 1540
 m 42 Y s 1860 1561 m 21 Y s 1934 1561 m 21 Y s 2007 1561 m 21 Y s 2081 1561 m 21 Y s 2154 1540 m 42 Y s 317 238 m 1344 Y s
 gsave  2268 1701 0 0 C 160.02 969.266 t 90 r /Helvetica findfont 96.0122 sf 0 0 m (Arbitrary scale) show NC gr  371 238 m -54 X s 344 278 m -27 X s 344 319 m -27 X s 344 359 m -27 X s 344 399 m -27 X s 371 439 m -54 X s 344 480 m -27 X s 344 520 m
 -27 X s 344 560 m -27 X s 344 601 m -27 X s 371 641 m -54 X s 344 681 m -27 X s 344 721 m -27 X s 344 762 m -27 X s 344 802 m -27 X s 371 842 m -54 X s 344 882 m -27 X s 344 923 m -27 X s 344 963 m -27 X s 344 1003 m -27 X s 371 1044 m -54 X s 344
 1084 m -27 X s 344 1124 m -27 X s 344 1164 m -27 X s 344 1205 m -27 X s 371 1245 m -54 X s 344 1285 m -27 X s 344 1325 m -27 X s 344 1366 m -27 X s 344 1406 m -27 X s 371 1446 m -54 X s 371 1446 m -54 X s 344 1487 m -27 X s 344 1527 m -27 X s 344
 1567 m -27 X s
 gsave  2268 1701 0 0 C 260.605 210.312 t 0 r /Helvetica findfont 77.7242 sf 0 0 m (0) show NC gr 
 gsave  2268 1701 0 0 C 205.74 411.481 t 0 r /Helvetica findfont 77.7242 sf 0 0 m (0.1) show NC gr 
 gsave  2268 1701 0 0 C 196.596 612.649 t 0 r /Helvetica findfont 77.7242 sf 0 0 m (0.2) show NC gr 
 gsave  2268 1701 0 0 C 196.596 813.818 t 0 r /Helvetica findfont 77.7242 sf 0 0 m (0.3) show NC gr 
 gsave  2268 1701 0 0 C 192.024 1014.99 t 0 r /Helvetica findfont 77.7242 sf 0 0 m (0.4) show NC gr 
 gsave  2268 1701 0 0 C 196.596 1216.15 t 0 r /Helvetica findfont 77.7242 sf 0 0 m (0.5) show NC gr 
 gsave  2268 1701 0 0 C 196.596 1417.32 t 0 r /Helvetica findfont 77.7242 sf 0 0 m (0.6) show NC gr  2154 238 m 1344 Y s 2101 238 m 53 X s 2127 278 m 27 X s 2127 319 m 27 X s 2127 359 m 27 X s 2127 399 m 27 X s 2101 439 m 53 X s 2127 480 m 27 X s
 2127 520 m 27 X s 2127 560 m 27 X s 2127 601 m 27 X s 2101 641 m 53 X s 2127 681 m 27 X s 2127 721 m 27 X s 2127 762 m 27 X s 2127 802 m 27 X s 2101 842 m 53 X s 2127 882 m 27 X s 2127 923 m 27 X s 2127 963 m 27 X s 2127 1003 m 27 X s 2101 1044 m 53
 X s 2127 1084 m 27 X s 2127 1124 m 27 X s 2127 1164 m 27 X s 2127 1205 m 27 X s 2101 1245 m 53 X s 2127 1285 m 27 X s 2127 1325 m 27 X s 2127 1366 m 27 X s 2127 1406 m 27 X s 2101 1446 m 53 X s 2101 1446 m 53 X s 2127 1487 m 27 X s 2127 1527 m 27 X
 s 2127 1567 m 27 X s 1 1 1 c black 409 1127 m 118 Y s 409 1282 m 118 Y s 317 1263 m 74 X s 428 1263 m 73 X s 3 lw 409 1263 m20 6 lw 593 750 m 74 Y s 593 861 m 74 Y s 501 843 m 74 X s 611 843 m 74 X s 3 lw 593 843 m20 6 lw 777 391 m 37 Y s 777 464 m
 37 Y s 685 446 m 73 X s 795 446 m 74 X s 3 lw 777 446 m20 6 lw 960 318 m 18 Y s 960 372 m 18 Y s 869 354 m 73 X s 979 354 m 73 X s 3 lw 960 354 m20 6 lw 1144 251 m 2 Y s 1144 290 m 2 Y s 1052 272 m 74 X s 1162 272 m 74 X s 3 lw 1144 272 m20 6 lw
 1236 249 m 73 X s 1346 249 m 74 X s 3 lw 1328 249 m20 6 lw 1420 247 m 73 X s 1530 247 m 73 X s 3 lw 1511 247 m20 6 lw 1603 246 m 74 X s 1713 246 m 74 X s 3 lw 1695 246 m20 6 lw 1 0 0 c 1 1 1 c 1 0 0 c 409 1109 m 332 Y s 409 1478 m 104 Y s 317 1459 m
 74 X s 428 1459 m 73 X s 3 lw 409 1459 m21 6 lw 593 554 m 202 Y s 593 793 m 202 Y s 501 775 m 74 X s 611 775 m 74 X s 3 lw 593 775 m21 6 lw 777 238 m 92 Y s 777 366 m 119 Y s 685 348 m 73 X s 795 348 m 74 X s 3 lw 777 348 m21 6 lw 960 240 m 46 Y s
 960 323 m 46 Y s 869 305 m 73 X s 979 305 m 73 X s 3 lw 960 305 m21 6 lw 1144 238 m 29 Y s 1144 304 m 32 Y s 1052 285 m 74 X s 1162 285 m 74 X s 3 lw 1144 285 m21 6 lw 1695 242 m 14 Y s 1695 293 m 14 Y s 1603 275 m 74 X s 1713 275 m 74 X s 3 lw 1695
 275 m21 6 lw 0 0 1 c 1 1 1 c 0 0 1 c 317 1233 m 74 X s 428 1233 m 73 X s 3 lw 409 1233 m22 6 lw 501 830 m 74 X s 611 830 m 74 X s 3 lw 593 830 m22 6 lw 685 476 m 73 X s 795 476 m 74 X s 3 lw 777 476 m22 6 lw 869 341 m 73 X s 979 341 m 73 X s 3 lw
 960 341 m22 6 lw 1052 284 m 74 X s 1162 284 m 74 X s 3 lw 1144 284 m22 6 lw 1236 259 m 73 X s 1346 259 m 74 X s 3 lw 1328 259 m22 6 lw 1420 248 m 73 X s 1530 248 m 73 X s 3 lw 1511 248 m22 6 lw 1603 243 m 74 X s 1713 243 m 74 X s 3 lw 1695 243 m22 6
 lw 1787 241 m 74 X s 1897 241 m 74 X s 3 lw 1879 241 m22 6 lw 1971 240 m 73 X s 2081 240 m 73 X s 3 lw 2062 240 m22 6 lw black 1 1 1 c 476 239 1315 935 bf black
 gsave  2268 1701 0 0 C 1431.04 1120.14 t 0 r /Helvetica-Bold findfont 68.5801 sf 0 0 m (pPb\(Fwd\)) show NC gr  1333 1134 m 83 X s 1375 1110 m 48 Y s 3 lw 1375 1134 m20 6 lw
 gsave  2268 1701 0 0 C 1431.04 1037.85 t 0 r /Helvetica-Bold findfont 68.5801 sf 0 0 m (pPb\(Bwd\)) show NC gr  1 0 0 c 1333 1054 m 83 X s 1375 1031 m 47 Y s 3 lw 1375 1054 m21 6 lw black
 gsave  2268 1701 0 0 C 1431.04 960.122 t 0 r /Helvetica-Bold findfont 68.5801 sf 0 0 m (pp MC) show NC gr  0 0 1 c 1333 975 m 83 X s 1375 951 m 48 Y s 3 lw 1375 975 m22 6 lw black
 gsave  2268 1701 0 0 C 1568.2 1289.31 t 0 r /Helvetica findfont 64.0081 sf 0 0 m ( = 5 TeV) show NC gr 
 gsave  2268 1701 0 0 C 1508.76 1266.45 t 0 r /Helvetica findfont 41.1481 sf 0 0 m (NN) show NC gr 
 gsave  2268 1701 0 0 C 1476.76 1289.31 t 0 r /Helvetica findfont 64.0081 sf 0 0 m (s) show NC gr  1449 1326 m 9 -60 d s 0 lw 1458 1266 m 10 78 d s 1468 1344 m 100 X s
 gsave  2268 1701 0 0 C 1312.17 1289.31 t 0 r /Helvetica findfont 64.0081 sf 0 0 m (pPb ) show NC gr 
 gsave  2268 1701 0 0 C 1312.17 1380.75 t 0 r /Helvetica findfont 77.7242 sf 0 0 m (Preliminary) show NC gr 
 gsave  2268 1701 0 0 C 1312.17 1467.61 t 0 r /Helvetica findfont 77.7242 sf 0 0 m (LHCb) show NC gr 
 gr  gr showpage
end
%%EOF
