%!PS-Adobe-2.0 EPSF-2.0
%%BoundingBox:  0 0 567 425
%%Title: nTracks.eps: pt Canvas
%%Creator: ROOT Version 5.34/25
%%CreationDate: Fri Aug 28 20:01:49 2015
%%EndComments
%%BeginProlog
80 dict begin
/s {stroke} def /l {lineto} def /m {moveto} def /t {translate} def
/r {rotate} def /rl {roll}  def /R {repeat} def
/d {rlineto} def /rm {rmoveto} def /gr {grestore} def /f {eofill} def
/c {setrgbcolor} def /black {0 setgray} def /sd {setdash} def
/cl {closepath} def /sf {scalefont setfont} def /lw {setlinewidth} def
/box {m dup 0 exch d exch 0 d 0 exch neg d cl} def
/NC{systemdict begin initclip end}def/C{NC box clip newpath}def
/bl {box s} def /bf {box f} def /Y { 0 exch d} def /X { 0 d} def 
/K {{pop pop 0 moveto} exch kshow} bind def
/ita {/ang 15 def gsave [1 0 ang dup sin exch cos div 1 0 0] concat} def 
/mp {newpath /y exch def /x exch def} def
/side {[w .77 mul w .23 mul] .385 w mul sd w 0 l currentpoint t -144 r} def
/mr {mp x y w2 0 360 arc} def /m24 {mr s} def /m20 {mr f} def
/mb {mp x y w2 add m w2 neg 0 d 0 w neg d w 0 d 0 w d cl} def
/mt {mp x y w2 add m w2 neg w neg d w 0 d cl} def
/m21 {mb f} def /m25 {mb s} def /m22 {mt f} def /m26{mt s} def
/m23 {mp x y w2 sub m w2 w d w neg 0 d cl f} def
/m27 {mp x y w2 add m w3 neg w2 neg d w3 w2 neg d w3 w2 d cl s} def
/m28 {mp x w2 sub y w2 sub w3 add m w3 0 d  0 w3 neg d w3 0 d 0 w3 d w3 0 d  0 w3 d w3 neg 0 d 0 w3 d w3 neg 0 d 0 w3 neg d w3 neg 0 d cl s } def
/m29 {mp gsave x w2 sub y w2 add w3 sub m currentpoint t 4 {side} repeat cl fill gr} def
/m30 {mp gsave x w2 sub y w2 add w3 sub m currentpoint t 4 {side} repeat cl s gr} def
/m31 {mp x y w2 sub m 0 w d x w2 sub y m w 0 d x w2 sub y w2 add m w w neg d x w2 sub y w2 sub m w w d s} def
/m32 {mp x y w2 sub m w2 w d w neg 0 d cl s} def
/m33 {mp x y w2 add m w3 neg w2 neg d w3 w2 neg d w3 w2 d cl f} def
/m34 {mp x w2 sub y w2 sub w3 add m w3 0 d  0 w3 neg d w3 0 d 0 w3 d w3 0 d  0 w3 d w3 neg 0 d 0 w3 d w3 neg 0 d 0 w3 neg d w3 neg 0 d cl f } def
/m2 {mp x y w2 sub m 0 w d x w2 sub y m w 0 d s} def
/m5 {mp x w2 sub y w2 sub m w w d x w2 sub y w2 add m w w neg d s} def
/reEncode {exch findfont dup length dict begin {1 index /FID eq  {pop pop} {def} ifelse } forall /Encoding exch def currentdict end dup /FontName get exch definefont pop } def [/Times-Bold /Times-Italic /Times-BoldItalic /Helvetica /Helvetica-Oblique
 /Helvetica-Bold /Helvetica-BoldOblique /Courier /Courier-Oblique /Courier-Bold /Courier-BoldOblique /Times-Roman /AvantGarde-Book /AvantGarde-BookOblique /AvantGarde-Demi /AvantGarde-DemiOblique /Bookman-Demi /Bookman-DemiItalic /Bookman-Light
 /Bookman-LightItalic /Helvetica-Narrow /Helvetica-Narrow-Bold /Helvetica-Narrow-BoldOblique /Helvetica-Narrow-Oblique /NewCenturySchlbk-Roman /NewCenturySchlbk-Bold /NewCenturySchlbk-BoldItalic /NewCenturySchlbk-Italic /Palatino-Bold
 /Palatino-BoldItalic /Palatino-Italic /Palatino-Roman ] {ISOLatin1Encoding reEncode } forall
%%EndProlog
%%BeginSetup
%%EndSetup
newpath  gsave  .25 .25 scale  gsave  0 0 t black[  ] 0 sd 6 lw 1 1 1 c 2268 1701 0 0 bf black 1 1 1 c 1837 1344 317 238 bf black 1837 1344 317 238 bl 1 1 1 c 1837 1344 317 238 bf black 1837 1344 317 238 bl 0 0 1 c 1 1 1 c 0 0 1 c 317 1355 m 74 X s
 428 1355 m 73 X s 3 lw /w 37 def /w2 {w 2 div} def /w3 {w 3 div} def 409 1355 m22 6 lw 501 1369 m 74 X s 611 1369 m 74 X s 3 lw 593 1369 m22 6 lw 685 544 m 73 X s 795 544 m 74 X s 3 lw 777 544 m22 6 lw 869 296 m 73 X s 979 296 m 73 X s 3 lw 960 296
 m22 6 lw 1052 250 m 74 X s 1162 250 m 74 X s 3 lw 1144 250 m22 6 lw 1236 241 m 73 X s 1346 241 m 74 X s 3 lw 1328 241 m22 6 lw 1420 239 m 73 X s 1530 239 m 73 X s 3 lw 1511 239 m22 6 lw 1603 238 m 74 X s 1713 238 m 74 X s 3 lw 1695 238 m22 6 lw 1787
 238 m 74 X s 1897 238 m 74 X s 3 lw 1879 238 m22 6 lw black 317 238 m 1837 X s
 gsave  2268 1701 0 0 C 1421.89 41.1481 t 0 r /Helvetica findfont 96.0122 sf 0 0 m (Number of tracks) show NC gr  317 279 m -41 Y s 409 259 m -21 Y s 501 259 m -21 Y s 593 259 m -21 Y s 685 279 m -41 Y s 777 259 m -21 Y s 869 259 m -21 Y s 960 259 m
 -21 Y s 1052 279 m -41 Y s 1144 259 m -21 Y s 1236 259 m -21 Y s 1328 259 m -21 Y s 1420 279 m -41 Y s 1511 259 m -21 Y s 1603 259 m -21 Y s 1695 259 m -21 Y s 1787 279 m -41 Y s 1879 259 m -21 Y s 1971 259 m -21 Y s 2062 259 m -21 Y s 2154 279 m
 -41 Y s
 gsave  2268 1701 0 0 C 292.609 146.304 t 0 r /Helvetica findfont 77.7242 sf 0 0 m (0) show NC gr 
 gsave  2268 1701 0 0 C 617.221 146.304 t 0 r /Helvetica findfont 77.7242 sf 0 0 m (200) show NC gr 
 gsave  2268 1701 0 0 C 987.554 146.304 t 0 r /Helvetica findfont 77.7242 sf 0 0 m (400) show NC gr 
 gsave  2268 1701 0 0 C 1353.31 146.304 t 0 r /Helvetica findfont 77.7242 sf 0 0 m (600) show NC gr 
 gsave  2268 1701 0 0 C 1719.08 146.304 t 0 r /Helvetica findfont 77.7242 sf 0 0 m (800) show NC gr 
 gsave  2268 1701 0 0 C 2066.55 146.304 t 0 r /Helvetica findfont 77.7242 sf 0 0 m (1000) show NC gr  317 1582 m 1837 X s 317 1540 m 42 Y s 409 1561 m 21 Y s 501 1561 m 21 Y s 593 1561 m 21 Y s 685 1540 m 42 Y s 777 1561 m 21 Y s 869 1561 m 21 Y s
 960 1561 m 21 Y s 1052 1540 m 42 Y s 1144 1561 m 21 Y s 1236 1561 m 21 Y s 1328 1561 m 21 Y s 1420 1540 m 42 Y s 1511 1561 m 21 Y s 1603 1561 m 21 Y s 1695 1561 m 21 Y s 1787 1540 m 42 Y s 1879 1561 m 21 Y s 1971 1561 m 21 Y s 2062 1561 m 21 Y s
 2154 1540 m 42 Y s 317 238 m 1344 Y s
 gsave  2268 1701 0 0 C 160.02 969.266 t 90 r /Helvetica findfont 96.0122 sf 0 0 m (Arbitrary scale) show NC gr  371 238 m -54 X s 344 291 m -27 X s 344 343 m -27 X s 344 396 m -27 X s 344 448 m -27 X s 371 501 m -54 X s 344 553 m -27 X s 344 606 m
 -27 X s 344 658 m -27 X s 344 711 m -27 X s 371 764 m -54 X s 344 816 m -27 X s 344 869 m -27 X s 344 921 m -27 X s 344 974 m -27 X s 371 1026 m -54 X s 344 1079 m -27 X s 344 1131 m -27 X s 344 1184 m -27 X s 344 1236 m -27 X s 371 1289 m -54 X s
 344 1341 m -27 X s 344 1394 m -27 X s 344 1447 m -27 X s 344 1499 m -27 X s 371 1552 m -54 X s 371 1552 m -54 X s
 gsave  2268 1701 0 0 C 260.605 210.312 t 0 r /Helvetica findfont 77.7242 sf 0 0 m (0) show NC gr 
 gsave  2268 1701 0 0 C 205.74 470.917 t 0 r /Helvetica findfont 77.7242 sf 0 0 m (0.1) show NC gr 
 gsave  2268 1701 0 0 C 196.596 731.521 t 0 r /Helvetica findfont 77.7242 sf 0 0 m (0.2) show NC gr 
 gsave  2268 1701 0 0 C 196.596 996.698 t 0 r /Helvetica findfont 77.7242 sf 0 0 m (0.3) show NC gr 
 gsave  2268 1701 0 0 C 192.024 1257.3 t 0 r /Helvetica findfont 77.7242 sf 0 0 m (0.4) show NC gr 
 gsave  2268 1701 0 0 C 196.596 1522.48 t 0 r /Helvetica findfont 77.7242 sf 0 0 m (0.5) show NC gr  2154 238 m 1344 Y s 2101 238 m 53 X s 2127 291 m 27 X s 2127 343 m 27 X s 2127 396 m 27 X s 2127 448 m 27 X s 2101 501 m 53 X s 2127 553 m 27 X s
 2127 606 m 27 X s 2127 658 m 27 X s 2127 711 m 27 X s 2101 764 m 53 X s 2127 816 m 27 X s 2127 869 m 27 X s 2127 921 m 27 X s 2127 974 m 27 X s 2101 1026 m 53 X s 2127 1079 m 27 X s 2127 1131 m 27 X s 2127 1184 m 27 X s 2127 1236 m 27 X s 2101 1289
 m 53 X s 2127 1341 m 27 X s 2127 1394 m 27 X s 2127 1447 m 27 X s 2127 1499 m 27 X s 2101 1552 m 53 X s 2101 1552 m 53 X s 1 1 1 c black 409 897 m 81 Y s 409 1014 m 81 Y s 317 996 m 74 X s 428 996 m 73 X s 3 lw 409 996 m20 6 lw 593 1276 m 145 Y s
 593 1457 m 125 Y s 501 1439 m 74 X s 611 1439 m 74 X s 3 lw 593 1439 m20 6 lw 777 673 m 105 Y s 777 815 m 105 Y s 685 797 m 73 X s 795 797 m 74 X s 3 lw 777 797 m20 6 lw 960 247 m 33 Y s 960 316 m 33 Y s 869 298 m 73 X s 979 298 m 73 X s 3 lw 960
 298 m20 6 lw 1144 265 m 5 Y s 1144 306 m 6 Y s 1052 288 m 74 X s 1162 288 m 74 X s 3 lw 1144 288 m20 6 lw 1236 239 m 73 X s 1346 239 m 74 X s 3 lw 1328 239 m20 6 lw 1 0 0 c 1 1 1 c 1 0 0 c 409 720 m 157 Y s 409 913 m 157 Y s 317 895 m 74 X s 428 895
 m 73 X s 3 lw 409 895 m21 6 lw 593 460 m 250 Y s 593 747 m 251 Y s 501 729 m 74 X s 611 729 m 74 X s 3 lw 593 729 m21 6 lw 777 596 m 279 Y s 777 911 m 278 Y s 685 893 m 73 X s 795 893 m 74 X s 3 lw 777 893 m21 6 lw 960 654 m 238 Y s 960 928 m 238 Y
 s 869 910 m 73 X s 979 910 m 73 X s 3 lw 960 910 m21 6 lw 1144 341 m 180 Y s 1144 558 m 179 Y s 1052 539 m 74 X s 1162 539 m 74 X s 3 lw 1144 539 m21 6 lw 1511 238 m 48 Y s 1511 322 m 93 Y s 1420 304 m 73 X s 1530 304 m 73 X s 3 lw 1511 304 m21 6 lw
 2062 238 m 13 Y s 2062 287 m 27 Y s 1971 269 m 73 X s 2081 269 m 73 X s 3 lw 2062 269 m21 6 lw 0 0 1 c 1 1 1 c 0 0 1 c 317 1355 m 74 X s 428 1355 m 73 X s 3 lw 409 1355 m22 6 lw 501 1369 m 74 X s 611 1369 m 74 X s 3 lw 593 1369 m22 6 lw 685 544 m 73
 X s 795 544 m 74 X s 3 lw 777 544 m22 6 lw 869 296 m 73 X s 979 296 m 73 X s 3 lw 960 296 m22 6 lw 1052 250 m 74 X s 1162 250 m 74 X s 3 lw 1144 250 m22 6 lw 1236 241 m 73 X s 1346 241 m 74 X s 3 lw 1328 241 m22 6 lw 1420 239 m 73 X s 1530 239 m 73
 X s 3 lw 1511 239 m22 6 lw 1603 238 m 74 X s 1713 238 m 74 X s 3 lw 1695 238 m22 6 lw 1787 238 m 74 X s 1897 238 m 74 X s 3 lw 1879 238 m22 6 lw black 1 1 1 c 476 239 1315 935 bf black
 gsave  2268 1701 0 0 C 1431.04 1120.14 t 0 r /Helvetica-Bold findfont 68.5801 sf 0 0 m (pPb\(Fwd\)) show NC gr  1333 1134 m 83 X s 1375 1110 m 48 Y s 3 lw 1375 1134 m20 6 lw
 gsave  2268 1701 0 0 C 1431.04 1037.85 t 0 r /Helvetica-Bold findfont 68.5801 sf 0 0 m (pPb\(Bwd\)) show NC gr  1 0 0 c 1333 1054 m 83 X s 1375 1031 m 47 Y s 3 lw 1375 1054 m21 6 lw black
 gsave  2268 1701 0 0 C 1431.04 960.122 t 0 r /Helvetica-Bold findfont 68.5801 sf 0 0 m (pp MC) show NC gr  0 0 1 c 1333 975 m 83 X s 1375 951 m 48 Y s 3 lw 1375 975 m22 6 lw black
 gsave  2268 1701 0 0 C 1568.2 1289.31 t 0 r /Helvetica findfont 64.0081 sf 0 0 m ( = 5 TeV) show NC gr 
 gsave  2268 1701 0 0 C 1508.76 1266.45 t 0 r /Helvetica findfont 41.1481 sf 0 0 m (NN) show NC gr 
 gsave  2268 1701 0 0 C 1476.76 1289.31 t 0 r /Helvetica findfont 64.0081 sf 0 0 m (s) show NC gr  1449 1326 m 9 -60 d s 0 lw 1458 1266 m 10 78 d s 1468 1344 m 100 X s
 gsave  2268 1701 0 0 C 1312.17 1289.31 t 0 r /Helvetica findfont 64.0081 sf 0 0 m (pPb ) show NC gr 
 gsave  2268 1701 0 0 C 1312.17 1380.75 t 0 r /Helvetica findfont 77.7242 sf 0 0 m (Preliminary) show NC gr 
 gsave  2268 1701 0 0 C 1312.17 1467.61 t 0 r /Helvetica findfont 77.7242 sf 0 0 m (LHCb) show NC gr 
 gr  gr showpage
end
%%EOF
