%!PS-Adobe-2.0 EPSF-2.0
%%BoundingBox:  0 0 567 426
%%Title: pCanvas.eps: pt Canvas
%%Creator: ROOT Version 6.04/00
%%CreationDate: Tue Jul 14 12:47:35 2015
%%DocumentNeededResources: ProcSet (FontSetInit)
%%EndComments
%%BeginProlog
80 dict begin
/s {stroke} def /l {lineto} def /m {moveto} def /t {translate} def
/r {rotate} def /rl {roll}  def /R {repeat} def
/d {rlineto} def /rm {rmoveto} def /gr {grestore} def /f {eofill} def
/c {setrgbcolor} def /black {0 setgray} def /sd {setdash} def
/cl {closepath} def /sf {scalefont setfont} def /lw {setlinewidth} def
/box {m dup 0 exch d exch 0 d 0 exch neg d cl} def
/NC{systemdict begin initclip end}def/C{NC box clip newpath}def
/bl {box s} def /bf {gsave box gsave f grestore 1 lw [] 0 sd s grestore} def /Y { 0 exch d} def /X { 0 d} def 
/K {{pop pop 0 moveto} exch kshow} bind def
/ita {/ang 15 def gsave [1 0 ang dup sin exch cos div 1 0 0] concat} def 
/mp {newpath /y exch def /x exch def} def
/side {[w .77 mul w .23 mul] .385 w mul sd w 0 l currentpoint t -144 r} def
/mr {mp x y w2 0 360 arc} def /m24 {mr s} def /m20 {mr f} def
/mb {mp x y w2 add m w2 neg 0 d 0 w neg d w 0 d 0 w d cl} def
/mt {mp x y w2 add m w2 neg w neg d w 0 d cl} def
/m21 {mb f} def /m25 {mb s} def /m22 {mt f} def /m26{mt s} def
/m23 {mp x y w2 sub m w2 w d w neg 0 d cl f} def
/m27 {mp x y w2 add m w3 neg w2 neg d w3 w2 neg d w3 w2 d cl s} def
/m28 {mp x w2 sub y w2 sub w3 add m w3 0 d  0 w3 neg d w3 0 d 0 w3 d w3 0 d  0 w3 d w3 neg 0 d 0 w3 d w3 neg 0 d 0 w3 neg d w3 neg 0 d cl s } def
/m29 {mp gsave x w2 sub y w2 add w3 sub m currentpoint t 4 {side} repeat cl fill gr} def
/m30 {mp gsave x w2 sub y w2 add w3 sub m currentpoint t 4 {side} repeat cl s gr} def
/m31 {mp x y w2 sub m 0 w d x w2 sub y m w 0 d x w2 sub y w2 add m w w neg d x w2 sub y w2 sub m w w d s} def
/m32 {mp x y w2 sub m w2 w d w neg 0 d cl s} def
/m33 {mp x y w2 add m w3 neg w2 neg d w3 w2 neg d w3 w2 d cl f} def
/m34 {mp x w2 sub y w2 sub w3 add m w3 0 d  0 w3 neg d w3 0 d 0 w3 d w3 0 d  0 w3 d w3 neg 0 d 0 w3 d w3 neg 0 d 0 w3 neg d w3 neg 0 d cl f } def
/m2 {mp x y w2 sub m 0 w d x w2 sub y m w 0 d s} def
/m5 {mp x w2 sub y w2 sub m w w d x w2 sub y w2 add m w w neg d s} def
%%IncludeResource: ProcSet (FontSetInit)
%%IncludeResource: font Times-Roman
%%IncludeResource: font Times-Italic
%%IncludeResource: font Times-Bold
%%IncludeResource: font Times-BoldItalic
%%IncludeResource: font Helvetica
%%IncludeResource: font Helvetica-Oblique
%%IncludeResource: font Helvetica-Bold
%%IncludeResource: font Helvetica-BoldOblique
%%IncludeResource: font Courier
%%IncludeResource: font Courier-Oblique
%%IncludeResource: font Courier-Bold
%%IncludeResource: font Courier-BoldOblique
%%IncludeResource: font Symbol
%%IncludeResource: font ZapfDingbats
/reEncode {exch findfont dup length dict begin {1 index /FID eq  {pop pop} {def} ifelse } forall /Encoding exch def currentdict end dup /FontName get exch definefont pop } def [/Times-Bold /Times-Italic /Times-BoldItalic /Helvetica /Helvetica-Oblique
 /Helvetica-Bold /Helvetica-BoldOblique /Courier /Courier-Oblique /Courier-Bold /Courier-BoldOblique /Times-Roman /AvantGarde-Book /AvantGarde-BookOblique /AvantGarde-Demi /AvantGarde-DemiOblique /Bookman-Demi /Bookman-DemiItalic /Bookman-Light
 /Bookman-LightItalic /Helvetica-Narrow /Helvetica-Narrow-Bold /Helvetica-Narrow-BoldOblique /Helvetica-Narrow-Oblique /NewCenturySchlbk-Roman /NewCenturySchlbk-Bold /NewCenturySchlbk-BoldItalic /NewCenturySchlbk-Italic /Palatino-Bold
 /Palatino-BoldItalic /Palatino-Italic /Palatino-Roman ] {ISOLatin1Encoding reEncode } forall
%%EndProlog
%%BeginSetup
%%EndSetup
newpath  gsave  .25 .25 scale  gsave  0 0 t black[  ] 0 sd 6 lw 1 1 1 c 2268 1703 0 0 bf black 1 1 1 c 1837 1346 317 272 bf black 1837 1346 317 272 bl 1 1 1 c 1837 1346 317 272 bf black 1837 1346 317 272 bl 0 0 1 c 1 1 1 c 0 0 1 c 317 758 m 74 X s
 428 758 m 73 X s 3 lw /w 36 def /w2 {w 2 div} def /w3 {w 3 div} def 409 758 m23 6 lw 501 1273 m 74 X s 611 1273 m 74 X s 3 lw 593 1273 m23 6 lw 685 898 m 73 X s 795 898 m 74 X s 3 lw 777 898 m23 6 lw 869 673 m 73 X s 979 673 m 73 X s 3 lw 960 673
 m23 6 lw 1052 557 m 74 X s 1162 557 m 74 X s 3 lw 1144 557 m23 6 lw 1236 492 m 74 X s 1346 492 m 74 X s 3 lw 1328 492 m23 6 lw 1420 452 m 73 X s 1530 452 m 73 X s 3 lw 1511 452 m23 6 lw 1603 433 m 74 X s 1713 433 m 74 X s 3 lw 1695 433 m23 6 lw 1787
 424 m 74 X s 1897 424 m 74 X s 3 lw 1879 424 m23 6 lw 1971 419 m 73 X s 2081 419 m 73 X s 3 lw 2062 419 m23 6 lw black 317 272 m 1837 X s
 gsave  2268 1703 0 0 C 1648.42 59.1974 t 0 r /Times-Roman findfont 113.841 sf 0 0 m (p [GeV / c]) show NC gr  317 314 m -42 Y s 440 293 m -21 Y s 562 293 m -21 Y s 685 293 m -21 Y s 807 293 m -21 Y s 930 314 m -42 Y s 1052 293 m -21 Y s 1175 293 m
 -21 Y s 1297 293 m -21 Y s 1420 293 m -21 Y s 1542 314 m -42 Y s 1665 293 m -21 Y s 1787 293 m -21 Y s 1909 293 m -21 Y s 2032 293 m -21 Y s 2154 314 m -42 Y s
 gsave  2268 1703 0 0 C 291.433 177.592 t 0 r /Times-Roman findfont 95.6266 sf 0 0 m (0) show NC gr 
 gsave  2268 1703 0 0 C 856.086 177.592 t 0 r /Times-Roman findfont 95.6266 sf 0 0 m (100) show NC gr 
 gsave  2268 1703 0 0 C 1466.27 177.592 t 0 r /Times-Roman findfont 95.6266 sf 0 0 m (200) show NC gr 
 gsave  2268 1703 0 0 C 2081.02 177.592 t 0 r /Times-Roman findfont 95.6266 sf 0 0 m (300) show NC gr  317 1618 m 1837 X s 317 1577 m 41 Y s 440 1597 m 21 Y s 562 1597 m 21 Y s 685 1597 m 21 Y s 807 1597 m 21 Y s 930 1577 m 41 Y s 1052 1597 m 21 Y s
 1175 1597 m 21 Y s 1297 1597 m 21 Y s 1420 1597 m 21 Y s 1542 1577 m 41 Y s 1665 1597 m 21 Y s 1787 1597 m 21 Y s 1909 1597 m 21 Y s 2032 1597 m 21 Y s 2154 1577 m 41 Y s 317 272 m 1346 Y s
 gsave  2268 1703 0 0 C 54.6438 942.605 t 90 r /Times-Roman findfont 113.841 sf 0 0 m (Arbitrary scale) show NC gr  371 413 m -54 X s 344 458 m -27 X s 344 503 m -27 X s 344 548 m -27 X s 344 593 m -27 X s 371 638 m -54 X s 344 683 m -27 X s 344 728
 m -27 X s 344 773 m -27 X s 344 818 m -27 X s 371 863 m -54 X s 344 908 m -27 X s 344 953 m -27 X s 344 998 m -27 X s 344 1044 m -27 X s 371 1089 m -54 X s 344 1134 m -27 X s 344 1179 m -27 X s 344 1224 m -27 X s 344 1269 m -27 X s 371 1314 m -54 X
 s 344 1359 m -27 X s 344 1404 m -27 X s 344 1449 m -27 X s 344 1494 m -27 X s 371 1539 m -54 X s 371 413 m -54 X s 344 368 m -27 X s 344 322 m -27 X s 344 277 m -27 X s 371 1539 m -54 X s 344 1584 m -27 X s
 gsave  2268 1703 0 0 C 245.897 377.953 t 0 r /Times-Roman findfont 95.6266 sf 0 0 m (0) show NC gr 
 gsave  2268 1703 0 0 C 177.592 605.635 t 0 r /Times-Roman findfont 95.6266 sf 0 0 m (0.1) show NC gr 
 gsave  2268 1703 0 0 C 173.039 828.764 t 0 r /Times-Roman findfont 95.6266 sf 0 0 m (0.2) show NC gr 
 gsave  2268 1703 0 0 C 177.592 1056.45 t 0 r /Times-Roman findfont 95.6266 sf 0 0 m (0.3) show NC gr 
 gsave  2268 1703 0 0 C 173.039 1279.58 t 0 r /Times-Roman findfont 95.6266 sf 0 0 m (0.4) show NC gr 
 gsave  2268 1703 0 0 C 177.592 1507.26 t 0 r /Times-Roman findfont 95.6266 sf 0 0 m (0.5) show NC gr  2154 272 m 1346 Y s 2101 413 m 53 X s 2127 458 m 27 X s 2127 503 m 27 X s 2127 548 m 27 X s 2127 593 m 27 X s 2101 638 m 53 X s 2127 683 m 27 X s
 2127 728 m 27 X s 2127 773 m 27 X s 2127 818 m 27 X s 2101 863 m 53 X s 2127 908 m 27 X s 2127 953 m 27 X s 2127 998 m 27 X s 2127 1044 m 27 X s 2101 1089 m 53 X s 2127 1134 m 27 X s 2127 1179 m 27 X s 2127 1224 m 27 X s 2127 1269 m 27 X s 2101 1314
 m 53 X s 2127 1359 m 27 X s 2127 1404 m 27 X s 2127 1449 m 27 X s 2127 1494 m 27 X s 2101 1539 m 53 X s 2101 413 m 53 X s 2127 368 m 27 X s 2127 322 m 27 X s 2127 277 m 27 X s 2101 1539 m 53 X s 2127 1584 m 27 X s 1 1 1 c black 409 619 m 216 Y s 409
 871 m 216 Y s 317 853 m 74 X s 428 853 m 73 X s 3 lw 409 853 m20 6 lw 593 1164 m 324 Y s 593 1524 m 94 Y s 501 1506 m 74 X s 611 1506 m 74 X s 3 lw 593 1506 m20 6 lw 777 551 m 199 Y s 777 787 m 199 Y s 685 768 m 73 X s 795 768 m 74 X s 3 lw 777 768
 m20 6 lw 960 436 m 117 Y s 960 589 m 117 Y s 869 571 m 73 X s 979 571 m 73 X s 3 lw 960 571 m20 6 lw 1144 456 m 60 Y s 1144 552 m 60 Y s 1052 534 m 74 X s 1162 534 m 74 X s 3 lw 1144 534 m20 6 lw 1328 400 m 24 Y s 1328 460 m 23 Y s 1236 442 m 74 X s
 1346 442 m 74 X s 3 lw 1328 442 m20 6 lw 1420 385 m 73 X s 1530 385 m 73 X s 3 lw 1511 385 m20 6 lw 1695 437 m 23 Y s 1695 497 m 23 Y s 1603 478 m 74 X s 1713 478 m 74 X s 3 lw 1695 478 m20 6 lw 1787 408 m 74 X s 1897 408 m 74 X s 3 lw 1879 408 m20
 6 lw 2062 413 m 3 Y s 2062 452 m 4 Y s 1971 434 m 73 X s 2081 434 m 73 X s 3 lw 2062 434 m20 6 lw 1 0 0 c 1 1 1 c 1 0 0 c 409 804 m 71 Y s 409 912 m 71 Y s 317 894 m 74 X s 428 894 m 73 X s 3 lw 409 894 m21 6 lw 593 1073 m 115 Y s 593 1225 m 115 Y s
 501 1206 m 74 X s 611 1206 m 74 X s 3 lw 593 1206 m21 6 lw 777 749 m 73 Y s 777 858 m 72 Y s 685 840 m 73 X s 795 840 m 74 X s 3 lw 777 840 m21 6 lw 960 572 m 39 Y s 960 648 m 38 Y s 869 629 m 73 X s 979 629 m 73 X s 3 lw 960 629 m21 6 lw 1144 527 m
 23 Y s 1144 586 m 22 Y s 1052 568 m 74 X s 1162 568 m 74 X s 3 lw 1144 568 m21 6 lw 1328 484 m 12 Y s 1328 533 m 12 Y s 1236 514 m 74 X s 1346 514 m 74 X s 3 lw 1328 514 m21 6 lw 1511 454 m 3 Y s 1511 494 m 3 Y s 1420 476 m 73 X s 1530 476 m 73 X s
 3 lw 1511 476 m21 6 lw 1603 424 m 74 X s 1713 424 m 74 X s 3 lw 1695 424 m21 6 lw 1787 409 m 74 X s 1897 409 m 74 X s 3 lw 1879 409 m21 6 lw 1971 419 m 73 X s 2081 419 m 73 X s 3 lw 2062 419 m21 6 lw 0 1 0 c 1 1 1 c 0 1 0 c 317 770 m 74 X s 428 770
 m 73 X s 3 lw 409 770 m22 6 lw 501 1272 m 74 X s 611 1272 m 74 X s 3 lw 593 1272 m22 6 lw 685 896 m 73 X s 795 896 m 74 X s 3 lw 777 896 m22 6 lw 869 672 m 73 X s 979 672 m 73 X s 3 lw 960 672 m22 6 lw 1052 557 m 74 X s 1162 557 m 74 X s 3 lw 1144
 557 m22 6 lw 1236 489 m 74 X s 1346 489 m 74 X s 3 lw 1328 489 m22 6 lw 1420 449 m 73 X s 1530 449 m 73 X s 3 lw 1511 449 m22 6 lw 1603 432 m 74 X s 1713 432 m 74 X s 3 lw 1695 432 m22 6 lw 1787 423 m 74 X s 1897 423 m 74 X s 3 lw 1879 423 m22 6 lw
 1971 419 m 73 X s 2081 419 m 73 X s 3 lw 2062 419 m22 6 lw 0 0 1 c 1 1 1 c 0 0 1 c 317 758 m 74 X s 428 758 m 73 X s 3 lw 409 758 m23 6 lw 501 1273 m 74 X s 611 1273 m 74 X s 3 lw 593 1273 m23 6 lw 685 898 m 73 X s 795 898 m 74 X s 3 lw 777 898 m23
 6 lw 869 673 m 73 X s 979 673 m 73 X s 3 lw 960 673 m23 6 lw 1052 557 m 74 X s 1162 557 m 74 X s 3 lw 1144 557 m23 6 lw 1236 492 m 74 X s 1346 492 m 74 X s 3 lw 1328 492 m23 6 lw 1420 452 m 73 X s 1530 452 m 73 X s 3 lw 1511 452 m23 6 lw 1603 433 m
 74 X s 1713 433 m 74 X s 3 lw 1695 433 m23 6 lw 1787 424 m 74 X s 1897 424 m 74 X s 3 lw 1879 424 m23 6 lw 1971 419 m 73 X s 2081 419 m 73 X s 3 lw 2062 419 m23 6 lw black 1 1 1 c 476 239 1542 1277 bf black
 gsave  2268 1703 0 0 C 1657.53 1475.38 t 0 r /Helvetica-Bold findfont 50.0901 sf 0 0 m (pPb\(Fwd\)) show NC gr  1560 1486 m 83 X s 1602 1468 m 36 Y s 3 lw 1602 1486 m20 6 lw
 gsave  2268 1703 0 0 C 1657.53 1416.18 t 0 r /Helvetica-Bold findfont 50.0901 sf 0 0 m (pPb\(Bwd\)) show NC gr  1 0 0 c 1560 1426 m 83 X s 1602 1408 m 36 Y s 3 lw 1602 1426 m21 6 lw black
 gsave  2268 1703 0 0 C 1657.53 1356.99 t 0 r /Helvetica-Bold findfont 50.0901 sf 0 0 m (pPb MC\(Fwd\)) show NC gr  0 1 0 c 1560 1367 m 83 X s 1602 1349 m 36 Y s 3 lw 1602 1367 m22 6 lw black
 gsave  2268 1703 0 0 C 1657.53 1297.79 t 0 r /Helvetica-Bold findfont 50.0901 sf 0 0 m (pPb MC\(Bwd\)) show NC gr  0 0 1 c 1560 1307 m 83 X s 1602 1289 m 36 Y s 3 lw 1602 1307 m23 6 lw black
 gsave  2268 1703 0 0 C 637.511 1293.24 t 0 r /Times-Roman findfont 63.7511 sf 0 0 m ( = 5 TeV) show NC gr 
 gsave  2268 1703 0 0 C 578.313 1270.47 t 0 r /Times-Roman findfont 40.9828 sf 0 0 m (NN) show NC gr 
 gsave  2268 1703 0 0 C 555.545 1293.24 t 0 r /Times-Roman findfont 63.7511 sf 0 0 m (s) show NC gr  528 1325 m 9 -59 d s
 gsave  2268 1703 0 0 C 405.275 1293.24 t 0 r /Times-Roman findfont 63.7511 sf 0 0 m (pPb ) show NC gr 
 gsave  2268 1703 0 0 C 405.275 1384.31 t 0 r /Times-Roman findfont 77.412 sf 0 0 m (Preliminary) show NC gr 
 gsave  2268 1703 0 0 C 405.275 1461.72 t 0 r /Times-Roman findfont 77.412 sf 0 0 m (LHCb) show NC gr 
 gr  gr showpage
end
%%EOF
