%!PS-Adobe-2.0 EPSF-2.0
%%BoundingBox:  0 0 567 425
%%Title: pt.eps: pt Canvas
%%Creator: ROOT Version 5.34/25
%%CreationDate: Fri Aug 28 20:01:46 2015
%%EndComments
%%BeginProlog
80 dict begin
/s {stroke} def /l {lineto} def /m {moveto} def /t {translate} def
/r {rotate} def /rl {roll}  def /R {repeat} def
/d {rlineto} def /rm {rmoveto} def /gr {grestore} def /f {eofill} def
/c {setrgbcolor} def /black {0 setgray} def /sd {setdash} def
/cl {closepath} def /sf {scalefont setfont} def /lw {setlinewidth} def
/box {m dup 0 exch d exch 0 d 0 exch neg d cl} def
/NC{systemdict begin initclip end}def/C{NC box clip newpath}def
/bl {box s} def /bf {box f} def /Y { 0 exch d} def /X { 0 d} def 
/K {{pop pop 0 moveto} exch kshow} bind def
/ita {/ang 15 def gsave [1 0 ang dup sin exch cos div 1 0 0] concat} def 
/mp {newpath /y exch def /x exch def} def
/side {[w .77 mul w .23 mul] .385 w mul sd w 0 l currentpoint t -144 r} def
/mr {mp x y w2 0 360 arc} def /m24 {mr s} def /m20 {mr f} def
/mb {mp x y w2 add m w2 neg 0 d 0 w neg d w 0 d 0 w d cl} def
/mt {mp x y w2 add m w2 neg w neg d w 0 d cl} def
/m21 {mb f} def /m25 {mb s} def /m22 {mt f} def /m26{mt s} def
/m23 {mp x y w2 sub m w2 w d w neg 0 d cl f} def
/m27 {mp x y w2 add m w3 neg w2 neg d w3 w2 neg d w3 w2 d cl s} def
/m28 {mp x w2 sub y w2 sub w3 add m w3 0 d  0 w3 neg d w3 0 d 0 w3 d w3 0 d  0 w3 d w3 neg 0 d 0 w3 d w3 neg 0 d 0 w3 neg d w3 neg 0 d cl s } def
/m29 {mp gsave x w2 sub y w2 add w3 sub m currentpoint t 4 {side} repeat cl fill gr} def
/m30 {mp gsave x w2 sub y w2 add w3 sub m currentpoint t 4 {side} repeat cl s gr} def
/m31 {mp x y w2 sub m 0 w d x w2 sub y m w 0 d x w2 sub y w2 add m w w neg d x w2 sub y w2 sub m w w d s} def
/m32 {mp x y w2 sub m w2 w d w neg 0 d cl s} def
/m33 {mp x y w2 add m w3 neg w2 neg d w3 w2 neg d w3 w2 d cl f} def
/m34 {mp x w2 sub y w2 sub w3 add m w3 0 d  0 w3 neg d w3 0 d 0 w3 d w3 0 d  0 w3 d w3 neg 0 d 0 w3 d w3 neg 0 d 0 w3 neg d w3 neg 0 d cl f } def
/m2 {mp x y w2 sub m 0 w d x w2 sub y m w 0 d s} def
/m5 {mp x w2 sub y w2 sub m w w d x w2 sub y w2 add m w w neg d s} def
/reEncode {exch findfont dup length dict begin {1 index /FID eq  {pop pop} {def} ifelse } forall /Encoding exch def currentdict end dup /FontName get exch definefont pop } def [/Times-Bold /Times-Italic /Times-BoldItalic /Helvetica /Helvetica-Oblique
 /Helvetica-Bold /Helvetica-BoldOblique /Courier /Courier-Oblique /Courier-Bold /Courier-BoldOblique /Times-Roman /AvantGarde-Book /AvantGarde-BookOblique /AvantGarde-Demi /AvantGarde-DemiOblique /Bookman-Demi /Bookman-DemiItalic /Bookman-Light
 /Bookman-LightItalic /Helvetica-Narrow /Helvetica-Narrow-Bold /Helvetica-Narrow-BoldOblique /Helvetica-Narrow-Oblique /NewCenturySchlbk-Roman /NewCenturySchlbk-Bold /NewCenturySchlbk-BoldItalic /NewCenturySchlbk-Italic /Palatino-Bold
 /Palatino-BoldItalic /Palatino-Italic /Palatino-Roman ] {ISOLatin1Encoding reEncode } forall
%%EndProlog
%%BeginSetup
%%EndSetup
newpath  gsave  .25 .25 scale  gsave  0 0 t black[  ] 0 sd 6 lw 1 1 1 c 2268 1701 0 0 bf black 1 1 1 c 1837 1344 317 238 bf black 1837 1344 317 238 bl 1 1 1 c 1837 1344 317 238 bf black 1837 1344 317 238 bl 0 0 1 c 1 1 1 c 0 0 1 c 317 874 m 74 X s
 428 874 m 73 X s 3 lw /w 37 def /w2 {w 2 div} def /w3 {w 3 div} def 409 874 m22 6 lw 501 1150 m 74 X s 611 1150 m 74 X s 3 lw 593 1150 m22 6 lw 685 936 m 73 X s 795 936 m 74 X s 3 lw 777 936 m22 6 lw 869 693 m 73 X s 979 693 m 73 X s 3 lw 960 693
 m22 6 lw 1052 496 m 74 X s 1162 496 m 74 X s 3 lw 1144 496 m22 6 lw 1236 378 m 73 X s 1346 378 m 74 X s 3 lw 1328 378 m22 6 lw 1420 316 m 73 X s 1530 316 m 73 X s 3 lw 1511 316 m22 6 lw 1603 284 m 74 X s 1713 284 m 74 X s 3 lw 1695 284 m22 6 lw 1787
 265 m 74 X s 1897 265 m 74 X s 3 lw 1879 265 m22 6 lw 1971 244 m 73 X s 2081 244 m 73 X s 3 lw 2062 244 m22 6 lw black 317 238 m 1837 X s
 gsave  2268 1701 0 0 C 1755.65 64.0081 t 0 r /Helvetica findfont 96.0122 sf 0 0 m ( [GeV / c]) show NC gr 
 gsave  2268 1701 0 0 C 1714.5 13.716 t 0 r /Helvetica findfont 64.0081 sf 0 0 m (T) show NC gr 
 gsave  2268 1701 0 0 C 1659.64 64.0081 t 0 r /Helvetica findfont 96.0122 sf 0 0 m (p) show NC gr  317 279 m -41 Y s 440 259 m -21 Y s 562 259 m -21 Y s 685 259 m -21 Y s 807 259 m -21 Y s 930 279 m -41 Y s 1052 259 m -21 Y s 1175 259 m -21 Y s 1297
 259 m -21 Y s 1420 259 m -21 Y s 1542 279 m -41 Y s 1665 259 m -21 Y s 1787 259 m -21 Y s 1909 259 m -21 Y s 2032 259 m -21 Y s 2154 279 m -41 Y s
 gsave  2268 1701 0 0 C 292.609 146.304 t 0 r /Helvetica findfont 77.7242 sf 0 0 m (0) show NC gr 
 gsave  2268 1701 0 0 C 905.258 146.304 t 0 r /Helvetica findfont 77.7242 sf 0 0 m (5) show NC gr 
 gsave  2268 1701 0 0 C 1495.05 146.304 t 0 r /Helvetica findfont 77.7242 sf 0 0 m (10) show NC gr 
 gsave  2268 1701 0 0 C 2107.7 146.304 t 0 r /Helvetica findfont 77.7242 sf 0 0 m (15) show NC gr  317 1582 m 1837 X s 317 1540 m 42 Y s 440 1561 m 21 Y s 562 1561 m 21 Y s 685 1561 m 21 Y s 807 1561 m 21 Y s 930 1540 m 42 Y s 1052 1561 m 21 Y s 1175
 1561 m 21 Y s 1297 1561 m 21 Y s 1420 1561 m 21 Y s 1542 1540 m 42 Y s 1665 1561 m 21 Y s 1787 1561 m 21 Y s 1909 1561 m 21 Y s 2032 1561 m 21 Y s 2154 1540 m 42 Y s 317 238 m 1344 Y s
 gsave  2268 1701 0 0 C 160.02 969.266 t 90 r /Helvetica findfont 96.0122 sf 0 0 m (Arbitrary scale) show NC gr  371 238 m -54 X s 344 271 m -27 X s 344 303 m -27 X s 344 336 m -27 X s 344 368 m -27 X s 371 401 m -54 X s 344 433 m -27 X s 344 466 m
 -27 X s 344 498 m -27 X s 344 531 m -27 X s 371 564 m -54 X s 344 596 m -27 X s 344 629 m -27 X s 344 661 m -27 X s 344 694 m -27 X s 371 726 m -54 X s 344 759 m -27 X s 344 791 m -27 X s 344 824 m -27 X s 344 857 m -27 X s 371 889 m -54 X s 344 922
 m -27 X s 344 954 m -27 X s 344 987 m -27 X s 344 1019 m -27 X s 371 1052 m -54 X s 344 1084 m -27 X s 344 1117 m -27 X s 344 1149 m -27 X s 344 1182 m -27 X s 371 1215 m -54 X s 344 1247 m -27 X s 344 1280 m -27 X s 344 1312 m -27 X s 344 1345 m
 -27 X s 371 1377 m -54 X s 344 1410 m -27 X s 344 1442 m -27 X s 344 1475 m -27 X s 344 1507 m -27 X s 371 1540 m -54 X s 371 1540 m -54 X s 344 1573 m -27 X s
 gsave  2268 1701 0 0 C 260.605 210.312 t 0 r /Helvetica findfont 77.7242 sf 0 0 m (0) show NC gr 
 gsave  2268 1701 0 0 C 150.876 370.333 t 0 r /Helvetica findfont 77.7242 sf 0 0 m (0.05) show NC gr 
 gsave  2268 1701 0 0 C 205.74 534.925 t 0 r /Helvetica findfont 77.7242 sf 0 0 m (0.1) show NC gr 
 gsave  2268 1701 0 0 C 150.876 694.945 t 0 r /Helvetica findfont 77.7242 sf 0 0 m (0.15) show NC gr 
 gsave  2268 1701 0 0 C 196.596 859.538 t 0 r /Helvetica findfont 77.7242 sf 0 0 m (0.2) show NC gr 
 gsave  2268 1701 0 0 C 150.876 1024.13 t 0 r /Helvetica findfont 77.7242 sf 0 0 m (0.25) show NC gr 
 gsave  2268 1701 0 0 C 196.596 1184.15 t 0 r /Helvetica findfont 77.7242 sf 0 0 m (0.3) show NC gr 
 gsave  2268 1701 0 0 C 150.876 1348.74 t 0 r /Helvetica findfont 77.7242 sf 0 0 m (0.35) show NC gr 
 gsave  2268 1701 0 0 C 192.024 1508.76 t 0 r /Helvetica findfont 77.7242 sf 0 0 m (0.4) show NC gr  2154 238 m 1344 Y s 2101 238 m 53 X s 2127 271 m 27 X s 2127 303 m 27 X s 2127 336 m 27 X s 2127 368 m 27 X s 2101 401 m 53 X s 2127 433 m 27 X s
 2127 466 m 27 X s 2127 498 m 27 X s 2127 531 m 27 X s 2101 564 m 53 X s 2127 596 m 27 X s 2127 629 m 27 X s 2127 661 m 27 X s 2127 694 m 27 X s 2101 726 m 53 X s 2127 759 m 27 X s 2127 791 m 27 X s 2127 824 m 27 X s 2127 857 m 27 X s 2101 889 m 53 X
 s 2127 922 m 27 X s 2127 954 m 27 X s 2127 987 m 27 X s 2127 1019 m 27 X s 2101 1052 m 53 X s 2127 1084 m 27 X s 2127 1117 m 27 X s 2127 1149 m 27 X s 2127 1182 m 27 X s 2101 1215 m 53 X s 2127 1247 m 27 X s 2127 1280 m 27 X s 2127 1312 m 27 X s
 2127 1345 m 27 X s 2101 1377 m 53 X s 2127 1410 m 27 X s 2127 1442 m 27 X s 2127 1475 m 27 X s 2127 1507 m 27 X s 2101 1540 m 53 X s 2101 1540 m 53 X s 2127 1573 m 27 X s 1 1 1 c black 409 657 m 141 Y s 409 835 m 141 Y s 317 817 m 74 X s 428 817 m
 73 X s 3 lw 409 817 m20 6 lw 593 1127 m 154 Y s 593 1317 m 154 Y s 501 1299 m 74 X s 611 1299 m 74 X s 3 lw 593 1299 m20 6 lw 777 724 m 105 Y s 777 866 m 106 Y s 685 848 m 73 X s 795 848 m 74 X s 3 lw 777 848 m20 6 lw 960 633 m 66 Y s 960 736 m 67 Y
 s 869 718 m 73 X s 979 718 m 73 X s 3 lw 960 718 m20 6 lw 1144 429 m 40 Y s 1144 506 m 39 Y s 1052 487 m 74 X s 1162 487 m 74 X s 3 lw 1144 487 m20 6 lw 1328 363 m 29 Y s 1328 428 m 29 Y s 1236 410 m 73 X s 1346 410 m 74 X s 3 lw 1328 410 m20 6 lw
 1511 290 m 13 Y s 1511 340 m 13 Y s 1420 321 m 73 X s 1530 321 m 73 X s 3 lw 1511 321 m20 6 lw 1787 252 m 74 X s 1897 252 m 74 X s 3 lw 1879 252 m20 6 lw 1971 248 m 73 X s 2081 248 m 73 X s 3 lw 2062 248 m20 6 lw 1 0 0 c 1 1 1 c 1 0 0 c 409 556 m
 403 Y s 409 996 m 403 Y s 317 978 m 74 X s 428 978 m 73 X s 3 lw 409 978 m21 6 lw 593 1014 m 426 Y s 593 1477 m 105 Y s 501 1458 m 74 X s 611 1458 m 74 X s 3 lw 593 1458 m21 6 lw 777 299 m 267 Y s 777 602 m 267 Y s 685 584 m 73 X s 795 584 m 74 X s
 3 lw 777 584 m21 6 lw 960 571 m 170 Y s 960 777 m 170 Y s 869 759 m 73 X s 979 759 m 73 X s 3 lw 960 759 m21 6 lw 1144 335 m 92 Y s 1144 464 m 93 Y s 1052 446 m 74 X s 1162 446 m 74 X s 3 lw 1144 446 m21 6 lw 1328 308 m 68 Y s 1328 413 m 68 Y s 1236
 394 m 73 X s 1346 394 m 74 X s 3 lw 1328 394 m21 6 lw 1511 238 m 25 Y s 1511 299 m 34 Y s 1420 281 m 73 X s 1530 281 m 73 X s 3 lw 1511 281 m21 6 lw 1695 238 m 17 Y s 1695 292 m 24 Y s 1603 273 m 74 X s 1713 273 m 74 X s 3 lw 1695 273 m21 6 lw 0 0 1
 c 1 1 1 c 0 0 1 c 317 874 m 74 X s 428 874 m 73 X s 3 lw 409 874 m22 6 lw 501 1150 m 74 X s 611 1150 m 74 X s 3 lw 593 1150 m22 6 lw 685 936 m 73 X s 795 936 m 74 X s 3 lw 777 936 m22 6 lw 869 693 m 73 X s 979 693 m 73 X s 3 lw 960 693 m22 6 lw 1052
 496 m 74 X s 1162 496 m 74 X s 3 lw 1144 496 m22 6 lw 1236 378 m 73 X s 1346 378 m 74 X s 3 lw 1328 378 m22 6 lw 1420 316 m 73 X s 1530 316 m 73 X s 3 lw 1511 316 m22 6 lw 1603 284 m 74 X s 1713 284 m 74 X s 3 lw 1695 284 m22 6 lw 1787 265 m 74 X s
 1897 265 m 74 X s 3 lw 1879 265 m22 6 lw 1971 244 m 73 X s 2081 244 m 73 X s 3 lw 2062 244 m22 6 lw black 1 1 1 c 476 239 1315 935 bf black
 gsave  2268 1701 0 0 C 1431.04 1120.14 t 0 r /Helvetica-Bold findfont 68.5801 sf 0 0 m (pPb\(Fwd\)) show NC gr  1333 1134 m 83 X s 1375 1110 m 48 Y s 3 lw 1375 1134 m20 6 lw
 gsave  2268 1701 0 0 C 1431.04 1037.85 t 0 r /Helvetica-Bold findfont 68.5801 sf 0 0 m (pPb\(Bwd\)) show NC gr  1 0 0 c 1333 1054 m 83 X s 1375 1031 m 47 Y s 3 lw 1375 1054 m21 6 lw black
 gsave  2268 1701 0 0 C 1431.04 960.122 t 0 r /Helvetica-Bold findfont 68.5801 sf 0 0 m (pp MC) show NC gr  0 0 1 c 1333 975 m 83 X s 1375 951 m 48 Y s 3 lw 1375 975 m22 6 lw black
 gsave  2268 1701 0 0 C 1568.2 1289.31 t 0 r /Helvetica findfont 64.0081 sf 0 0 m ( = 5 TeV) show NC gr 
 gsave  2268 1701 0 0 C 1508.76 1266.45 t 0 r /Helvetica findfont 41.1481 sf 0 0 m (NN) show NC gr 
 gsave  2268 1701 0 0 C 1476.76 1289.31 t 0 r /Helvetica findfont 64.0081 sf 0 0 m (s) show NC gr  1449 1326 m 9 -60 d s 0 lw 1458 1266 m 10 78 d s 1468 1344 m 100 X s
 gsave  2268 1701 0 0 C 1312.17 1289.31 t 0 r /Helvetica findfont 64.0081 sf 0 0 m (pPb ) show NC gr 
 gsave  2268 1701 0 0 C 1312.17 1380.75 t 0 r /Helvetica findfont 77.7242 sf 0 0 m (Preliminary) show NC gr 
 gsave  2268 1701 0 0 C 1312.17 1467.61 t 0 r /Helvetica findfont 77.7242 sf 0 0 m (LHCb) show NC gr 
 gr  gr showpage
end
%%EOF
