%!PS-Adobe-2.0 EPSF-2.0
%%BoundingBox:  0 0 567 426
%%Title: ptCanvas.eps: pt Canvas
%%Creator: ROOT Version 6.04/00
%%CreationDate: Tue Jul 14 12:47:34 2015
%%DocumentNeededResources: ProcSet (FontSetInit)
%%EndComments
%%BeginProlog
80 dict begin
/s {stroke} def /l {lineto} def /m {moveto} def /t {translate} def
/r {rotate} def /rl {roll}  def /R {repeat} def
/d {rlineto} def /rm {rmoveto} def /gr {grestore} def /f {eofill} def
/c {setrgbcolor} def /black {0 setgray} def /sd {setdash} def
/cl {closepath} def /sf {scalefont setfont} def /lw {setlinewidth} def
/box {m dup 0 exch d exch 0 d 0 exch neg d cl} def
/NC{systemdict begin initclip end}def/C{NC box clip newpath}def
/bl {box s} def /bf {gsave box gsave f grestore 1 lw [] 0 sd s grestore} def /Y { 0 exch d} def /X { 0 d} def 
/K {{pop pop 0 moveto} exch kshow} bind def
/ita {/ang 15 def gsave [1 0 ang dup sin exch cos div 1 0 0] concat} def 
/mp {newpath /y exch def /x exch def} def
/side {[w .77 mul w .23 mul] .385 w mul sd w 0 l currentpoint t -144 r} def
/mr {mp x y w2 0 360 arc} def /m24 {mr s} def /m20 {mr f} def
/mb {mp x y w2 add m w2 neg 0 d 0 w neg d w 0 d 0 w d cl} def
/mt {mp x y w2 add m w2 neg w neg d w 0 d cl} def
/m21 {mb f} def /m25 {mb s} def /m22 {mt f} def /m26{mt s} def
/m23 {mp x y w2 sub m w2 w d w neg 0 d cl f} def
/m27 {mp x y w2 add m w3 neg w2 neg d w3 w2 neg d w3 w2 d cl s} def
/m28 {mp x w2 sub y w2 sub w3 add m w3 0 d  0 w3 neg d w3 0 d 0 w3 d w3 0 d  0 w3 d w3 neg 0 d 0 w3 d w3 neg 0 d 0 w3 neg d w3 neg 0 d cl s } def
/m29 {mp gsave x w2 sub y w2 add w3 sub m currentpoint t 4 {side} repeat cl fill gr} def
/m30 {mp gsave x w2 sub y w2 add w3 sub m currentpoint t 4 {side} repeat cl s gr} def
/m31 {mp x y w2 sub m 0 w d x w2 sub y m w 0 d x w2 sub y w2 add m w w neg d x w2 sub y w2 sub m w w d s} def
/m32 {mp x y w2 sub m w2 w d w neg 0 d cl s} def
/m33 {mp x y w2 add m w3 neg w2 neg d w3 w2 neg d w3 w2 d cl f} def
/m34 {mp x w2 sub y w2 sub w3 add m w3 0 d  0 w3 neg d w3 0 d 0 w3 d w3 0 d  0 w3 d w3 neg 0 d 0 w3 d w3 neg 0 d 0 w3 neg d w3 neg 0 d cl f } def
/m2 {mp x y w2 sub m 0 w d x w2 sub y m w 0 d s} def
/m5 {mp x w2 sub y w2 sub m w w d x w2 sub y w2 add m w w neg d s} def
%%IncludeResource: ProcSet (FontSetInit)
%%IncludeResource: font Times-Roman
%%IncludeResource: font Times-Italic
%%IncludeResource: font Times-Bold
%%IncludeResource: font Times-BoldItalic
%%IncludeResource: font Helvetica
%%IncludeResource: font Helvetica-Oblique
%%IncludeResource: font Helvetica-Bold
%%IncludeResource: font Helvetica-BoldOblique
%%IncludeResource: font Courier
%%IncludeResource: font Courier-Oblique
%%IncludeResource: font Courier-Bold
%%IncludeResource: font Courier-BoldOblique
%%IncludeResource: font Symbol
%%IncludeResource: font ZapfDingbats
/reEncode {exch findfont dup length dict begin {1 index /FID eq  {pop pop} {def} ifelse } forall /Encoding exch def currentdict end dup /FontName get exch definefont pop } def [/Times-Bold /Times-Italic /Times-BoldItalic /Helvetica /Helvetica-Oblique
 /Helvetica-Bold /Helvetica-BoldOblique /Courier /Courier-Oblique /Courier-Bold /Courier-BoldOblique /Times-Roman /AvantGarde-Book /AvantGarde-BookOblique /AvantGarde-Demi /AvantGarde-DemiOblique /Bookman-Demi /Bookman-DemiItalic /Bookman-Light
 /Bookman-LightItalic /Helvetica-Narrow /Helvetica-Narrow-Bold /Helvetica-Narrow-BoldOblique /Helvetica-Narrow-Oblique /NewCenturySchlbk-Roman /NewCenturySchlbk-Bold /NewCenturySchlbk-BoldItalic /NewCenturySchlbk-Italic /Palatino-Bold
 /Palatino-BoldItalic /Palatino-Italic /Palatino-Roman ] {ISOLatin1Encoding reEncode } forall
%%EndProlog
%%BeginSetup
%%EndSetup
newpath  gsave  .25 .25 scale  gsave  0 0 t black[  ] 0 sd 6 lw 1 1 1 c 2268 1703 0 0 bf black 1 1 1 c 1837 1346 317 272 bf black 1837 1346 317 272 bl 1 1 1 c 1837 1346 317 272 bf black 1837 1346 317 272 bl 0 0 1 c 1 1 1 c 0 0 1 c 317 977 m 74 X s
 428 977 m 73 X s 3 lw /w 36 def /w2 {w 2 div} def /w3 {w 3 div} def 409 977 m23 6 lw 501 1227 m 74 X s 611 1227 m 74 X s 3 lw 593 1227 m23 6 lw 685 1031 m 73 X s 795 1031 m 74 X s 3 lw 777 1031 m23 6 lw 869 810 m 73 X s 979 810 m 73 X s 3 lw 960 810
 m23 6 lw 1052 631 m 74 X s 1162 631 m 74 X s 3 lw 1144 631 m23 6 lw 1236 523 m 74 X s 1346 523 m 74 X s 3 lw 1328 523 m23 6 lw 1420 468 m 73 X s 1530 468 m 73 X s 3 lw 1511 468 m23 6 lw 1603 438 m 74 X s 1713 438 m 74 X s 3 lw 1695 438 m23 6 lw 1787
 422 m 74 X s 1897 422 m 74 X s 3 lw 1879 422 m23 6 lw 1971 403 m 73 X s 2081 403 m 73 X s 3 lw 2062 403 m23 6 lw black 317 272 m 1837 X s
 gsave  2268 1703 0 0 C 1703.06 77.412 t 0 r /Times-Roman findfont 113.841 sf 0 0 m ( [GeV / c]) show NC gr 
 gsave  2268 1703 0 0 C 1652.97 13.6609 t 0 r /Times-Roman findfont 77.412 sf 0 0 m (T) show NC gr 
 gsave  2268 1703 0 0 C 1598.33 77.412 t 0 r /Times-Roman findfont 113.841 sf 0 0 m (p) show NC gr  317 314 m -42 Y s 440 293 m -21 Y s 562 293 m -21 Y s 685 293 m -21 Y s 807 293 m -21 Y s 930 314 m -42 Y s 1052 293 m -21 Y s 1175 293 m -21 Y s 1297
 293 m -21 Y s 1420 293 m -21 Y s 1542 314 m -42 Y s 1665 293 m -21 Y s 1787 293 m -21 Y s 1909 293 m -21 Y s 2032 293 m -21 Y s 2154 314 m -42 Y s
 gsave  2268 1703 0 0 C 291.433 177.592 t 0 r /Times-Roman findfont 95.6266 sf 0 0 m (0) show NC gr 
 gsave  2268 1703 0 0 C 906.176 177.592 t 0 r /Times-Roman findfont 95.6266 sf 0 0 m (5) show NC gr 
 gsave  2268 1703 0 0 C 1489.04 177.592 t 0 r /Times-Roman findfont 95.6266 sf 0 0 m (10) show NC gr 
 gsave  2268 1703 0 0 C 2108.34 177.592 t 0 r /Times-Roman findfont 95.6266 sf 0 0 m (15) show NC gr  317 1618 m 1837 X s 317 1577 m 41 Y s 440 1597 m 21 Y s 562 1597 m 21 Y s 685 1597 m 21 Y s 807 1597 m 21 Y s 930 1577 m 41 Y s 1052 1597 m 21 Y s
 1175 1597 m 21 Y s 1297 1597 m 21 Y s 1420 1597 m 21 Y s 1542 1577 m 41 Y s 1665 1597 m 21 Y s 1787 1597 m 21 Y s 1909 1597 m 21 Y s 2032 1597 m 21 Y s 2154 1577 m 41 Y s 317 272 m 1346 Y s
 gsave  2268 1703 0 0 C 54.6438 942.605 t 90 r /Times-Roman findfont 113.841 sf 0 0 m (Arbitrary scale) show NC gr  371 397 m -54 X s 344 427 m -27 X s 344 456 m -27 X s 344 486 m -27 X s 344 516 m -27 X s 371 545 m -54 X s 344 575 m -27 X s 344 604
 m -27 X s 344 634 m -27 X s 344 663 m -27 X s 371 693 m -54 X s 344 723 m -27 X s 344 752 m -27 X s 344 782 m -27 X s 344 811 m -27 X s 371 841 m -54 X s 344 870 m -27 X s 344 900 m -27 X s 344 929 m -27 X s 344 959 m -27 X s 371 989 m -54 X s 344
 1018 m -27 X s 344 1048 m -27 X s 344 1077 m -27 X s 344 1107 m -27 X s 371 1136 m -54 X s 344 1166 m -27 X s 344 1196 m -27 X s 344 1225 m -27 X s 344 1255 m -27 X s 371 1284 m -54 X s 344 1314 m -27 X s 344 1343 m -27 X s 344 1373 m -27 X s 344
 1403 m -27 X s 371 1432 m -54 X s 344 1462 m -27 X s 344 1491 m -27 X s 344 1521 m -27 X s 344 1550 m -27 X s 371 1580 m -54 X s 371 397 m -54 X s 344 368 m -27 X s 344 338 m -27 X s 344 309 m -27 X s 344 279 m -27 X s 371 1580 m -54 X s 344 1610 m
 -27 X s
 gsave  2268 1703 0 0 C 245.897 364.292 t 0 r /Times-Roman findfont 95.6266 sf 0 0 m (0) show NC gr 
 gsave  2268 1703 0 0 C 127.502 510.009 t 0 r /Times-Roman findfont 95.6266 sf 0 0 m (0.05) show NC gr 
 gsave  2268 1703 0 0 C 177.592 660.279 t 0 r /Times-Roman findfont 95.6266 sf 0 0 m (0.1) show NC gr 
 gsave  2268 1703 0 0 C 127.502 805.996 t 0 r /Times-Roman findfont 95.6266 sf 0 0 m (0.15) show NC gr 
 gsave  2268 1703 0 0 C 173.039 956.266 t 0 r /Times-Roman findfont 95.6266 sf 0 0 m (0.2) show NC gr 
 gsave  2268 1703 0 0 C 127.502 1101.98 t 0 r /Times-Roman findfont 95.6266 sf 0 0 m (0.25) show NC gr 
 gsave  2268 1703 0 0 C 177.592 1252.25 t 0 r /Times-Roman findfont 95.6266 sf 0 0 m (0.3) show NC gr 
 gsave  2268 1703 0 0 C 127.502 1397.97 t 0 r /Times-Roman findfont 95.6266 sf 0 0 m (0.35) show NC gr 
 gsave  2268 1703 0 0 C 173.039 1543.69 t 0 r /Times-Roman findfont 95.6266 sf 0 0 m (0.4) show NC gr  2154 272 m 1346 Y s 2101 397 m 53 X s 2127 427 m 27 X s 2127 456 m 27 X s 2127 486 m 27 X s 2127 516 m 27 X s 2101 545 m 53 X s 2127 575 m 27 X s
 2127 604 m 27 X s 2127 634 m 27 X s 2127 663 m 27 X s 2101 693 m 53 X s 2127 723 m 27 X s 2127 752 m 27 X s 2127 782 m 27 X s 2127 811 m 27 X s 2101 841 m 53 X s 2127 870 m 27 X s 2127 900 m 27 X s 2127 929 m 27 X s 2127 959 m 27 X s 2101 989 m 53 X
 s 2127 1018 m 27 X s 2127 1048 m 27 X s 2127 1077 m 27 X s 2127 1107 m 27 X s 2101 1136 m 53 X s 2127 1166 m 27 X s 2127 1196 m 27 X s 2127 1225 m 27 X s 2127 1255 m 27 X s 2101 1284 m 53 X s 2127 1314 m 27 X s 2127 1343 m 27 X s 2127 1373 m 27 X s
 2127 1403 m 27 X s 2101 1432 m 53 X s 2127 1462 m 27 X s 2127 1491 m 27 X s 2127 1521 m 27 X s 2127 1550 m 27 X s 2101 1580 m 53 X s 2101 397 m 53 X s 2127 368 m 27 X s 2127 338 m 27 X s 2127 309 m 27 X s 2127 279 m 27 X s 2101 1580 m 53 X s 2127
 1610 m 27 X s 1 1 1 c black 409 686 m 365 Y s 409 1087 m 365 Y s 317 1069 m 74 X s 428 1069 m 73 X s 3 lw 409 1069 m20 6 lw 593 1102 m 386 Y s 593 1524 m 94 Y s 501 1506 m 74 X s 611 1506 m 74 X s 3 lw 593 1506 m20 6 lw 777 453 m 240 Y s 777 730 m
 240 Y s 685 711 m 73 X s 795 711 m 74 X s 3 lw 777 711 m20 6 lw 960 700 m 152 Y s 960 889 m 152 Y s 869 870 m 73 X s 979 870 m 73 X s 3 lw 960 870 m20 6 lw 1144 485 m 83 Y s 1144 604 m 83 Y s 1052 586 m 74 X s 1162 586 m 74 X s 3 lw 1144 586 m20 6
 lw 1328 461 m 60 Y s 1328 558 m 60 Y s 1236 539 m 74 X s 1346 539 m 74 X s 3 lw 1328 539 m20 6 lw 1511 389 m 29 Y s 1511 455 m 28 Y s 1420 436 m 73 X s 1530 436 m 73 X s 3 lw 1511 436 m20 6 lw 1695 391 m 20 Y s 1695 448 m 20 Y s 1603 429 m 74 X s
 1713 429 m 74 X s 3 lw 1695 429 m20 6 lw 1787 385 m 74 X s 1897 385 m 74 X s 3 lw 1879 385 m20 6 lw 1 0 0 c 1 1 1 c 1 0 0 c 409 778 m 127 Y s 409 941 m 127 Y s 317 923 m 74 X s 428 923 m 73 X s 3 lw 409 923 m21 6 lw 593 1205 m 138 Y s 593 1379 m 139
 Y s 501 1361 m 74 X s 611 1361 m 74 X s 3 lw 593 1361 m21 6 lw 777 839 m 94 Y s 777 969 m 95 Y s 685 951 m 73 X s 795 951 m 74 X s 3 lw 777 951 m21 6 lw 960 756 m 59 Y s 960 851 m 59 Y s 869 833 m 73 X s 979 833 m 73 X s 3 lw 960 833 m21 6 lw 1144
 571 m 34 Y s 1144 642 m 34 Y s 1052 624 m 74 X s 1162 624 m 74 X s 3 lw 1144 624 m21 6 lw 1328 511 m 24 Y s 1328 572 m 24 Y s 1236 554 m 74 X s 1346 554 m 74 X s 3 lw 1328 554 m21 6 lw 1511 444 m 11 Y s 1511 491 m 11 Y s 1420 473 m 73 X s 1530 473 m
 73 X s 3 lw 1511 473 m21 6 lw 1603 396 m 74 X s 1713 396 m 74 X s 3 lw 1695 396 m21 6 lw 1787 410 m 74 X s 1897 410 m 74 X s 3 lw 1879 410 m21 6 lw 1971 406 m 73 X s 2081 406 m 73 X s 3 lw 2062 406 m21 6 lw 0 1 0 c 1 1 1 c 0 1 0 c 317 975 m 74 X s
 428 975 m 73 X s 3 lw 409 975 m22 6 lw 501 1226 m 74 X s 611 1226 m 74 X s 3 lw 593 1226 m22 6 lw 685 1032 m 73 X s 795 1032 m 74 X s 3 lw 777 1032 m22 6 lw 869 811 m 73 X s 979 811 m 73 X s 3 lw 960 811 m22 6 lw 1052 631 m 74 X s 1162 631 m 74 X s
 3 lw 1144 631 m22 6 lw 1236 524 m 74 X s 1346 524 m 74 X s 3 lw 1328 524 m22 6 lw 1420 468 m 73 X s 1530 468 m 73 X s 3 lw 1511 468 m22 6 lw 1603 439 m 74 X s 1713 439 m 74 X s 3 lw 1695 439 m22 6 lw 1787 422 m 74 X s 1897 422 m 74 X s 3 lw 1879 422
 m22 6 lw 1971 403 m 73 X s 2081 403 m 73 X s 3 lw 2062 403 m22 6 lw 0 0 1 c 1 1 1 c 0 0 1 c 317 977 m 74 X s 428 977 m 73 X s 3 lw 409 977 m23 6 lw 501 1227 m 74 X s 611 1227 m 74 X s 3 lw 593 1227 m23 6 lw 685 1031 m 73 X s 795 1031 m 74 X s 3 lw
 777 1031 m23 6 lw 869 810 m 73 X s 979 810 m 73 X s 3 lw 960 810 m23 6 lw 1052 631 m 74 X s 1162 631 m 74 X s 3 lw 1144 631 m23 6 lw 1236 523 m 74 X s 1346 523 m 74 X s 3 lw 1328 523 m23 6 lw 1420 468 m 73 X s 1530 468 m 73 X s 3 lw 1511 468 m23 6
 lw 1603 438 m 74 X s 1713 438 m 74 X s 3 lw 1695 438 m23 6 lw 1787 422 m 74 X s 1897 422 m 74 X s 3 lw 1879 422 m23 6 lw 1971 403 m 73 X s 2081 403 m 73 X s 3 lw 2062 403 m23 6 lw black 1 1 1 c 476 239 1542 1277 bf black
 gsave  2268 1703 0 0 C 1657.53 1475.38 t 0 r /Helvetica-Bold findfont 50.0901 sf 0 0 m (pPb\(Fwd\)) show NC gr  1560 1486 m 83 X s 1602 1468 m 36 Y s 3 lw 1602 1486 m20 6 lw
 gsave  2268 1703 0 0 C 1657.53 1416.18 t 0 r /Helvetica-Bold findfont 50.0901 sf 0 0 m (pPb\(Bwd\)) show NC gr  1 0 0 c 1560 1426 m 83 X s 1602 1408 m 36 Y s 3 lw 1602 1426 m21 6 lw black
 gsave  2268 1703 0 0 C 1657.53 1356.99 t 0 r /Helvetica-Bold findfont 50.0901 sf 0 0 m (pPb MC\(Fwd\)) show NC gr  0 1 0 c 1560 1367 m 83 X s 1602 1349 m 36 Y s 3 lw 1602 1367 m22 6 lw black
 gsave  2268 1703 0 0 C 1657.53 1297.79 t 0 r /Helvetica-Bold findfont 50.0901 sf 0 0 m (pPb MC\(Bwd\)) show NC gr  0 0 1 c 1560 1307 m 83 X s 1602 1289 m 36 Y s 3 lw 1602 1307 m23 6 lw black
 gsave  2268 1703 0 0 C 637.511 1293.24 t 0 r /Times-Roman findfont 63.7511 sf 0 0 m ( = 5 TeV) show NC gr 
 gsave  2268 1703 0 0 C 578.313 1270.47 t 0 r /Times-Roman findfont 40.9828 sf 0 0 m (NN) show NC gr 
 gsave  2268 1703 0 0 C 555.545 1293.24 t 0 r /Times-Roman findfont 63.7511 sf 0 0 m (s) show NC gr  528 1325 m 9 -59 d s
 gsave  2268 1703 0 0 C 405.275 1293.24 t 0 r /Times-Roman findfont 63.7511 sf 0 0 m (pPb ) show NC gr 
 gsave  2268 1703 0 0 C 405.275 1384.31 t 0 r /Times-Roman findfont 77.412 sf 0 0 m (Preliminary) show NC gr 
 gsave  2268 1703 0 0 C 405.275 1461.72 t 0 r /Times-Roman findfont 77.412 sf 0 0 m (LHCb) show NC gr 
 gr  gr showpage
end
%%EOF
