%!PS-Adobe-2.0 EPSF-2.0
%%BoundingBox:  0 0 567 425
%%Title: vertex_chi2.eps: pt Canvas
%%Creator: ROOT Version 5.34/25
%%CreationDate: Fri Aug 28 20:01:51 2015
%%EndComments
%%BeginProlog
80 dict begin
/s {stroke} def /l {lineto} def /m {moveto} def /t {translate} def
/r {rotate} def /rl {roll}  def /R {repeat} def
/d {rlineto} def /rm {rmoveto} def /gr {grestore} def /f {eofill} def
/c {setrgbcolor} def /black {0 setgray} def /sd {setdash} def
/cl {closepath} def /sf {scalefont setfont} def /lw {setlinewidth} def
/box {m dup 0 exch d exch 0 d 0 exch neg d cl} def
/NC{systemdict begin initclip end}def/C{NC box clip newpath}def
/bl {box s} def /bf {box f} def /Y { 0 exch d} def /X { 0 d} def 
/K {{pop pop 0 moveto} exch kshow} bind def
/ita {/ang 15 def gsave [1 0 ang dup sin exch cos div 1 0 0] concat} def 
/mp {newpath /y exch def /x exch def} def
/side {[w .77 mul w .23 mul] .385 w mul sd w 0 l currentpoint t -144 r} def
/mr {mp x y w2 0 360 arc} def /m24 {mr s} def /m20 {mr f} def
/mb {mp x y w2 add m w2 neg 0 d 0 w neg d w 0 d 0 w d cl} def
/mt {mp x y w2 add m w2 neg w neg d w 0 d cl} def
/m21 {mb f} def /m25 {mb s} def /m22 {mt f} def /m26{mt s} def
/m23 {mp x y w2 sub m w2 w d w neg 0 d cl f} def
/m27 {mp x y w2 add m w3 neg w2 neg d w3 w2 neg d w3 w2 d cl s} def
/m28 {mp x w2 sub y w2 sub w3 add m w3 0 d  0 w3 neg d w3 0 d 0 w3 d w3 0 d  0 w3 d w3 neg 0 d 0 w3 d w3 neg 0 d 0 w3 neg d w3 neg 0 d cl s } def
/m29 {mp gsave x w2 sub y w2 add w3 sub m currentpoint t 4 {side} repeat cl fill gr} def
/m30 {mp gsave x w2 sub y w2 add w3 sub m currentpoint t 4 {side} repeat cl s gr} def
/m31 {mp x y w2 sub m 0 w d x w2 sub y m w 0 d x w2 sub y w2 add m w w neg d x w2 sub y w2 sub m w w d s} def
/m32 {mp x y w2 sub m w2 w d w neg 0 d cl s} def
/m33 {mp x y w2 add m w3 neg w2 neg d w3 w2 neg d w3 w2 d cl f} def
/m34 {mp x w2 sub y w2 sub w3 add m w3 0 d  0 w3 neg d w3 0 d 0 w3 d w3 0 d  0 w3 d w3 neg 0 d 0 w3 d w3 neg 0 d 0 w3 neg d w3 neg 0 d cl f } def
/m2 {mp x y w2 sub m 0 w d x w2 sub y m w 0 d s} def
/m5 {mp x w2 sub y w2 sub m w w d x w2 sub y w2 add m w w neg d s} def
/reEncode {exch findfont dup length dict begin {1 index /FID eq  {pop pop} {def} ifelse } forall /Encoding exch def currentdict end dup /FontName get exch definefont pop } def [/Times-Bold /Times-Italic /Times-BoldItalic /Helvetica /Helvetica-Oblique
 /Helvetica-Bold /Helvetica-BoldOblique /Courier /Courier-Oblique /Courier-Bold /Courier-BoldOblique /Times-Roman /AvantGarde-Book /AvantGarde-BookOblique /AvantGarde-Demi /AvantGarde-DemiOblique /Bookman-Demi /Bookman-DemiItalic /Bookman-Light
 /Bookman-LightItalic /Helvetica-Narrow /Helvetica-Narrow-Bold /Helvetica-Narrow-BoldOblique /Helvetica-Narrow-Oblique /NewCenturySchlbk-Roman /NewCenturySchlbk-Bold /NewCenturySchlbk-BoldItalic /NewCenturySchlbk-Italic /Palatino-Bold
 /Palatino-BoldItalic /Palatino-Italic /Palatino-Roman ] {ISOLatin1Encoding reEncode } forall
%%EndProlog
%%BeginSetup
%%EndSetup
newpath  gsave  .25 .25 scale  gsave  0 0 t black[  ] 0 sd 6 lw 1 1 1 c 2268 1701 0 0 bf black 1 1 1 c 1837 1344 317 238 bf black 1837 1344 317 238 bl 1 1 1 c 1837 1344 317 238 bf black 1837 1344 317 238 bl 0 0 1 c 1 1 1 c 0 0 1 c 317 1256 m 74 X s
 428 1256 m 73 X s 3 lw /w 37 def /w2 {w 2 div} def /w3 {w 3 div} def 409 1256 m22 6 lw 501 533 m 74 X s 611 533 m 74 X s 3 lw 593 533 m22 6 lw 685 404 m 73 X s 795 404 m 74 X s 3 lw 777 404 m22 6 lw 869 341 m 73 X s 979 341 m 73 X s 3 lw 960 341 m22
 6 lw 1052 306 m 74 X s 1162 306 m 74 X s 3 lw 1144 306 m22 6 lw 1236 284 m 73 X s 1346 284 m 74 X s 3 lw 1328 284 m22 6 lw 1420 270 m 73 X s 1530 270 m 73 X s 3 lw 1511 270 m22 6 lw 1603 262 m 74 X s 1713 262 m 74 X s 3 lw 1695 262 m22 6 lw 1787 255
 m 74 X s 1897 255 m 74 X s 3 lw 1879 255 m22 6 lw 1971 249 m 73 X s 2081 249 m 73 X s 3 lw 2062 249 m22 6 lw black 317 238 m 1837 X s
 gsave  2268 1701 0 0 C 1933.96 50.2921 t 0 r /Helvetica findfont 96.0122 sf 0 0 m (/nodf) show NC gr 
 gsave  2268 1701 0 0 C 1897.38 77.7242 t 0 r /Helvetica findfont 64.0081 sf 0 0 m (2) show NC gr 
 gsave  2268 1701 0 0 C 1847.09 50.2921 t 0 r /Symbol findfont 96.0122 sf 0 0 m (c) show NC gr 
 gsave  2268 1701 0 0 C 1568.2 50.2921 t 0 r /Helvetica findfont 96.0122 sf 0 0 m (Vertex) show NC gr  317 279 m -41 Y s 432 259 m -21 Y s 547 259 m -21 Y s 662 259 m -21 Y s 777 279 m -41 Y s 891 259 m -21 Y s 1006 259 m -21 Y s 1121 259 m -21 Y s
 1236 279 m -41 Y s 1351 259 m -21 Y s 1466 259 m -21 Y s 1580 259 m -21 Y s 1695 279 m -41 Y s 1810 259 m -21 Y s 1925 259 m -21 Y s 2040 259 m -21 Y s 2154 279 m -41 Y s
 gsave  2268 1701 0 0 C 292.609 146.304 t 0 r /Helvetica findfont 77.7242 sf 0 0 m (0) show NC gr 
 gsave  2268 1701 0 0 C 749.81 146.304 t 0 r /Helvetica findfont 77.7242 sf 0 0 m (2) show NC gr 
 gsave  2268 1701 0 0 C 1211.58 146.304 t 0 r /Helvetica findfont 77.7242 sf 0 0 m (4) show NC gr 
 gsave  2268 1701 0 0 C 1668.78 146.304 t 0 r /Helvetica findfont 77.7242 sf 0 0 m (6) show NC gr 
 gsave  2268 1701 0 0 C 2130.56 146.304 t 0 r /Helvetica findfont 77.7242 sf 0 0 m (8) show NC gr  317 1582 m 1837 X s 317 1540 m 42 Y s 432 1561 m 21 Y s 547 1561 m 21 Y s 662 1561 m 21 Y s 777 1540 m 42 Y s 891 1561 m 21 Y s 1006 1561 m 21 Y s 1121
 1561 m 21 Y s 1236 1540 m 42 Y s 1351 1561 m 21 Y s 1466 1561 m 21 Y s 1580 1561 m 21 Y s 1695 1540 m 42 Y s 1810 1561 m 21 Y s 1925 1561 m 21 Y s 2040 1561 m 21 Y s 2154 1540 m 42 Y s 317 238 m 1344 Y s
 gsave  2268 1701 0 0 C 160.02 969.266 t 90 r /Helvetica findfont 96.0122 sf 0 0 m (Arbitrary scale) show NC gr  371 238 m -54 X s 344 274 m -27 X s 344 309 m -27 X s 344 345 m -27 X s 344 380 m -27 X s 371 416 m -54 X s 344 452 m -27 X s 344 487 m
 -27 X s 344 523 m -27 X s 344 558 m -27 X s 371 594 m -54 X s 344 630 m -27 X s 344 665 m -27 X s 344 701 m -27 X s 344 736 m -27 X s 371 772 m -54 X s 344 807 m -27 X s 344 843 m -27 X s 344 879 m -27 X s 344 914 m -27 X s 371 950 m -54 X s 344 985
 m -27 X s 344 1021 m -27 X s 344 1057 m -27 X s 344 1092 m -27 X s 371 1128 m -54 X s 344 1163 m -27 X s 344 1199 m -27 X s 344 1234 m -27 X s 344 1270 m -27 X s 371 1306 m -54 X s 344 1341 m -27 X s 344 1377 m -27 X s 344 1412 m -27 X s 344 1448 m
 -27 X s 371 1484 m -54 X s 371 1484 m -54 X s 344 1519 m -27 X s 344 1555 m -27 X s
 gsave  2268 1701 0 0 C 260.605 210.312 t 0 r /Helvetica findfont 77.7242 sf 0 0 m (0) show NC gr 
 gsave  2268 1701 0 0 C 205.74 384.049 t 0 r /Helvetica findfont 77.7242 sf 0 0 m (0.1) show NC gr 
 gsave  2268 1701 0 0 C 196.596 562.357 t 0 r /Helvetica findfont 77.7242 sf 0 0 m (0.2) show NC gr 
 gsave  2268 1701 0 0 C 196.596 740.665 t 0 r /Helvetica findfont 77.7242 sf 0 0 m (0.3) show NC gr 
 gsave  2268 1701 0 0 C 192.024 918.974 t 0 r /Helvetica findfont 77.7242 sf 0 0 m (0.4) show NC gr 
 gsave  2268 1701 0 0 C 196.596 1097.28 t 0 r /Helvetica findfont 77.7242 sf 0 0 m (0.5) show NC gr 
 gsave  2268 1701 0 0 C 196.596 1275.59 t 0 r /Helvetica findfont 77.7242 sf 0 0 m (0.6) show NC gr 
 gsave  2268 1701 0 0 C 192.024 1453.9 t 0 r /Helvetica findfont 77.7242 sf 0 0 m (0.7) show NC gr  2154 238 m 1344 Y s 2101 238 m 53 X s 2127 274 m 27 X s 2127 309 m 27 X s 2127 345 m 27 X s 2127 380 m 27 X s 2101 416 m 53 X s 2127 452 m 27 X s 2127
 487 m 27 X s 2127 523 m 27 X s 2127 558 m 27 X s 2101 594 m 53 X s 2127 630 m 27 X s 2127 665 m 27 X s 2127 701 m 27 X s 2127 736 m 27 X s 2101 772 m 53 X s 2127 807 m 27 X s 2127 843 m 27 X s 2127 879 m 27 X s 2127 914 m 27 X s 2101 950 m 53 X s
 2127 985 m 27 X s 2127 1021 m 27 X s 2127 1057 m 27 X s 2127 1092 m 27 X s 2101 1128 m 53 X s 2127 1163 m 27 X s 2127 1199 m 27 X s 2127 1234 m 27 X s 2127 1270 m 27 X s 2101 1306 m 53 X s 2127 1341 m 27 X s 2127 1377 m 27 X s 2127 1412 m 27 X s
 2127 1448 m 27 X s 2101 1484 m 53 X s 2101 1484 m 53 X s 2127 1519 m 27 X s 2127 1555 m 27 X s 1 1 1 c black 409 1192 m 98 Y s 409 1327 m 98 Y s 317 1309 m 74 X s 428 1309 m 73 X s 3 lw 409 1309 m20 6 lw 593 485 m 46 Y s 593 568 m 47 Y s 501 550 m
 74 X s 611 550 m 74 X s 3 lw 593 550 m20 6 lw 777 307 m 28 Y s 777 372 m 28 Y s 685 353 m 73 X s 795 353 m 74 X s 3 lw 777 353 m20 6 lw 960 304 m 22 Y s 960 362 m 22 Y s 869 344 m 73 X s 979 344 m 73 X s 3 lw 960 344 m20 6 lw 1144 260 m 14 Y s 1144
 311 m 13 Y s 1052 292 m 74 X s 1162 292 m 74 X s 3 lw 1144 292 m20 6 lw 1328 254 m 9 Y s 1328 300 m 9 Y s 1236 281 m 73 X s 1346 281 m 74 X s 3 lw 1328 281 m20 6 lw 1511 239 m 5 Y s 1511 280 m 5 Y s 1420 262 m 73 X s 1530 262 m 73 X s 3 lw 1511 262
 m20 6 lw 1695 259 m 5 Y s 1603 241 m 74 X s 1713 241 m 74 X s 3 lw 1695 241 m20 6 lw 1879 271 m 1 Y s 1787 253 m 74 X s 1897 253 m 74 X s 3 lw 1879 253 m20 6 lw 2062 254 m 3 Y s 2062 294 m 2 Y s 1971 275 m 73 X s 2081 275 m 73 X s 3 lw 2062 275 m20
 6 lw 1 0 0 c 1 1 1 c 1 0 0 c 409 1160 m 273 Y s 409 1469 m 113 Y s 317 1451 m 74 X s 428 1451 m 73 X s 3 lw 409 1451 m21 6 lw 593 443 m 143 Y s 593 623 m 144 Y s 501 605 m 74 X s 611 605 m 74 X s 3 lw 593 605 m21 6 lw 777 238 m 67 Y s 777 342 m 94 Y
 s 685 323 m 73 X s 795 323 m 74 X s 3 lw 777 323 m21 6 lw 960 238 m 59 Y s 960 333 m 74 Y s 869 315 m 73 X s 979 315 m 73 X s 3 lw 960 315 m21 6 lw 1144 271 m 61 Y s 1052 252 m 74 X s 1162 252 m 74 X s 3 lw 1144 252 m21 6 lw 1328 302 m 67 Y s 1328
 405 m 67 Y s 1236 387 m 73 X s 1346 387 m 74 X s 3 lw 1328 387 m21 6 lw 1879 238 m 3 Y s 1879 277 m 37 Y s 1787 259 m 74 X s 1897 259 m 74 X s 3 lw 1879 259 m21 6 lw 0 0 1 c 1 1 1 c 0 0 1 c 317 1256 m 74 X s 428 1256 m 73 X s 3 lw 409 1256 m22 6 lw
 501 533 m 74 X s 611 533 m 74 X s 3 lw 593 533 m22 6 lw 685 404 m 73 X s 795 404 m 74 X s 3 lw 777 404 m22 6 lw 869 341 m 73 X s 979 341 m 73 X s 3 lw 960 341 m22 6 lw 1052 306 m 74 X s 1162 306 m 74 X s 3 lw 1144 306 m22 6 lw 1236 284 m 73 X s 1346
 284 m 74 X s 3 lw 1328 284 m22 6 lw 1420 270 m 73 X s 1530 270 m 73 X s 3 lw 1511 270 m22 6 lw 1603 262 m 74 X s 1713 262 m 74 X s 3 lw 1695 262 m22 6 lw 1787 255 m 74 X s 1897 255 m 74 X s 3 lw 1879 255 m22 6 lw 1971 249 m 73 X s 2081 249 m 73 X s
 3 lw 2062 249 m22 6 lw black 1 1 1 c 476 239 1315 935 bf black
 gsave  2268 1701 0 0 C 1431.04 1120.14 t 0 r /Helvetica-Bold findfont 68.5801 sf 0 0 m (pPb\(Fwd\)) show NC gr  1333 1134 m 83 X s 1375 1110 m 48 Y s 3 lw 1375 1134 m20 6 lw
 gsave  2268 1701 0 0 C 1431.04 1037.85 t 0 r /Helvetica-Bold findfont 68.5801 sf 0 0 m (pPb\(Bwd\)) show NC gr  1 0 0 c 1333 1054 m 83 X s 1375 1031 m 47 Y s 3 lw 1375 1054 m21 6 lw black
 gsave  2268 1701 0 0 C 1431.04 960.122 t 0 r /Helvetica-Bold findfont 68.5801 sf 0 0 m (pp MC) show NC gr  0 0 1 c 1333 975 m 83 X s 1375 951 m 48 Y s 3 lw 1375 975 m22 6 lw black
 gsave  2268 1701 0 0 C 1568.2 1289.31 t 0 r /Helvetica findfont 64.0081 sf 0 0 m ( = 5 TeV) show NC gr 
 gsave  2268 1701 0 0 C 1508.76 1266.45 t 0 r /Helvetica findfont 41.1481 sf 0 0 m (NN) show NC gr 
 gsave  2268 1701 0 0 C 1476.76 1289.31 t 0 r /Helvetica findfont 64.0081 sf 0 0 m (s) show NC gr  1449 1326 m 9 -60 d s 0 lw 1458 1266 m 10 78 d s 1468 1344 m 100 X s
 gsave  2268 1701 0 0 C 1312.17 1289.31 t 0 r /Helvetica findfont 64.0081 sf 0 0 m (pPb ) show NC gr 
 gsave  2268 1701 0 0 C 1312.17 1380.75 t 0 r /Helvetica findfont 77.7242 sf 0 0 m (Preliminary) show NC gr 
 gsave  2268 1701 0 0 C 1312.17 1467.61 t 0 r /Helvetica findfont 77.7242 sf 0 0 m (LHCb) show NC gr 
 gr  gr showpage
end
%%EOF
