%!PS-Adobe-2.0 EPSF-2.0
%%BoundingBox:  0 0 567 425
%%Title: result/MassFit/pA_psip.eps: c2
%%Creator: ROOT Version 5.34/18
%%CreationDate: Sun Aug  2 10:52:01 2015
%%EndComments
%%BeginProlog
80 dict begin
/s {stroke} def /l {lineto} def /m {moveto} def /t {translate} def
/r {rotate} def /rl {roll}  def /R {repeat} def
/d {rlineto} def /rm {rmoveto} def /gr {grestore} def /f {eofill} def
/c {setrgbcolor} def /black {0 setgray} def /sd {setdash} def
/cl {closepath} def /sf {scalefont setfont} def /lw {setlinewidth} def
/box {m dup 0 exch d exch 0 d 0 exch neg d cl} def
/NC{systemdict begin initclip end}def/C{NC box clip newpath}def
/bl {box s} def /bf {box f} def /Y { 0 exch d} def /X { 0 d} def 
/K {{pop pop 0 moveto} exch kshow} bind def
/ita {/ang 15 def gsave [1 0 ang dup sin exch cos div 1 0 0] concat} def 
/mp {newpath /y exch def /x exch def} def
/side {[w .77 mul w .23 mul] .385 w mul sd w 0 l currentpoint t -144 r} def
/mr {mp x y w2 0 360 arc} def /m24 {mr s} def /m20 {mr f} def
/mb {mp x y w2 add m w2 neg 0 d 0 w neg d w 0 d 0 w d cl} def
/mt {mp x y w2 add m w2 neg w neg d w 0 d cl} def
/m21 {mb f} def /m25 {mb s} def /m22 {mt f} def /m26{mt s} def
/m23 {mp x y w2 sub m w2 w d w neg 0 d cl f} def
/m27 {mp x y w2 add m w3 neg w2 neg d w3 w2 neg d w3 w2 d cl s} def
/m28 {mp x w2 sub y w2 sub w3 add m w3 0 d  0 w3 neg d w3 0 d 0 w3 d w3 0 d  0 w3 d w3 neg 0 d 0 w3 d w3 neg 0 d 0 w3 neg d w3 neg 0 d cl s } def
/m29 {mp gsave x w2 sub y w2 add w3 sub m currentpoint t 4 {side} repeat cl fill gr} def
/m30 {mp gsave x w2 sub y w2 add w3 sub m currentpoint t 4 {side} repeat cl s gr} def
/m31 {mp x y w2 sub m 0 w d x w2 sub y m w 0 d x w2 sub y w2 add m w w neg d x w2 sub y w2 sub m w w d s} def
/m32 {mp x y w2 sub m w2 w d w neg 0 d cl s} def
/m33 {mp x y w2 add m w3 neg w2 neg d w3 w2 neg d w3 w2 d cl f} def
/m34 {mp x w2 sub y w2 sub w3 add m w3 0 d  0 w3 neg d w3 0 d 0 w3 d w3 0 d  0 w3 d w3 neg 0 d 0 w3 d w3 neg 0 d 0 w3 neg d w3 neg 0 d cl f } def
/m2 {mp x y w2 sub m 0 w d x w2 sub y m w 0 d s} def
/m5 {mp x w2 sub y w2 sub m w w d x w2 sub y w2 add m w w neg d s} def
/reEncode {exch findfont dup length dict begin {1 index /FID eq  {pop pop} {def} ifelse } forall /Encoding exch def currentdict end dup /FontName get exch definefont pop } def [/Times-Bold /Times-Italic /Times-BoldItalic /Helvetica /Helvetica-Oblique
 /Helvetica-Bold /Helvetica-BoldOblique /Courier /Courier-Oblique /Courier-Bold /Courier-BoldOblique /Times-Roman /AvantGarde-Book /AvantGarde-BookOblique /AvantGarde-Demi /AvantGarde-DemiOblique /Bookman-Demi /Bookman-DemiItalic /Bookman-Light
 /Bookman-LightItalic /Helvetica-Narrow /Helvetica-Narrow-Bold /Helvetica-Narrow-BoldOblique /Helvetica-Narrow-Oblique /NewCenturySchlbk-Roman /NewCenturySchlbk-Bold /NewCenturySchlbk-BoldItalic /NewCenturySchlbk-Italic /Palatino-Bold
 /Palatino-BoldItalic /Palatino-Italic /Palatino-Roman ] {ISOLatin1Encoding reEncode } forall
%%EndProlog
%%BeginSetup
%%EndSetup
newpath  gsave  .25 .25 scale  gsave  0 0 t black[  ] 0 sd 6 lw 1 1 1 c 2268 1701 0 0 bf black 1 1 1 c 1837 1344 317 238 bf black 1837 1344 317 238 bl 1 1 1 c 1837 1344 317 238 bf black 1837 1344 317 238 bl 317 238 m 1837 X s
 gsave  2268 1701 0 0 C 2130.56 50.2921 t 0 r /Helvetica findfont 96.0122 sf 0 0 m (]) show NC gr 
 gsave  2268 1701 0 0 C 2093.98 91.4402 t 0 r /Helvetica findfont 64.0081 sf 0 0 m (2) show NC gr 
 gsave  2268 1701 0 0 C 1769.37 50.2921 t 0 r /Helvetica findfont 96.0122 sf 0 0 m ( [MeV/c) show NC gr 
 gsave  2268 1701 0 0 C 1732.79 32.0041 t 0 r /Symbol findfont 64.0081 sf 0 0 m (m) show NC gr 
 gsave  2268 1701 0 0 C 1696.22 32.0041 t 0 r /Symbol findfont 64.0081 sf 0 0 m (m) show NC gr 
 gsave  2268 1701 0 0 C 1618.49 50.2921 t 0 r /Helvetica findfont 96.0122 sf 0 0 m (m) show NC gr  698 279 m -41 Y s 824 259 m -21 Y s 951 259 m -21 Y s 1078 259 m -21 Y s 1204 259 m -21 Y s 1331 279 m -41 Y s 1458 259 m -21 Y s 1584 259 m -21 Y s
 1711 259 m -21 Y s 1838 259 m -21 Y s 1964 279 m -41 Y s 698 279 m -41 Y s 571 259 m -21 Y s 444 259 m -21 Y s 317 259 m -21 Y s 1964 279 m -41 Y s 2091 259 m -21 Y s
 gsave  2268 1701 0 0 C 608.077 146.304 t 0 r /Helvetica findfont 77.7242 sf 0 0 m (3600) show NC gr 
 gsave  2268 1701 0 0 C 1243.59 146.304 t 0 r /Helvetica findfont 77.7242 sf 0 0 m (3700) show NC gr 
 gsave  2268 1701 0 0 C 1874.52 146.304 t 0 r /Helvetica findfont 77.7242 sf 0 0 m (3800) show NC gr  317 1582 m 1837 X s 698 1540 m 42 Y s 824 1561 m 21 Y s 951 1561 m 21 Y s 1078 1561 m 21 Y s 1204 1561 m 21 Y s 1331 1540 m 42 Y s 1458 1561 m 21 Y
 s 1584 1561 m 21 Y s 1711 1561 m 21 Y s 1838 1561 m 21 Y s 1964 1540 m 42 Y s 698 1540 m 42 Y s 571 1561 m 21 Y s 444 1561 m 21 Y s 317 1561 m 21 Y s 1964 1540 m 42 Y s 2091 1561 m 21 Y s 317 238 m 1344 Y s
 gsave  2268 1701 0 0 C 132.588 1554.48 t 90 r /Helvetica findfont 96.0122 sf 0 0 m (\)) show NC gr 
 gsave  2268 1701 0 0 C 86.8682 1517.91 t 90 r /Helvetica findfont 64.0081 sf 0 0 m (2) show NC gr 
 gsave  2268 1701 0 0 C 132.588 708.661 t 90 r /Helvetica findfont 96.0122 sf 0 0 m (Events / \(10 MeV/c) show NC gr  371 238 m -54 X s 344 285 m -27 X s 344 332 m -27 X s 344 379 m -27 X s 344 426 m -27 X s 371 473 m -54 X s 344 520 m -27 X s 344
 567 m -27 X s 344 614 m -27 X s 344 661 m -27 X s 371 708 m -54 X s 344 755 m -27 X s 344 802 m -27 X s 344 849 m -27 X s 344 896 m -27 X s 371 942 m -54 X s 344 989 m -27 X s 344 1036 m -27 X s 344 1083 m -27 X s 344 1130 m -27 X s 371 1177 m -54 X
 s 344 1224 m -27 X s 344 1271 m -27 X s 344 1318 m -27 X s 344 1365 m -27 X s 371 1412 m -54 X s 371 1412 m -54 X s 344 1459 m -27 X s 344 1506 m -27 X s 344 1553 m -27 X s
 gsave  2268 1701 0 0 C 260.605 210.312 t 0 r /Helvetica findfont 77.7242 sf 0 0 m (0) show NC gr 
 gsave  2268 1701 0 0 C 214.884 443.485 t 0 r /Helvetica findfont 77.7242 sf 0 0 m (50) show NC gr 
 gsave  2268 1701 0 0 C 173.736 676.657 t 0 r /Helvetica findfont 77.7242 sf 0 0 m (100) show NC gr 
 gsave  2268 1701 0 0 C 173.736 914.402 t 0 r /Helvetica findfont 77.7242 sf 0 0 m (150) show NC gr 
 gsave  2268 1701 0 0 C 173.736 1147.57 t 0 r /Helvetica findfont 77.7242 sf 0 0 m (200) show NC gr 
 gsave  2268 1701 0 0 C 173.736 1380.75 t 0 r /Helvetica findfont 77.7242 sf 0 0 m (250) show NC gr  2154 238 m 1344 Y s 2101 238 m 53 X s 2127 285 m 27 X s 2127 332 m 27 X s 2127 379 m 27 X s 2127 426 m 27 X s 2101 473 m 53 X s 2127 520 m 27 X s
 2127 567 m 27 X s 2127 614 m 27 X s 2127 661 m 27 X s 2101 708 m 53 X s 2127 755 m 27 X s 2127 802 m 27 X s 2127 849 m 27 X s 2127 896 m 27 X s 2101 942 m 53 X s 2127 989 m 27 X s 2127 1036 m 27 X s 2127 1083 m 27 X s 2127 1130 m 27 X s 2101 1177 m
 53 X s 2127 1224 m 27 X s 2127 1271 m 27 X s 2127 1318 m 27 X s 2127 1365 m 27 X s 2101 1412 m 53 X s 2101 1412 m 53 X s 2127 1459 m 27 X s 2127 1506 m 27 X s 2127 1553 m 27 X s 349 849 m -32 X s 317 839 m 19 Y s 349 849 m 32 X s 381 839 m 19 Y s
 349 849 m 56 Y s 340 905 m 18 X s 349 849 m -52 Y s 340 797 m 18 X s 412 811 m -31 X s 381 802 m 18 Y s 412 811 m 32 X s 444 802 m 18 Y s 412 811 m 54 Y s 403 865 m 19 X s 412 811 m -50 Y s 403 761 m 19 X s 476 802 m -32 X s 444 792 m 19 Y s 476 802
 m 31 X s 507 792 m 19 Y s 476 802 m 53 Y s 467 855 m 18 X s 476 802 m -50 Y s 467 752 m 18 X s 539 928 m -32 X s 507 919 m 19 Y s 539 928 m 32 X s 571 919 m 19 Y s 539 928 m 60 Y s 530 988 m 18 X s 539 928 m -54 Y s 530 874 m 18 X s 603 867 m -32 X
 s 571 858 m 18 Y s 603 867 m 31 X s 634 858 m 18 Y s 603 867 m 57 Y s 593 924 m 19 X s 603 867 m -52 Y s 593 815 m 19 X s 666 825 m -32 X s 634 816 m 18 Y s 666 825 m 32 X s 698 816 m 18 Y s 666 825 m 55 Y s 657 880 m 18 X s 666 825 m -50 Y s 657
 775 m 18 X s 729 886 m -31 X s 698 877 m 18 Y s 729 886 m 32 X s 761 877 m 18 Y s 729 886 m 58 Y s 720 944 m 18 X s 729 886 m -53 Y s 720 833 m 18 X s 793 881 m -32 X s 761 872 m 19 Y s 793 881 m 31 X s 824 872 m 19 Y s 793 881 m 58 Y s 783 939 m 19
 X s 793 881 m -52 Y s 783 829 m 19 X s 856 797 m -32 X s 824 788 m 18 Y s 856 797 m 32 X s 888 788 m 18 Y s 856 797 m 54 Y s 847 851 m 18 X s 856 797 m -49 Y s 847 748 m 18 X s 919 886 m -31 X s 888 877 m 18 Y s 919 886 m 32 X s 951 877 m 18 Y s 919
 886 m 58 Y s 910 944 m 18 X s 919 886 m -53 Y s 910 833 m 18 X s 983 896 m -32 X s 951 886 m 19 Y s 983 896 m 31 X s 1014 886 m 19 Y s 983 896 m 57 Y s 973 953 m 19 X s 983 896 m -54 Y s 973 842 m 19 X s 1046 924 m -32 X s 1014 915 m 18 Y s 1046 924
 m 32 X s 1078 915 m 18 Y s 1046 924 m 59 Y s 1037 983 m 18 X s 1046 924 m -55 Y s 1037 869 m 18 X s 1109 980 m -31 X s 1078 971 m 18 Y s 1109 980 m 32 X s 1141 971 m 18 Y s 1109 980 m 61 Y s 1100 1041 m 18 X s 1109 980 m -57 Y s 1100 923 m 18 X s
 1173 1149 m -32 X s 1141 1140 m 18 Y s 1173 1149 m 31 X s 1204 1140 m 18 Y s 1173 1149 m 68 Y s 1163 1217 m 19 X s 1173 1149 m -63 Y s 1163 1086 m 19 X s 1236 1440 m -32 X s 1204 1431 m 18 Y s 1236 1440 m 32 X s 1268 1431 m 18 Y s 1236 1440 m 78 Y s
 1227 1518 m 18 X s 1236 1440 m -73 Y s 1227 1367 m 18 X s 1299 1201 m -31 X s 1268 1192 m 18 Y s 1299 1201 m 32 X s 1331 1192 m 18 Y s 1299 1201 m 69 Y s 1290 1270 m 18 X s 1299 1201 m -65 Y s 1290 1136 m 18 X s 1363 1079 m -32 X s 1331 1070 m 18 Y
 s 1363 1079 m 31 X s 1394 1070 m 18 Y s 1363 1079 m 65 Y s 1353 1144 m 19 X s 1363 1079 m -61 Y s 1353 1018 m 19 X s 1426 877 m -32 X s 1394 868 m 18 Y s 1426 877 m 32 X s 1458 868 m 18 Y s 1426 877 m 57 Y s 1417 934 m 18 X s 1426 877 m -53 Y s 1417
 824 m 18 X s 1489 853 m -31 X s 1458 844 m 18 Y s 1489 853 m 32 X s 1521 844 m 18 Y s 1489 853 m 56 Y s 1480 909 m 18 X s 1489 853 m -51 Y s 1480 802 m 18 X s 1553 755 m -32 X s 1521 746 m 18 Y s 1553 755 m 31 X s 1584 746 m 18 Y s 1553 755 m 51 Y s
 1543 806 m 19 X s 1553 755 m -47 Y s 1543 708 m 19 X s 1616 773 m -32 X s 1584 764 m 19 Y s 1616 773 m 32 X s 1648 764 m 19 Y s 1616 773 m 53 Y s 1607 826 m 18 X s 1616 773 m -47 Y s 1607 726 m 18 X s 1679 891 m -31 X s 1648 882 m 18 Y s 1679 891 m
 32 X s 1711 882 m 18 Y s 1679 891 m 58 Y s 1670 949 m 18 X s 1679 891 m -53 Y s 1670 838 m 18 X s 1743 844 m -32 X s 1711 835 m 18 Y s 1743 844 m 31 X s 1774 835 m 18 Y s 1743 844 m 56 Y s 1733 900 m 19 X s 1743 844 m -51 Y s 1733 793 m 19 X s 1806
 750 m -32 X s 1774 741 m 18 Y s 1806 750 m 32 X s 1838 741 m 18 Y s 1806 750 m 51 Y s 1797 801 m 18 X s 1806 750 m -47 Y s 1797 703 m 18 X s 1869 881 m -31 X s 1838 872 m 19 Y s 1869 881 m 32 X s 1901 872 m 19 Y s 1869 881 m 58 Y s 1860 939 m 18 X s
 1869 881 m -52 Y s 1860 829 m 18 X s 1933 811 m -32 X s 1901 802 m 18 Y s 1933 811 m 31 X s 1964 802 m 18 Y s 1933 811 m 54 Y s 1923 865 m 19 X s 1933 811 m -50 Y s 1923 761 m 19 X s 1996 759 m -32 X s 1964 750 m 18 Y s 1996 759 m 32 X s 2028 750 m
 18 Y s 1996 759 m 52 Y s 1987 811 m 18 X s 1996 759 m -47 Y s 1987 712 m 18 X s 2059 722 m -31 X s 2028 713 m 18 Y s 2059 722 m 32 X s 2091 713 m 18 Y s 2059 722 m 50 Y s 2050 772 m 18 X s 2059 722 m -46 Y s 2050 676 m 18 X s 2123 783 m -32 X s 2091
 774 m 18 Y s 2123 783 m 31 X s 2154 774 m 18 Y s 2123 783 m 53 Y s 2114 836 m 18 X s 2123 783 m -48 Y s 2114 735 m 18 X s 3 lw /w 37 def /w2 {w 2 div} def /w3 {w 3 div} def 349 849 412 811 476 802 539 928 603 867 666 825 729 886 793 881 856 797 919
 886 983 896 1046 924 1109 980 1173 1149 1236 1440 1299 1201 1363 1079 1426 877 1489 853 1553 755 1616 773 1679 891 1743 844 1806 750 1869 881 1933 811 1996 759 2059 722 2123 783 29 { m20} R 6 lw 0 1 0 c[ 4 8] 0 sd 9 lw black 0 1 0 c 317 867 m cl s
 317 867 m 64 -2 d 63 -3 d 63 -3 d 64 -3 d 63 -3 d 64 -2 d 63 -3 d 63 -3 d 64 -3 d 63 -2 d 63 -3 d 64 -3 d 63 -3 d 63 -2 d 64 -3 d 63 -3 d 63 -2 d 64 -3 d 63 -3 d 63 -2 d 64 -3 d 63 -2 d 63 -3 d 64 -3 d 63 -2 d 63 -3 d 64 -2 d 63 -3 d 63 -2 d s 0 0 1
 c[ 12 12] 0 sd black 0 0 1 c 317 241 m cl s 317 241 m 64 X 63 1 d 63 X 64 1 d 63 X 64 1 d 63 1 d 63 2 d 64 2 d 63 4 d 32 4 d 31 6 d 16 4 d 16 7 d 8 5 d 8 6 d 8 8 d 8 12 d 7 14 d 8 15 d 8 18 d 8 19 d 8 22 d 8 24 d 8 25 d 8 27 d 16 59 d 16 60 d 15 58
 d 8 28 d 8 25 d 8 22 d 8 19 d 8 15 d 4 6 d 4 5 d 4 4 d 4 3 d 4 2 d 8 X 4 -2 d 4 -3 d 4 -4 d 4 -5 d 3 -7 d 8 -15 d 8 -19 d 8 -23 d 8 -25 d 8 -27 d 16 -59 d 16 -60 d 16 -58 d 8 -27 d 7 -26 d 8 -23 d 8 -22 d 8 -19 d 8 -18 d 8 -15 d 8 -14 d 8 -11 d 8
 -10 d 8 -9 d 8 -7 d 15 -11 d 16 -7 d 16 -4 d 16 -3 d 32 -3 d 31 -1 d 570 X s 1 0 0 c[  ] 0 sd black 1 0 0 c 317 871 m cl s 317 871 m 64 -3 d 63 -3 d 63 -2 d 64 -2 d 63 -3 d 64 -2 d 63 -1 d 63 -1 d 64 -1 d 63 2 d 32 2 d 31 4 d 16 4 d 16 7 d 8 4 d 8 6
 d 8 8 d 8 11 d 7 13 d 8 15 d 8 18 d 8 19 d 8 21 d 8 24 d 8 25 d 8 27 d 16 57 d 16 60 d 15 58 d 8 27 d 8 24 d 8 22 d 8 19 d 8 15 d 8 11 d 8 6 d 4 2 d 4 X 4 -1 d 4 -2 d 8 -7 d 7 -12 d 8 -16 d 8 -19 d 8 -23 d 8 -26 d 8 -27 d 16 -60 d 16 -61 d 16 -58 d
 8 -28 d 7 -25 d 8 -24 d 8 -22 d 8 -20 d 8 -18 d 8 -16 d 8 -14 d 8 -12 d 8 -10 d 8 -9 d 8 -7 d 15 -12 d 16 -7 d 16 -5 d 16 -4 d 32 -4 d 31 -2 d 64 -3 d 63 -2 d 63 -3 d 64 -3 d 63 -2 d 63 -3 d 64 -2 d 63 -3 d 63 -2 d s black
 gsave  2268 1701 0 0 C 498.349 388.621 t 0 r /Helvetica findfont 68.5801 sf 0 0 m (pPb\(Fwd\)) show NC gr 
 gsave  2268 1701 0 0 C 498.349 484.633 t 0 r /Helvetica findfont 86.8682 sf 0 0 m (Preliminary) show NC gr 
 gsave  2268 1701 0 0 C 498.349 576.073 t 0 r /Helvetica findfont 86.8682 sf 0 0 m (LHCb) show NC gr 
 gsave  2268 1701 0 0 C 1536.2 457.201 t 0 r /Helvetica findfont 86.8682 sf 0 0 m ( < 14.0 GeV/c) show NC gr 
 gsave  2268 1701 0 0 C 1499.62 406.909 t 0 r /Helvetica findfont 59.4361 sf 0 0 m (T) show NC gr 
 gsave  2268 1701 0 0 C 1449.33 457.201 t 0 r /Helvetica findfont 86.8682 sf 0 0 m (p) show NC gr 
 gsave  2268 1701 0 0 C 1449.33 571.501 t 0 r /Helvetica findfont 86.8682 sf 0 0 m (1.5 < y < 4.0) show NC gr  6 lw 317 238 m 1837 X s 698 279 m -41 Y s 824 259 m -21 Y s 951 259 m -21 Y s 1078 259 m -21 Y s 1204 259 m -21 Y s 1331 279 m -41 Y s 1458
 259 m -21 Y s 1584 259 m -21 Y s 1711 259 m -21 Y s 1838 259 m -21 Y s 1964 279 m -41 Y s 698 279 m -41 Y s 571 259 m -21 Y s 444 259 m -21 Y s 317 259 m -21 Y s 1964 279 m -41 Y s 2091 259 m -21 Y s 317 1582 m 1837 X s 698 1540 m 42 Y s 824 1561 m
 21 Y s 951 1561 m 21 Y s 1078 1561 m 21 Y s 1204 1561 m 21 Y s 1331 1540 m 42 Y s 1458 1561 m 21 Y s 1584 1561 m 21 Y s 1711 1561 m 21 Y s 1838 1561 m 21 Y s 1964 1540 m 42 Y s 698 1540 m 42 Y s 571 1561 m 21 Y s 444 1561 m 21 Y s 317 1561 m 21 Y s
 1964 1540 m 42 Y s 2091 1561 m 21 Y s 317 238 m 1344 Y s 371 238 m -54 X s 344 285 m -27 X s 344 332 m -27 X s 344 379 m -27 X s 344 426 m -27 X s 371 473 m -54 X s 344 520 m -27 X s 344 567 m -27 X s 344 614 m -27 X s 344 661 m -27 X s 371 708 m
 -54 X s 344 755 m -27 X s 344 802 m -27 X s 344 849 m -27 X s 344 896 m -27 X s 371 942 m -54 X s 344 989 m -27 X s 344 1036 m -27 X s 344 1083 m -27 X s 344 1130 m -27 X s 371 1177 m -54 X s 344 1224 m -27 X s 344 1271 m -27 X s 344 1318 m -27 X s
 344 1365 m -27 X s 371 1412 m -54 X s 371 1412 m -54 X s 344 1459 m -27 X s 344 1506 m -27 X s 344 1553 m -27 X s 2154 238 m 1344 Y s 2101 238 m 53 X s 2127 285 m 27 X s 2127 332 m 27 X s 2127 379 m 27 X s 2127 426 m 27 X s 2101 473 m 53 X s 2127
 520 m 27 X s 2127 567 m 27 X s 2127 614 m 27 X s 2127 661 m 27 X s 2101 708 m 53 X s 2127 755 m 27 X s 2127 802 m 27 X s 2127 849 m 27 X s 2127 896 m 27 X s 2101 942 m 53 X s 2127 989 m 27 X s 2127 1036 m 27 X s 2127 1083 m 27 X s 2127 1130 m 27 X s
 2101 1177 m 53 X s 2127 1224 m 27 X s 2127 1271 m 27 X s 2127 1318 m 27 X s 2127 1365 m 27 X s 2101 1412 m 53 X s 2101 1412 m 53 X s 2127 1459 m 27 X s 2127 1506 m 27 X s 2127 1553 m 27 X s
 gr  gr showpage
end
%%EOF
