%!PS-Adobe-2.0 EPSF-2.0
%%BoundingBox:  0 0 567 425
%%Title: result/MassFit/pAC_psip.eps: c2
%%Creator: ROOT Version 5.34/18
%%CreationDate: Thu Jul 30 22:59:23 2015
%%EndComments
%%BeginProlog
80 dict begin
/s {stroke} def /l {lineto} def /m {moveto} def /t {translate} def
/r {rotate} def /rl {roll}  def /R {repeat} def
/d {rlineto} def /rm {rmoveto} def /gr {grestore} def /f {eofill} def
/c {setrgbcolor} def /black {0 setgray} def /sd {setdash} def
/cl {closepath} def /sf {scalefont setfont} def /lw {setlinewidth} def
/box {m dup 0 exch d exch 0 d 0 exch neg d cl} def
/NC{systemdict begin initclip end}def/C{NC box clip newpath}def
/bl {box s} def /bf {box f} def /Y { 0 exch d} def /X { 0 d} def 
/K {{pop pop 0 moveto} exch kshow} bind def
/ita {/ang 15 def gsave [1 0 ang dup sin exch cos div 1 0 0] concat} def 
/mp {newpath /y exch def /x exch def} def
/side {[w .77 mul w .23 mul] .385 w mul sd w 0 l currentpoint t -144 r} def
/mr {mp x y w2 0 360 arc} def /m24 {mr s} def /m20 {mr f} def
/mb {mp x y w2 add m w2 neg 0 d 0 w neg d w 0 d 0 w d cl} def
/mt {mp x y w2 add m w2 neg w neg d w 0 d cl} def
/m21 {mb f} def /m25 {mb s} def /m22 {mt f} def /m26{mt s} def
/m23 {mp x y w2 sub m w2 w d w neg 0 d cl f} def
/m27 {mp x y w2 add m w3 neg w2 neg d w3 w2 neg d w3 w2 d cl s} def
/m28 {mp x w2 sub y w2 sub w3 add m w3 0 d  0 w3 neg d w3 0 d 0 w3 d w3 0 d  0 w3 d w3 neg 0 d 0 w3 d w3 neg 0 d 0 w3 neg d w3 neg 0 d cl s } def
/m29 {mp gsave x w2 sub y w2 add w3 sub m currentpoint t 4 {side} repeat cl fill gr} def
/m30 {mp gsave x w2 sub y w2 add w3 sub m currentpoint t 4 {side} repeat cl s gr} def
/m31 {mp x y w2 sub m 0 w d x w2 sub y m w 0 d x w2 sub y w2 add m w w neg d x w2 sub y w2 sub m w w d s} def
/m32 {mp x y w2 sub m w2 w d w neg 0 d cl s} def
/m33 {mp x y w2 add m w3 neg w2 neg d w3 w2 neg d w3 w2 d cl f} def
/m34 {mp x w2 sub y w2 sub w3 add m w3 0 d  0 w3 neg d w3 0 d 0 w3 d w3 0 d  0 w3 d w3 neg 0 d 0 w3 d w3 neg 0 d 0 w3 neg d w3 neg 0 d cl f } def
/m2 {mp x y w2 sub m 0 w d x w2 sub y m w 0 d s} def
/m5 {mp x w2 sub y w2 sub m w w d x w2 sub y w2 add m w w neg d s} def
/reEncode {exch findfont dup length dict begin {1 index /FID eq  {pop pop} {def} ifelse } forall /Encoding exch def currentdict end dup /FontName get exch definefont pop } def [/Times-Bold /Times-Italic /Times-BoldItalic /Helvetica /Helvetica-Oblique
 /Helvetica-Bold /Helvetica-BoldOblique /Courier /Courier-Oblique /Courier-Bold /Courier-BoldOblique /Times-Roman /AvantGarde-Book /AvantGarde-BookOblique /AvantGarde-Demi /AvantGarde-DemiOblique /Bookman-Demi /Bookman-DemiItalic /Bookman-Light
 /Bookman-LightItalic /Helvetica-Narrow /Helvetica-Narrow-Bold /Helvetica-Narrow-BoldOblique /Helvetica-Narrow-Oblique /NewCenturySchlbk-Roman /NewCenturySchlbk-Bold /NewCenturySchlbk-BoldItalic /NewCenturySchlbk-Italic /Palatino-Bold
 /Palatino-BoldItalic /Palatino-Italic /Palatino-Roman ] {ISOLatin1Encoding reEncode } forall
%%EndProlog
%%BeginSetup
%%EndSetup
newpath  gsave  .25 .25 scale  gsave  0 0 t black[  ] 0 sd 6 lw 1 1 1 c 2268 1701 0 0 bf black 1 1 1 c 1837 1344 317 238 bf black 1837 1344 317 238 bl 1 1 1 c 1837 1344 317 238 bf black 1837 1344 317 238 bl 317 238 m 1837 X s
 gsave  2268 1701 0 0 C 2130.56 50.2921 t 0 r /Helvetica findfont 96.0122 sf 0 0 m (]) show NC gr 
 gsave  2268 1701 0 0 C 2093.98 91.4402 t 0 r /Helvetica findfont 64.0081 sf 0 0 m (2) show NC gr 
 gsave  2268 1701 0 0 C 1769.37 50.2921 t 0 r /Helvetica findfont 96.0122 sf 0 0 m ( [MeV/c) show NC gr 
 gsave  2268 1701 0 0 C 1732.79 32.0041 t 0 r /Symbol findfont 64.0081 sf 0 0 m (m) show NC gr 
 gsave  2268 1701 0 0 C 1696.22 32.0041 t 0 r /Symbol findfont 64.0081 sf 0 0 m (m) show NC gr 
 gsave  2268 1701 0 0 C 1618.49 50.2921 t 0 r /Helvetica findfont 96.0122 sf 0 0 m (m) show NC gr  698 279 m -41 Y s 824 259 m -21 Y s 951 259 m -21 Y s 1078 259 m -21 Y s 1204 259 m -21 Y s 1331 279 m -41 Y s 1458 259 m -21 Y s 1584 259 m -21 Y s
 1711 259 m -21 Y s 1838 259 m -21 Y s 1964 279 m -41 Y s 698 279 m -41 Y s 571 259 m -21 Y s 444 259 m -21 Y s 317 259 m -21 Y s 1964 279 m -41 Y s 2091 259 m -21 Y s
 gsave  2268 1701 0 0 C 608.077 146.304 t 0 r /Helvetica findfont 77.7242 sf 0 0 m (3600) show NC gr 
 gsave  2268 1701 0 0 C 1243.59 146.304 t 0 r /Helvetica findfont 77.7242 sf 0 0 m (3700) show NC gr 
 gsave  2268 1701 0 0 C 1874.52 146.304 t 0 r /Helvetica findfont 77.7242 sf 0 0 m (3800) show NC gr  317 1582 m 1837 X s 698 1540 m 42 Y s 824 1561 m 21 Y s 951 1561 m 21 Y s 1078 1561 m 21 Y s 1204 1561 m 21 Y s 1331 1540 m 42 Y s 1458 1561 m 21 Y
 s 1584 1561 m 21 Y s 1711 1561 m 21 Y s 1838 1561 m 21 Y s 1964 1540 m 42 Y s 698 1540 m 42 Y s 571 1561 m 21 Y s 444 1561 m 21 Y s 317 1561 m 21 Y s 1964 1540 m 42 Y s 2091 1561 m 21 Y s 317 238 m 1344 Y s
 gsave  2268 1701 0 0 C 132.588 1554.48 t 90 r /Helvetica findfont 96.0122 sf 0 0 m (\)) show NC gr 
 gsave  2268 1701 0 0 C 86.8682 1517.91 t 90 r /Helvetica findfont 64.0081 sf 0 0 m (2) show NC gr 
 gsave  2268 1701 0 0 C 132.588 708.661 t 90 r /Helvetica findfont 96.0122 sf 0 0 m (Events / \(10 MeV/c) show NC gr  371 238 m -54 X s 344 280 m -27 X s 344 321 m -27 X s 344 362 m -27 X s 371 404 m -54 X s 344 445 m -27 X s 344 487 m -27 X s 344
 528 m -27 X s 371 570 m -54 X s 344 611 m -27 X s 344 652 m -27 X s 344 694 m -27 X s 371 735 m -54 X s 344 777 m -27 X s 344 818 m -27 X s 344 860 m -27 X s 371 901 m -54 X s 344 942 m -27 X s 344 984 m -27 X s 344 1025 m -27 X s 371 1067 m -54 X s
 344 1108 m -27 X s 344 1150 m -27 X s 344 1191 m -27 X s 371 1232 m -54 X s 344 1274 m -27 X s 344 1315 m -27 X s 344 1357 m -27 X s 371 1398 m -54 X s 344 1440 m -27 X s 344 1481 m -27 X s 344 1522 m -27 X s 371 1564 m -54 X s 371 1564 m -54 X s
 gsave  2268 1701 0 0 C 260.605 210.312 t 0 r /Helvetica findfont 77.7242 sf 0 0 m (0) show NC gr 
 gsave  2268 1701 0 0 C 214.884 374.905 t 0 r /Helvetica findfont 77.7242 sf 0 0 m (20) show NC gr 
 gsave  2268 1701 0 0 C 214.884 539.497 t 0 r /Helvetica findfont 77.7242 sf 0 0 m (40) show NC gr 
 gsave  2268 1701 0 0 C 214.884 704.089 t 0 r /Helvetica findfont 77.7242 sf 0 0 m (60) show NC gr 
 gsave  2268 1701 0 0 C 214.884 873.254 t 0 r /Helvetica findfont 77.7242 sf 0 0 m (80) show NC gr 
 gsave  2268 1701 0 0 C 173.736 1037.85 t 0 r /Helvetica findfont 77.7242 sf 0 0 m (100) show NC gr 
 gsave  2268 1701 0 0 C 173.736 1202.44 t 0 r /Helvetica findfont 77.7242 sf 0 0 m (120) show NC gr 
 gsave  2268 1701 0 0 C 173.736 1367.03 t 0 r /Helvetica findfont 77.7242 sf 0 0 m (140) show NC gr 
 gsave  2268 1701 0 0 C 173.736 1536.2 t 0 r /Helvetica findfont 77.7242 sf 0 0 m (160) show NC gr  2154 238 m 1344 Y s 2101 238 m 53 X s 2127 280 m 27 X s 2127 321 m 27 X s 2127 362 m 27 X s 2101 404 m 53 X s 2127 445 m 27 X s 2127 487 m 27 X s 2127
 528 m 27 X s 2101 570 m 53 X s 2127 611 m 27 X s 2127 652 m 27 X s 2127 694 m 27 X s 2101 735 m 53 X s 2127 777 m 27 X s 2127 818 m 27 X s 2127 860 m 27 X s 2101 901 m 53 X s 2127 942 m 27 X s 2127 984 m 27 X s 2127 1025 m 27 X s 2101 1067 m 53 X s
 2127 1108 m 27 X s 2127 1150 m 27 X s 2127 1191 m 27 X s 2101 1232 m 53 X s 2127 1274 m 27 X s 2127 1315 m 27 X s 2127 1357 m 27 X s 2101 1398 m 53 X s 2127 1440 m 27 X s 2127 1481 m 27 X s 2127 1522 m 27 X s 2101 1564 m 53 X s 2101 1564 m 53 X s
 349 860 m -32 X s 317 850 m 19 Y s 349 860 m 32 X s 381 850 m 19 Y s 349 860 m 80 Y s 340 940 m 18 X s 349 860 m -72 Y s 340 788 m 18 X s 412 826 m -31 X s 381 817 m 19 Y s 412 826 m 32 X s 444 817 m 19 Y s 412 826 m 79 Y s 403 905 m 19 X s 412 826
 m -69 Y s 403 757 m 19 X s 476 686 m -32 X s 444 676 m 19 Y s 476 686 m 31 X s 507 676 m 19 Y s 476 686 m 69 Y s 467 755 m 18 X s 476 686 m -61 Y s 467 625 m 18 X s 539 951 m -32 X s 507 942 m 18 Y s 539 951 m 32 X s 571 942 m 18 Y s 539 951 m 85 Y
 s 530 1036 m 18 X s 539 951 m -77 Y s 530 874 m 18 X s 603 884 m -32 X s 571 875 m 19 Y s 603 884 m 31 X s 634 875 m 19 Y s 603 884 m 82 Y s 593 966 m 19 X s 603 884 m -73 Y s 593 811 m 19 X s 666 876 m -32 X s 634 867 m 18 Y s 666 876 m 32 X s 698
 867 m 18 Y s 666 876 m 81 Y s 657 957 m 18 X s 666 876 m -72 Y s 657 804 m 18 X s 729 901 m -31 X s 698 892 m 18 Y s 729 901 m 32 X s 761 892 m 18 Y s 729 901 m 83 Y s 720 984 m 18 X s 729 901 m -74 Y s 720 827 m 18 X s 793 926 m -32 X s 761 917 m
 18 Y s 793 926 m 31 X s 824 917 m 18 Y s 793 926 m 84 Y s 783 1010 m 19 X s 793 926 m -75 Y s 783 851 m 19 X s 856 835 m -32 X s 824 826 m 18 Y s 856 835 m 32 X s 888 826 m 18 Y s 856 835 m 79 Y s 847 914 m 18 X s 856 835 m -70 Y s 847 765 m 18 X s
 919 860 m -31 X s 888 850 m 19 Y s 919 860 m 32 X s 951 850 m 19 Y s 919 860 m 80 Y s 910 940 m 18 X s 919 860 m -72 Y s 910 788 m 18 X s 983 942 m -32 X s 951 933 m 19 Y s 983 942 m 31 X s 1014 933 m 19 Y s 983 942 m 85 Y s 973 1027 m 19 X s 983
 942 m -76 Y s 973 866 m 19 X s 1046 959 m -32 X s 1014 950 m 18 Y s 1046 959 m 32 X s 1078 950 m 18 Y s 1046 959 m 86 Y s 1037 1045 m 18 X s 1046 959 m -77 Y s 1037 882 m 18 X s 1109 992 m -31 X s 1078 983 m 18 Y s 1109 992 m 32 X s 1141 983 m 18 Y
 s 1109 992 m 88 Y s 1100 1080 m 18 X s 1109 992 m -79 Y s 1100 913 m 18 X s 1173 1058 m -32 X s 1141 1049 m 19 Y s 1173 1058 m 31 X s 1204 1049 m 19 Y s 1173 1058 m 91 Y s 1163 1149 m 19 X s 1173 1058 m -82 Y s 1163 976 m 19 X s 1236 1415 m -32 X s
 1204 1406 m 18 Y s 1236 1415 m 32 X s 1268 1406 m 18 Y s 1236 1415 m 103 Y s 1227 1518 m 18 X s 1236 1415 m -95 Y s 1227 1320 m 18 X s 1299 1199 m -31 X s 1268 1190 m 18 Y s 1299 1199 m 32 X s 1331 1190 m 18 Y s 1299 1199 m 94 Y s 1290 1293 m 18 X s
 1299 1199 m -85 Y s 1290 1114 m 18 X s 1363 1050 m -32 X s 1331 1041 m 18 Y s 1363 1050 m 31 X s 1394 1041 m 18 Y s 1363 1050 m 91 Y s 1353 1141 m 19 X s 1363 1050 m -82 Y s 1353 968 m 19 X s 1426 876 m -32 X s 1394 867 m 18 Y s 1426 876 m 32 X s
 1458 867 m 18 Y s 1426 876 m 81 Y s 1417 957 m 18 X s 1426 876 m -72 Y s 1417 804 m 18 X s 1489 868 m -31 X s 1458 859 m 18 Y s 1489 868 m 32 X s 1521 859 m 18 Y s 1489 868 m 81 Y s 1480 949 m 18 X s 1489 868 m -72 Y s 1480 796 m 18 X s 1553 735 m
 -32 X s 1521 726 m 18 Y s 1553 735 m 31 X s 1584 726 m 18 Y s 1553 735 m 73 Y s 1543 808 m 19 X s 1553 735 m -64 Y s 1543 671 m 19 X s 1616 760 m -32 X s 1584 751 m 18 Y s 1616 760 m 32 X s 1648 751 m 18 Y s 1616 760 m 75 Y s 1607 835 m 18 X s 1616
 760 m -65 Y s 1607 695 m 18 X s 1679 868 m -31 X s 1648 859 m 18 Y s 1679 868 m 32 X s 1711 859 m 18 Y s 1679 868 m 81 Y s 1670 949 m 18 X s 1679 868 m -72 Y s 1670 796 m 18 X s 1743 835 m -32 X s 1711 826 m 18 Y s 1743 835 m 31 X s 1774 826 m 18 Y
 s 1743 835 m 79 Y s 1733 914 m 19 X s 1743 835 m -70 Y s 1733 765 m 19 X s 1806 760 m -32 X s 1774 751 m 18 Y s 1806 760 m 32 X s 1838 751 m 18 Y s 1806 760 m 75 Y s 1797 835 m 18 X s 1806 760 m -65 Y s 1797 695 m 18 X s 1869 860 m -31 X s 1838 850
 m 19 Y s 1869 860 m 32 X s 1901 850 m 19 Y s 1869 860 m 80 Y s 1860 940 m 18 X s 1869 860 m -72 Y s 1860 788 m 18 X s 1933 777 m -32 X s 1901 768 m 18 Y s 1933 777 m 31 X s 1964 768 m 18 Y s 1933 777 m 75 Y s 1923 852 m 19 X s 1933 777 m -67 Y s
 1923 710 m 19 X s 1996 768 m -32 X s 1964 759 m 19 Y s 1996 768 m 32 X s 2028 759 m 19 Y s 1996 768 m 75 Y s 1987 843 m 18 X s 1996 768 m -66 Y s 1987 702 m 18 X s 2059 710 m -31 X s 2028 701 m 19 Y s 2059 710 m 32 X s 2091 701 m 19 Y s 2059 710 m
 72 Y s 2050 782 m 18 X s 2059 710 m -62 Y s 2050 648 m 18 X s 2123 760 m -32 X s 2091 751 m 18 Y s 2123 760 m 31 X s 2154 751 m 18 Y s 2123 760 m 75 Y s 2114 835 m 18 X s 2123 760 m -65 Y s 2114 695 m 18 X s 3 lw /w 37 def /w2 {w 2 div} def /w3 {w 3
 div} def 349 860 412 826 476 686 539 951 603 884 666 876 729 901 793 926 856 835 919 860 983 942 1046 959 1109 992 1173 1058 1236 1415 1299 1199 1363 1050 1426 876 1489 868 1553 735 1616 760 1679 868 1743 835 1806 760 1869 860 1933 777 1996 768 2059
 710 2123 760 29 { m20} R 6 lw 0 1 0 c[ 4 8] 0 sd 9 lw black 0 1 0 c 317 883 m cl s 317 883 m 64 -4 d 63 -4 d 63 -4 d 64 -4 d 63 -4 d 64 -4 d 63 -4 d 63 -3 d 64 -4 d 63 -4 d 63 -4 d 64 -4 d 63 -3 d 63 -4 d 64 -4 d 63 -3 d 63 -4 d 64 -4 d 63 -3 d 63
 -4 d 64 -3 d 63 -4 d 63 -3 d 64 -4 d 63 -3 d 63 -4 d 64 -3 d 63 -3 d 63 -4 d s 0 0 1 c[ 12 12] 0 sd black 0 0 1 c 317 241 m cl s 317 241 m 64 X 63 1 d 127 X 63 1 d 64 1 d 63 1 d 63 1 d 64 2 d 63 4 d 32 4 d 31 5 d 16 5 d 16 6 d 8 4 d 8 6 d 8 8 d 8 11
 d 7 12 d 8 13 d 8 16 d 8 17 d 8 19 d 8 21 d 8 22 d 8 24 d 16 50 d 16 53 d 15 52 d 8 25 d 8 23 d 8 20 d 8 18 d 8 16 d 8 12 d 8 8 d 8 4 d 4 1 d 4 X 4 -1 d 4 -2 d 7 -8 d 8 -10 d 8 -15 d 8 -17 d 8 -20 d 8 -22 d 8 -24 d 8 -26 d 32 -105 d 8 -25 d 7 -24 d
 8 -23 d 8 -21 d 8 -19 d 8 -18 d 8 -16 d 8 -14 d 8 -13 d 8 -11 d 8 -10 d 8 -8 d 8 -7 d 7 -6 d 16 -8 d 16 -6 d 16 -4 d 32 -4 d 31 -1 d 64 -1 d 506 X s 1 0 0 c[  ] 0 sd black 1 0 0 c 317 886 m cl s 317 886 m 64 -4 d 63 -4 d 63 -3 d 64 -4 d 63 -3 d 64
 -3 d 63 -3 d 63 -3 d 64 -1 d 63 X 32 2 d 31 3 d 16 4 d 16 5 d 8 4 d 8 5 d 8 8 d 8 10 d 7 12 d 8 13 d 8 15 d 8 17 d 8 18 d 8 20 d 8 22 d 8 23 d 16 50 d 16 52 d 15 51 d 8 24 d 8 23 d 8 20 d 8 17 d 8 15 d 8 12 d 8 7 d 8 4 d 8 1 d 8 -4 d 7 -8 d 8 -11 d
 8 -15 d 8 -18 d 8 -20 d 8 -23 d 8 -24 d 8 -26 d 32 -107 d 8 -26 d 7 -24 d 8 -23 d 8 -22 d 8 -20 d 8 -18 d 8 -16 d 8 -15 d 8 -13 d 8 -12 d 8 -10 d 8 -8 d 8 -8 d 7 -6 d 16 -10 d 16 -7 d 16 -4 d 32 -6 d 31 -3 d 64 -4 d 63 -4 d 63 -3 d 64 -4 d 63 -3 d
 63 -4 d 64 -3 d 63 -3 d 63 -4 d s black
 gsave  2268 1701 0 0 C 498.349 388.621 t 0 r /Helvetica findfont 68.5801 sf 0 0 m (pPb\(Fwd\)) show NC gr 
 gsave  2268 1701 0 0 C 498.349 484.633 t 0 r /Helvetica findfont 86.8682 sf 0 0 m (Preliminary) show NC gr 
 gsave  2268 1701 0 0 C 498.349 576.073 t 0 r /Helvetica findfont 86.8682 sf 0 0 m (LHCb) show NC gr 
 gsave  2268 1701 0 0 C 1536.2 457.201 t 0 r /Helvetica findfont 86.8682 sf 0 0 m ( < 14.0 GeV/c) show NC gr 
 gsave  2268 1701 0 0 C 1499.62 406.909 t 0 r /Helvetica findfont 59.4361 sf 0 0 m (T) show NC gr 
 gsave  2268 1701 0 0 C 1449.33 457.201 t 0 r /Helvetica findfont 86.8682 sf 0 0 m (p) show NC gr 
 gsave  2268 1701 0 0 C 1449.33 571.501 t 0 r /Helvetica findfont 86.8682 sf 0 0 m (1.5 < y < 4.0) show NC gr  6 lw 317 238 m 1837 X s 698 279 m -41 Y s 824 259 m -21 Y s 951 259 m -21 Y s 1078 259 m -21 Y s 1204 259 m -21 Y s 1331 279 m -41 Y s 1458
 259 m -21 Y s 1584 259 m -21 Y s 1711 259 m -21 Y s 1838 259 m -21 Y s 1964 279 m -41 Y s 698 279 m -41 Y s 571 259 m -21 Y s 444 259 m -21 Y s 317 259 m -21 Y s 1964 279 m -41 Y s 2091 259 m -21 Y s 317 1582 m 1837 X s 698 1540 m 42 Y s 824 1561 m
 21 Y s 951 1561 m 21 Y s 1078 1561 m 21 Y s 1204 1561 m 21 Y s 1331 1540 m 42 Y s 1458 1561 m 21 Y s 1584 1561 m 21 Y s 1711 1561 m 21 Y s 1838 1561 m 21 Y s 1964 1540 m 42 Y s 698 1540 m 42 Y s 571 1561 m 21 Y s 444 1561 m 21 Y s 317 1561 m 21 Y s
 1964 1540 m 42 Y s 2091 1561 m 21 Y s 317 238 m 1344 Y s 371 238 m -54 X s 344 280 m -27 X s 344 321 m -27 X s 344 362 m -27 X s 371 404 m -54 X s 344 445 m -27 X s 344 487 m -27 X s 344 528 m -27 X s 371 570 m -54 X s 344 611 m -27 X s 344 652 m
 -27 X s 344 694 m -27 X s 371 735 m -54 X s 344 777 m -27 X s 344 818 m -27 X s 344 860 m -27 X s 371 901 m -54 X s 344 942 m -27 X s 344 984 m -27 X s 344 1025 m -27 X s 371 1067 m -54 X s 344 1108 m -27 X s 344 1150 m -27 X s 344 1191 m -27 X s
 371 1232 m -54 X s 344 1274 m -27 X s 344 1315 m -27 X s 344 1357 m -27 X s 371 1398 m -54 X s 344 1440 m -27 X s 344 1481 m -27 X s 344 1522 m -27 X s 371 1564 m -54 X s 371 1564 m -54 X s 2154 238 m 1344 Y s 2101 238 m 53 X s 2127 280 m 27 X s
 2127 321 m 27 X s 2127 362 m 27 X s 2101 404 m 53 X s 2127 445 m 27 X s 2127 487 m 27 X s 2127 528 m 27 X s 2101 570 m 53 X s 2127 611 m 27 X s 2127 652 m 27 X s 2127 694 m 27 X s 2101 735 m 53 X s 2127 777 m 27 X s 2127 818 m 27 X s 2127 860 m 27 X
 s 2101 901 m 53 X s 2127 942 m 27 X s 2127 984 m 27 X s 2127 1025 m 27 X s 2101 1067 m 53 X s 2127 1108 m 27 X s 2127 1150 m 27 X s 2127 1191 m 27 X s 2101 1232 m 53 X s 2127 1274 m 27 X s 2127 1315 m 27 X s 2127 1357 m 27 X s 2101 1398 m 53 X s
 2127 1440 m 27 X s 2127 1481 m 27 X s 2127 1522 m 27 X s 2101 1564 m 53 X s 2101 1564 m 53 X s
 gr  gr showpage
end
%%EOF
