%!PS-Adobe-2.0 EPSF-2.0
%%BoundingBox:  0 0 567 425
%%Title: result/TzFit/ApCtz_c03.eps: 
%%Creator: ROOT Version 5.34/18
%%CreationDate: Wed Sep 16 23:58:17 2015
%%EndComments
%%BeginProlog
80 dict begin
/s {stroke} def /l {lineto} def /m {moveto} def /t {translate} def
/r {rotate} def /rl {roll}  def /R {repeat} def
/d {rlineto} def /rm {rmoveto} def /gr {grestore} def /f {eofill} def
/c {setrgbcolor} def /black {0 setgray} def /sd {setdash} def
/cl {closepath} def /sf {scalefont setfont} def /lw {setlinewidth} def
/box {m dup 0 exch d exch 0 d 0 exch neg d cl} def
/NC{systemdict begin initclip end}def/C{NC box clip newpath}def
/bl {box s} def /bf {box f} def /Y { 0 exch d} def /X { 0 d} def 
/K {{pop pop 0 moveto} exch kshow} bind def
/ita {/ang 15 def gsave [1 0 ang dup sin exch cos div 1 0 0] concat} def 
/mp {newpath /y exch def /x exch def} def
/side {[w .77 mul w .23 mul] .385 w mul sd w 0 l currentpoint t -144 r} def
/mr {mp x y w2 0 360 arc} def /m24 {mr s} def /m20 {mr f} def
/mb {mp x y w2 add m w2 neg 0 d 0 w neg d w 0 d 0 w d cl} def
/mt {mp x y w2 add m w2 neg w neg d w 0 d cl} def
/m21 {mb f} def /m25 {mb s} def /m22 {mt f} def /m26{mt s} def
/m23 {mp x y w2 sub m w2 w d w neg 0 d cl f} def
/m27 {mp x y w2 add m w3 neg w2 neg d w3 w2 neg d w3 w2 d cl s} def
/m28 {mp x w2 sub y w2 sub w3 add m w3 0 d  0 w3 neg d w3 0 d 0 w3 d w3 0 d  0 w3 d w3 neg 0 d 0 w3 d w3 neg 0 d 0 w3 neg d w3 neg 0 d cl s } def
/m29 {mp gsave x w2 sub y w2 add w3 sub m currentpoint t 4 {side} repeat cl fill gr} def
/m30 {mp gsave x w2 sub y w2 add w3 sub m currentpoint t 4 {side} repeat cl s gr} def
/m31 {mp x y w2 sub m 0 w d x w2 sub y m w 0 d x w2 sub y w2 add m w w neg d x w2 sub y w2 sub m w w d s} def
/m32 {mp x y w2 sub m w2 w d w neg 0 d cl s} def
/m33 {mp x y w2 add m w3 neg w2 neg d w3 w2 neg d w3 w2 d cl f} def
/m34 {mp x w2 sub y w2 sub w3 add m w3 0 d  0 w3 neg d w3 0 d 0 w3 d w3 0 d  0 w3 d w3 neg 0 d 0 w3 d w3 neg 0 d 0 w3 neg d w3 neg 0 d cl f } def
/m2 {mp x y w2 sub m 0 w d x w2 sub y m w 0 d s} def
/m5 {mp x w2 sub y w2 sub m w w d x w2 sub y w2 add m w w neg d s} def
/reEncode {exch findfont dup length dict begin {1 index /FID eq  {pop pop} {def} ifelse } forall /Encoding exch def currentdict end dup /FontName get exch definefont pop } def [/Times-Bold /Times-Italic /Times-BoldItalic /Helvetica /Helvetica-Oblique
 /Helvetica-Bold /Helvetica-BoldOblique /Courier /Courier-Oblique /Courier-Bold /Courier-BoldOblique /Times-Roman /AvantGarde-Book /AvantGarde-BookOblique /AvantGarde-Demi /AvantGarde-DemiOblique /Bookman-Demi /Bookman-DemiItalic /Bookman-Light
 /Bookman-LightItalic /Helvetica-Narrow /Helvetica-Narrow-Bold /Helvetica-Narrow-BoldOblique /Helvetica-Narrow-Oblique /NewCenturySchlbk-Roman /NewCenturySchlbk-Bold /NewCenturySchlbk-BoldItalic /NewCenturySchlbk-Italic /Palatino-Bold
 /Palatino-BoldItalic /Palatino-Italic /Palatino-Roman ] {ISOLatin1Encoding reEncode } forall
%%EndProlog
%%BeginSetup
%%EndSetup
newpath  gsave  .25 .25 scale  gsave  0 0 t black[  ] 0 sd 3 lw 1 1 1 c 2268 1701 0 0 bf black 1 1 1 c 1837 1344 317 238 bf black 1837 1344 317 238 bl 1 1 1 c 1837 1344 317 238 bf black 1837 1344 317 238 bl 317 238 m 1837 X s
 gsave  2268 1701 0 0 C 2125.98 50.2921 t 0 r /Times-Roman findfont 96.0122 sf 0 0 m (]) show NC gr 
 gsave  2268 1701 0 0 C 2093.98 91.4402 t 0 r /Times-Roman findfont 64.0081 sf 0 0 m (2) show NC gr 
 gsave  2268 1701 0 0 C 1773.94 50.2921 t 0 r /Times-Roman findfont 96.0122 sf 0 0 m ( [MeV/c) show NC gr 
 gsave  2268 1701 0 0 C 1737.36 32.0041 t 0 r /Symbol findfont 64.0081 sf 0 0 m (m) show NC gr 
 gsave  2268 1701 0 0 C 1700.79 32.0041 t 0 r /Symbol findfont 64.0081 sf 0 0 m (m) show NC gr 
 gsave  2268 1701 0 0 C 1623.06 50.2921 t 0 r /Times-Roman findfont 96.0122 sf 0 0 m (m) show NC gr  698 279 m -41 Y s 824 259 m -21 Y s 951 259 m -21 Y s 1078 259 m -21 Y s 1204 259 m -21 Y s 1331 279 m -41 Y s 1458 259 m -21 Y s 1584 259 m -21 Y s
 1711 259 m -21 Y s 1838 259 m -21 Y s 1964 279 m -41 Y s 698 279 m -41 Y s 571 259 m -21 Y s 444 259 m -21 Y s 317 259 m -21 Y s 1964 279 m -41 Y s 2091 259 m -21 Y s
 gsave  2268 1701 0 0 C 617.221 146.304 t 0 r /Times-Roman findfont 77.7242 sf 0 0 m (3600) show NC gr 
 gsave  2268 1701 0 0 C 1252.73 146.304 t 0 r /Times-Roman findfont 77.7242 sf 0 0 m (3700) show NC gr 
 gsave  2268 1701 0 0 C 1883.67 146.304 t 0 r /Times-Roman findfont 77.7242 sf 0 0 m (3800) show NC gr  317 1582 m 1837 X s 698 1540 m 42 Y s 824 1561 m 21 Y s 951 1561 m 21 Y s 1078 1561 m 21 Y s 1204 1561 m 21 Y s 1331 1540 m 42 Y s 1458 1561 m 21
 Y s 1584 1561 m 21 Y s 1711 1561 m 21 Y s 1838 1561 m 21 Y s 1964 1540 m 42 Y s 698 1540 m 42 Y s 571 1561 m 21 Y s 444 1561 m 21 Y s 317 1561 m 21 Y s 1964 1540 m 42 Y s 2091 1561 m 21 Y s 317 238 m 1344 Y s
 gsave  2268 1701 0 0 C 91.4402 1554.48 t 90 r /Times-Roman findfont 96.0122 sf 0 0 m (\)) show NC gr 
 gsave  2268 1701 0 0 C 50.2921 1522.48 t 90 r /Times-Roman findfont 64.0081 sf 0 0 m (2) show NC gr 
 gsave  2268 1701 0 0 C 91.4402 603.505 t 90 r /Times-Roman findfont 96.0122 sf 0 0 m (Candidates / \(20 MeV/c) show NC gr  371 238 m -54 X s 344 266 m -27 X s 344 294 m -27 X s 344 323 m -27 X s 371 351 m -54 X s 344 379 m -27 X s 344 407 m -27 X s
 344 435 m -27 X s 371 463 m -54 X s 344 491 m -27 X s 344 519 m -27 X s 344 548 m -27 X s 371 576 m -54 X s 344 604 m -27 X s 344 632 m -27 X s 344 660 m -27 X s 371 688 m -54 X s 344 716 m -27 X s 344 745 m -27 X s 344 773 m -27 X s 371 801 m -54 X
 s 344 829 m -27 X s 344 857 m -27 X s 344 885 m -27 X s 371 913 m -54 X s 344 942 m -27 X s 344 970 m -27 X s 344 998 m -27 X s 371 1026 m -54 X s 344 1054 m -27 X s 344 1082 m -27 X s 344 1110 m -27 X s 371 1139 m -54 X s 344 1167 m -27 X s 344
 1195 m -27 X s 344 1223 m -27 X s 371 1251 m -54 X s 344 1279 m -27 X s 344 1307 m -27 X s 344 1335 m -27 X s 371 1364 m -54 X s 344 1392 m -27 X s 344 1420 m -27 X s 344 1448 m -27 X s 371 1476 m -54 X s 371 1476 m -54 X s 344 1504 m -27 X s 344
 1532 m -27 X s 344 1561 m -27 X s
 gsave  2268 1701 0 0 C 260.605 214.884 t 0 r /Times-Roman findfont 77.7242 sf 0 0 m (0) show NC gr 
 gsave  2268 1701 0 0 C 224.028 324.613 t 0 r /Times-Roman findfont 77.7242 sf 0 0 m (20) show NC gr 
 gsave  2268 1701 0 0 C 224.028 438.913 t 0 r /Times-Roman findfont 77.7242 sf 0 0 m (40) show NC gr 
 gsave  2268 1701 0 0 C 224.028 548.641 t 0 r /Times-Roman findfont 77.7242 sf 0 0 m (60) show NC gr 
 gsave  2268 1701 0 0 C 224.028 662.941 t 0 r /Times-Roman findfont 77.7242 sf 0 0 m (80) show NC gr 
 gsave  2268 1701 0 0 C 182.88 777.242 t 0 r /Times-Roman findfont 77.7242 sf 0 0 m (100) show NC gr 
 gsave  2268 1701 0 0 C 182.88 886.97 t 0 r /Times-Roman findfont 77.7242 sf 0 0 m (120) show NC gr 
 gsave  2268 1701 0 0 C 182.88 1001.27 t 0 r /Times-Roman findfont 77.7242 sf 0 0 m (140) show NC gr 
 gsave  2268 1701 0 0 C 182.88 1115.57 t 0 r /Times-Roman findfont 77.7242 sf 0 0 m (160) show NC gr 
 gsave  2268 1701 0 0 C 182.88 1225.3 t 0 r /Times-Roman findfont 77.7242 sf 0 0 m (180) show NC gr 
 gsave  2268 1701 0 0 C 182.88 1339.6 t 0 r /Times-Roman findfont 77.7242 sf 0 0 m (200) show NC gr 
 gsave  2268 1701 0 0 C 182.88 1449.33 t 0 r /Times-Roman findfont 77.7242 sf 0 0 m (220) show NC gr  2154 238 m 1344 Y s 2101 238 m 53 X s 2127 266 m 27 X s 2127 294 m 27 X s 2127 323 m 27 X s 2101 351 m 53 X s 2127 379 m 27 X s 2127 407 m 27 X s
 2127 435 m 27 X s 2101 463 m 53 X s 2127 491 m 27 X s 2127 519 m 27 X s 2127 548 m 27 X s 2101 576 m 53 X s 2127 604 m 27 X s 2127 632 m 27 X s 2127 660 m 27 X s 2101 688 m 53 X s 2127 716 m 27 X s 2127 745 m 27 X s 2127 773 m 27 X s 2101 801 m 53 X
 s 2127 829 m 27 X s 2127 857 m 27 X s 2127 885 m 27 X s 2101 913 m 53 X s 2127 942 m 27 X s 2127 970 m 27 X s 2127 998 m 27 X s 2101 1026 m 53 X s 2127 1054 m 27 X s 2127 1082 m 27 X s 2127 1110 m 27 X s 2101 1139 m 53 X s 2127 1167 m 27 X s 2127
 1195 m 27 X s 2127 1223 m 27 X s 2101 1251 m 53 X s 2127 1279 m 27 X s 2127 1307 m 27 X s 2127 1335 m 27 X s 2101 1364 m 53 X s 2127 1392 m 27 X s 2127 1420 m 27 X s 2127 1448 m 27 X s 2101 1476 m 53 X s 2101 1476 m 53 X s 2127 1504 m 27 X s 2127
 1532 m 27 X s 2127 1561 m 27 X s 409 1161 m -92 X s 317 1152 m 18 Y s 409 1161 m 92 X s 501 1152 m 18 Y s 409 1161 m 75 Y s 400 1236 m 18 X s 409 1161 m -69 Y s 400 1092 m 18 X s 593 1082 m -92 X s 501 1073 m 18 Y s 593 1082 m 92 X s 685 1073 m 18 Y
 s 593 1082 m 72 Y s 584 1154 m 18 X s 593 1082 m -66 Y s 584 1016 m 18 X s 777 1268 m -92 X s 685 1259 m 18 Y s 777 1268 m 92 X s 869 1259 m 18 Y s 777 1268 m 79 Y s 768 1347 m 18 X s 777 1268 m -73 Y s 768 1195 m 18 X s 960 1122 m -91 X s 869 1112
 m 19 Y s 960 1122 m 92 X s 1052 1112 m 19 Y s 960 1122 m 73 Y s 951 1195 m 19 X s 960 1122 m -68 Y s 951 1054 m 19 X s 1144 1319 m -92 X s 1052 1309 m 19 Y s 1144 1319 m 92 X s 1236 1309 m 19 Y s 1144 1319 m 80 Y s 1135 1399 m 18 X s 1144 1319 m -76
 Y s 1135 1243 m 18 X s 1328 1352 m -92 X s 1236 1343 m 18 Y s 1328 1352 m 92 X s 1420 1343 m 18 Y s 1328 1352 m 82 Y s 1319 1434 m 18 X s 1328 1352 m -76 Y s 1319 1276 m 18 X s 1511 1105 m -91 X s 1420 1096 m 18 Y s 1511 1105 m 92 X s 1603 1096 m 18
 Y s 1511 1105 m 72 Y s 1502 1177 m 19 X s 1511 1105 m -67 Y s 1502 1038 m 19 X s 1695 998 m -92 X s 1603 989 m 18 Y s 1695 998 m 92 X s 1787 989 m 18 Y s 1695 998 m 68 Y s 1686 1066 m 18 X s 1695 998 m -63 Y s 1686 935 m 18 X s 1879 1060 m -92 X s
 1787 1051 m 18 Y s 1879 1060 m 92 X s 1971 1051 m 18 Y s 1879 1060 m 71 Y s 1870 1131 m 18 X s 1879 1060 m -66 Y s 1870 994 m 18 X s 2062 1105 m -91 X s 1971 1096 m 18 Y s 2062 1105 m 92 X s 2154 1096 m 18 Y s 2062 1105 m 72 Y s 2053 1177 m 19 X s
 2062 1105 m -67 Y s 2053 1038 m 19 X s /w 37 def /w2 {w 2 div} def /w3 {w 3 div} def 409 1161 593 1082 777 1268 960 1122 1144 1319 1328 1352 1511 1105 1695 998 1879 1060 2062 1105 10 { m20} R 0 0 1 c[ 12 12] 0 sd 9 lw black 0 0 1 c 317 240 m cl s
 317 240 m 74 X 18 1 d 202 X 19 1 d 92 X 18 1 d 55 X 18 1 d 37 X 19 1 d 18 X 18 1 d 19 1 d 18 1 d 18 1 d 19 1 d 18 2 d 18 2 d 19 3 d 18 5 d 9 3 d 10 5 d 9 6 d 4 4 d 5 6 d 9 12 d 9 15 d 10 18 d 9 20 d 9 22 d 9 25 d 9 27 d 9 28 d 19 58 d 9 28 d 9 27 d
 9 24 d 5 11 d 5 10 d 4 8 d 5 8 d 4 6 d 5 6 d 4 3 d 5 3 d 5 1 d 4 -1 d 5 -2 d 4 -3 d 5 -4 d 5 -6 d 4 -7 d 5 -9 d 4 -9 d 5 -11 d 9 -23 d 9 -26 d 10 -28 d 9 -29 d 18 -58 d 9 -27 d 9 -25 d 10 -23 d 9 -20 d 9 -18 d 9 -16 d 9 -13 d 10 -11 d 9 -9 d 9 -7 d
 9 -6 d 9 -4 d 10 -4 d 9 -2 d 18 -4 d 18 -1 d 19 -1 d 18 -1 d 606 X s 0 0.8 0 c black 0 0.8 0 c 317 1170 m cl s 317 1170 m 19 -1 d 18 -1 d 19 -1 d 18 -2 d 18 -1 d 19 -1 d 18 -1 d 18 -1 d 19 -2 d 18 -1 d 19 -1 d 18 -1 d 18 -1 d 19 -2 d 18 -1 d 18 -1 d
 19 -1 d 18 -1 d 18 -2 d 19 -1 d 18 -1 d 19 -1 d 18 -1 d 18 -2 d 19 -1 d 18 -1 d 18 -1 d 19 -1 d 18 -2 d 19 -1 d 18 -1 d 18 -1 d 19 -1 d 18 -1 d 18 -2 d 19 -1 d 18 -1 d 18 -1 d 19 -1 d 18 -1 d 19 -2 d 18 -1 d 18 -1 d 19 -1 d 18 -1 d 18 -1 d 19 -2 d
 18 -1 d 19 -1 d 18 -1 d 18 -1 d 19 -1 d 18 -1 d 18 -2 d 19 -1 d 18 -1 d 18 -1 d 19 -1 d 18 -1 d 19 -1 d 18 -2 d 18 -1 d 19 -1 d 18 -1 d 18 -1 d 19 -1 d 18 -1 d 19 -1 d 18 -2 d 18 -1 d 19 -1 d 18 -1 d 18 -1 d 19 -1 d 18 -1 d 18 -1 d 19 -1 d 18 -2 d
 19 -1 d 18 -1 d 18 -1 d 19 -1 d 18 -1 d 18 -1 d 19 -1 d 18 -1 d 19 -2 d 18 -1 d 18 -1 d 19 -1 d 18 -1 d 18 -1 d 19 -1 d 18 -1 d 18 -1 d 19 -1 d 18 -1 d 19 -1 d 18 -2 d 18 -1 d s 1 0 0 c[  ] 0 sd black 1 0 0 c 317 1173 m cl s 317 1173 m 19 -2 d 18 -1
 d 19 -1 d 18 -1 d 18 -1 d 19 -1 d 18 -2 d 18 -1 d 19 -1 d 18 -1 d 19 -1 d 18 -1 d 18 -1 d 19 -1 d 18 -2 d 18 -1 d 19 -1 d 18 -1 d 18 -1 d 19 -1 d 18 -1 d 19 -1 d 18 -1 d 18 -1 d 19 -1 d 18 -1 d 18 -1 d 19 X 18 -1 d 19 -1 d 18 -1 d 18 X 19 -1 d 55 X
 18 1 d 18 1 d 19 2 d 18 3 d 9 3 d 10 4 d 9 6 d 4 4 d 5 5 d 9 12 d 9 14 d 10 17 d 9 20 d 9 22 d 9 24 d 9 26 d 9 28 d 19 56 d 9 28 d 9 26 d 9 24 d 5 10 d 5 10 d 4 8 d 5 8 d 4 6 d 5 4 d 4 4 d 5 2 d 5 1 d 4 -1 d 5 -2 d 4 -4 d 5 -4 d 5 -7 d 4 -7 d 5 -9 d
 4 -9 d 5 -11 d 9 -24 d 9 -27 d 10 -29 d 9 -29 d 18 -59 d 9 -27 d 9 -26 d 10 -23 d 9 -22 d 9 -18 d 9 -16 d 9 -14 d 10 -12 d 9 -9 d 9 -8 d 9 -6 d 9 -5 d 19 -7 d 18 -5 d 18 -3 d 19 -2 d 18 -1 d 19 -1 d 18 -2 d 18 -1 d 19 -1 d 18 -1 d 18 -1 d 19 -1 d 18
 -1 d 18 -1 d 19 -1 d 18 -2 d 19 -1 d 18 -1 d 18 -1 d 19 -1 d 18 -1 d 18 -1 d 19 -1 d 18 -1 d 19 -2 d 18 -1 d 18 -1 d 19 -1 d 18 -1 d 18 -1 d 19 -1 d 18 -1 d 18 -1 d 19 -1 d 18 -1 d 19 -1 d 18 -2 d 18 -1 d s black 3 lw 317 238 m 1837 X s 698 279 m
 -41 Y s 824 259 m -21 Y s 951 259 m -21 Y s 1078 259 m -21 Y s 1204 259 m -21 Y s 1331 279 m -41 Y s 1458 259 m -21 Y s 1584 259 m -21 Y s 1711 259 m -21 Y s 1838 259 m -21 Y s 1964 279 m -41 Y s 698 279 m -41 Y s 571 259 m -21 Y s 444 259 m -21 Y s
 317 259 m -21 Y s 1964 279 m -41 Y s 2091 259 m -21 Y s 317 1582 m 1837 X s 698 1540 m 42 Y s 824 1561 m 21 Y s 951 1561 m 21 Y s 1078 1561 m 21 Y s 1204 1561 m 21 Y s 1331 1540 m 42 Y s 1458 1561 m 21 Y s 1584 1561 m 21 Y s 1711 1561 m 21 Y s 1838
 1561 m 21 Y s 1964 1540 m 42 Y s 698 1540 m 42 Y s 571 1561 m 21 Y s 444 1561 m 21 Y s 317 1561 m 21 Y s 1964 1540 m 42 Y s 2091 1561 m 21 Y s 317 238 m 1344 Y s 371 238 m -54 X s 344 266 m -27 X s 344 294 m -27 X s 344 323 m -27 X s 371 351 m -54 X
 s 344 379 m -27 X s 344 407 m -27 X s 344 435 m -27 X s 371 463 m -54 X s 344 491 m -27 X s 344 519 m -27 X s 344 548 m -27 X s 371 576 m -54 X s 344 604 m -27 X s 344 632 m -27 X s 344 660 m -27 X s 371 688 m -54 X s 344 716 m -27 X s 344 745 m -27
 X s 344 773 m -27 X s 371 801 m -54 X s 344 829 m -27 X s 344 857 m -27 X s 344 885 m -27 X s 371 913 m -54 X s 344 942 m -27 X s 344 970 m -27 X s 344 998 m -27 X s 371 1026 m -54 X s 344 1054 m -27 X s 344 1082 m -27 X s 344 1110 m -27 X s 371
 1139 m -54 X s 344 1167 m -27 X s 344 1195 m -27 X s 344 1223 m -27 X s 371 1251 m -54 X s 344 1279 m -27 X s 344 1307 m -27 X s 344 1335 m -27 X s 371 1364 m -54 X s 344 1392 m -27 X s 344 1420 m -27 X s 344 1448 m -27 X s 371 1476 m -54 X s 371
 1476 m -54 X s 344 1504 m -27 X s 344 1532 m -27 X s 344 1561 m -27 X s 2154 238 m 1344 Y s 2101 238 m 53 X s 2127 266 m 27 X s 2127 294 m 27 X s 2127 323 m 27 X s 2101 351 m 53 X s 2127 379 m 27 X s 2127 407 m 27 X s 2127 435 m 27 X s 2101 463 m 53
 X s 2127 491 m 27 X s 2127 519 m 27 X s 2127 548 m 27 X s 2101 576 m 53 X s 2127 604 m 27 X s 2127 632 m 27 X s 2127 660 m 27 X s 2101 688 m 53 X s 2127 716 m 27 X s 2127 745 m 27 X s 2127 773 m 27 X s 2101 801 m 53 X s 2127 829 m 27 X s 2127 857 m
 27 X s 2127 885 m 27 X s 2101 913 m 53 X s 2127 942 m 27 X s 2127 970 m 27 X s 2127 998 m 27 X s 2101 1026 m 53 X s 2127 1054 m 27 X s 2127 1082 m 27 X s 2127 1110 m 27 X s 2101 1139 m 53 X s 2127 1167 m 27 X s 2127 1195 m 27 X s 2127 1223 m 27 X s
 2101 1251 m 53 X s 2127 1279 m 27 X s 2127 1307 m 27 X s 2127 1335 m 27 X s 2101 1364 m 53 X s 2127 1392 m 27 X s 2127 1420 m 27 X s 2127 1448 m 27 X s 2101 1476 m 53 X s 2101 1476 m 53 X s 2127 1504 m 27 X s 2127 1532 m 27 X s 2127 1561 m 27 X s
 gsave  2268 1701 0 0 C 717.805 379.477 t 0 r /Times-Roman findfont 73.1521 sf 0 0 m ( = 5 TeV) show NC gr 
 gsave  2268 1701 0 0 C 649.225 356.617 t 0 r /Times-Roman findfont 45.7201 sf 0 0 m (NN) show NC gr 
 gsave  2268 1701 0 0 C 621.793 379.477 t 0 r /Times-Roman findfont 73.1521 sf 0 0 m (s) show NC gr  6 lw 594 416 m 10 -64 d s 0 lw 604 352 m 9 87 d s 613 439 m 105 X s
 gsave  2268 1701 0 0 C 269.749 379.477 t 0 r /Times-Roman findfont 73.1521 sf 0 0 m (pPb\(Fwd\) ) show NC gr 
 gsave  2268 1701 0 0 C 269.749 475.489 t 0 r /Times-Roman findfont 73.1521 sf 0 0 m (LHCb preliminary) show NC gr 
 gsave  2268 1701 0 0 C 1778.51 512.065 t 0 r /Times-Roman findfont 73.1521 sf 0 0 m (2.5) show NC gr 
 gsave  2268 1701 0 0 C 1737.36 512.065 t 0 r /Symbol findfont 73.1521 sf 0 0 m (-) show NC gr 
 gsave  2268 1701 0 0 C 1490.47 512.065 t 0 r /Times-Roman findfont 73.1521 sf 0 0 m (4.0< y <) show NC gr 
 gsave  2268 1701 0 0 C 1449.33 512.065 t 0 r /Symbol findfont 73.1521 sf 0 0 m (-) show NC gr 
 gsave  2268 1701 0 0 C 1513.34 425.197 t 0 r /Times-Roman findfont 73.1521 sf 0 0 m ( < 14 GeV/c) show NC gr 
 gsave  2268 1701 0 0 C 1485.9 388.621 t 0 r /Times-Roman findfont 45.7201 sf 0 0 m (T) show NC gr 
 gsave  2268 1701 0 0 C 1449.33 425.197 t 0 r /Times-Roman findfont 73.1521 sf 0 0 m (p) show NC gr 
 gr  gr showpage
end
%%EOF
