%!PS-Adobe-2.0 EPSF-2.0
%%BoundingBox:  0 0 567 425
%%Title: result/TzFit/Aptz_c23.eps: 
%%Creator: ROOT Version 5.34/18
%%CreationDate: Mon Nov 30 22:56:53 2015
%%EndComments
%%BeginProlog
80 dict begin
/s {stroke} def /l {lineto} def /m {moveto} def /t {translate} def
/r {rotate} def /rl {roll}  def /R {repeat} def
/d {rlineto} def /rm {rmoveto} def /gr {grestore} def /f {eofill} def
/c {setrgbcolor} def /black {0 setgray} def /sd {setdash} def
/cl {closepath} def /sf {scalefont setfont} def /lw {setlinewidth} def
/box {m dup 0 exch d exch 0 d 0 exch neg d cl} def
/NC{systemdict begin initclip end}def/C{NC box clip newpath}def
/bl {box s} def /bf {box f} def /Y { 0 exch d} def /X { 0 d} def 
/K {{pop pop 0 moveto} exch kshow} bind def
/ita {/ang 15 def gsave [1 0 ang dup sin exch cos div 1 0 0] concat} def 
/mp {newpath /y exch def /x exch def} def
/side {[w .77 mul w .23 mul] .385 w mul sd w 0 l currentpoint t -144 r} def
/mr {mp x y w2 0 360 arc} def /m24 {mr s} def /m20 {mr f} def
/mb {mp x y w2 add m w2 neg 0 d 0 w neg d w 0 d 0 w d cl} def
/mt {mp x y w2 add m w2 neg w neg d w 0 d cl} def
/m21 {mb f} def /m25 {mb s} def /m22 {mt f} def /m26{mt s} def
/m23 {mp x y w2 sub m w2 w d w neg 0 d cl f} def
/m27 {mp x y w2 add m w3 neg w2 neg d w3 w2 neg d w3 w2 d cl s} def
/m28 {mp x w2 sub y w2 sub w3 add m w3 0 d  0 w3 neg d w3 0 d 0 w3 d w3 0 d  0 w3 d w3 neg 0 d 0 w3 d w3 neg 0 d 0 w3 neg d w3 neg 0 d cl s } def
/m29 {mp gsave x w2 sub y w2 add w3 sub m currentpoint t 4 {side} repeat cl fill gr} def
/m30 {mp gsave x w2 sub y w2 add w3 sub m currentpoint t 4 {side} repeat cl s gr} def
/m31 {mp x y w2 sub m 0 w d x w2 sub y m w 0 d x w2 sub y w2 add m w w neg d x w2 sub y w2 sub m w w d s} def
/m32 {mp x y w2 sub m w2 w d w neg 0 d cl s} def
/m33 {mp x y w2 add m w3 neg w2 neg d w3 w2 neg d w3 w2 d cl f} def
/m34 {mp x w2 sub y w2 sub w3 add m w3 0 d  0 w3 neg d w3 0 d 0 w3 d w3 0 d  0 w3 d w3 neg 0 d 0 w3 d w3 neg 0 d 0 w3 neg d w3 neg 0 d cl f } def
/m2 {mp x y w2 sub m 0 w d x w2 sub y m w 0 d s} def
/m5 {mp x w2 sub y w2 sub m w w d x w2 sub y w2 add m w w neg d s} def
/reEncode {exch findfont dup length dict begin {1 index /FID eq  {pop pop} {def} ifelse } forall /Encoding exch def currentdict end dup /FontName get exch definefont pop } def [/Times-Bold /Times-Italic /Times-BoldItalic /Helvetica /Helvetica-Oblique
 /Helvetica-Bold /Helvetica-BoldOblique /Courier /Courier-Oblique /Courier-Bold /Courier-BoldOblique /Times-Roman /AvantGarde-Book /AvantGarde-BookOblique /AvantGarde-Demi /AvantGarde-DemiOblique /Bookman-Demi /Bookman-DemiItalic /Bookman-Light
 /Bookman-LightItalic /Helvetica-Narrow /Helvetica-Narrow-Bold /Helvetica-Narrow-BoldOblique /Helvetica-Narrow-Oblique /NewCenturySchlbk-Roman /NewCenturySchlbk-Bold /NewCenturySchlbk-BoldItalic /NewCenturySchlbk-Italic /Palatino-Bold
 /Palatino-BoldItalic /Palatino-Italic /Palatino-Roman ] {ISOLatin1Encoding reEncode } forall
%%EndProlog
%%BeginSetup
%%EndSetup
newpath  gsave  .25 .25 scale  gsave  0 0 t black[  ] 0 sd 3 lw 1 1 1 c 2268 1701 0 0 bf black 1 1 1 c 1837 1344 317 238 bf black 1837 1344 317 238 bl 1 1 1 c 1837 1344 317 238 bf black 1837 1344 317 238 bl 317 238 m 1837 X s
 gsave  2268 1701 0 0 C 1984.25 59.4361 t 0 r /Times-Roman findfont 96.0122 sf 0 0 m ( [ps]) show NC gr 
 gsave  2268 1701 0 0 C 1952.25 36.5761 t 0 r /Times-Italic findfont 64.0081 sf 0 0 m (z) show NC gr 
 gsave  2268 1701 0 0 C 1920.24 59.4361 t 0 r /Times-Italic findfont 96.0122 sf 0 0 m (t) show NC gr  317 279 m -41 Y s 440 259 m -21 Y s 562 259 m -21 Y s 685 259 m -21 Y s 807 259 m -21 Y s 930 279 m -41 Y s 1052 259 m -21 Y s 1175 259 m -21 Y s
 1297 259 m -21 Y s 1420 259 m -21 Y s 1542 279 m -41 Y s 1665 259 m -21 Y s 1787 259 m -21 Y s 1909 259 m -21 Y s 2032 259 m -21 Y s 2154 279 m -41 Y s
 gsave  2268 1701 0 0 C 283.465 146.304 t 0 r /Times-Roman findfont 77.7242 sf 0 0 m (\2555) show NC gr 
 gsave  2268 1701 0 0 C 905.258 146.304 t 0 r /Times-Roman findfont 77.7242 sf 0 0 m (0) show NC gr 
 gsave  2268 1701 0 0 C 1522.48 146.304 t 0 r /Times-Roman findfont 77.7242 sf 0 0 m (5) show NC gr 
 gsave  2268 1701 0 0 C 2112.27 146.304 t 0 r /Times-Roman findfont 77.7242 sf 0 0 m (10) show NC gr  317 1582 m 1837 X s 317 1540 m 42 Y s 440 1561 m 21 Y s 562 1561 m 21 Y s 685 1561 m 21 Y s 807 1561 m 21 Y s 930 1540 m 42 Y s 1052 1561 m 21 Y s
 1175 1561 m 21 Y s 1297 1561 m 21 Y s 1420 1561 m 21 Y s 1542 1540 m 42 Y s 1665 1561 m 21 Y s 1787 1561 m 21 Y s 1909 1561 m 21 Y s 2032 1561 m 21 Y s 2154 1540 m 42 Y s 317 238 m 1344 Y s
 gsave  2268 1701 0 0 C 118.872 996.698 t 90 r /Times-Roman findfont 96.0122 sf 0 0 m (Candidates / ps) show NC gr  344 238 m -27 X s 344 288 m -27 X s 344 324 m -27 X s 344 352 m -27 X s 344 375 m -27 X s 344 394 m -27 X s 344 410 m -27 X s 344 425
 m -27 X s 371 438 m -54 X s
 gsave  2268 1701 0 0 C 297.071 405.055 t 0 r  -39 0 t /Times-Roman findfont 77.7242 sf 0 0 m (1) show NC gr  344 524 m -27 X s 344 574 m -27 X s 344 610 m -27 X s 344 638 m -27 X s 344 660 m -27 X s 344 680 m -27 X s 344 696 m -27 X s 344 711 m -27
 X s 371 724 m -54 X s
 gsave  2268 1701 0 0 C 297.071 690.995 t 0 r  -79 0 t /Times-Roman findfont 77.7242 sf 0 0 m (10) show NC gr  344 810 m -27 X s 344 860 m -27 X s 344 896 m -27 X s 344 924 m -27 X s 344 946 m -27 X s 344 966 m -27 X s 344 982 m -27 X s 344 997 m -27
 X s 371 1010 m -54 X s
 gsave  2268 1701 0 0 C 265.177 1005.84 t 0 r /Times-Roman findfont 54.8641 sf 0 0 m (2) show NC gr 
 gsave  2268 1701 0 0 C 187.452 973.838 t 0 r /Times-Roman findfont 77.7242 sf 0 0 m (10) show NC gr  344 1096 m -27 X s 344 1146 m -27 X s 344 1182 m -27 X s 344 1210 m -27 X s 344 1232 m -27 X s 344 1252 m -27 X s 344 1268 m -27 X s 344 1283 m -27
 X s 371 1296 m -54 X s
 gsave  2268 1701 0 0 C 265.177 1298.45 t 0 r /Times-Roman findfont 54.8641 sf 0 0 m (3) show NC gr 
 gsave  2268 1701 0 0 C 187.452 1261.87 t 0 r /Times-Roman findfont 77.7242 sf 0 0 m (10) show NC gr  344 1382 m -27 X s 344 1432 m -27 X s 344 1468 m -27 X s 344 1496 m -27 X s 344 1518 m -27 X s 344 1537 m -27 X s 344 1554 m -27 X s 344 1569 m -27
 X s 371 1582 m -54 X s
 gsave  2268 1701 0 0 C 265.177 1577.34 t 0 r /Times-Roman findfont 54.8641 sf 0 0 m (4) show NC gr 
 gsave  2268 1701 0 0 C 187.452 1545.34 t 0 r /Times-Roman findfont 77.7242 sf 0 0 m (10) show NC gr  2154 238 m 1344 Y s 2127 238 m 27 X s 2127 288 m 27 X s 2127 324 m 27 X s 2127 352 m 27 X s 2127 375 m 27 X s 2127 394 m 27 X s 2127 410 m 27 X s
 2127 425 m 27 X s 2101 438 m 53 X s 2127 524 m 27 X s 2127 574 m 27 X s 2127 610 m 27 X s 2127 638 m 27 X s 2127 660 m 27 X s 2127 680 m 27 X s 2127 696 m 27 X s 2127 711 m 27 X s 2101 724 m 53 X s 2127 810 m 27 X s 2127 860 m 27 X s 2127 896 m 27 X
 s 2127 924 m 27 X s 2127 946 m 27 X s 2127 966 m 27 X s 2127 982 m 27 X s 2127 997 m 27 X s 2101 1010 m 53 X s 2127 1096 m 27 X s 2127 1146 m 27 X s 2127 1182 m 27 X s 2127 1210 m 27 X s 2127 1232 m 27 X s 2127 1252 m 27 X s 2127 1268 m 27 X s 2127
 1283 m 27 X s 2101 1296 m 53 X s 2127 1382 m 27 X s 2127 1432 m 27 X s 2127 1468 m 27 X s 2127 1496 m 27 X s 2127 1518 m 27 X s 2127 1537 m 27 X s 2127 1554 m 27 X s 2127 1569 m 27 X s 2101 1582 m 53 X s 455 238 m -138 X s 317 238 m 9 Y s 455 238 m
 138 X s 593 238 m 9 Y s 455 238 m 116 Y s 446 354 m 18 X s 731 423 m -138 X s 593 414 m 18 Y s 731 423 m 138 X s 869 414 m 18 Y s 731 423 m 105 Y s 722 528 m 18 X s 731 423 m -129 Y s 722 294 m 18 X s 899 1256 m -30 X s 869 1247 m 19 Y s 899 1256 m
 31 X s 930 1247 m 19 Y s 899 1256 m 7 Y s 890 1263 m 18 X s 899 1256 m -6 Y s 890 1250 m 18 X s 942 1382 m -12 X s 930 1373 m 18 Y s 942 1382 m 12 X s 954 1373 m 18 Y s 942 1382 m 6 Y s 933 1388 m 18 X s 942 1382 m -6 Y s 933 1376 m 18 X s 967 1140
 m -13 X s 954 1131 m 18 Y s 967 1140 m 12 X s 979 1131 m 18 Y s 967 1140 m 17 Y s 957 1157 m 19 X s 967 1140 m -18 Y s 957 1122 m 19 X s 991 1003 m -12 X s 979 994 m 19 Y s 991 1003 m 12 X s 1003 994 m 19 Y s 991 1003 m 32 Y s 982 1035 m 18 X s 991
 1003 m -32 Y s 982 971 m 18 X s 1015 896 m -12 X s 1003 887 m 18 Y s 1015 896 m 13 X s 1028 887 m 18 Y s 1015 896 m 50 Y s 1006 946 m 19 X s 1015 896 m -53 Y s 1006 843 m 19 X s 1040 774 m -12 X s 1028 765 m 18 Y s 1040 774 m 12 X s 1052 765 m 18 Y
 s 1040 774 m 85 Y s 1031 859 m 18 X s 1040 774 m -97 Y s 1031 677 m 18 X s 1073 774 m -21 X s 1052 765 m 18 Y s 1073 774 m 20 X s 1093 765 m 18 Y s 1073 774 m 64 Y s 1063 838 m 19 X s 1073 774 m -70 Y s 1063 704 m 19 X s 1113 711 m -20 X s 1093 702
 m 18 Y s 1113 711 m 21 X s 1134 702 m 18 Y s 1113 711 m 84 Y s 1104 795 m 19 X s 1113 711 m -98 Y s 1104 613 m 19 X s 1154 574 m -20 X s 1134 565 m 19 Y s 1154 574 m 21 X s 1175 565 m 19 Y s 1154 574 m 149 Y s 1145 723 m 18 X s 1154 574 m -218 Y s
 1145 356 m 18 X s 1297 438 m -122 X s 1175 429 m 18 Y s 1297 438 m 123 X s 1420 429 m 18 Y s 1297 438 m 104 Y s 1288 542 m 18 X s 1297 438 m -129 Y s 1288 309 m 18 X s 1542 238 m -122 X s 1420 238 m 9 Y s 1542 238 m 123 X s 1665 238 m 9 Y s 1542 238
 m 131 Y s 1533 369 m 18 X s 1787 238 m -122 X s 1665 238 m 9 Y s 1787 238 m 122 X s 1909 238 m 9 Y s 1787 238 m 131 Y s 1778 369 m 18 X s 2032 238 m -123 X s 1909 238 m 9 Y s 2032 238 m 122 X s 2154 238 m 9 Y s 2032 238 m 131 Y s 2023 369 m 18 X s
 /w 37 def /w2 {w 2 div} def /w3 {w 3 div} def 731 423 899 1256 942 1382 967 1140 991 1003 1015 896 1040 774 1073 774 1113 711 1154 574 1297 438 11 { m20} R 0 0.8 0 c 9 lw black 0 0 1 c black 3 lw 0 0 1 c 1 lw << /PatternType 1 /PaintType 2
 /TilingType 1 /BBox [ 0 0 100 100 ] /XStep 98 /YStep 4 /PaintProc { begin gsave [1] 0 sd 2 4 m 99 4 l s 1 3 m 98 3 l s 2 2 m 99 2 l s 1 1 m 98 1 l s gr end } >> [ 4.0 0 0 4.0 0 0 ] makepattern /P01 exch def /cs {[/Pattern /DeviceRGB] setcolorspace}
 def /FA {f [/DeviceRGB] setcolorspace} def cs 0 0 1 P01 setcolor 820 238 m 12 94 d 18 158 d 19 170 d 9 93 d 9 99 d 4 51 d 5 52 d 5 53 d 2 28 d 2 28 d 3 31 d 2 34 d 2 38 d 2 45 d 3 51 d 2 55 d 2 56 d 3 51 d 2 40 d 2 25 d 3 2 d 2 -19 d 2 -37 d 2 -50 d
 3 -55 d 2 -56 d 2 -52 d 3 -46 d 2 -39 d 2 -35 d 2 -32 d 3 -29 d 2 -27 d 2 -27 d 5 -53 d 5 -52 d 9 -100 d 18 -184 d 18 -165 d 19 -155 d 5 -41 d FA 9 lw 1 0 0 c black 1 0 0 c 856 238 m 13 111 d s 869 349 m 18 182 d 9 99 d 5 51 d 4 53 d 5 56 d 2 31 d 2
 34 d 3 39 d 2 44 d 2 48 d 3 50 d 2 49 d 2 43 d 3 33 d 2 21 d 2 12 d 2 3 d 3 -2 d 2 -5 d 2 -8 d 3 -8 d 4 -20 d 2 -11 d 3 -10 d 2 -11 d 2 -11 d 3 -12 d 2 -11 d 2 -11 d 3 -12 d 2 -11 d 2 -12 d 2 -12 d 3 -11 d 4 -24 d 5 -24 d 5 -23 d 4 -24 d 5 -24 d 4
 -24 d 5 -24 d 4 -24 d 10 -48 d 9 -49 d 9 -48 d 9 -48 d 19 -97 d 18 -97 d 18 -97 d 19 -97 d 1 -9 d s 1 1 0 c black 1 1 0 c 890 238 m 6 66 d s 896 304 m 5 50 d 4 52 d 5 55 d 2 30 d 2 33 d 3 37 d 2 41 d 2 46 d 3 49 d 2 48 d 2 43 d 3 34 d 2 25 d 2 16 d
 2 8 d 3 5 d 2 1 d 2 X 3 -1 d 2 -2 d 2 -2 d 5 -4 d 4 -6 d 10 -11 d 9 -12 d 9 -12 d 9 -12 d 9 -13 d 9 -12 d 10 -13 d 9 -12 d 9 -13 d 9 -12 d 9 -13 d 10 -12 d 9 -13 d 9 -12 d 9 -13 d 9 -12 d 19 -25 d 18 -25 d 18 -25 d 19 -25 d 18 -25 d 19 -25 d 18 -25
 d 18 -25 d 19 -25 d 18 -25 d 18 -25 d 19 -24 d 18 -25 d 18 -25 d 19 -25 d 18 -25 d 19 -25 d 2 -3 d s 0 1 0 c black 0 1 0 c 598 238 m 13 8 d s 611 246 m 19 12 d 18 11 d 18 12 d 19 11 d 18 12 d 19 11 d 18 12 d 18 11 d 19 12 d 18 11 d 18 12 d 19 11 d
 18 11 d 19 12 d 18 11 d 9 5 d 5 2 d 4 2 d 5 1 d 4 X 3 -1 d 2 -2 d 2 -5 d 3 -9 d 2 -14 d 2 -23 d 3 -33 d 2 -41 d 2 -47 d 1 -15 d s 0 0 1 c black 0 0 1 c 598 238 m 13 8 d s 611 246 m 19 12 d 18 11 d 18 12 d 19 11 d 18 12 d 19 11 d 18 12 d 18 12 d 19
 14 d 18 18 d 18 28 d 19 52 d 18 94 d 19 140 d 9 86 d 9 94 d 4 50 d 5 51 d 5 52 d 2 28 d 2 28 d 3 30 d 2 34 d 2 38 d 2 43 d 3 50 d 2 55 d 2 55 d 3 52 d 2 41 d 2 25 d 3 4 d 2 -16 d 2 -32 d 2 -40 d 3 -44 d 2 -40 d 2 -34 d 3 -28 d 2 -23 d 2 -20 d 2 -17
 d 3 -16 d 2 -15 d 2 -15 d 5 -27 d 5 -26 d 4 -25 d 5 -24 d 9 -45 d 9 -41 d 9 -38 d 9 -36 d 19 -62 d 18 -52 d 19 -43 d 18 -36 d 18 -32 d 19 -29 d 18 -27 d 18 -26 d 19 -26 d 18 -25 d 19 -25 d 18 -26 d 18 -25 d 19 -25 d 18 -25 d 18 -25 d 19 -24 d 18 -25
 d 18 -25 d 19 -25 d 18 -25 d 19 -25 d 2 -3 d s black 3 lw 317 238 m 1837 X s 317 279 m -41 Y s 440 259 m -21 Y s 562 259 m -21 Y s 685 259 m -21 Y s 807 259 m -21 Y s 930 279 m -41 Y s 1052 259 m -21 Y s 1175 259 m -21 Y s 1297 259 m -21 Y s 1420
 259 m -21 Y s 1542 279 m -41 Y s 1665 259 m -21 Y s 1787 259 m -21 Y s 1909 259 m -21 Y s 2032 259 m -21 Y s 2154 279 m -41 Y s 317 1582 m 1837 X s 317 1540 m 42 Y s 440 1561 m 21 Y s 562 1561 m 21 Y s 685 1561 m 21 Y s 807 1561 m 21 Y s 930 1540 m
 42 Y s 1052 1561 m 21 Y s 1175 1561 m 21 Y s 1297 1561 m 21 Y s 1420 1561 m 21 Y s 1542 1540 m 42 Y s 1665 1561 m 21 Y s 1787 1561 m 21 Y s 1909 1561 m 21 Y s 2032 1561 m 21 Y s 2154 1540 m 42 Y s 317 238 m 1344 Y s 344 238 m -27 X s 344 288 m -27 X
 s 344 324 m -27 X s 344 352 m -27 X s 344 375 m -27 X s 344 394 m -27 X s 344 410 m -27 X s 344 425 m -27 X s 371 438 m -54 X s 344 524 m -27 X s 344 574 m -27 X s 344 610 m -27 X s 344 638 m -27 X s 344 660 m -27 X s 344 680 m -27 X s 344 696 m -27
 X s 344 711 m -27 X s 371 724 m -54 X s 344 810 m -27 X s 344 860 m -27 X s 344 896 m -27 X s 344 924 m -27 X s 344 946 m -27 X s 344 966 m -27 X s 344 982 m -27 X s 344 997 m -27 X s 371 1010 m -54 X s 344 1096 m -27 X s 344 1146 m -27 X s 344 1182
 m -27 X s 344 1210 m -27 X s 344 1232 m -27 X s 344 1252 m -27 X s 344 1268 m -27 X s 344 1283 m -27 X s 371 1296 m -54 X s 344 1382 m -27 X s 344 1432 m -27 X s 344 1468 m -27 X s 344 1496 m -27 X s 344 1518 m -27 X s 344 1537 m -27 X s 344 1554 m
 -27 X s 344 1569 m -27 X s 371 1582 m -54 X s 2154 238 m 1344 Y s 2127 238 m 27 X s 2127 288 m 27 X s 2127 324 m 27 X s 2127 352 m 27 X s 2127 375 m 27 X s 2127 394 m 27 X s 2127 410 m 27 X s 2127 425 m 27 X s 2101 438 m 53 X s 2127 524 m 27 X s
 2127 574 m 27 X s 2127 610 m 27 X s 2127 638 m 27 X s 2127 660 m 27 X s 2127 680 m 27 X s 2127 696 m 27 X s 2127 711 m 27 X s 2101 724 m 53 X s 2127 810 m 27 X s 2127 860 m 27 X s 2127 896 m 27 X s 2127 924 m 27 X s 2127 946 m 27 X s 2127 966 m 27 X
 s 2127 982 m 27 X s 2127 997 m 27 X s 2101 1010 m 53 X s 2127 1096 m 27 X s 2127 1146 m 27 X s 2127 1182 m 27 X s 2127 1210 m 27 X s 2127 1232 m 27 X s 2127 1252 m 27 X s 2127 1268 m 27 X s 2127 1283 m 27 X s 2101 1296 m 53 X s 2127 1382 m 27 X s
 2127 1432 m 27 X s 2127 1468 m 27 X s 2127 1496 m 27 X s 2127 1518 m 27 X s 2127 1537 m 27 X s 2127 1554 m 27 X s 2127 1569 m 27 X s 2101 1582 m 53 X s
 gsave  2268 1701 0 0 C 1819.66 1161.29 t 0 r /Times-Roman findfont 59.4361 sf 0 0 m ( = 5 TeV) show NC gr 
 gsave  2268 1701 0 0 C 1760.22 1143 t 0 r /Times-Italic findfont 36.5761 sf 0 0 m (NN) show NC gr 
 gsave  2268 1701 0 0 C 1737.36 1161.29 t 0 r /Times-Italic findfont 59.4361 sf 0 0 m (s) show NC gr  6 lw 1715 1189 m 9 -51 d s 0 lw 1724 1138 m 9 69 d s 1733 1207 m 87 X s
 gsave  2268 1701 0 0 C 1449.33 1161.29 t 0 r /Times-Roman findfont 59.4361 sf 0 0 m (pPb\(Bwd\) ) show NC gr 
 gsave  2268 1701 0 0 C 1449.33 1229.87 t 0 r /Times-Roman findfont 73.1521 sf 0 0 m (LHCb ) show NC gr 
 gsave  2268 1701 0 0 C 1783.08 918.974 t 0 r /Times-Roman findfont 73.1521 sf 0 0 m (2.5) show NC gr 
 gsave  2268 1701 0 0 C 1741.94 918.974 t 0 r /Symbol findfont 73.1521 sf 0 0 m (-) show NC gr 
 gsave  2268 1701 0 0 C 1682.5 918.974 t 0 r /Times-Roman findfont 73.1521 sf 0 0 m ( <) show NC gr 
 gsave  2268 1701 0 0 C 1645.92 918.974 t 0 r /Times-Italic findfont 73.1521 sf 0 0 m (y) show NC gr 
 gsave  2268 1701 0 0 C 1490.47 918.974 t 0 r /Times-Roman findfont 73.1521 sf 0 0 m (5.0< ) show NC gr 
 gsave  2268 1701 0 0 C 1449.33 918.974 t 0 r /Symbol findfont 73.1521 sf 0 0 m (-) show NC gr 
 gsave  2268 1701 0 0 C 1847.09 800.102 t 0 r /Times-Italic findfont 73.1521 sf 0 0 m (c) show NC gr 
 gsave  2268 1701 0 0 C 1517.91 800.102 t 0 r /Times-Roman findfont 73.1521 sf 0 0 m ( < 14 GeV/) show NC gr 
 gsave  2268 1701 0 0 C 1490.47 763.526 t 0 r /Times-Roman findfont 45.7201 sf 0 0 m (T) show NC gr 
 gsave  2268 1701 0 0 C 1449.33 800.102 t 0 r /Times-Italic findfont 73.1521 sf 0 0 m (p) show NC gr 
 gr  gr showpage
end
%%EOF
