%!PS-Adobe-2.0 EPSF-2.0
%%BoundingBox:  0 0 567 425
%%Title: result/TzFit/Aptz_c03.eps: 
%%Creator: ROOT Version 5.34/18
%%CreationDate: Mon Nov 30 22:56:53 2015
%%EndComments
%%BeginProlog
80 dict begin
/s {stroke} def /l {lineto} def /m {moveto} def /t {translate} def
/r {rotate} def /rl {roll}  def /R {repeat} def
/d {rlineto} def /rm {rmoveto} def /gr {grestore} def /f {eofill} def
/c {setrgbcolor} def /black {0 setgray} def /sd {setdash} def
/cl {closepath} def /sf {scalefont setfont} def /lw {setlinewidth} def
/box {m dup 0 exch d exch 0 d 0 exch neg d cl} def
/NC{systemdict begin initclip end}def/C{NC box clip newpath}def
/bl {box s} def /bf {box f} def /Y { 0 exch d} def /X { 0 d} def 
/K {{pop pop 0 moveto} exch kshow} bind def
/ita {/ang 15 def gsave [1 0 ang dup sin exch cos div 1 0 0] concat} def 
/mp {newpath /y exch def /x exch def} def
/side {[w .77 mul w .23 mul] .385 w mul sd w 0 l currentpoint t -144 r} def
/mr {mp x y w2 0 360 arc} def /m24 {mr s} def /m20 {mr f} def
/mb {mp x y w2 add m w2 neg 0 d 0 w neg d w 0 d 0 w d cl} def
/mt {mp x y w2 add m w2 neg w neg d w 0 d cl} def
/m21 {mb f} def /m25 {mb s} def /m22 {mt f} def /m26{mt s} def
/m23 {mp x y w2 sub m w2 w d w neg 0 d cl f} def
/m27 {mp x y w2 add m w3 neg w2 neg d w3 w2 neg d w3 w2 d cl s} def
/m28 {mp x w2 sub y w2 sub w3 add m w3 0 d  0 w3 neg d w3 0 d 0 w3 d w3 0 d  0 w3 d w3 neg 0 d 0 w3 d w3 neg 0 d 0 w3 neg d w3 neg 0 d cl s } def
/m29 {mp gsave x w2 sub y w2 add w3 sub m currentpoint t 4 {side} repeat cl fill gr} def
/m30 {mp gsave x w2 sub y w2 add w3 sub m currentpoint t 4 {side} repeat cl s gr} def
/m31 {mp x y w2 sub m 0 w d x w2 sub y m w 0 d x w2 sub y w2 add m w w neg d x w2 sub y w2 sub m w w d s} def
/m32 {mp x y w2 sub m w2 w d w neg 0 d cl s} def
/m33 {mp x y w2 add m w3 neg w2 neg d w3 w2 neg d w3 w2 d cl f} def
/m34 {mp x w2 sub y w2 sub w3 add m w3 0 d  0 w3 neg d w3 0 d 0 w3 d w3 0 d  0 w3 d w3 neg 0 d 0 w3 d w3 neg 0 d 0 w3 neg d w3 neg 0 d cl f } def
/m2 {mp x y w2 sub m 0 w d x w2 sub y m w 0 d s} def
/m5 {mp x w2 sub y w2 sub m w w d x w2 sub y w2 add m w w neg d s} def
/reEncode {exch findfont dup length dict begin {1 index /FID eq  {pop pop} {def} ifelse } forall /Encoding exch def currentdict end dup /FontName get exch definefont pop } def [/Times-Bold /Times-Italic /Times-BoldItalic /Helvetica /Helvetica-Oblique
 /Helvetica-Bold /Helvetica-BoldOblique /Courier /Courier-Oblique /Courier-Bold /Courier-BoldOblique /Times-Roman /AvantGarde-Book /AvantGarde-BookOblique /AvantGarde-Demi /AvantGarde-DemiOblique /Bookman-Demi /Bookman-DemiItalic /Bookman-Light
 /Bookman-LightItalic /Helvetica-Narrow /Helvetica-Narrow-Bold /Helvetica-Narrow-BoldOblique /Helvetica-Narrow-Oblique /NewCenturySchlbk-Roman /NewCenturySchlbk-Bold /NewCenturySchlbk-BoldItalic /NewCenturySchlbk-Italic /Palatino-Bold
 /Palatino-BoldItalic /Palatino-Italic /Palatino-Roman ] {ISOLatin1Encoding reEncode } forall
%%EndProlog
%%BeginSetup
%%EndSetup
newpath  gsave  .25 .25 scale  gsave  0 0 t black[  ] 0 sd 3 lw 1 1 1 c 2268 1701 0 0 bf black 1 1 1 c 1837 1344 317 238 bf black 1837 1344 317 238 bl 1 1 1 c 1837 1344 317 238 bf black 1837 1344 317 238 bl 317 238 m 1837 X s
 gsave  2268 1701 0 0 C 2125.98 59.4361 t 0 r /Times-Roman findfont 96.0122 sf 0 0 m (]) show NC gr 
 gsave  2268 1701 0 0 C 2093.98 86.8682 t 0 r /Times-Roman findfont 64.0081 sf 0 0 m (2) show NC gr 
 gsave  2268 1701 0 0 C 2048.26 59.4361 t 0 r /Times-Italic findfont 96.0122 sf 0 0 m (c) show NC gr 
 gsave  2268 1701 0 0 C 1764.8 59.4361 t 0 r /Times-Roman findfont 96.0122 sf 0 0 m ( [MeV/) show NC gr 
 gsave  2268 1701 0 0 C 1728.22 36.5761 t 0 r /Symbol findfont 64.0081 sf 0 0 m (m) show NC gr 
 gsave  2268 1701 0 0 C 1691.64 36.5761 t 0 r /Symbol findfont 64.0081 sf 0 0 m (m) show NC gr 
 gsave  2268 1701 0 0 C 1623.06 59.4361 t 0 r /Times-Italic findfont 96.0122 sf 0 0 m (m) show NC gr  698 279 m -41 Y s 824 259 m -21 Y s 951 259 m -21 Y s 1078 259 m -21 Y s 1204 259 m -21 Y s 1331 279 m -41 Y s 1458 259 m -21 Y s 1584 259 m -21 Y s
 1711 259 m -21 Y s 1838 259 m -21 Y s 1964 279 m -41 Y s 698 279 m -41 Y s 571 259 m -21 Y s 444 259 m -21 Y s 317 259 m -21 Y s 1964 279 m -41 Y s 2091 259 m -21 Y s
 gsave  2268 1701 0 0 C 617.221 146.304 t 0 r /Times-Roman findfont 77.7242 sf 0 0 m (3600) show NC gr 
 gsave  2268 1701 0 0 C 1252.73 146.304 t 0 r /Times-Roman findfont 77.7242 sf 0 0 m (3700) show NC gr 
 gsave  2268 1701 0 0 C 1883.67 146.304 t 0 r /Times-Roman findfont 77.7242 sf 0 0 m (3800) show NC gr  317 1582 m 1837 X s 698 1540 m 42 Y s 824 1561 m 21 Y s 951 1561 m 21 Y s 1078 1561 m 21 Y s 1204 1561 m 21 Y s 1331 1540 m 42 Y s 1458 1561 m 21
 Y s 1584 1561 m 21 Y s 1711 1561 m 21 Y s 1838 1561 m 21 Y s 1964 1540 m 42 Y s 698 1540 m 42 Y s 571 1561 m 21 Y s 444 1561 m 21 Y s 317 1561 m 21 Y s 1964 1540 m 42 Y s 2091 1561 m 21 Y s 317 238 m 1344 Y s
 gsave  2268 1701 0 0 C 86.8682 1554.48 t 90 r /Times-Roman findfont 96.0122 sf 0 0 m (\)) show NC gr 
 gsave  2268 1701 0 0 C 59.4361 1522.48 t 90 r /Times-Roman findfont 64.0081 sf 0 0 m (2) show NC gr 
 gsave  2268 1701 0 0 C 86.8682 1476.76 t 90 r /Times-Italic findfont 96.0122 sf 0 0 m (c) show NC gr 
 gsave  2268 1701 0 0 C 82.2962 594.361 t 90 r /Times-Roman findfont 96.0122 sf 0 0 m (Candidates / \(10 MeV/) show NC gr  371 238 m -54 X s 344 290 m -27 X s 344 341 m -27 X s 344 393 m -27 X s 371 445 m -54 X s 344 496 m -27 X s 344 548 m -27 X s
 344 600 m -27 X s 371 652 m -54 X s 344 703 m -27 X s 344 755 m -27 X s 344 807 m -27 X s 371 858 m -54 X s 344 910 m -27 X s 344 962 m -27 X s 344 1013 m -27 X s 371 1065 m -54 X s 344 1117 m -27 X s 344 1168 m -27 X s 344 1220 m -27 X s 371 1272 m
 -54 X s 344 1323 m -27 X s 344 1375 m -27 X s 344 1427 m -27 X s 371 1478 m -54 X s 371 1478 m -54 X s 344 1530 m -27 X s
 gsave  2268 1701 0 0 C 260.605 214.884 t 0 r /Times-Roman findfont 77.7242 sf 0 0 m (0) show NC gr 
 gsave  2268 1701 0 0 C 224.028 420.625 t 0 r /Times-Roman findfont 77.7242 sf 0 0 m (20) show NC gr 
 gsave  2268 1701 0 0 C 224.028 626.365 t 0 r /Times-Roman findfont 77.7242 sf 0 0 m (40) show NC gr 
 gsave  2268 1701 0 0 C 224.028 832.106 t 0 r /Times-Roman findfont 77.7242 sf 0 0 m (60) show NC gr 
 gsave  2268 1701 0 0 C 224.028 1037.85 t 0 r /Times-Roman findfont 77.7242 sf 0 0 m (80) show NC gr 
 gsave  2268 1701 0 0 C 182.88 1248.16 t 0 r /Times-Roman findfont 77.7242 sf 0 0 m (100) show NC gr 
 gsave  2268 1701 0 0 C 182.88 1453.9 t 0 r /Times-Roman findfont 77.7242 sf 0 0 m (120) show NC gr  2154 238 m 1344 Y s 2101 238 m 53 X s 2127 290 m 27 X s 2127 341 m 27 X s 2127 393 m 27 X s 2101 445 m 53 X s 2127 496 m 27 X s 2127 548 m 27 X s
 2127 600 m 27 X s 2101 652 m 53 X s 2127 703 m 27 X s 2127 755 m 27 X s 2127 807 m 27 X s 2101 858 m 53 X s 2127 910 m 27 X s 2127 962 m 27 X s 2127 1013 m 27 X s 2101 1065 m 53 X s 2127 1117 m 27 X s 2127 1168 m 27 X s 2127 1220 m 27 X s 2101 1272
 m 53 X s 2127 1323 m 27 X s 2127 1375 m 27 X s 2127 1427 m 27 X s 2101 1478 m 53 X s 2101 1478 m 53 X s 2127 1530 m 27 X s 349 838 m -32 X s 317 828 m 19 Y s 349 838 m 32 X s 381 828 m 19 Y s 349 838 m 89 Y s 340 927 m 18 X s 349 838 m -79 Y s 340
 759 m 18 X s 412 1024 m -31 X s 381 1014 m 19 Y s 412 1024 m 32 X s 444 1014 m 19 Y s 412 1024 m 100 Y s 403 1124 m 19 X s 412 1024 m -90 Y s 403 934 m 19 X s 476 1013 m -32 X s 444 1004 m 18 Y s 476 1013 m 31 X s 507 1004 m 18 Y s 476 1013 m 101 Y
 s 467 1114 m 18 X s 476 1013 m -89 Y s 467 924 m 18 X s 539 889 m -32 X s 507 880 m 18 Y s 539 889 m 32 X s 571 880 m 18 Y s 539 889 m 93 Y s 530 982 m 18 X s 539 889 m -82 Y s 530 807 m 18 X s 603 1024 m -32 X s 571 1014 m 19 Y s 603 1024 m 31 X s
 634 1014 m 19 Y s 603 1024 m 100 Y s 593 1124 m 19 X s 603 1024 m -90 Y s 593 934 m 19 X s 666 827 m -32 X s 634 818 m 18 Y s 666 827 m 32 X s 698 818 m 18 Y s 666 827 m 89 Y s 657 916 m 18 X s 666 827 m -78 Y s 657 749 m 18 X s 729 1003 m -31 X s
 698 994 m 18 Y s 729 1003 m 32 X s 761 994 m 18 Y s 729 1003 m 100 Y s 720 1103 m 18 X s 729 1003 m -89 Y s 720 914 m 18 X s 793 920 m -32 X s 761 911 m 18 Y s 793 920 m 31 X s 824 911 m 18 Y s 793 920 m 95 Y s 783 1015 m 19 X s 793 920 m -83 Y s
 783 837 m 19 X s 856 1137 m -32 X s 824 1128 m 18 Y s 856 1137 m 32 X s 888 1128 m 18 Y s 856 1137 m 107 Y s 847 1244 m 18 X s 856 1137 m -96 Y s 847 1041 m 18 X s 919 858 m -31 X s 888 849 m 18 Y s 919 858 m 32 X s 951 849 m 18 Y s 919 858 m 91 Y s
 910 949 m 18 X s 919 858 m -80 Y s 910 778 m 18 X s 983 858 m -32 X s 951 849 m 18 Y s 983 858 m 31 X s 1014 849 m 18 Y s 983 858 m 91 Y s 973 949 m 19 X s 983 858 m -80 Y s 973 778 m 19 X s 1046 993 m -32 X s 1014 983 m 19 Y s 1046 993 m 32 X s
 1078 983 m 19 Y s 1046 993 m 99 Y s 1037 1092 m 18 X s 1046 993 m -88 Y s 1037 905 m 18 X s 1109 910 m -31 X s 1078 901 m 18 Y s 1109 910 m 32 X s 1141 901 m 18 Y s 1109 910 m 94 Y s 1100 1004 m 18 X s 1109 910 m -83 Y s 1100 827 m 18 X s 1173 1117
 m -32 X s 1141 1107 m 19 Y s 1173 1117 m 31 X s 1204 1107 m 19 Y s 1173 1117 m 106 Y s 1163 1223 m 19 X s 1173 1117 m -95 Y s 1163 1022 m 19 X s 1236 1261 m -32 X s 1204 1252 m 18 Y s 1236 1261 m 32 X s 1268 1252 m 18 Y s 1236 1261 m 114 Y s 1227
 1375 m 18 X s 1236 1261 m -102 Y s 1227 1159 m 18 X s 1299 1106 m -31 X s 1268 1097 m 18 Y s 1299 1106 m 32 X s 1331 1097 m 18 Y s 1299 1106 m 106 Y s 1290 1212 m 18 X s 1299 1106 m -94 Y s 1290 1012 m 18 X s 1363 1034 m -32 X s 1331 1025 m 18 Y s
 1363 1034 m 31 X s 1394 1025 m 18 Y s 1363 1034 m 101 Y s 1353 1135 m 19 X s 1363 1034 m -91 Y s 1353 943 m 19 X s 1426 951 m -32 X s 1394 942 m 18 Y s 1426 951 m 32 X s 1458 942 m 18 Y s 1426 951 m 97 Y s 1417 1048 m 18 X s 1426 951 m -85 Y s 1417
 866 m 18 X s 1489 920 m -31 X s 1458 911 m 18 Y s 1489 920 m 32 X s 1521 911 m 18 Y s 1489 920 m 95 Y s 1480 1015 m 18 X s 1489 920 m -83 Y s 1480 837 m 18 X s 1553 879 m -32 X s 1521 870 m 18 Y s 1553 879 m 31 X s 1584 870 m 18 Y s 1553 879 m 92 Y
 s 1543 971 m 19 X s 1553 879 m -81 Y s 1543 798 m 19 X s 1616 900 m -32 X s 1584 890 m 19 Y s 1616 900 m 32 X s 1648 890 m 19 Y s 1616 900 m 93 Y s 1607 993 m 18 X s 1616 900 m -83 Y s 1607 817 m 18 X s 1679 714 m -31 X s 1648 704 m 19 Y s 1679 714
 m 32 X s 1711 704 m 19 Y s 1679 714 m 80 Y s 1670 794 m 18 X s 1679 714 m -70 Y s 1670 644 m 18 X s 1743 962 m -32 X s 1711 952 m 19 Y s 1743 962 m 31 X s 1774 952 m 19 Y s 1743 962 m 97 Y s 1733 1059 m 19 X s 1743 962 m -87 Y s 1733 875 m 19 X s
 1806 972 m -32 X s 1774 963 m 18 Y s 1806 972 m 32 X s 1838 963 m 18 Y s 1806 972 m 98 Y s 1797 1070 m 18 X s 1806 972 m -87 Y s 1797 885 m 18 X s 1869 827 m -31 X s 1838 818 m 18 Y s 1869 827 m 32 X s 1901 818 m 18 Y s 1869 827 m 89 Y s 1860 916 m
 18 X s 1869 827 m -78 Y s 1860 749 m 18 X s 1933 776 m -32 X s 1901 766 m 19 Y s 1933 776 m 31 X s 1964 766 m 19 Y s 1933 776 m 85 Y s 1923 861 m 19 X s 1933 776 m -75 Y s 1923 701 m 19 X s 1996 776 m -32 X s 1964 766 m 19 Y s 1996 776 m 32 X s 2028
 766 m 19 Y s 1996 776 m 85 Y s 1987 861 m 18 X s 1996 776 m -75 Y s 1987 701 m 18 X s 2059 920 m -31 X s 2028 911 m 18 Y s 2059 920 m 32 X s 2091 911 m 18 Y s 2059 920 m 95 Y s 2050 1015 m 18 X s 2059 920 m -83 Y s 2050 837 m 18 X s 2123 910 m -32 X
 s 2091 901 m 18 Y s 2123 910 m 31 X s 2154 901 m 18 Y s 2123 910 m 94 Y s 2114 1004 m 18 X s 2123 910 m -83 Y s 2114 827 m 18 X s /w 37 def /w2 {w 2 div} def /w3 {w 3 div} def 349 838 412 1024 476 1013 539 889 603 1024 666 827 729 1003 793 920 856
 1137 919 858 983 858 1046 993 1109 910 1173 1117 1236 1261 1299 1106 1363 1034 1426 951 1489 920 1553 879 1616 900 1679 714 1743 962 1806 972 1869 827 1933 776 1996 776 2059 920 2123 910 29 { m20} R 0 0.8 0 c[ 12 12] 0 sd 9 lw black[  ] 0 sd 0 0.8 0
 c 2154 249 m -11 -11 d s 2154 307 m -69 -69 d s 2154 365 m -126 -127 d s 2154 423 m -184 -185 d s 2154 480 m -242 -242 d s 2154 538 m -300 -300 d s 2154 596 m -357 -358 d s 2154 653 m -415 -415 d s 2154 711 m -473 -473 d s 2154 769 m -530 -531 d s
 2154 827 m -588 -589 d s 2124 854 m -616 -616 d s 2069 857 m -619 -619 d s 2014 860 m -621 -622 d s 1960 863 m -625 -625 d s 1905 866 m -628 -628 d s 1850 869 m -631 -631 d s 1796 872 m -634 -634 d s 1741 875 m -637 -637 d s 1686 878 m -640 -640 d s
 1632 881 m -643 -643 d s 1577 885 m -646 -647 d s 1523 888 m -650 -650 d s 1468 891 m -653 -653 d s 1414 894 m -656 -656 d s 1359 897 m -659 -659 d s 1305 900 m -663 -662 d s 1250 904 m -666 -666 d s 1196 907 m -669 -669 d s 1141 910 m -672 -672 d s
 1087 914 m -676 -676 d s 1032 917 m -678 -679 d s 978 920 m -661 -660 d s 923 923 m -606 -606 d s 869 927 m -552 -552 d s 815 930 m -498 -497 d s 760 934 m -443 -443 d s 706 937 m -389 -389 d s 652 940 m -335 -334 d s 597 944 m -280 -280 d s 543 947
 m -226 -225 d s 489 951 m -172 -172 d s 435 954 m -118 -117 d s 380 958 m -63 -63 d s 326 961 m -9 -9 d s[ 12 12] 0 sd 0 0 1 c black 0 0 1 c 317 240 m cl s 317 240 m 221 X 18 1 d 147 X 19 1 d 73 X 18 1 d 56 X 18 1 d 18 X 19 1 d 18 1 d 18 X 19 1 d 18
 2 d 18 1 d 19 2 d 18 4 d 9 2 d 10 3 d 9 4 d 9 6 d 5 4 d 4 4 d 9 11 d 10 13 d 9 15 d 9 17 d 9 19 d 9 21 d 9 23 d 19 47 d 9 23 d 9 23 d 9 21 d 5 10 d 5 9 d 4 8 d 5 8 d 4 6 d 5 6 d 4 4 d 5 3 d 5 2 d 4 1 d 5 X 4 -1 d 5 -3 d 5 -3 d 4 -5 d 5 -6 d 4 -6 d 5
 -8 d 5 -8 d 4 -10 d 9 -20 d 10 -22 d 9 -24 d 18 -47 d 9 -23 d 9 -21 d 10 -20 d 9 -18 d 9 -16 d 9 -13 d 9 -12 d 10 -10 d 9 -8 d 9 -6 d 9 -5 d 9 -4 d 10 -4 d 9 -2 d 18 -3 d 18 -1 d 19 -1 d 18 -1 d 606 X s 1 0 0 c[  ] 0 sd black 1 0 0 c 317 963 m cl s
 317 963 m 19 -1 d 18 -1 d 19 -1 d 18 -1 d 18 -1 d 19 -1 d 18 -2 d 18 -1 d 19 -1 d 18 -1 d 19 -1 d 18 -1 d 18 -1 d 19 -1 d 18 -1 d 18 -1 d 19 -1 d 18 -1 d 18 -2 d 19 -1 d 18 -1 d 19 -1 d 18 -1 d 18 -1 d 19 X 18 -1 d 18 -1 d 19 -1 d 18 -1 d 19 -1 d 18
 -1 d 18 X 19 -1 d 18 X 18 -1 d 37 X 18 1 d 19 1 d 18 2 d 19 4 d 9 4 d 9 5 d 5 4 d 4 4 d 9 11 d 10 12 d 9 14 d 9 17 d 9 18 d 9 21 d 9 21 d 19 47 d 9 23 d 9 22 d 9 21 d 10 18 d 4 8 d 5 7 d 4 6 d 5 5 d 4 4 d 5 3 d 5 2 d 4 1 d 5 -1 d 4 -1 d 5 -3 d 5 -4
 d 4 -5 d 5 -6 d 4 -7 d 5 -8 d 9 -18 d 9 -21 d 10 -23 d 9 -24 d 18 -48 d 9 -24 d 9 -22 d 10 -20 d 9 -18 d 9 -16 d 9 -15 d 9 -12 d 10 -10 d 9 -9 d 9 -7 d 9 -5 d 9 -5 d 19 -6 d 18 -5 d 18 -2 d 19 -2 d 18 -2 d 19 -1 d 18 -1 d 18 -1 d 19 -1 d 18 -1 d 18
 -1 d 19 -1 d 18 -1 d 18 -1 d 19 -1 d 18 -1 d 19 -1 d 18 -2 d 18 -1 d 19 -1 d 18 -1 d 18 -1 d 19 -1 d 18 -1 d 19 -1 d 18 -1 d 18 -1 d 19 -1 d 18 -1 d 18 -1 d 19 -1 d 18 -1 d 18 -1 d 19 -1 d 18 -1 d 19 -1 d 18 -1 d 18 -1 d s black 3 lw 317 238 m 1837
 X s 698 279 m -41 Y s 824 259 m -21 Y s 951 259 m -21 Y s 1078 259 m -21 Y s 1204 259 m -21 Y s 1331 279 m -41 Y s 1458 259 m -21 Y s 1584 259 m -21 Y s 1711 259 m -21 Y s 1838 259 m -21 Y s 1964 279 m -41 Y s 698 279 m -41 Y s 571 259 m -21 Y s 444
 259 m -21 Y s 317 259 m -21 Y s 1964 279 m -41 Y s 2091 259 m -21 Y s 317 1582 m 1837 X s 698 1540 m 42 Y s 824 1561 m 21 Y s 951 1561 m 21 Y s 1078 1561 m 21 Y s 1204 1561 m 21 Y s 1331 1540 m 42 Y s 1458 1561 m 21 Y s 1584 1561 m 21 Y s 1711 1561
 m 21 Y s 1838 1561 m 21 Y s 1964 1540 m 42 Y s 698 1540 m 42 Y s 571 1561 m 21 Y s 444 1561 m 21 Y s 317 1561 m 21 Y s 1964 1540 m 42 Y s 2091 1561 m 21 Y s 317 238 m 1344 Y s 371 238 m -54 X s 344 290 m -27 X s 344 341 m -27 X s 344 393 m -27 X s
 371 445 m -54 X s 344 496 m -27 X s 344 548 m -27 X s 344 600 m -27 X s 371 652 m -54 X s 344 703 m -27 X s 344 755 m -27 X s 344 807 m -27 X s 371 858 m -54 X s 344 910 m -27 X s 344 962 m -27 X s 344 1013 m -27 X s 371 1065 m -54 X s 344 1117 m
 -27 X s 344 1168 m -27 X s 344 1220 m -27 X s 371 1272 m -54 X s 344 1323 m -27 X s 344 1375 m -27 X s 344 1427 m -27 X s 371 1478 m -54 X s 371 1478 m -54 X s 344 1530 m -27 X s 2154 238 m 1344 Y s 2101 238 m 53 X s 2127 290 m 27 X s 2127 341 m 27
 X s 2127 393 m 27 X s 2101 445 m 53 X s 2127 496 m 27 X s 2127 548 m 27 X s 2127 600 m 27 X s 2101 652 m 53 X s 2127 703 m 27 X s 2127 755 m 27 X s 2127 807 m 27 X s 2101 858 m 53 X s 2127 910 m 27 X s 2127 962 m 27 X s 2127 1013 m 27 X s 2101 1065
 m 53 X s 2127 1117 m 27 X s 2127 1168 m 27 X s 2127 1220 m 27 X s 2101 1272 m 53 X s 2127 1323 m 27 X s 2127 1375 m 27 X s 2127 1427 m 27 X s 2101 1478 m 53 X s 2101 1478 m 53 X s 2127 1530 m 27 X s
 gsave  2268 1701 0 0 C 868.682 1367.03 t 0 r /Times-Roman findfont 59.4361 sf 0 0 m ( = 5 TeV) show NC gr 
 gsave  2268 1701 0 0 C 809.246 1348.74 t 0 r /Times-Italic findfont 36.5761 sf 0 0 m (NN) show NC gr 
 gsave  2268 1701 0 0 C 786.386 1367.03 t 0 r /Times-Italic findfont 59.4361 sf 0 0 m (s) show NC gr  6 lw 764 1394 m 9 -50 d s 0 lw 773 1344 m 9 69 d s 782 1413 m 87 X s
 gsave  2268 1701 0 0 C 498.349 1367.03 t 0 r /Times-Roman findfont 59.4361 sf 0 0 m (pPb\(Bwd\) ) show NC gr 
 gsave  2268 1701 0 0 C 498.349 1435.61 t 0 r /Times-Roman findfont 73.1521 sf 0 0 m (LHCb ) show NC gr 
 gsave  2268 1701 0 0 C 1783.08 1463.04 t 0 r /Times-Roman findfont 73.1521 sf 0 0 m (2.5) show NC gr 
 gsave  2268 1701 0 0 C 1741.94 1463.04 t 0 r /Symbol findfont 73.1521 sf 0 0 m (-) show NC gr 
 gsave  2268 1701 0 0 C 1682.5 1463.04 t 0 r /Times-Roman findfont 73.1521 sf 0 0 m ( <) show NC gr 
 gsave  2268 1701 0 0 C 1645.92 1463.04 t 0 r /Times-Italic findfont 73.1521 sf 0 0 m (y) show NC gr 
 gsave  2268 1701 0 0 C 1490.47 1463.04 t 0 r /Times-Roman findfont 73.1521 sf 0 0 m (5.0< ) show NC gr 
 gsave  2268 1701 0 0 C 1449.33 1463.04 t 0 r /Symbol findfont 73.1521 sf 0 0 m (-) show NC gr 
 gsave  2268 1701 0 0 C 1847.09 1344.17 t 0 r /Times-Italic findfont 73.1521 sf 0 0 m (c) show NC gr 
 gsave  2268 1701 0 0 C 1517.91 1344.17 t 0 r /Times-Roman findfont 73.1521 sf 0 0 m ( < 14 GeV/) show NC gr 
 gsave  2268 1701 0 0 C 1490.47 1307.59 t 0 r /Times-Roman findfont 45.7201 sf 0 0 m (T) show NC gr 
 gsave  2268 1701 0 0 C 1449.33 1344.17 t 0 r /Times-Italic findfont 73.1521 sf 0 0 m (p) show NC gr 
 gr  gr showpage
end
%%EOF
