%!PS-Adobe-2.0 EPSF-2.0
%%BoundingBox:  0 0 567 425
%%Title: result/TzFit/Aptz_c13.eps: 
%%Creator: ROOT Version 5.34/18
%%CreationDate: Mon Nov 30 22:56:53 2015
%%EndComments
%%BeginProlog
80 dict begin
/s {stroke} def /l {lineto} def /m {moveto} def /t {translate} def
/r {rotate} def /rl {roll}  def /R {repeat} def
/d {rlineto} def /rm {rmoveto} def /gr {grestore} def /f {eofill} def
/c {setrgbcolor} def /black {0 setgray} def /sd {setdash} def
/cl {closepath} def /sf {scalefont setfont} def /lw {setlinewidth} def
/box {m dup 0 exch d exch 0 d 0 exch neg d cl} def
/NC{systemdict begin initclip end}def/C{NC box clip newpath}def
/bl {box s} def /bf {box f} def /Y { 0 exch d} def /X { 0 d} def 
/K {{pop pop 0 moveto} exch kshow} bind def
/ita {/ang 15 def gsave [1 0 ang dup sin exch cos div 1 0 0] concat} def 
/mp {newpath /y exch def /x exch def} def
/side {[w .77 mul w .23 mul] .385 w mul sd w 0 l currentpoint t -144 r} def
/mr {mp x y w2 0 360 arc} def /m24 {mr s} def /m20 {mr f} def
/mb {mp x y w2 add m w2 neg 0 d 0 w neg d w 0 d 0 w d cl} def
/mt {mp x y w2 add m w2 neg w neg d w 0 d cl} def
/m21 {mb f} def /m25 {mb s} def /m22 {mt f} def /m26{mt s} def
/m23 {mp x y w2 sub m w2 w d w neg 0 d cl f} def
/m27 {mp x y w2 add m w3 neg w2 neg d w3 w2 neg d w3 w2 d cl s} def
/m28 {mp x w2 sub y w2 sub w3 add m w3 0 d  0 w3 neg d w3 0 d 0 w3 d w3 0 d  0 w3 d w3 neg 0 d 0 w3 d w3 neg 0 d 0 w3 neg d w3 neg 0 d cl s } def
/m29 {mp gsave x w2 sub y w2 add w3 sub m currentpoint t 4 {side} repeat cl fill gr} def
/m30 {mp gsave x w2 sub y w2 add w3 sub m currentpoint t 4 {side} repeat cl s gr} def
/m31 {mp x y w2 sub m 0 w d x w2 sub y m w 0 d x w2 sub y w2 add m w w neg d x w2 sub y w2 sub m w w d s} def
/m32 {mp x y w2 sub m w2 w d w neg 0 d cl s} def
/m33 {mp x y w2 add m w3 neg w2 neg d w3 w2 neg d w3 w2 d cl f} def
/m34 {mp x w2 sub y w2 sub w3 add m w3 0 d  0 w3 neg d w3 0 d 0 w3 d w3 0 d  0 w3 d w3 neg 0 d 0 w3 d w3 neg 0 d 0 w3 neg d w3 neg 0 d cl f } def
/m2 {mp x y w2 sub m 0 w d x w2 sub y m w 0 d s} def
/m5 {mp x w2 sub y w2 sub m w w d x w2 sub y w2 add m w w neg d s} def
/reEncode {exch findfont dup length dict begin {1 index /FID eq  {pop pop} {def} ifelse } forall /Encoding exch def currentdict end dup /FontName get exch definefont pop } def [/Times-Bold /Times-Italic /Times-BoldItalic /Helvetica /Helvetica-Oblique
 /Helvetica-Bold /Helvetica-BoldOblique /Courier /Courier-Oblique /Courier-Bold /Courier-BoldOblique /Times-Roman /AvantGarde-Book /AvantGarde-BookOblique /AvantGarde-Demi /AvantGarde-DemiOblique /Bookman-Demi /Bookman-DemiItalic /Bookman-Light
 /Bookman-LightItalic /Helvetica-Narrow /Helvetica-Narrow-Bold /Helvetica-Narrow-BoldOblique /Helvetica-Narrow-Oblique /NewCenturySchlbk-Roman /NewCenturySchlbk-Bold /NewCenturySchlbk-BoldItalic /NewCenturySchlbk-Italic /Palatino-Bold
 /Palatino-BoldItalic /Palatino-Italic /Palatino-Roman ] {ISOLatin1Encoding reEncode } forall
%%EndProlog
%%BeginSetup
%%EndSetup
newpath  gsave  .25 .25 scale  gsave  0 0 t black[  ] 0 sd 3 lw 1 1 1 c 2268 1701 0 0 bf black 1 1 1 c 1837 1344 317 238 bf black 1837 1344 317 238 bl 1 1 1 c 1837 1344 317 238 bf black 1837 1344 317 238 bl 317 238 m 1837 X s
 gsave  2268 1701 0 0 C 1984.25 59.4361 t 0 r /Times-Roman findfont 96.0122 sf 0 0 m ( [ps]) show NC gr 
 gsave  2268 1701 0 0 C 1952.25 36.5761 t 0 r /Times-Italic findfont 64.0081 sf 0 0 m (z) show NC gr 
 gsave  2268 1701 0 0 C 1920.24 59.4361 t 0 r /Times-Italic findfont 96.0122 sf 0 0 m (t) show NC gr  317 279 m -41 Y s 440 259 m -21 Y s 562 259 m -21 Y s 685 259 m -21 Y s 807 259 m -21 Y s 930 279 m -41 Y s 1052 259 m -21 Y s 1175 259 m -21 Y s
 1297 259 m -21 Y s 1420 259 m -21 Y s 1542 279 m -41 Y s 1665 259 m -21 Y s 1787 259 m -21 Y s 1909 259 m -21 Y s 2032 259 m -21 Y s 2154 279 m -41 Y s
 gsave  2268 1701 0 0 C 283.465 146.304 t 0 r /Times-Roman findfont 77.7242 sf 0 0 m (\2555) show NC gr 
 gsave  2268 1701 0 0 C 905.258 146.304 t 0 r /Times-Roman findfont 77.7242 sf 0 0 m (0) show NC gr 
 gsave  2268 1701 0 0 C 1522.48 146.304 t 0 r /Times-Roman findfont 77.7242 sf 0 0 m (5) show NC gr 
 gsave  2268 1701 0 0 C 2112.27 146.304 t 0 r /Times-Roman findfont 77.7242 sf 0 0 m (10) show NC gr  317 1582 m 1837 X s 317 1540 m 42 Y s 440 1561 m 21 Y s 562 1561 m 21 Y s 685 1561 m 21 Y s 807 1561 m 21 Y s 930 1540 m 42 Y s 1052 1561 m 21 Y s
 1175 1561 m 21 Y s 1297 1561 m 21 Y s 1420 1561 m 21 Y s 1542 1540 m 42 Y s 1665 1561 m 21 Y s 1787 1561 m 21 Y s 1909 1561 m 21 Y s 2032 1561 m 21 Y s 2154 1540 m 42 Y s 317 238 m 1344 Y s
 gsave  2268 1701 0 0 C 118.872 996.698 t 90 r /Times-Roman findfont 96.0122 sf 0 0 m (Candidates / ps) show NC gr  344 238 m -27 X s 344 283 m -27 X s 344 314 m -27 X s 344 339 m -27 X s 344 359 m -27 X s 344 376 m -27 X s 344 391 m -27 X s 344 404
 m -27 X s 371 415 m -54 X s
 gsave  2268 1701 0 0 C 297.071 382.356 t 0 r  -39 0 t /Times-Roman findfont 77.7242 sf 0 0 m (1) show NC gr  344 492 m -27 X s 344 536 m -27 X s 344 568 m -27 X s 344 592 m -27 X s 344 613 m -27 X s 344 629 m -27 X s 344 644 m -27 X s 344 657 m -27
 X s 371 669 m -54 X s
 gsave  2268 1701 0 0 C 297.071 635.82 t 0 r  -79 0 t /Times-Roman findfont 77.7242 sf 0 0 m (10) show NC gr  344 745 m -27 X s 344 790 m -27 X s 344 821 m -27 X s 344 846 m -27 X s 344 866 m -27 X s 344 883 m -27 X s 344 898 m -27 X s 344 911 m -27
 X s 371 922 m -54 X s
 gsave  2268 1701 0 0 C 265.177 918.974 t 0 r /Times-Roman findfont 54.8641 sf 0 0 m (2) show NC gr 
 gsave  2268 1701 0 0 C 187.452 886.97 t 0 r /Times-Roman findfont 77.7242 sf 0 0 m (10) show NC gr  344 999 m -27 X s 344 1043 m -27 X s 344 1075 m -27 X s 344 1099 m -27 X s 344 1119 m -27 X s 344 1136 m -27 X s 344 1151 m -27 X s 344 1164 m -27 X
 s 371 1176 m -54 X s
 gsave  2268 1701 0 0 C 265.177 1179.58 t 0 r /Times-Roman findfont 54.8641 sf 0 0 m (3) show NC gr 
 gsave  2268 1701 0 0 C 187.452 1143 t 0 r /Times-Roman findfont 77.7242 sf 0 0 m (10) show NC gr  344 1252 m -27 X s 344 1297 m -27 X s 344 1328 m -27 X s 344 1353 m -27 X s 344 1373 m -27 X s 344 1390 m -27 X s 344 1405 m -27 X s 344 1418 m -27 X s
 371 1429 m -54 X s
 gsave  2268 1701 0 0 C 265.177 1426.47 t 0 r /Times-Roman findfont 54.8641 sf 0 0 m (4) show NC gr 
 gsave  2268 1701 0 0 C 187.452 1394.46 t 0 r /Times-Roman findfont 77.7242 sf 0 0 m (10) show NC gr  344 1505 m -27 X s 344 1550 m -27 X s 344 1582 m -27 X s 2154 238 m 1344 Y s 2127 238 m 27 X s 2127 283 m 27 X s 2127 314 m 27 X s 2127 339 m 27 X s
 2127 359 m 27 X s 2127 376 m 27 X s 2127 391 m 27 X s 2127 404 m 27 X s 2101 415 m 53 X s 2127 492 m 27 X s 2127 536 m 27 X s 2127 568 m 27 X s 2127 592 m 27 X s 2127 613 m 27 X s 2127 629 m 27 X s 2127 644 m 27 X s 2127 657 m 27 X s 2101 669 m 53 X
 s 2127 745 m 27 X s 2127 790 m 27 X s 2127 821 m 27 X s 2127 846 m 27 X s 2127 866 m 27 X s 2127 883 m 27 X s 2127 898 m 27 X s 2127 911 m 27 X s 2101 922 m 53 X s 2127 999 m 27 X s 2127 1043 m 27 X s 2127 1075 m 27 X s 2127 1099 m 27 X s 2127 1119
 m 27 X s 2127 1136 m 27 X s 2127 1151 m 27 X s 2127 1164 m 27 X s 2101 1176 m 53 X s 2127 1252 m 27 X s 2127 1297 m 27 X s 2127 1328 m 27 X s 2127 1353 m 27 X s 2127 1373 m 27 X s 2127 1390 m 27 X s 2127 1405 m 27 X s 2127 1418 m 27 X s 2101 1429 m
 53 X s 2127 1505 m 27 X s 2127 1550 m 27 X s 2127 1582 m 27 X s 455 238 m -138 X s 317 238 m 9 Y s 455 238 m 138 X s 593 238 m 9 Y s 455 238 m 103 Y s 446 341 m 18 X s 731 479 m -138 X s 593 469 m 19 Y s 731 479 m 138 X s 869 469 m 19 Y s 731 479 m
 64 Y s 722 543 m 18 X s 731 479 m -72 Y s 722 407 m 18 X s 899 1229 m -30 X s 869 1220 m 18 Y s 899 1229 m 31 X s 930 1220 m 18 Y s 899 1229 m 4 Y s 890 1233 m 18 X s 899 1229 m -4 Y s 890 1225 m 18 X s 942 1346 m -12 X s 930 1337 m 18 Y s 942 1346
 m 12 X s 954 1337 m 18 Y s 942 1346 m 3 Y s 933 1349 m 18 X s 942 1346 m -4 Y s 933 1342 m 18 X s 967 1119 m -13 X s 954 1110 m 19 Y s 967 1119 m 12 X s 979 1110 m 19 Y s 967 1119 m 10 Y s 957 1129 m 19 X s 967 1119 m -10 Y s 957 1109 m 19 X s 991
 990 m -12 X s 979 981 m 18 Y s 991 990 m 12 X s 1003 981 m 18 Y s 991 990 m 19 Y s 982 1009 m 18 X s 991 990 m -20 Y s 982 970 m 18 X s 1015 928 m -12 X s 1003 918 m 19 Y s 1015 928 m 13 X s 1028 918 m 19 Y s 1015 928 m 26 Y s 1006 954 m 19 X s 1015
 928 m -27 Y s 1006 901 m 19 X s 1040 834 m -12 X s 1028 825 m 18 Y s 1040 834 m 12 X s 1052 825 m 18 Y s 1040 834 m 42 Y s 1031 876 m 18 X s 1040 834 m -43 Y s 1031 791 m 18 X s 1073 790 m -21 X s 1052 781 m 18 Y s 1073 790 m 20 X s 1093 781 m 18 Y
 s 1073 790 m 39 Y s 1063 829 m 19 X s 1073 790 m -41 Y s 1063 749 m 19 X s 1113 733 m -20 X s 1093 724 m 19 Y s 1113 733 m 21 X s 1134 724 m 19 Y s 1113 733 m 52 Y s 1104 785 m 19 X s 1113 733 m -55 Y s 1104 678 m 19 X s 1154 713 m -20 X s 1134 704
 m 19 Y s 1154 713 m 21 X s 1175 704 m 19 Y s 1154 713 m 57 Y s 1145 770 m 18 X s 1154 713 m -62 Y s 1145 651 m 18 X s 1297 581 m -122 X s 1175 572 m 18 Y s 1297 581 m 123 X s 1420 572 m 18 Y s 1297 581 m 41 Y s 1288 622 m 18 X s 1297 581 m -44 Y s
 1288 537 m 18 X s 1542 339 m -122 X s 1420 330 m 18 Y s 1542 339 m 123 X s 1665 330 m 18 Y s 1542 339 m 131 Y s 1533 470 m 18 X s 1542 339 m -101 Y s 1533 238 m 18 X s 1787 238 m -122 X s 1665 238 m 9 Y s 1787 238 m 122 X s 1909 238 m 9 Y s 1787 238
 m 116 Y s 1778 354 m 18 X s 2032 238 m -123 X s 1909 238 m 9 Y s 2032 238 m 122 X s 2154 238 m 9 Y s 2032 238 m 116 Y s 2023 354 m 18 X s /w 37 def /w2 {w 2 div} def /w3 {w 3 div} def 731 479 899 1229 942 1346 967 1119 991 990 1015 928 1040 834 1073
 790 1113 733 1154 713 1297 581 1542 339 12 { m20} R 0 0 1 c 9 lw 0 0.8 0 c black 0 0.8 0 c 1473 261 m s 1473 261 m -23 -23 d s 1447 293 m s 1447 293 m -54 -55 d s 1421 324 m s 1421 324 m -86 -86 d s 1395 356 m s 1395 356 m -118 -118 d s 1368 387 m s
 1368 387 m -149 -149 d s 1342 419 m -180 -181 d s 1316 450 m -212 -212 d s 1290 482 m -244 -244 d s 1264 513 m -275 -275 d s 1238 545 m -307 -307 d s 1212 577 m -339 -339 d s 1185 608 m -370 -370 d s 1160 640 m -402 -402 d s 1134 673 m -434 -435 d s
 1110 706 m -468 -468 d s 1087 741 m -273 -273 d s 761 415 m -177 -177 d s 1067 778 m -226 -226 d s 629 340 m -102 -102 d s 1048 817 m -194 -194 d s 499 268 m -30 -30 d s 1032 859 m -168 -168 d s 1018 902 m -145 -144 d s 1005 947 m -124 -124 d s 993
 993 m -105 -105 d s 981 1039 m -87 -87 d s 971 1087 m -70 -71 d s 962 1135 m -55 -55 d s 953 1184 m -42 -42 d s 947 1235 m -32 -31 d s 942 1289 m -24 -25 d s 939 1343 m -18 -18 d s 935 1397 m -11 -11 d s 0 0 1 c black 3 lw 0 0 1 c 1 lw <<
 /PatternType 1 /PaintType 2 /TilingType 1 /BBox [ 0 0 101 101 ] /XStep 100 /YStep 100 /PaintProc { begin gsave 0 0 m 0 30 l 30 0 l f 0 70 m 0 100 l 30 100 l f 70 100 m 100 100 l 100 70 l f 70 0 m 100 0 l 100 30 l f 50 20 m 20 50 l 50 80 l 80 50 l f
 50 80 m 30 100 l s 20 50 m 0 30 l s 50 20 m 70 0 l s 80 50 m 100 70 l s gr end } >> [ 0.24 0 0 0.24 0 0 ] makepattern /P08 exch def /cs {[/Pattern /DeviceRGB] setcolorspace} def /FA {f [/DeviceRGB] setcolorspace} def cs 0 0 1 P08 setcolor 887 238 m
 1 Y 9 185 d 5 96 d 2 50 d 2 52 d 3 53 d 2 56 d 2 57 d 2 60 d 3 59 d 2 57 d 2 53 d 3 45 d 2 35 d 2 21 d 3 4 d 2 -14 d 2 -30 d 2 -42 d 3 -50 d 2 -56 d 2 -59 d 3 -59 d 2 -58 d 2 -57 d 2 -54 d 3 -52 d 4 -100 d 10 -188 d 3 -65 d FA 9 lw black 911 238 m 1
 24 d s 912 262 m 2 55 d 3 57 d 2 58 d 2 57 d 3 53 d 2 49 d 2 41 d 3 33 d 2 24 d 2 15 d 2 10 d 3 5 d 2 2 d 2 1 d 3 X 2 -1 d 2 -2 d 9 -6 d 10 -7 d 9 -7 d 9 -8 d 9 -7 d 9 -7 d 9 -7 d 10 -8 d 9 -7 d 9 -7 d 9 -7 d 19 -15 d 18 -14 d 18 -15 d 19 -14 d 18
 -14 d 18 -15 d 19 -14 d 18 -15 d 19 -14 d 18 -15 d 18 -14 d 19 -14 d 18 -15 d 18 -14 d 19 -15 d 18 -14 d 18 -15 d 19 -14 d 18 -14 d 19 -15 d 18 -14 d 18 -15 d 19 -14 d 18 -15 d 18 -14 d 19 -14 d 18 -15 d 17 -13 d s 1 0 0 c black 1 0 0 c 445 238 m 1
 1 d s 446 239 m 18 10 d 19 10 d 18 10 d 19 11 d 18 10 d 18 10 d 19 10 d 18 10 d 18 10 d 19 11 d 18 10 d 18 10 d 19 10 d 18 10 d 19 11 d 18 10 d 18 11 d 19 12 d 18 16 d 18 25 d 19 46 d 18 83 d 19 124 d 9 76 d 9 84 d 4 45 d 5 45 d 5 47 d 2 25 d 2 25 d
 3 28 d 2 30 d 2 34 d 2 40 d 3 45 d 2 49 d 2 49 d 3 45 d 2 37 d 2 22 d 3 4 d 2 -14 d 2 -29 d 2 -36 d 3 -39 d 2 -36 d 2 -31 d 3 -25 d 2 -21 d 2 -18 d 2 -15 d 3 -15 d 2 -13 d 2 -13 d 5 -24 d 5 -23 d 4 -21 d 5 -21 d 9 -38 d 9 -35 d 18 -61 d 19 -50 d 18
 -41 d 19 -34 d 18 -28 d 18 -24 d 19 -23 d 18 -21 d 18 -21 d 19 -20 d 18 -19 d 19 -20 d 18 -19 d 18 -19 d 19 -19 d 18 -19 d 18 -19 d 19 -18 d 18 -19 d 18 -18 d 19 -18 d 18 -18 d 19 -18 d 18 -18 d 18 -17 d 19 -18 d 18 -17 d 18 -17 d 19 -18 d 18 -17 d
 19 -16 d 18 -17 d 18 -17 d 7 -6 d s black 3 lw 317 238 m 1837 X s 317 279 m -41 Y s 440 259 m -21 Y s 562 259 m -21 Y s 685 259 m -21 Y s 807 259 m -21 Y s 930 279 m -41 Y s 1052 259 m -21 Y s 1175 259 m -21 Y s 1297 259 m -21 Y s 1420 259 m -21 Y s
 1542 279 m -41 Y s 1665 259 m -21 Y s 1787 259 m -21 Y s 1909 259 m -21 Y s 2032 259 m -21 Y s 2154 279 m -41 Y s 317 1582 m 1837 X s 317 1540 m 42 Y s 440 1561 m 21 Y s 562 1561 m 21 Y s 685 1561 m 21 Y s 807 1561 m 21 Y s 930 1540 m 42 Y s 1052
 1561 m 21 Y s 1175 1561 m 21 Y s 1297 1561 m 21 Y s 1420 1561 m 21 Y s 1542 1540 m 42 Y s 1665 1561 m 21 Y s 1787 1561 m 21 Y s 1909 1561 m 21 Y s 2032 1561 m 21 Y s 2154 1540 m 42 Y s 317 238 m 1344 Y s 344 238 m -27 X s 344 283 m -27 X s 344 314 m
 -27 X s 344 339 m -27 X s 344 359 m -27 X s 344 376 m -27 X s 344 391 m -27 X s 344 404 m -27 X s 371 415 m -54 X s 344 492 m -27 X s 344 536 m -27 X s 344 568 m -27 X s 344 592 m -27 X s 344 613 m -27 X s 344 629 m -27 X s 344 644 m -27 X s 344 657
 m -27 X s 371 669 m -54 X s 344 745 m -27 X s 344 790 m -27 X s 344 821 m -27 X s 344 846 m -27 X s 344 866 m -27 X s 344 883 m -27 X s 344 898 m -27 X s 344 911 m -27 X s 371 922 m -54 X s 344 999 m -27 X s 344 1043 m -27 X s 344 1075 m -27 X s 344
 1099 m -27 X s 344 1119 m -27 X s 344 1136 m -27 X s 344 1151 m -27 X s 344 1164 m -27 X s 371 1176 m -54 X s 344 1252 m -27 X s 344 1297 m -27 X s 344 1328 m -27 X s 344 1353 m -27 X s 344 1373 m -27 X s 344 1390 m -27 X s 344 1405 m -27 X s 344
 1418 m -27 X s 371 1429 m -54 X s 344 1505 m -27 X s 344 1550 m -27 X s 344 1582 m -27 X s 2154 238 m 1344 Y s 2127 238 m 27 X s 2127 283 m 27 X s 2127 314 m 27 X s 2127 339 m 27 X s 2127 359 m 27 X s 2127 376 m 27 X s 2127 391 m 27 X s 2127 404 m
 27 X s 2101 415 m 53 X s 2127 492 m 27 X s 2127 536 m 27 X s 2127 568 m 27 X s 2127 592 m 27 X s 2127 613 m 27 X s 2127 629 m 27 X s 2127 644 m 27 X s 2127 657 m 27 X s 2101 669 m 53 X s 2127 745 m 27 X s 2127 790 m 27 X s 2127 821 m 27 X s 2127 846
 m 27 X s 2127 866 m 27 X s 2127 883 m 27 X s 2127 898 m 27 X s 2127 911 m 27 X s 2101 922 m 53 X s 2127 999 m 27 X s 2127 1043 m 27 X s 2127 1075 m 27 X s 2127 1099 m 27 X s 2127 1119 m 27 X s 2127 1136 m 27 X s 2127 1151 m 27 X s 2127 1164 m 27 X s
 2101 1176 m 53 X s 2127 1252 m 27 X s 2127 1297 m 27 X s 2127 1328 m 27 X s 2127 1353 m 27 X s 2127 1373 m 27 X s 2127 1390 m 27 X s 2127 1405 m 27 X s 2127 1418 m 27 X s 2101 1429 m 53 X s 2127 1505 m 27 X s 2127 1550 m 27 X s 2127 1582 m 27 X s
 gsave  2268 1701 0 0 C 1819.66 1161.29 t 0 r /Times-Roman findfont 59.4361 sf 0 0 m ( = 5 TeV) show NC gr 
 gsave  2268 1701 0 0 C 1760.22 1143 t 0 r /Times-Italic findfont 36.5761 sf 0 0 m (NN) show NC gr 
 gsave  2268 1701 0 0 C 1737.36 1161.29 t 0 r /Times-Italic findfont 59.4361 sf 0 0 m (s) show NC gr  6 lw 1715 1189 m 9 -51 d s 0 lw 1724 1138 m 9 69 d s 1733 1207 m 87 X s
 gsave  2268 1701 0 0 C 1449.33 1161.29 t 0 r /Times-Roman findfont 59.4361 sf 0 0 m (pPb\(Bwd\) ) show NC gr 
 gsave  2268 1701 0 0 C 1449.33 1229.87 t 0 r /Times-Roman findfont 73.1521 sf 0 0 m (LHCb ) show NC gr 
 gsave  2268 1701 0 0 C 1783.08 918.974 t 0 r /Times-Roman findfont 73.1521 sf 0 0 m (2.5) show NC gr 
 gsave  2268 1701 0 0 C 1741.94 918.974 t 0 r /Symbol findfont 73.1521 sf 0 0 m (-) show NC gr 
 gsave  2268 1701 0 0 C 1682.5 918.974 t 0 r /Times-Roman findfont 73.1521 sf 0 0 m ( <) show NC gr 
 gsave  2268 1701 0 0 C 1645.92 918.974 t 0 r /Times-Italic findfont 73.1521 sf 0 0 m (y) show NC gr 
 gsave  2268 1701 0 0 C 1490.47 918.974 t 0 r /Times-Roman findfont 73.1521 sf 0 0 m (5.0< ) show NC gr 
 gsave  2268 1701 0 0 C 1449.33 918.974 t 0 r /Symbol findfont 73.1521 sf 0 0 m (-) show NC gr 
 gsave  2268 1701 0 0 C 1847.09 800.102 t 0 r /Times-Italic findfont 73.1521 sf 0 0 m (c) show NC gr 
 gsave  2268 1701 0 0 C 1517.91 800.102 t 0 r /Times-Roman findfont 73.1521 sf 0 0 m ( < 14 GeV/) show NC gr 
 gsave  2268 1701 0 0 C 1490.47 763.526 t 0 r /Times-Roman findfont 45.7201 sf 0 0 m (T) show NC gr 
 gsave  2268 1701 0 0 C 1449.33 800.102 t 0 r /Times-Italic findfont 73.1521 sf 0 0 m (p) show NC gr 
 gr  gr showpage
end
%%EOF
