%!PS-Adobe-2.0 EPSF-2.0
%%BoundingBox:  0 0 567 425
%%Title: result/TzFit/pAtz_c03.eps: 
%%Creator: ROOT Version 5.34/18
%%CreationDate: Mon Nov 30 22:54:30 2015
%%EndComments
%%BeginProlog
80 dict begin
/s {stroke} def /l {lineto} def /m {moveto} def /t {translate} def
/r {rotate} def /rl {roll}  def /R {repeat} def
/d {rlineto} def /rm {rmoveto} def /gr {grestore} def /f {eofill} def
/c {setrgbcolor} def /black {0 setgray} def /sd {setdash} def
/cl {closepath} def /sf {scalefont setfont} def /lw {setlinewidth} def
/box {m dup 0 exch d exch 0 d 0 exch neg d cl} def
/NC{systemdict begin initclip end}def/C{NC box clip newpath}def
/bl {box s} def /bf {box f} def /Y { 0 exch d} def /X { 0 d} def 
/K {{pop pop 0 moveto} exch kshow} bind def
/ita {/ang 15 def gsave [1 0 ang dup sin exch cos div 1 0 0] concat} def 
/mp {newpath /y exch def /x exch def} def
/side {[w .77 mul w .23 mul] .385 w mul sd w 0 l currentpoint t -144 r} def
/mr {mp x y w2 0 360 arc} def /m24 {mr s} def /m20 {mr f} def
/mb {mp x y w2 add m w2 neg 0 d 0 w neg d w 0 d 0 w d cl} def
/mt {mp x y w2 add m w2 neg w neg d w 0 d cl} def
/m21 {mb f} def /m25 {mb s} def /m22 {mt f} def /m26{mt s} def
/m23 {mp x y w2 sub m w2 w d w neg 0 d cl f} def
/m27 {mp x y w2 add m w3 neg w2 neg d w3 w2 neg d w3 w2 d cl s} def
/m28 {mp x w2 sub y w2 sub w3 add m w3 0 d  0 w3 neg d w3 0 d 0 w3 d w3 0 d  0 w3 d w3 neg 0 d 0 w3 d w3 neg 0 d 0 w3 neg d w3 neg 0 d cl s } def
/m29 {mp gsave x w2 sub y w2 add w3 sub m currentpoint t 4 {side} repeat cl fill gr} def
/m30 {mp gsave x w2 sub y w2 add w3 sub m currentpoint t 4 {side} repeat cl s gr} def
/m31 {mp x y w2 sub m 0 w d x w2 sub y m w 0 d x w2 sub y w2 add m w w neg d x w2 sub y w2 sub m w w d s} def
/m32 {mp x y w2 sub m w2 w d w neg 0 d cl s} def
/m33 {mp x y w2 add m w3 neg w2 neg d w3 w2 neg d w3 w2 d cl f} def
/m34 {mp x w2 sub y w2 sub w3 add m w3 0 d  0 w3 neg d w3 0 d 0 w3 d w3 0 d  0 w3 d w3 neg 0 d 0 w3 d w3 neg 0 d 0 w3 neg d w3 neg 0 d cl f } def
/m2 {mp x y w2 sub m 0 w d x w2 sub y m w 0 d s} def
/m5 {mp x w2 sub y w2 sub m w w d x w2 sub y w2 add m w w neg d s} def
/reEncode {exch findfont dup length dict begin {1 index /FID eq  {pop pop} {def} ifelse } forall /Encoding exch def currentdict end dup /FontName get exch definefont pop } def [/Times-Bold /Times-Italic /Times-BoldItalic /Helvetica /Helvetica-Oblique
 /Helvetica-Bold /Helvetica-BoldOblique /Courier /Courier-Oblique /Courier-Bold /Courier-BoldOblique /Times-Roman /AvantGarde-Book /AvantGarde-BookOblique /AvantGarde-Demi /AvantGarde-DemiOblique /Bookman-Demi /Bookman-DemiItalic /Bookman-Light
 /Bookman-LightItalic /Helvetica-Narrow /Helvetica-Narrow-Bold /Helvetica-Narrow-BoldOblique /Helvetica-Narrow-Oblique /NewCenturySchlbk-Roman /NewCenturySchlbk-Bold /NewCenturySchlbk-BoldItalic /NewCenturySchlbk-Italic /Palatino-Bold
 /Palatino-BoldItalic /Palatino-Italic /Palatino-Roman ] {ISOLatin1Encoding reEncode } forall
%%EndProlog
%%BeginSetup
%%EndSetup
newpath  gsave  .25 .25 scale  gsave  0 0 t black[  ] 0 sd 3 lw 1 1 1 c 2268 1701 0 0 bf black 1 1 1 c 1837 1344 317 238 bf black 1837 1344 317 238 bl 1 1 1 c 1837 1344 317 238 bf black 1837 1344 317 238 bl 317 238 m 1837 X s
 gsave  2268 1701 0 0 C 2125.98 59.4361 t 0 r /Times-Roman findfont 96.0122 sf 0 0 m (]) show NC gr 
 gsave  2268 1701 0 0 C 2093.98 86.8682 t 0 r /Times-Roman findfont 64.0081 sf 0 0 m (2) show NC gr 
 gsave  2268 1701 0 0 C 2048.26 59.4361 t 0 r /Times-Italic findfont 96.0122 sf 0 0 m (c) show NC gr 
 gsave  2268 1701 0 0 C 1764.8 59.4361 t 0 r /Times-Roman findfont 96.0122 sf 0 0 m ( [MeV/) show NC gr 
 gsave  2268 1701 0 0 C 1728.22 36.5761 t 0 r /Symbol findfont 64.0081 sf 0 0 m (m) show NC gr 
 gsave  2268 1701 0 0 C 1691.64 36.5761 t 0 r /Symbol findfont 64.0081 sf 0 0 m (m) show NC gr 
 gsave  2268 1701 0 0 C 1623.06 59.4361 t 0 r /Times-Italic findfont 96.0122 sf 0 0 m (m) show NC gr  698 279 m -41 Y s 824 259 m -21 Y s 951 259 m -21 Y s 1078 259 m -21 Y s 1204 259 m -21 Y s 1331 279 m -41 Y s 1458 259 m -21 Y s 1584 259 m -21 Y s
 1711 259 m -21 Y s 1838 259 m -21 Y s 1964 279 m -41 Y s 698 279 m -41 Y s 571 259 m -21 Y s 444 259 m -21 Y s 317 259 m -21 Y s 1964 279 m -41 Y s 2091 259 m -21 Y s
 gsave  2268 1701 0 0 C 617.221 146.304 t 0 r /Times-Roman findfont 77.7242 sf 0 0 m (3600) show NC gr 
 gsave  2268 1701 0 0 C 1252.73 146.304 t 0 r /Times-Roman findfont 77.7242 sf 0 0 m (3700) show NC gr 
 gsave  2268 1701 0 0 C 1883.67 146.304 t 0 r /Times-Roman findfont 77.7242 sf 0 0 m (3800) show NC gr  317 1582 m 1837 X s 698 1540 m 42 Y s 824 1561 m 21 Y s 951 1561 m 21 Y s 1078 1561 m 21 Y s 1204 1561 m 21 Y s 1331 1540 m 42 Y s 1458 1561 m 21
 Y s 1584 1561 m 21 Y s 1711 1561 m 21 Y s 1838 1561 m 21 Y s 1964 1540 m 42 Y s 698 1540 m 42 Y s 571 1561 m 21 Y s 444 1561 m 21 Y s 317 1561 m 21 Y s 1964 1540 m 42 Y s 2091 1561 m 21 Y s 317 238 m 1344 Y s
 gsave  2268 1701 0 0 C 86.8682 1554.48 t 90 r /Times-Roman findfont 96.0122 sf 0 0 m (\)) show NC gr 
 gsave  2268 1701 0 0 C 59.4361 1522.48 t 90 r /Times-Roman findfont 64.0081 sf 0 0 m (2) show NC gr 
 gsave  2268 1701 0 0 C 86.8682 1476.76 t 90 r /Times-Italic findfont 96.0122 sf 0 0 m (c) show NC gr 
 gsave  2268 1701 0 0 C 82.2962 594.361 t 90 r /Times-Roman findfont 96.0122 sf 0 0 m (Candidates / \(10 MeV/) show NC gr  371 238 m -54 X s 344 285 m -27 X s 344 332 m -27 X s 344 379 m -27 X s 344 426 m -27 X s 371 473 m -54 X s 344 520 m -27 X s
 344 567 m -27 X s 344 614 m -27 X s 344 661 m -27 X s 371 708 m -54 X s 344 755 m -27 X s 344 802 m -27 X s 344 849 m -27 X s 344 896 m -27 X s 371 942 m -54 X s 344 989 m -27 X s 344 1036 m -27 X s 344 1083 m -27 X s 344 1130 m -27 X s 371 1177 m
 -54 X s 344 1224 m -27 X s 344 1271 m -27 X s 344 1318 m -27 X s 344 1365 m -27 X s 371 1412 m -54 X s 371 1412 m -54 X s 344 1459 m -27 X s 344 1506 m -27 X s 344 1553 m -27 X s
 gsave  2268 1701 0 0 C 260.605 214.884 t 0 r /Times-Roman findfont 77.7242 sf 0 0 m (0) show NC gr 
 gsave  2268 1701 0 0 C 224.028 448.057 t 0 r /Times-Roman findfont 77.7242 sf 0 0 m (50) show NC gr 
 gsave  2268 1701 0 0 C 182.88 681.229 t 0 r /Times-Roman findfont 77.7242 sf 0 0 m (100) show NC gr 
 gsave  2268 1701 0 0 C 182.88 918.974 t 0 r /Times-Roman findfont 77.7242 sf 0 0 m (150) show NC gr 
 gsave  2268 1701 0 0 C 182.88 1152.15 t 0 r /Times-Roman findfont 77.7242 sf 0 0 m (200) show NC gr 
 gsave  2268 1701 0 0 C 182.88 1385.32 t 0 r /Times-Roman findfont 77.7242 sf 0 0 m (250) show NC gr  2154 238 m 1344 Y s 2101 238 m 53 X s 2127 285 m 27 X s 2127 332 m 27 X s 2127 379 m 27 X s 2127 426 m 27 X s 2101 473 m 53 X s 2127 520 m 27 X s
 2127 567 m 27 X s 2127 614 m 27 X s 2127 661 m 27 X s 2101 708 m 53 X s 2127 755 m 27 X s 2127 802 m 27 X s 2127 849 m 27 X s 2127 896 m 27 X s 2101 942 m 53 X s 2127 989 m 27 X s 2127 1036 m 27 X s 2127 1083 m 27 X s 2127 1130 m 27 X s 2101 1177 m
 53 X s 2127 1224 m 27 X s 2127 1271 m 27 X s 2127 1318 m 27 X s 2127 1365 m 27 X s 2101 1412 m 53 X s 2101 1412 m 53 X s 2127 1459 m 27 X s 2127 1506 m 27 X s 2127 1553 m 27 X s 349 849 m -32 X s 317 839 m 19 Y s 349 849 m 32 X s 381 839 m 19 Y s
 349 849 m 56 Y s 340 905 m 18 X s 349 849 m -52 Y s 340 797 m 18 X s 412 811 m -31 X s 381 802 m 18 Y s 412 811 m 32 X s 444 802 m 18 Y s 412 811 m 54 Y s 403 865 m 19 X s 412 811 m -50 Y s 403 761 m 19 X s 476 802 m -32 X s 444 792 m 19 Y s 476 802
 m 31 X s 507 792 m 19 Y s 476 802 m 53 Y s 467 855 m 18 X s 476 802 m -50 Y s 467 752 m 18 X s 539 928 m -32 X s 507 919 m 19 Y s 539 928 m 32 X s 571 919 m 19 Y s 539 928 m 60 Y s 530 988 m 18 X s 539 928 m -54 Y s 530 874 m 18 X s 603 867 m -32 X
 s 571 858 m 18 Y s 603 867 m 31 X s 634 858 m 18 Y s 603 867 m 57 Y s 593 924 m 19 X s 603 867 m -52 Y s 593 815 m 19 X s 666 825 m -32 X s 634 816 m 18 Y s 666 825 m 32 X s 698 816 m 18 Y s 666 825 m 55 Y s 657 880 m 18 X s 666 825 m -50 Y s 657
 775 m 18 X s 729 886 m -31 X s 698 877 m 18 Y s 729 886 m 32 X s 761 877 m 18 Y s 729 886 m 58 Y s 720 944 m 18 X s 729 886 m -53 Y s 720 833 m 18 X s 793 881 m -32 X s 761 872 m 19 Y s 793 881 m 31 X s 824 872 m 19 Y s 793 881 m 58 Y s 783 939 m 19
 X s 793 881 m -52 Y s 783 829 m 19 X s 856 797 m -32 X s 824 788 m 18 Y s 856 797 m 32 X s 888 788 m 18 Y s 856 797 m 54 Y s 847 851 m 18 X s 856 797 m -49 Y s 847 748 m 18 X s 919 886 m -31 X s 888 877 m 18 Y s 919 886 m 32 X s 951 877 m 18 Y s 919
 886 m 58 Y s 910 944 m 18 X s 919 886 m -53 Y s 910 833 m 18 X s 983 896 m -32 X s 951 886 m 19 Y s 983 896 m 31 X s 1014 886 m 19 Y s 983 896 m 57 Y s 973 953 m 19 X s 983 896 m -54 Y s 973 842 m 19 X s 1046 924 m -32 X s 1014 915 m 18 Y s 1046 924
 m 32 X s 1078 915 m 18 Y s 1046 924 m 59 Y s 1037 983 m 18 X s 1046 924 m -55 Y s 1037 869 m 18 X s 1109 980 m -31 X s 1078 971 m 18 Y s 1109 980 m 32 X s 1141 971 m 18 Y s 1109 980 m 61 Y s 1100 1041 m 18 X s 1109 980 m -57 Y s 1100 923 m 18 X s
 1173 1149 m -32 X s 1141 1140 m 18 Y s 1173 1149 m 31 X s 1204 1140 m 18 Y s 1173 1149 m 68 Y s 1163 1217 m 19 X s 1173 1149 m -63 Y s 1163 1086 m 19 X s 1236 1440 m -32 X s 1204 1431 m 18 Y s 1236 1440 m 32 X s 1268 1431 m 18 Y s 1236 1440 m 78 Y s
 1227 1518 m 18 X s 1236 1440 m -73 Y s 1227 1367 m 18 X s 1299 1201 m -31 X s 1268 1192 m 18 Y s 1299 1201 m 32 X s 1331 1192 m 18 Y s 1299 1201 m 69 Y s 1290 1270 m 18 X s 1299 1201 m -65 Y s 1290 1136 m 18 X s 1363 1079 m -32 X s 1331 1070 m 18 Y
 s 1363 1079 m 31 X s 1394 1070 m 18 Y s 1363 1079 m 65 Y s 1353 1144 m 19 X s 1363 1079 m -61 Y s 1353 1018 m 19 X s 1426 877 m -32 X s 1394 868 m 18 Y s 1426 877 m 32 X s 1458 868 m 18 Y s 1426 877 m 57 Y s 1417 934 m 18 X s 1426 877 m -53 Y s 1417
 824 m 18 X s 1489 853 m -31 X s 1458 844 m 18 Y s 1489 853 m 32 X s 1521 844 m 18 Y s 1489 853 m 56 Y s 1480 909 m 18 X s 1489 853 m -51 Y s 1480 802 m 18 X s 1553 755 m -32 X s 1521 746 m 18 Y s 1553 755 m 31 X s 1584 746 m 18 Y s 1553 755 m 51 Y s
 1543 806 m 19 X s 1553 755 m -47 Y s 1543 708 m 19 X s 1616 773 m -32 X s 1584 764 m 19 Y s 1616 773 m 32 X s 1648 764 m 19 Y s 1616 773 m 53 Y s 1607 826 m 18 X s 1616 773 m -47 Y s 1607 726 m 18 X s 1679 891 m -31 X s 1648 882 m 18 Y s 1679 891 m
 32 X s 1711 882 m 18 Y s 1679 891 m 58 Y s 1670 949 m 18 X s 1679 891 m -53 Y s 1670 838 m 18 X s 1743 844 m -32 X s 1711 835 m 18 Y s 1743 844 m 31 X s 1774 835 m 18 Y s 1743 844 m 56 Y s 1733 900 m 19 X s 1743 844 m -51 Y s 1733 793 m 19 X s 1806
 750 m -32 X s 1774 741 m 18 Y s 1806 750 m 32 X s 1838 741 m 18 Y s 1806 750 m 51 Y s 1797 801 m 18 X s 1806 750 m -47 Y s 1797 703 m 18 X s 1869 881 m -31 X s 1838 872 m 19 Y s 1869 881 m 32 X s 1901 872 m 19 Y s 1869 881 m 58 Y s 1860 939 m 18 X s
 1869 881 m -52 Y s 1860 829 m 18 X s 1933 811 m -32 X s 1901 802 m 18 Y s 1933 811 m 31 X s 1964 802 m 18 Y s 1933 811 m 54 Y s 1923 865 m 19 X s 1933 811 m -50 Y s 1923 761 m 19 X s 1996 759 m -32 X s 1964 750 m 18 Y s 1996 759 m 32 X s 2028 750 m
 18 Y s 1996 759 m 52 Y s 1987 811 m 18 X s 1996 759 m -47 Y s 1987 712 m 18 X s 2059 722 m -31 X s 2028 713 m 18 Y s 2059 722 m 32 X s 2091 713 m 18 Y s 2059 722 m 50 Y s 2050 772 m 18 X s 2059 722 m -46 Y s 2050 676 m 18 X s 2123 783 m -32 X s 2091
 774 m 18 Y s 2123 783 m 31 X s 2154 774 m 18 Y s 2123 783 m 53 Y s 2114 836 m 18 X s 2123 783 m -48 Y s 2114 735 m 18 X s /w 37 def /w2 {w 2 div} def /w3 {w 3 div} def 349 849 412 811 476 802 539 928 603 867 666 825 729 886 793 881 856 797 919 886
 983 896 1046 924 1109 980 1173 1149 1236 1440 1299 1201 1363 1079 1426 877 1489 853 1553 755 1616 773 1679 891 1743 844 1806 750 1869 881 1933 811 1996 759 2059 722 2123 783 29 { m20} R 0 0.8 0 c[ 12 12] 0 sd 9 lw black[  ] 0 sd 0 0.8 0 c 2154 249 m
 -11 -11 d s 2154 307 m -69 -69 d s 2154 365 m -126 -127 d s 2154 423 m -184 -185 d s 2154 480 m -242 -242 d s 2154 538 m -300 -300 d s 2154 596 m -357 -358 d s 2154 653 m -415 -415 d s 2154 711 m -473 -473 d s 2154 769 m -530 -531 d s 2120 792 m
 -554 -554 d s 2064 794 m -556 -556 d s 2009 796 m -559 -558 d s 1953 799 m -560 -561 d s 1898 801 m -563 -563 d s 1842 803 m -565 -565 d s 1787 805 m -568 -567 d s 1731 807 m -569 -569 d s 1676 810 m -572 -572 d s 1620 812 m -574 -574 d s 1565 814 m
 -576 -576 d s 1509 816 m -578 -578 d s 1454 819 m -581 -581 d s 1398 821 m -583 -583 d s 1343 823 m -585 -585 d s 1287 825 m -587 -587 d s 1232 828 m -590 -590 d s 1176 830 m -592 -592 d s 1121 832 m -594 -594 d s 1065 835 m -596 -597 d s 1010 837 m
 -599 -599 d s 955 839 m -601 -601 d s 899 842 m -582 -582 d s 844 844 m -527 -527 d s 789 846 m -472 -471 d s 733 849 m -416 -416 d s 678 851 m -361 -360 d s 622 853 m -305 -305 d s 567 856 m -250 -250 d s 512 858 m -195 -194 d s 456 861 m -139 -139
 d s 401 863 m -84 -84 d s 346 865 m -29 -28 d s[ 12 12] 0 sd 0 0 1 c black 0 0 1 c 317 241 m cl s 317 241 m 56 X 18 1 d 147 X 18 1 d 92 X 18 1 d 56 X 18 1 d 37 X 18 1 d 18 X 19 1 d 18 X 19 1 d 18 1 d 18 1 d 19 1 d 18 1 d 18 2 d 19 2 d 18 3 d 18 3 d
 19 5 d 18 8 d 9 6 d 10 9 d 4 5 d 5 7 d 9 16 d 9 20 d 9 23 d 10 26 d 9 29 d 9 33 d 9 35 d 9 37 d 9 39 d 19 78 d 9 37 d 9 34 d 9 31 d 5 13 d 5 12 d 4 11 d 5 9 d 4 7 d 5 6 d 4 4 d 5 2 d 5 X 4 -1 d 5 -4 d 4 -5 d 5 -7 d 5 -8 d 4 -10 d 5 -12 d 4 -13 d 5
 -15 d 9 -32 d 9 -35 d 10 -38 d 9 -39 d 18 -77 d 9 -37 d 9 -34 d 10 -31 d 9 -28 d 9 -25 d 9 -22 d 9 -19 d 10 -15 d 9 -13 d 9 -11 d 9 -8 d 9 -7 d 10 -5 d 9 -4 d 18 -5 d 18 -3 d 19 -2 d 18 X 19 -1 d 587 X s 1 0 0 c[  ] 0 sd black 1 0 0 c 317 870 m cl s
 317 870 m 19 -1 d 18 -1 d 19 X 18 -1 d 18 -1 d 19 -1 d 18 X 18 -1 d 19 -1 d 18 X 19 -1 d 18 -1 d 18 X 19 -1 d 18 -1 d 18 X 19 -1 d 18 X 18 -1 d 19 -1 d 18 X 19 -1 d 18 X 18 -1 d 37 X 18 -1 d 111 X 18 1 d 18 1 d 19 1 d 18 2 d 18 3 d 19 4 d 18 7 d 9 6
 d 10 8 d 4 5 d 5 7 d 9 16 d 9 19 d 9 23 d 10 25 d 9 29 d 9 32 d 9 35 d 9 37 d 9 38 d 19 77 d 9 37 d 9 34 d 9 30 d 5 13 d 5 12 d 4 11 d 5 9 d 4 7 d 5 5 d 4 4 d 5 2 d 5 X 4 -2 d 5 -3 d 4 -5 d 5 -8 d 5 -8 d 4 -11 d 5 -12 d 4 -13 d 5 -14 d 9 -33 d 9 -36
 d 19 -77 d 18 -78 d 9 -37 d 9 -35 d 10 -31 d 9 -29 d 9 -25 d 9 -23 d 9 -18 d 10 -16 d 9 -14 d 9 -11 d 9 -9 d 9 -7 d 10 -5 d 9 -4 d 18 -6 d 18 -4 d 19 -2 d 18 -2 d 19 -1 d 18 -1 d 18 X 19 -1 d 18 -1 d 18 -1 d 19 X 18 -1 d 18 -1 d 19 -1 d 18 X 19 -1 d
 18 -1 d 18 -1 d 19 X 18 -1 d 18 -1 d 19 X 18 -1 d 19 -1 d 18 -1 d 18 X 19 -1 d 18 -1 d 18 X 19 -1 d 18 -1 d 18 -1 d 19 X 18 -1 d 19 -1 d 18 X 18 -1 d s black 3 lw 317 238 m 1837 X s 698 279 m -41 Y s 824 259 m -21 Y s 951 259 m -21 Y s 1078 259 m
 -21 Y s 1204 259 m -21 Y s 1331 279 m -41 Y s 1458 259 m -21 Y s 1584 259 m -21 Y s 1711 259 m -21 Y s 1838 259 m -21 Y s 1964 279 m -41 Y s 698 279 m -41 Y s 571 259 m -21 Y s 444 259 m -21 Y s 317 259 m -21 Y s 1964 279 m -41 Y s 2091 259 m -21 Y
 s 317 1582 m 1837 X s 698 1540 m 42 Y s 824 1561 m 21 Y s 951 1561 m 21 Y s 1078 1561 m 21 Y s 1204 1561 m 21 Y s 1331 1540 m 42 Y s 1458 1561 m 21 Y s 1584 1561 m 21 Y s 1711 1561 m 21 Y s 1838 1561 m 21 Y s 1964 1540 m 42 Y s 698 1540 m 42 Y s 571
 1561 m 21 Y s 444 1561 m 21 Y s 317 1561 m 21 Y s 1964 1540 m 42 Y s 2091 1561 m 21 Y s 317 238 m 1344 Y s 371 238 m -54 X s 344 285 m -27 X s 344 332 m -27 X s 344 379 m -27 X s 344 426 m -27 X s 371 473 m -54 X s 344 520 m -27 X s 344 567 m -27 X
 s 344 614 m -27 X s 344 661 m -27 X s 371 708 m -54 X s 344 755 m -27 X s 344 802 m -27 X s 344 849 m -27 X s 344 896 m -27 X s 371 942 m -54 X s 344 989 m -27 X s 344 1036 m -27 X s 344 1083 m -27 X s 344 1130 m -27 X s 371 1177 m -54 X s 344 1224
 m -27 X s 344 1271 m -27 X s 344 1318 m -27 X s 344 1365 m -27 X s 371 1412 m -54 X s 371 1412 m -54 X s 344 1459 m -27 X s 344 1506 m -27 X s 344 1553 m -27 X s 2154 238 m 1344 Y s 2101 238 m 53 X s 2127 285 m 27 X s 2127 332 m 27 X s 2127 379 m 27
 X s 2127 426 m 27 X s 2101 473 m 53 X s 2127 520 m 27 X s 2127 567 m 27 X s 2127 614 m 27 X s 2127 661 m 27 X s 2101 708 m 53 X s 2127 755 m 27 X s 2127 802 m 27 X s 2127 849 m 27 X s 2127 896 m 27 X s 2101 942 m 53 X s 2127 989 m 27 X s 2127 1036 m
 27 X s 2127 1083 m 27 X s 2127 1130 m 27 X s 2101 1177 m 53 X s 2127 1224 m 27 X s 2127 1271 m 27 X s 2127 1318 m 27 X s 2127 1365 m 27 X s 2101 1412 m 53 X s 2101 1412 m 53 X s 2127 1459 m 27 X s 2127 1506 m 27 X s 2127 1553 m 27 X s
 gsave  2268 1701 0 0 C 864.11 1367.03 t 0 r /Times-Roman findfont 59.4361 sf 0 0 m ( = 5 TeV) show NC gr 
 gsave  2268 1701 0 0 C 804.674 1348.74 t 0 r /Times-Italic findfont 36.5761 sf 0 0 m (NN) show NC gr 
 gsave  2268 1701 0 0 C 781.814 1367.03 t 0 r /Times-Italic findfont 59.4361 sf 0 0 m (s) show NC gr  6 lw 759 1394 m 9 -50 d s 0 lw 768 1344 m 9 69 d s 777 1413 m 87 X s
 gsave  2268 1701 0 0 C 498.349 1367.03 t 0 r /Times-Roman findfont 59.4361 sf 0 0 m (pPb\(Fwd\) ) show NC gr 
 gsave  2268 1701 0 0 C 498.349 1435.61 t 0 r /Times-Roman findfont 73.1521 sf 0 0 m (LHCb ) show NC gr 
 gsave  2268 1701 0 0 C 1641.35 1463.04 t 0 r /Times-Roman findfont 73.1521 sf 0 0 m ( <4.0) show NC gr 
 gsave  2268 1701 0 0 C 1604.78 1463.04 t 0 r /Times-Italic findfont 73.1521 sf 0 0 m (y) show NC gr 
 gsave  2268 1701 0 0 C 1449.33 1463.04 t 0 r /Times-Roman findfont 73.1521 sf 0 0 m (1.5< ) show NC gr 
 gsave  2268 1701 0 0 C 1847.09 1344.17 t 0 r /Times-Italic findfont 73.1521 sf 0 0 m (c) show NC gr 
 gsave  2268 1701 0 0 C 1517.91 1344.17 t 0 r /Times-Roman findfont 73.1521 sf 0 0 m ( < 14 GeV/) show NC gr 
 gsave  2268 1701 0 0 C 1490.47 1307.59 t 0 r /Times-Roman findfont 45.7201 sf 0 0 m (T) show NC gr 
 gsave  2268 1701 0 0 C 1449.33 1344.17 t 0 r /Times-Italic findfont 73.1521 sf 0 0 m (p) show NC gr 
 gr  gr showpage
end
%%EOF
