%!PS-Adobe-2.0 EPSF-2.0
%%BoundingBox:  0 0 567 425
%%Title: result/TzFit/pAtz_c13.eps: 
%%Creator: ROOT Version 5.34/18
%%CreationDate: Mon Nov 30 22:54:30 2015
%%EndComments
%%BeginProlog
80 dict begin
/s {stroke} def /l {lineto} def /m {moveto} def /t {translate} def
/r {rotate} def /rl {roll}  def /R {repeat} def
/d {rlineto} def /rm {rmoveto} def /gr {grestore} def /f {eofill} def
/c {setrgbcolor} def /black {0 setgray} def /sd {setdash} def
/cl {closepath} def /sf {scalefont setfont} def /lw {setlinewidth} def
/box {m dup 0 exch d exch 0 d 0 exch neg d cl} def
/NC{systemdict begin initclip end}def/C{NC box clip newpath}def
/bl {box s} def /bf {box f} def /Y { 0 exch d} def /X { 0 d} def 
/K {{pop pop 0 moveto} exch kshow} bind def
/ita {/ang 15 def gsave [1 0 ang dup sin exch cos div 1 0 0] concat} def 
/mp {newpath /y exch def /x exch def} def
/side {[w .77 mul w .23 mul] .385 w mul sd w 0 l currentpoint t -144 r} def
/mr {mp x y w2 0 360 arc} def /m24 {mr s} def /m20 {mr f} def
/mb {mp x y w2 add m w2 neg 0 d 0 w neg d w 0 d 0 w d cl} def
/mt {mp x y w2 add m w2 neg w neg d w 0 d cl} def
/m21 {mb f} def /m25 {mb s} def /m22 {mt f} def /m26{mt s} def
/m23 {mp x y w2 sub m w2 w d w neg 0 d cl f} def
/m27 {mp x y w2 add m w3 neg w2 neg d w3 w2 neg d w3 w2 d cl s} def
/m28 {mp x w2 sub y w2 sub w3 add m w3 0 d  0 w3 neg d w3 0 d 0 w3 d w3 0 d  0 w3 d w3 neg 0 d 0 w3 d w3 neg 0 d 0 w3 neg d w3 neg 0 d cl s } def
/m29 {mp gsave x w2 sub y w2 add w3 sub m currentpoint t 4 {side} repeat cl fill gr} def
/m30 {mp gsave x w2 sub y w2 add w3 sub m currentpoint t 4 {side} repeat cl s gr} def
/m31 {mp x y w2 sub m 0 w d x w2 sub y m w 0 d x w2 sub y w2 add m w w neg d x w2 sub y w2 sub m w w d s} def
/m32 {mp x y w2 sub m w2 w d w neg 0 d cl s} def
/m33 {mp x y w2 add m w3 neg w2 neg d w3 w2 neg d w3 w2 d cl f} def
/m34 {mp x w2 sub y w2 sub w3 add m w3 0 d  0 w3 neg d w3 0 d 0 w3 d w3 0 d  0 w3 d w3 neg 0 d 0 w3 d w3 neg 0 d 0 w3 neg d w3 neg 0 d cl f } def
/m2 {mp x y w2 sub m 0 w d x w2 sub y m w 0 d s} def
/m5 {mp x w2 sub y w2 sub m w w d x w2 sub y w2 add m w w neg d s} def
/reEncode {exch findfont dup length dict begin {1 index /FID eq  {pop pop} {def} ifelse } forall /Encoding exch def currentdict end dup /FontName get exch definefont pop } def [/Times-Bold /Times-Italic /Times-BoldItalic /Helvetica /Helvetica-Oblique
 /Helvetica-Bold /Helvetica-BoldOblique /Courier /Courier-Oblique /Courier-Bold /Courier-BoldOblique /Times-Roman /AvantGarde-Book /AvantGarde-BookOblique /AvantGarde-Demi /AvantGarde-DemiOblique /Bookman-Demi /Bookman-DemiItalic /Bookman-Light
 /Bookman-LightItalic /Helvetica-Narrow /Helvetica-Narrow-Bold /Helvetica-Narrow-BoldOblique /Helvetica-Narrow-Oblique /NewCenturySchlbk-Roman /NewCenturySchlbk-Bold /NewCenturySchlbk-BoldItalic /NewCenturySchlbk-Italic /Palatino-Bold
 /Palatino-BoldItalic /Palatino-Italic /Palatino-Roman ] {ISOLatin1Encoding reEncode } forall
%%EndProlog
%%BeginSetup
%%EndSetup
newpath  gsave  .25 .25 scale  gsave  0 0 t black[  ] 0 sd 3 lw 1 1 1 c 2268 1701 0 0 bf black 1 1 1 c 1837 1344 317 238 bf black 1837 1344 317 238 bl 1 1 1 c 1837 1344 317 238 bf black 1837 1344 317 238 bl 317 238 m 1837 X s
 gsave  2268 1701 0 0 C 1984.25 59.4361 t 0 r /Times-Roman findfont 96.0122 sf 0 0 m ( [ps]) show NC gr 
 gsave  2268 1701 0 0 C 1952.25 36.5761 t 0 r /Times-Italic findfont 64.0081 sf 0 0 m (z) show NC gr 
 gsave  2268 1701 0 0 C 1920.24 59.4361 t 0 r /Times-Italic findfont 96.0122 sf 0 0 m (t) show NC gr  317 279 m -41 Y s 440 259 m -21 Y s 562 259 m -21 Y s 685 259 m -21 Y s 807 259 m -21 Y s 930 279 m -41 Y s 1052 259 m -21 Y s 1175 259 m -21 Y s
 1297 259 m -21 Y s 1420 259 m -21 Y s 1542 279 m -41 Y s 1665 259 m -21 Y s 1787 259 m -21 Y s 1909 259 m -21 Y s 2032 259 m -21 Y s 2154 279 m -41 Y s
 gsave  2268 1701 0 0 C 283.465 146.304 t 0 r /Times-Roman findfont 77.7242 sf 0 0 m (\2555) show NC gr 
 gsave  2268 1701 0 0 C 905.258 146.304 t 0 r /Times-Roman findfont 77.7242 sf 0 0 m (0) show NC gr 
 gsave  2268 1701 0 0 C 1522.48 146.304 t 0 r /Times-Roman findfont 77.7242 sf 0 0 m (5) show NC gr 
 gsave  2268 1701 0 0 C 2112.27 146.304 t 0 r /Times-Roman findfont 77.7242 sf 0 0 m (10) show NC gr  317 1582 m 1837 X s 317 1540 m 42 Y s 440 1561 m 21 Y s 562 1561 m 21 Y s 685 1561 m 21 Y s 807 1561 m 21 Y s 930 1540 m 42 Y s 1052 1561 m 21 Y s
 1175 1561 m 21 Y s 1297 1561 m 21 Y s 1420 1561 m 21 Y s 1542 1540 m 42 Y s 1665 1561 m 21 Y s 1787 1561 m 21 Y s 1909 1561 m 21 Y s 2032 1561 m 21 Y s 2154 1540 m 42 Y s 317 238 m 1344 Y s
 gsave  2268 1701 0 0 C 118.872 996.698 t 90 r /Times-Roman findfont 96.0122 sf 0 0 m (Candidates / ps) show NC gr  344 238 m -27 X s 344 283 m -27 X s 344 314 m -27 X s 344 339 m -27 X s 344 359 m -27 X s 344 376 m -27 X s 344 391 m -27 X s 344 404
 m -27 X s 371 415 m -54 X s
 gsave  2268 1701 0 0 C 297.071 382.356 t 0 r  -39 0 t /Times-Roman findfont 77.7242 sf 0 0 m (1) show NC gr  344 492 m -27 X s 344 536 m -27 X s 344 568 m -27 X s 344 592 m -27 X s 344 613 m -27 X s 344 629 m -27 X s 344 644 m -27 X s 344 657 m -27
 X s 371 669 m -54 X s
 gsave  2268 1701 0 0 C 297.071 635.82 t 0 r  -79 0 t /Times-Roman findfont 77.7242 sf 0 0 m (10) show NC gr  344 745 m -27 X s 344 790 m -27 X s 344 821 m -27 X s 344 846 m -27 X s 344 866 m -27 X s 344 883 m -27 X s 344 898 m -27 X s 344 911 m -27
 X s 371 922 m -54 X s
 gsave  2268 1701 0 0 C 265.177 918.974 t 0 r /Times-Roman findfont 54.8641 sf 0 0 m (2) show NC gr 
 gsave  2268 1701 0 0 C 187.452 886.97 t 0 r /Times-Roman findfont 77.7242 sf 0 0 m (10) show NC gr  344 999 m -27 X s 344 1043 m -27 X s 344 1075 m -27 X s 344 1099 m -27 X s 344 1119 m -27 X s 344 1136 m -27 X s 344 1151 m -27 X s 344 1164 m -27 X
 s 371 1176 m -54 X s
 gsave  2268 1701 0 0 C 265.177 1179.58 t 0 r /Times-Roman findfont 54.8641 sf 0 0 m (3) show NC gr 
 gsave  2268 1701 0 0 C 187.452 1143 t 0 r /Times-Roman findfont 77.7242 sf 0 0 m (10) show NC gr  344 1252 m -27 X s 344 1297 m -27 X s 344 1328 m -27 X s 344 1353 m -27 X s 344 1373 m -27 X s 344 1390 m -27 X s 344 1405 m -27 X s 344 1418 m -27 X s
 371 1429 m -54 X s
 gsave  2268 1701 0 0 C 265.177 1426.47 t 0 r /Times-Roman findfont 54.8641 sf 0 0 m (4) show NC gr 
 gsave  2268 1701 0 0 C 187.452 1394.46 t 0 r /Times-Roman findfont 77.7242 sf 0 0 m (10) show NC gr  344 1505 m -27 X s 344 1550 m -27 X s 344 1582 m -27 X s 2154 238 m 1344 Y s 2127 238 m 27 X s 2127 283 m 27 X s 2127 314 m 27 X s 2127 339 m 27 X s
 2127 359 m 27 X s 2127 376 m 27 X s 2127 391 m 27 X s 2127 404 m 27 X s 2101 415 m 53 X s 2127 492 m 27 X s 2127 536 m 27 X s 2127 568 m 27 X s 2127 592 m 27 X s 2127 613 m 27 X s 2127 629 m 27 X s 2127 644 m 27 X s 2127 657 m 27 X s 2101 669 m 53 X
 s 2127 745 m 27 X s 2127 790 m 27 X s 2127 821 m 27 X s 2127 846 m 27 X s 2127 866 m 27 X s 2127 883 m 27 X s 2127 898 m 27 X s 2127 911 m 27 X s 2101 922 m 53 X s 2127 999 m 27 X s 2127 1043 m 27 X s 2127 1075 m 27 X s 2127 1099 m 27 X s 2127 1119
 m 27 X s 2127 1136 m 27 X s 2127 1151 m 27 X s 2127 1164 m 27 X s 2101 1176 m 53 X s 2127 1252 m 27 X s 2127 1297 m 27 X s 2127 1328 m 27 X s 2127 1353 m 27 X s 2127 1373 m 27 X s 2127 1390 m 27 X s 2127 1405 m 27 X s 2127 1418 m 27 X s 2101 1429 m
 53 X s 2127 1505 m 27 X s 2127 1550 m 27 X s 2127 1582 m 27 X s 455 238 m -138 X s 317 238 m 9 Y s 455 238 m 138 X s 593 238 m 9 Y s 455 238 m 103 Y s 446 341 m 18 X s 731 631 m -138 X s 593 622 m 18 Y s 731 631 m 138 X s 869 622 m 18 Y s 731 631 m
 31 Y s 722 662 m 18 X s 731 631 m -31 Y s 722 600 m 18 X s 899 1302 m -30 X s 869 1293 m 18 Y s 899 1302 m 31 X s 930 1293 m 18 Y s 899 1302 m 3 Y s 890 1305 m 18 X s 899 1302 m -3 Y s 890 1299 m 18 X s 942 1422 m -12 X s 930 1413 m 18 Y s 942 1422
 m 12 X s 954 1413 m 18 Y s 942 1422 m 3 Y s 933 1425 m 18 X s 942 1422 m -2 Y s 933 1420 m 18 X s 967 1205 m -13 X s 954 1196 m 19 Y s 967 1205 m 12 X s 979 1196 m 19 Y s 967 1205 m 7 Y s 957 1212 m 19 X s 967 1205 m -6 Y s 957 1199 m 19 X s 991
 1088 m -12 X s 979 1079 m 18 Y s 991 1088 m 12 X s 1003 1079 m 18 Y s 991 1088 m 12 Y s 982 1100 m 18 X s 991 1088 m -12 Y s 982 1076 m 18 X s 1015 1019 m -12 X s 1003 1009 m 19 Y s 1015 1019 m 13 X s 1028 1009 m 19 Y s 1015 1019 m 16 Y s 1006 1035
 m 19 X s 1015 1019 m -18 Y s 1006 1001 m 19 X s 1040 1001 m -12 X s 1028 992 m 18 Y s 1040 1001 m 12 X s 1052 992 m 18 Y s 1040 1001 m 19 Y s 1031 1020 m 18 X s 1040 1001 m -18 Y s 1031 983 m 18 X s 1073 928 m -21 X s 1052 918 m 19 Y s 1073 928 m 20
 X s 1093 918 m 19 Y s 1073 928 m 20 Y s 1063 948 m 19 X s 1073 928 m -21 Y s 1063 907 m 19 X s 1113 903 m -20 X s 1093 894 m 18 Y s 1113 903 m 21 X s 1134 894 m 18 Y s 1113 903 m 23 Y s 1104 926 m 19 X s 1113 903 m -23 Y s 1104 880 m 19 X s 1154 876
 m -20 X s 1134 867 m 19 Y s 1154 876 m 21 X s 1175 867 m 19 Y s 1154 876 m 26 Y s 1145 902 m 18 X s 1154 876 m -26 Y s 1145 850 m 18 X s 1297 739 m -122 X s 1175 730 m 19 Y s 1297 739 m 123 X s 1420 730 m 19 Y s 1297 739 m 20 Y s 1288 759 m 18 X s
 1297 739 m -19 Y s 1288 720 m 18 X s 1542 592 m -122 X s 1420 583 m 19 Y s 1542 592 m 123 X s 1665 583 m 19 Y s 1542 592 m 40 Y s 1533 632 m 18 X s 1542 592 m -41 Y s 1533 551 m 18 X s 1787 516 m -122 X s 1665 507 m 18 Y s 1787 516 m 122 X s 1909
 507 m 18 Y s 1787 516 m 57 Y s 1778 573 m 18 X s 1787 516 m -62 Y s 1778 454 m 18 X s 2032 339 m -123 X s 1909 330 m 18 Y s 2032 339 m 122 X s 2154 330 m 18 Y s 2032 339 m 131 Y s 2023 470 m 18 X s 2032 339 m -101 Y s 2023 238 m 18 X s /w 37 def /w2
 {w 2 div} def /w3 {w 3 div} def 731 631 899 1302 942 1422 967 1205 991 1088 1015 1019 1040 1001 1073 928 1113 903 1154 876 1297 739 1542 592 1787 516 2032 339 14 { m20} R 0 0 1 c 9 lw 0 0.8 0 c black 0 0.8 0 c 2045 256 m s 2045 256 m -17 -18 d s
 2009 278 m s 2009 278 m -39 -40 d s 1973 299 m s 1973 299 m -61 -61 d s 1937 321 m s 1937 321 m -83 -83 d s 1902 343 m s 1902 343 m -105 -105 d s 1866 365 m s 1866 365 m -127 -127 d s 1830 386 m s 1830 386 m -149 -148 d s 1794 408 m s 1794 408 m
 -170 -170 d s 1758 430 m s 1758 430 m -192 -192 d s 1722 452 m -214 -214 d s 1686 474 m -236 -236 d s 1650 495 m -257 -257 d s 1614 517 m -279 -279 d s 1578 539 m -301 -301 d s 1542 561 m -323 -323 d s 1506 582 m -344 -344 d s 1470 604 m -366 -366 d
 s 1434 626 m -388 -388 d s 1398 648 m -409 -410 d s 1362 670 m -431 -432 d s 1326 691 m -453 -453 d s 1290 713 m -475 -475 d s 1254 735 m -496 -497 d s 1219 757 m -519 -519 d s 1183 779 m -541 -541 d s 1148 802 m -489 -490 d s 1116 827 m -422 -422 d
 s 1087 856 m -359 -359 d s 1064 891 m -301 -301 d s 1045 929 m -247 -247 d s 1028 970 m -196 -196 d s 1013 1013 m -151 -151 d s 1000 1058 m -119 -119 d s 988 1103 m -96 -96 d s 976 1149 m -77 -77 d s 966 1197 m -62 -62 d s 957 1246 m -48 -49 d s 950
 1297 m -37 -38 d s 944 1349 m -27 -28 d s 940 1402 m -19 -19 d s 936 1456 m -12 -12 d s 931 1508 m -1 X s 0 0 1 c black 3 lw 0 0 1 c 1 lw << /PatternType 1 /PaintType 2 /TilingType 1 /BBox [ 0 0 101 101 ] /XStep 100 /YStep 100 /PaintProc { begin
 gsave 0 0 m 0 30 l 30 0 l f 0 70 m 0 100 l 30 100 l f 70 100 m 100 100 l 100 70 l f 70 0 m 100 0 l 100 30 l f 50 20 m 20 50 l 50 80 l 80 50 l f 50 80 m 30 100 l s 20 50 m 0 30 l s 50 20 m 70 0 l s 80 50 m 100 70 l s gr end } >> [ 0.24 0 0 0.24 0 0 ]
 makepattern /P08 exch def /cs {[/Pattern /DeviceRGB] setcolorspace} def /FA {f [/DeviceRGB] setcolorspace} def cs 0 0 1 P08 setcolor 888 238 m 8 182 d 5 116 d 4 123 d 3 64 d 2 68 d 2 70 d 2 74 d 3 75 d 2 76 d 2 71 d 3 61 d 2 46 d 2 22 d 3 -6 d 2 -33
 d 2 -54 d 2 -66 d 3 -73 d 2 -76 d 2 -75 d 3 -73 d 2 -69 d 2 -66 d 5 -125 d 4 -117 d 11 -215 d FA 9 lw black 909 238 m 1 29 d s 910 267 m 2 66 d 2 68 d 3 72 d 2 74 d 2 73 d 3 70 d 2 63 d 2 50 d 3 37 d 2 23 d 2 12 d 2 6 d 3 3 d 2 X 2 -1 d 3 X 4 -3 d 9
 -6 d 10 -6 d 9 -6 d 9 -5 d 9 -6 d 9 -6 d 9 -6 d 19 -12 d 18 -12 d 19 -11 d 18 -12 d 18 -12 d 19 -12 d 18 -12 d 18 -11 d 19 -12 d 18 -12 d 19 -12 d 18 -11 d 18 -12 d 19 -12 d 18 -12 d 18 -12 d 19 -11 d 18 -12 d 18 -12 d 19 -12 d 18 -11 d 19 -12 d 18
 -12 d 18 -12 d 19 -12 d 18 -11 d 18 -12 d 19 -12 d 18 -12 d 19 -12 d 18 -11 d 18 -12 d 19 -12 d 18 -12 d 18 -11 d 19 -12 d 18 -12 d 18 -12 d 19 -12 d 18 -11 d 19 -12 d 18 -12 d 18 -12 d 19 -11 d 18 -12 d 18 -12 d 19 -12 d 18 -12 d 19 -11 d 18 -12 d
 18 -12 d s 1 0 0 c black 1 0 0 c 631 238 m 17 46 d s 648 284 m 18 49 d 19 49 d 18 49 d 19 48 d 18 49 d 18 49 d 19 49 d 18 49 d 18 49 d 19 49 d 18 51 d 19 58 d 9 37 d 9 51 d 4 34 d 5 42 d 2 23 d 3 26 d 2 28 d 2 30 d 3 31 d 2 32 d 2 34 d 2 35 d 3 37 d
 2 40 d 2 44 d 3 44 d 2 38 d 2 27 d 3 6 d 2 -14 d 2 -28 d 2 -35 d 3 -34 d 2 -30 d 2 -26 d 3 -23 d 2 -20 d 2 -19 d 2 -17 d 3 -16 d 2 -15 d 2 -13 d 3 -12 d 2 -12 d 5 -21 d 4 -20 d 5 -18 d 9 -34 d 9 -31 d 9 -29 d 9 -26 d 19 -44 d 18 -34 d 19 -26 d 18
 -21 d 18 -16 d 19 -14 d 18 -13 d 18 -13 d 19 -12 d 18 -11 d 19 -12 d 18 -11 d 18 -12 d 19 -11 d 18 -11 d 18 -12 d 19 -11 d 18 -12 d 18 -11 d 19 -11 d 18 -12 d 19 -11 d 18 -11 d 18 -12 d 19 -11 d 18 -12 d 18 -11 d 19 -11 d 18 -12 d 19 -11 d 18 -11 d
 18 -12 d 19 -11 d 18 -11 d 18 -12 d 19 -11 d 18 -12 d 18 -11 d 19 -11 d 18 -12 d 19 -11 d 18 -11 d 18 -12 d 19 -11 d 18 -11 d 18 -12 d 19 -11 d 18 -11 d 19 -12 d 18 -11 d 18 -11 d 19 -12 d 18 -11 d 18 -11 d 19 -12 d 18 -11 d 18 -12 d 19 -11 d 18 -11
 d 19 -12 d 18 -11 d 10 -6 d s black 3 lw 317 238 m 1837 X s 317 279 m -41 Y s 440 259 m -21 Y s 562 259 m -21 Y s 685 259 m -21 Y s 807 259 m -21 Y s 930 279 m -41 Y s 1052 259 m -21 Y s 1175 259 m -21 Y s 1297 259 m -21 Y s 1420 259 m -21 Y s 1542
 279 m -41 Y s 1665 259 m -21 Y s 1787 259 m -21 Y s 1909 259 m -21 Y s 2032 259 m -21 Y s 2154 279 m -41 Y s 317 1582 m 1837 X s 317 1540 m 42 Y s 440 1561 m 21 Y s 562 1561 m 21 Y s 685 1561 m 21 Y s 807 1561 m 21 Y s 930 1540 m 42 Y s 1052 1561 m
 21 Y s 1175 1561 m 21 Y s 1297 1561 m 21 Y s 1420 1561 m 21 Y s 1542 1540 m 42 Y s 1665 1561 m 21 Y s 1787 1561 m 21 Y s 1909 1561 m 21 Y s 2032 1561 m 21 Y s 2154 1540 m 42 Y s 317 238 m 1344 Y s 344 238 m -27 X s 344 283 m -27 X s 344 314 m -27 X
 s 344 339 m -27 X s 344 359 m -27 X s 344 376 m -27 X s 344 391 m -27 X s 344 404 m -27 X s 371 415 m -54 X s 344 492 m -27 X s 344 536 m -27 X s 344 568 m -27 X s 344 592 m -27 X s 344 613 m -27 X s 344 629 m -27 X s 344 644 m -27 X s 344 657 m -27
 X s 371 669 m -54 X s 344 745 m -27 X s 344 790 m -27 X s 344 821 m -27 X s 344 846 m -27 X s 344 866 m -27 X s 344 883 m -27 X s 344 898 m -27 X s 344 911 m -27 X s 371 922 m -54 X s 344 999 m -27 X s 344 1043 m -27 X s 344 1075 m -27 X s 344 1099
 m -27 X s 344 1119 m -27 X s 344 1136 m -27 X s 344 1151 m -27 X s 344 1164 m -27 X s 371 1176 m -54 X s 344 1252 m -27 X s 344 1297 m -27 X s 344 1328 m -27 X s 344 1353 m -27 X s 344 1373 m -27 X s 344 1390 m -27 X s 344 1405 m -27 X s 344 1418 m
 -27 X s 371 1429 m -54 X s 344 1505 m -27 X s 344 1550 m -27 X s 344 1582 m -27 X s 2154 238 m 1344 Y s 2127 238 m 27 X s 2127 283 m 27 X s 2127 314 m 27 X s 2127 339 m 27 X s 2127 359 m 27 X s 2127 376 m 27 X s 2127 391 m 27 X s 2127 404 m 27 X s
 2101 415 m 53 X s 2127 492 m 27 X s 2127 536 m 27 X s 2127 568 m 27 X s 2127 592 m 27 X s 2127 613 m 27 X s 2127 629 m 27 X s 2127 644 m 27 X s 2127 657 m 27 X s 2101 669 m 53 X s 2127 745 m 27 X s 2127 790 m 27 X s 2127 821 m 27 X s 2127 846 m 27 X
 s 2127 866 m 27 X s 2127 883 m 27 X s 2127 898 m 27 X s 2127 911 m 27 X s 2101 922 m 53 X s 2127 999 m 27 X s 2127 1043 m 27 X s 2127 1075 m 27 X s 2127 1099 m 27 X s 2127 1119 m 27 X s 2127 1136 m 27 X s 2127 1151 m 27 X s 2127 1164 m 27 X s 2101
 1176 m 53 X s 2127 1252 m 27 X s 2127 1297 m 27 X s 2127 1328 m 27 X s 2127 1353 m 27 X s 2127 1373 m 27 X s 2127 1390 m 27 X s 2127 1405 m 27 X s 2127 1418 m 27 X s 2101 1429 m 53 X s 2127 1505 m 27 X s 2127 1550 m 27 X s 2127 1582 m 27 X s
 gsave  2268 1701 0 0 C 1815.09 1161.29 t 0 r /Times-Roman findfont 59.4361 sf 0 0 m ( = 5 TeV) show NC gr 
 gsave  2268 1701 0 0 C 1755.65 1143 t 0 r /Times-Italic findfont 36.5761 sf 0 0 m (NN) show NC gr 
 gsave  2268 1701 0 0 C 1732.79 1161.29 t 0 r /Times-Italic findfont 59.4361 sf 0 0 m (s) show NC gr  6 lw 1710 1189 m 9 -51 d s 0 lw 1719 1138 m 9 69 d s 1728 1207 m 87 X s
 gsave  2268 1701 0 0 C 1449.33 1161.29 t 0 r /Times-Roman findfont 59.4361 sf 0 0 m (pPb\(Fwd\) ) show NC gr 
 gsave  2268 1701 0 0 C 1449.33 1229.87 t 0 r /Times-Roman findfont 73.1521 sf 0 0 m (LHCb ) show NC gr 
 gsave  2268 1701 0 0 C 1641.35 918.974 t 0 r /Times-Roman findfont 73.1521 sf 0 0 m ( <4.0) show NC gr 
 gsave  2268 1701 0 0 C 1604.78 918.974 t 0 r /Times-Italic findfont 73.1521 sf 0 0 m (y) show NC gr 
 gsave  2268 1701 0 0 C 1449.33 918.974 t 0 r /Times-Roman findfont 73.1521 sf 0 0 m (1.5< ) show NC gr 
 gsave  2268 1701 0 0 C 1847.09 800.102 t 0 r /Times-Italic findfont 73.1521 sf 0 0 m (c) show NC gr 
 gsave  2268 1701 0 0 C 1517.91 800.102 t 0 r /Times-Roman findfont 73.1521 sf 0 0 m ( < 14 GeV/) show NC gr 
 gsave  2268 1701 0 0 C 1490.47 763.526 t 0 r /Times-Roman findfont 45.7201 sf 0 0 m (T) show NC gr 
 gsave  2268 1701 0 0 C 1449.33 800.102 t 0 r /Times-Italic findfont 73.1521 sf 0 0 m (p) show NC gr 
 gr  gr showpage
end
%%EOF
