This is BibTeX, Version 0.99d (TeX Live 2015/Debian)
Capacity: max_strings=35307, hash_size=35307, hash_prime=30011
The top-level auxiliary file: main.aux
The style file: LHCb.bst
Database file #1: main.bib
Database file #2: LHCb-PAPER.bib
Database file #3: LHCb-CONF.bib
Database file #4: LHCb-DP.bib
Database file #5: LHCb-TDR.bib
You've used 16 entries,
            2829 wiz_defined-function locations,
            772 strings with 7559 characters,
and the built_in function-call counts, 66574 in all, are:
= -- 7257
> -- 135
< -- 0
+ -- 495
- -- 33
* -- 6662
:= -- 8366
add.period$ -- 16
call.type$ -- 16
change.case$ -- 16
chr.to.int$ -- 0
cite$ -- 16
duplicate$ -- 1258
empty$ -- 6949
format.name$ -- 33
if$ -- 14473
int.to.chr$ -- 0
int.to.str$ -- 16
missing$ -- 73
newline$ -- 107
num.names$ -- 16
pop$ -- 295
preamble$ -- 1
purify$ -- 0
quote$ -- 0
skip$ -- 133
stack$ -- 0
substring$ -- 19435
swap$ -- 0
text.length$ -- 32
text.prefix$ -- 0
top$ -- 0
type$ -- 0
warning$ -- 0
while$ -- 458
width$ -- 18
write$ -- 265
