\relax 
\providecommand\hyper@newdestlabel[2]{}
\providecommand\HyperFirstAtBeginDocument{\AtBeginDocument}
\HyperFirstAtBeginDocument{\ifx\hyper@anchor\@undefined
\global\let\oldcontentsline\contentsline
\gdef\contentsline#1#2#3#4{\oldcontentsline{#1}{#2}{#3}}
\global\let\oldnewlabel\newlabel
\gdef\newlabel#1#2{\newlabelxx{#1}#2}
\gdef\newlabelxx#1#2#3#4#5#6{\oldnewlabel{#1}{{#2}{#3}}}
\AtEndDocument{\ifx\hyper@anchor\@undefined
\let\contentsline\oldcontentsline
\let\newlabel\oldnewlabel
\fi}
\fi}
\global\let\hyper@last\relax 
\gdef\HyperFirstAtBeginDocument#1{#1}
\providecommand\HyField@AuxAddToFields[1]{}
\providecommand\HyField@AuxAddToCoFields[2]{}
\providecommand{\mciteSetMaxWidth}[3]{\relax}
\providecommand{\mciteSetMaxCount}[3]{\relax}
\citation{Alves:2008zz}
\citation{LHCb-DP-2014-002}
\citation{Alves:2008zz,LHCb-DP-2014-002}
\citation{LHCb-DP-2014-001}
\citation{LHCb-DP-2014-001}
\citation{LHCb-DP-2013-003}
\citation{LHCb-DP-2013-003}
\citation{LHCb-DP-2012-003}
\citation{LHCb-DP-2012-003}
\citation{LHCb-DP-2012-002}
\citation{LHCb-DP-2012-002}
\citation{LHCb-DP-2012-004}
\citation{LHCb-DP-2012-004}
\@writefile{toc}{\contentsline {section}{\numberline {1}Introduction}{1}{section.1}}
\newlabel{sec:Introduction}{{1}{1}{Introduction}{section.1}{}}
\newlabel{eq:AttenuationFactor}{{1}{1}{Introduction}{equation.1.1}{}}
\@writefile{toc}{\contentsline {section}{\numberline {2}Detector and simulation}{1}{section.2}}
\newlabel{sec:Detector}{{2}{1}{Detector and simulation}{section.2}{}}
\citation{Sjostrand:2006za}
\citation{Sjostrand:2007gs}
\citation{Sjostrand:2006za}
\citation{LHCb-PROC-2010-056}
\citation{LHCb-PROC-2010-056}
\citation{Lange:2001uf}
\citation{Lange:2001uf}
\citation{Golonka:2005pn}
\citation{Golonka:2005pn}
\citation{Allison:2006ve}
\citation{Agostinelli:2002hh}
\citation{Allison:2006ve}
\citation{LHCb-PROC-2011-006}
\citation{LHCb-PROC-2011-006}
\@writefile{toc}{\contentsline {section}{\numberline {3}Data and Monte Carlo sets}{2}{section.3}}
\newlabel{sec:datasets}{{3}{2}{Data and Monte Carlo sets}{section.3}{}}
\@writefile{toc}{\contentsline {subsection}{\numberline {3.1}Data}{2}{subsection.3.1}}
\@writefile{lot}{\contentsline {table}{\numberline {1}{\ignorespaces  \relax \fontsize  {10.95}{13.6}\selectfont  \abovedisplayskip 11\p@ plus3\p@ minus6\p@ \abovedisplayshortskip \z@ plus3\p@ \belowdisplayshortskip 6.5\p@ plus3.5\p@ minus3\p@ \def \leftmargin \leftmargini \parsep 5\p@ plus2.5\p@ minus\p@ \topsep 10\p@ plus4\p@ minus6\p@ \itemsep 5\p@ plus2.5\p@ minus\p@ {\leftmargin \leftmargini \topsep 9\p@ plus3\p@ minus5\p@ \parsep 4.5\p@ plus2\p@ minus\p@ \itemsep \parsep }\belowdisplayskip \abovedisplayskip Fills and run ranges for this analysis. \relax }}{2}{table.caption.1}}
\providecommand*\caption@xref[2]{\@setref\relax\@undefined{#1}}
\newlabel{tab:fill}{{1}{2}{\small Fills and run ranges for this analysis. \relax }{table.caption.1}{}}
\@writefile{toc}{\contentsline {subsection}{\numberline {3.2}Monte Carlo}{2}{subsection.3.2}}
\citation{PDG2014}
\citation{PDG2014}
\@writefile{lot}{\contentsline {table}{\numberline {2}{\ignorespaces \relax \fontsize  {10.95}{13.6}\selectfont  \abovedisplayskip 11\p@ plus3\p@ minus6\p@ \abovedisplayshortskip \z@ plus3\p@ \belowdisplayshortskip 6.5\p@ plus3.5\p@ minus3\p@ \def \leftmargin \leftmargini \parsep 5\p@ plus2.5\p@ minus\p@ \topsep 10\p@ plus4\p@ minus6\p@ \itemsep 5\p@ plus2.5\p@ minus\p@ {\leftmargin \leftmargini \topsep 9\p@ plus3\p@ minus5\p@ \parsep 4.5\p@ plus2\p@ minus\p@ \itemsep \parsep }\belowdisplayskip \abovedisplayskip Hlt1DiMuonHighMass selection criteria \relax }}{3}{table.caption.2}}
\newlabel{tab:hlt1triggerline}{{2}{3}{\small Hlt1DiMuonHighMass selection criteria \relax }{table.caption.2}{}}
\@writefile{lot}{\contentsline {table}{\numberline {3}{\ignorespaces \relax \fontsize  {10.95}{13.6}\selectfont  \abovedisplayskip 11\p@ plus3\p@ minus6\p@ \abovedisplayshortskip \z@ plus3\p@ \belowdisplayshortskip 6.5\p@ plus3.5\p@ minus3\p@ \def \leftmargin \leftmargini \parsep 5\p@ plus2.5\p@ minus\p@ \topsep 10\p@ plus4\p@ minus6\p@ \itemsep 5\p@ plus2.5\p@ minus\p@ {\leftmargin \leftmargini \topsep 9\p@ plus3\p@ minus5\p@ \parsep 4.5\p@ plus2\p@ minus\p@ \itemsep \parsep }\belowdisplayskip \abovedisplayskip Hlt2DiMuonTurboJpsi selection criteria \relax }}{3}{table.caption.3}}
\newlabel{tab:hlt2triggerline}{{3}{3}{\small Hlt2DiMuonTurboJpsi selection criteria \relax }{table.caption.3}{}}
\@writefile{toc}{\contentsline {section}{\numberline {4}Candidate reconstruction and selection}{3}{section.4}}
\newlabel{sec:selection}{{4}{3}{Candidate reconstruction and selection}{section.4}{}}
\@writefile{toc}{\contentsline {subsection}{\numberline {4.1}Trigger and Turbo stream selection}{3}{subsection.4.1}}
\@writefile{toc}{\contentsline {subsection}{\numberline {4.2}Offline selection}{3}{subsection.4.2}}
\newlabel{pseudopropertime}{{2}{3}{Offline selection}{equation.4.2}{}}
\citation{PDG2014}
\@writefile{lot}{\contentsline {table}{\numberline {4}{\ignorespaces \relax \fontsize  {10.95}{13.6}\selectfont  \abovedisplayskip 11\p@ plus3\p@ minus6\p@ \abovedisplayshortskip \z@ plus3\p@ \belowdisplayshortskip 6.5\p@ plus3.5\p@ minus3\p@ \def \leftmargin \leftmargini \parsep 5\p@ plus2.5\p@ minus\p@ \topsep 10\p@ plus4\p@ minus6\p@ \itemsep 5\p@ plus2.5\p@ minus\p@ {\leftmargin \leftmargini \topsep 9\p@ plus3\p@ minus5\p@ \parsep 4.5\p@ plus2\p@ minus\p@ \itemsep \parsep }\belowdisplayskip \abovedisplayskip Offline selection criteria \relax }}{4}{table.caption.4}}
\newlabel{tab:offlineselection}{{4}{4}{\small Offline selection criteria \relax }{table.caption.4}{}}
\@writefile{toc}{\contentsline {section}{\numberline {5}Cross-section determination}{4}{section.5}}
\newlabel{eq:crosssection}{{3}{4}{Cross-section determination}{equation.5.3}{}}
\@writefile{toc}{\contentsline {section}{\numberline {6}Signal extraction}{4}{section.6}}
\newlabel{sec:SignalExtraction}{{6}{4}{Signal extraction}{section.6}{}}
\@writefile{toc}{\contentsline {subsection}{\numberline {6.1}Integrated signal yield}{4}{subsection.6.1}}
\@writefile{lof}{\contentsline {figure}{\numberline {1}{\ignorespaces  \relax \fontsize  {10.95}{13.6}\selectfont  \abovedisplayskip 11\p@ plus3\p@ minus6\p@ \abovedisplayshortskip \z@ plus3\p@ \belowdisplayshortskip 6.5\p@ plus3.5\p@ minus3\p@ \def \leftmargin \leftmargini \parsep 5\p@ plus2.5\p@ minus\p@ \topsep 10\p@ plus4\p@ minus6\p@ \itemsep 5\p@ plus2.5\p@ minus\p@ {\leftmargin \leftmargini \topsep 9\p@ plus3\p@ minus5\p@ \parsep 4.5\p@ plus2\p@ minus\p@ \itemsep \parsep }\belowdisplayskip \abovedisplayskip The invariant mass distribution of dimuon The black dots are the data points, the red dashed curve indicates the signal component, the green dotted curve represents the combinatorial background, and the black solid curve is the sum of the signal and background components. \relax }}{5}{figure.caption.5}}
\newlabel{fig:mass}{{1}{5}{\small The invariant mass distribution of dimuon The black dots are the data points, the red dashed curve indicates the signal component, the green dotted curve represents the combinatorial background, and the black solid curve is the sum of the signal and background components. \relax }{figure.caption.5}{}}
\@writefile{toc}{\contentsline {subsection}{\numberline {6.2}Signal yield for prompt {\ensuremath  {{\ensuremath  {J}\xspace  \mskip -3mu/\mskip -2mu\ensuremath  {\psi }\xspace  \mskip 2mu}}}\xspace  and {\ensuremath  {{\ensuremath  {J}\xspace  \mskip -3mu/\mskip -2mu\ensuremath  {\psi }\xspace  \mskip 2mu}}}\xspace  from b}{5}{subsection.6.2}}
\newlabel{tzBackground}{{6}{5}{Signal yield for prompt \jpsi and \jpsi from b}{equation.6.6}{}}
\@writefile{toc}{\contentsline {section}{\numberline {7}Efficiencies}{6}{section.7}}
\newlabel{sec:psi2SEfficiencies}{{7}{6}{Efficiencies}{section.7}{}}
\newlabel{eq:total efficiency}{{7}{6}{Efficiencies}{equation.7.7}{}}
\@writefile{toc}{\contentsline {subsection}{\numberline {7.1}Geometrical acceptance}{6}{subsection.7.1}}
\newlabel{eq:acceptance efficiency}{{8}{6}{Geometrical acceptance}{equation.7.8}{}}
\@writefile{lof}{\contentsline {figure}{\numberline {2}{\ignorespaces  \relax \fontsize  {10.95}{13.6}\selectfont  \abovedisplayskip 11\p@ plus3\p@ minus6\p@ \abovedisplayshortskip \z@ plus3\p@ \belowdisplayshortskip 6.5\p@ plus3.5\p@ minus3\p@ \def \leftmargin \leftmargini \parsep 5\p@ plus2.5\p@ minus\p@ \topsep 10\p@ plus4\p@ minus6\p@ \itemsep 5\p@ plus2.5\p@ minus\p@ {\leftmargin \leftmargini \topsep 9\p@ plus3\p@ minus5\p@ \parsep 4.5\p@ plus2\p@ minus\p@ \itemsep \parsep }\belowdisplayskip \abovedisplayskip Acceptance efficiency. \relax }}{6}{figure.caption.6}}
\newlabel{fig:acceptance efficiency}{{2}{6}{\small Acceptance efficiency. \relax }{figure.caption.6}{}}
\@writefile{toc}{\contentsline {subsection}{\numberline {7.2}Reconstruction and selection efficiency}{7}{subsection.7.2}}
\@writefile{lof}{\contentsline {figure}{\numberline {3}{\ignorespaces  \relax \fontsize  {10.95}{13.6}\selectfont  \abovedisplayskip 11\p@ plus3\p@ minus6\p@ \abovedisplayshortskip \z@ plus3\p@ \belowdisplayshortskip 6.5\p@ plus3.5\p@ minus3\p@ \def \leftmargin \leftmargini \parsep 5\p@ plus2.5\p@ minus\p@ \topsep 10\p@ plus4\p@ minus6\p@ \itemsep 5\p@ plus2.5\p@ minus\p@ {\leftmargin \leftmargini \topsep 9\p@ plus3\p@ minus5\p@ \parsep 4.5\p@ plus2\p@ minus\p@ \itemsep \parsep }\belowdisplayskip \abovedisplayskip Reconstruction efficiency for (left) prompt {\ensuremath  {{\ensuremath  {J}\xspace  \mskip -3mu/\mskip -2mu\ensuremath  {\psi }\xspace  \mskip 2mu}}}\xspace  and (right) {\ensuremath  {{\ensuremath  {J}\xspace  \mskip -3mu/\mskip -2mu\ensuremath  {\psi }\xspace  \mskip 2mu}}}\xspace  from $b$. \relax }}{7}{figure.caption.7}}
\newlabel{fig:reconstruction efficiency}{{3}{7}{\small Reconstruction efficiency for (left) prompt \jpsi and (right) \jpsi from $b$. \relax }{figure.caption.7}{}}
\@writefile{toc}{\contentsline {subsection}{\numberline {7.3}PID efficiency}{7}{subsection.7.3}}
\@writefile{lof}{\contentsline {figure}{\numberline {4}{\ignorespaces  \relax \fontsize  {10.95}{13.6}\selectfont  \abovedisplayskip 11\p@ plus3\p@ minus6\p@ \abovedisplayshortskip \z@ plus3\p@ \belowdisplayshortskip 6.5\p@ plus3.5\p@ minus3\p@ \def \leftmargin \leftmargini \parsep 5\p@ plus2.5\p@ minus\p@ \topsep 10\p@ plus4\p@ minus6\p@ \itemsep 5\p@ plus2.5\p@ minus\p@ {\leftmargin \leftmargini \topsep 9\p@ plus3\p@ minus5\p@ \parsep 4.5\p@ plus2\p@ minus\p@ \itemsep \parsep }\belowdisplayskip \abovedisplayskip PID efficiency. \relax }}{8}{figure.caption.8}}
\newlabel{fig:pid efficiency}{{4}{8}{\small PID efficiency. \relax }{figure.caption.8}{}}
\@writefile{toc}{\contentsline {subsection}{\numberline {7.4}Trigger efficiency}{8}{subsection.7.4}}
\@writefile{lof}{\contentsline {figure}{\numberline {5}{\ignorespaces  \relax \fontsize  {10.95}{13.6}\selectfont  \abovedisplayskip 11\p@ plus3\p@ minus6\p@ \abovedisplayshortskip \z@ plus3\p@ \belowdisplayshortskip 6.5\p@ plus3.5\p@ minus3\p@ \def \leftmargin \leftmargini \parsep 5\p@ plus2.5\p@ minus\p@ \topsep 10\p@ plus4\p@ minus6\p@ \itemsep 5\p@ plus2.5\p@ minus\p@ {\leftmargin \leftmargini \topsep 9\p@ plus3\p@ minus5\p@ \parsep 4.5\p@ plus2\p@ minus\p@ \itemsep \parsep }\belowdisplayskip \abovedisplayskip Trigger efficiency. \relax }}{8}{figure.caption.9}}
\newlabel{fig:trigger efficiency}{{5}{8}{\small Trigger efficiency. \relax }{figure.caption.9}{}}
\@writefile{toc}{\contentsline {subsection}{\numberline {7.5}Total efficiency}{8}{subsection.7.5}}
\@writefile{lof}{\contentsline {figure}{\numberline {6}{\ignorespaces  \relax \fontsize  {10.95}{13.6}\selectfont  \abovedisplayskip 11\p@ plus3\p@ minus6\p@ \abovedisplayshortskip \z@ plus3\p@ \belowdisplayshortskip 6.5\p@ plus3.5\p@ minus3\p@ \def \leftmargin \leftmargini \parsep 5\p@ plus2.5\p@ minus\p@ \topsep 10\p@ plus4\p@ minus6\p@ \itemsep 5\p@ plus2.5\p@ minus\p@ {\leftmargin \leftmargini \topsep 9\p@ plus3\p@ minus5\p@ \parsep 4.5\p@ plus2\p@ minus\p@ \itemsep \parsep }\belowdisplayskip \abovedisplayskip Total efficiency. \relax }}{9}{figure.caption.10}}
\newlabel{fig:total efficiency}{{6}{9}{\small Total efficiency. \relax }{figure.caption.10}{}}
\@writefile{toc}{\contentsline {section}{\numberline {8}Systematic uncertainties}{9}{section.8}}
\@writefile{toc}{\contentsline {subsection}{\numberline {8.1}Mass shape}{9}{subsection.8.1}}
\@writefile{toc}{\contentsline {subsection}{\numberline {8.2}\ensuremath  {t_{z}}\xspace  shape}{9}{subsection.8.2}}
\@writefile{toc}{\contentsline {subsection}{\numberline {8.3}Trigger}{9}{subsection.8.3}}
\@writefile{toc}{\contentsline {subsection}{\numberline {8.4}Binning}{10}{subsection.8.4}}
\@writefile{toc}{\contentsline {subsection}{\numberline {8.5}Other systematic uncertainties}{10}{subsection.8.5}}
\@writefile{toc}{\contentsline {subsection}{\numberline {8.6}Summary for systematic uncertainties}{10}{subsection.8.6}}
\@writefile{toc}{\contentsline {section}{\numberline {9}Results}{10}{section.9}}
\@writefile{toc}{\contentsline {subsection}{\numberline {9.1}Cross-section}{10}{subsection.9.1}}
\@writefile{lof}{\contentsline {figure}{\numberline {7}{\ignorespaces  Production cross-section for (left) prompt {\ensuremath  {{\ensuremath  {J}\xspace  \mskip -3mu/\mskip -2mu\ensuremath  {\psi }\xspace  \mskip 2mu}}}\xspace  and (right) {\ensuremath  {{\ensuremath  {J}\xspace  \mskip -3mu/\mskip -2mu\ensuremath  {\psi }\xspace  \mskip 2mu}}}\xspace  from $b$. \relax }}{10}{figure.caption.11}}
\newlabel{fig:cross-section}{{7}{10}{Production cross-section for (left) prompt \jpsi and (right) \jpsi from $b$. \relax }{figure.caption.11}{}}
\@writefile{toc}{\contentsline {subsection}{\numberline {9.2}Cross-section in $2.5 < \ensuremath  {y}\xspace  < 4.0$}{10}{subsection.9.2}}
\@writefile{toc}{\contentsline {section}{\numberline {A}Efficiency tables}{12}{appendix.A}}
\newlabel{app:efficiency}{{A}{12}{Efficiency tables}{appendix.A}{}}
\@writefile{lot}{\contentsline {table}{\numberline {5}{\ignorespaces  \relax \fontsize  {10.95}{13.6}\selectfont  \abovedisplayskip 11\p@ plus3\p@ minus6\p@ \abovedisplayshortskip \z@ plus3\p@ \belowdisplayshortskip 6.5\p@ plus3.5\p@ minus3\p@ \def \leftmargin \leftmargini \parsep 5\p@ plus2.5\p@ minus\p@ \topsep 10\p@ plus4\p@ minus6\p@ \itemsep 5\p@ plus2.5\p@ minus\p@ {\leftmargin \leftmargini \topsep 9\p@ plus3\p@ minus5\p@ \parsep 4.5\p@ plus2\p@ minus\p@ \itemsep \parsep }\belowdisplayskip \abovedisplayskip Acceptance efficiency in different \unhbox \voidb@x \hbox {$p_{\mathrm  { T}}$}\xspace  and \ensuremath  {y}\xspace  bins of {\ensuremath  {{\ensuremath  {J}\xspace  \mskip -3mu/\mskip -2mu\ensuremath  {\psi }\xspace  \mskip 2mu}}}\xspace  . \relax }}{12}{table.caption.12}}
\newlabel{tab:acceptance efficiency}{{5}{12}{\small Acceptance efficiency in different \pt and \y bins of \jpsi . \relax }{table.caption.12}{}}
\@writefile{lot}{\contentsline {table}{\numberline {6}{\ignorespaces  \relax \fontsize  {10.95}{13.6}\selectfont  \abovedisplayskip 11\p@ plus3\p@ minus6\p@ \abovedisplayshortskip \z@ plus3\p@ \belowdisplayshortskip 6.5\p@ plus3.5\p@ minus3\p@ \def \leftmargin \leftmargini \parsep 5\p@ plus2.5\p@ minus\p@ \topsep 10\p@ plus4\p@ minus6\p@ \itemsep 5\p@ plus2.5\p@ minus\p@ {\leftmargin \leftmargini \topsep 9\p@ plus3\p@ minus5\p@ \parsep 4.5\p@ plus2\p@ minus\p@ \itemsep \parsep }\belowdisplayskip \abovedisplayskip Reconstruction and selection efficiency in different \unhbox \voidb@x \hbox {$p_{\mathrm  { T}}$}\xspace  and \ensuremath  {y}\xspace  bins of {\ensuremath  {{\ensuremath  {J}\xspace  \mskip -3mu/\mskip -2mu\ensuremath  {\psi }\xspace  \mskip 2mu}}}\xspace  . \relax }}{12}{table.caption.13}}
\newlabel{tab:reconstruction efficiency}{{6}{12}{\small Reconstruction and selection efficiency in different \pt and \y bins of \jpsi . \relax }{table.caption.13}{}}
\@writefile{lot}{\contentsline {table}{\numberline {7}{\ignorespaces  \relax \fontsize  {10.95}{13.6}\selectfont  \abovedisplayskip 11\p@ plus3\p@ minus6\p@ \abovedisplayshortskip \z@ plus3\p@ \belowdisplayshortskip 6.5\p@ plus3.5\p@ minus3\p@ \def \leftmargin \leftmargini \parsep 5\p@ plus2.5\p@ minus\p@ \topsep 10\p@ plus4\p@ minus6\p@ \itemsep 5\p@ plus2.5\p@ minus\p@ {\leftmargin \leftmargini \topsep 9\p@ plus3\p@ minus5\p@ \parsep 4.5\p@ plus2\p@ minus\p@ \itemsep \parsep }\belowdisplayskip \abovedisplayskip PID and selection efficiency in different \unhbox \voidb@x \hbox {$p_{\mathrm  { T}}$}\xspace  and \ensuremath  {y}\xspace  bins of {\ensuremath  {{\ensuremath  {J}\xspace  \mskip -3mu/\mskip -2mu\ensuremath  {\psi }\xspace  \mskip 2mu}}}\xspace  . \relax }}{13}{table.caption.14}}
\newlabel{tab:pid efficiency}{{7}{13}{\small PID and selection efficiency in different \pt and \y bins of \jpsi . \relax }{table.caption.14}{}}
\@writefile{lot}{\contentsline {table}{\numberline {8}{\ignorespaces  \relax \fontsize  {10.95}{13.6}\selectfont  \abovedisplayskip 11\p@ plus3\p@ minus6\p@ \abovedisplayshortskip \z@ plus3\p@ \belowdisplayshortskip 6.5\p@ plus3.5\p@ minus3\p@ \def \leftmargin \leftmargini \parsep 5\p@ plus2.5\p@ minus\p@ \topsep 10\p@ plus4\p@ minus6\p@ \itemsep 5\p@ plus2.5\p@ minus\p@ {\leftmargin \leftmargini \topsep 9\p@ plus3\p@ minus5\p@ \parsep 4.5\p@ plus2\p@ minus\p@ \itemsep \parsep }\belowdisplayskip \abovedisplayskip Trigger efficiency in different \unhbox \voidb@x \hbox {$p_{\mathrm  { T}}$}\xspace  and \ensuremath  {y}\xspace  bins of {\ensuremath  {{\ensuremath  {J}\xspace  \mskip -3mu/\mskip -2mu\ensuremath  {\psi }\xspace  \mskip 2mu}}}\xspace  . \relax }}{13}{table.caption.15}}
\newlabel{tab:trigger efficiency}{{8}{13}{\small Trigger efficiency in different \pt and \y bins of \jpsi . \relax }{table.caption.15}{}}
\@writefile{lot}{\contentsline {table}{\numberline {9}{\ignorespaces  \relax \fontsize  {10.95}{13.6}\selectfont  \abovedisplayskip 11\p@ plus3\p@ minus6\p@ \abovedisplayshortskip \z@ plus3\p@ \belowdisplayshortskip 6.5\p@ plus3.5\p@ minus3\p@ \def \leftmargin \leftmargini \parsep 5\p@ plus2.5\p@ minus\p@ \topsep 10\p@ plus4\p@ minus6\p@ \itemsep 5\p@ plus2.5\p@ minus\p@ {\leftmargin \leftmargini \topsep 9\p@ plus3\p@ minus5\p@ \parsep 4.5\p@ plus2\p@ minus\p@ \itemsep \parsep }\belowdisplayskip \abovedisplayskip Total efficiency in different \unhbox \voidb@x \hbox {$p_{\mathrm  { T}}$}\xspace  and \ensuremath  {y}\xspace  bins of {\ensuremath  {{\ensuremath  {J}\xspace  \mskip -3mu/\mskip -2mu\ensuremath  {\psi }\xspace  \mskip 2mu}}}\xspace  . \relax }}{14}{table.caption.16}}
\newlabel{tab:total efficiency}{{9}{14}{\small Total efficiency in different \pt and \y bins of \jpsi . \relax }{table.caption.16}{}}
\bibstyle{LHCb}
\bibdata{main,LHCb-PAPER,LHCb-CONF,LHCb-DP,LHCb-TDR}
\bibcite{Alves:2008zz}{1}
\bibcite{LHCb-DP-2014-002}{2}
\bibcite{LHCb-DP-2014-001}{3}
\bibcite{LHCb-DP-2013-003}{4}
\bibcite{LHCb-DP-2012-003}{5}
\bibcite{LHCb-DP-2012-002}{6}
\bibcite{LHCb-DP-2012-004}{7}
\bibcite{Sjostrand:2006za}{8}
\bibcite{LHCb-PROC-2010-056}{9}
\bibcite{Lange:2001uf}{10}
\bibcite{Golonka:2005pn}{11}
\bibcite{Allison:2006ve}{12}
\bibcite{LHCb-PROC-2011-006}{13}
\bibcite{PDG2014}{14}
\mciteSetMaxCount{main}{bibitem}{14}
\mciteSetMaxCount{main}{subitem}{1}
\mciteSetMaxWidth{main}{bibitem}{770040}
\mciteSetMaxWidth{main}{subitem}{0}
\@writefile{toc}{\contentsline {section}{References}{15}{table.caption.16}}
