%!PS-Adobe-2.0 EPSF-2.0
%%BoundingBox:  0 0 567 425
%%Title: Ap_Xsec_PTc_pb.eps: 
%%Creator: ROOT Version 5.34/18
%%CreationDate: Sun Aug  2 17:35:15 2015
%%EndComments
%%BeginProlog
80 dict begin
/s {stroke} def /l {lineto} def /m {moveto} def /t {translate} def
/r {rotate} def /rl {roll}  def /R {repeat} def
/d {rlineto} def /rm {rmoveto} def /gr {grestore} def /f {eofill} def
/c {setrgbcolor} def /black {0 setgray} def /sd {setdash} def
/cl {closepath} def /sf {scalefont setfont} def /lw {setlinewidth} def
/box {m dup 0 exch d exch 0 d 0 exch neg d cl} def
/NC{systemdict begin initclip end}def/C{NC box clip newpath}def
/bl {box s} def /bf {box f} def /Y { 0 exch d} def /X { 0 d} def 
/K {{pop pop 0 moveto} exch kshow} bind def
/ita {/ang 15 def gsave [1 0 ang dup sin exch cos div 1 0 0] concat} def 
/mp {newpath /y exch def /x exch def} def
/side {[w .77 mul w .23 mul] .385 w mul sd w 0 l currentpoint t -144 r} def
/mr {mp x y w2 0 360 arc} def /m24 {mr s} def /m20 {mr f} def
/mb {mp x y w2 add m w2 neg 0 d 0 w neg d w 0 d 0 w d cl} def
/mt {mp x y w2 add m w2 neg w neg d w 0 d cl} def
/m21 {mb f} def /m25 {mb s} def /m22 {mt f} def /m26{mt s} def
/m23 {mp x y w2 sub m w2 w d w neg 0 d cl f} def
/m27 {mp x y w2 add m w3 neg w2 neg d w3 w2 neg d w3 w2 d cl s} def
/m28 {mp x w2 sub y w2 sub w3 add m w3 0 d  0 w3 neg d w3 0 d 0 w3 d w3 0 d  0 w3 d w3 neg 0 d 0 w3 d w3 neg 0 d 0 w3 neg d w3 neg 0 d cl s } def
/m29 {mp gsave x w2 sub y w2 add w3 sub m currentpoint t 4 {side} repeat cl fill gr} def
/m30 {mp gsave x w2 sub y w2 add w3 sub m currentpoint t 4 {side} repeat cl s gr} def
/m31 {mp x y w2 sub m 0 w d x w2 sub y m w 0 d x w2 sub y w2 add m w w neg d x w2 sub y w2 sub m w w d s} def
/m32 {mp x y w2 sub m w2 w d w neg 0 d cl s} def
/m33 {mp x y w2 add m w3 neg w2 neg d w3 w2 neg d w3 w2 d cl f} def
/m34 {mp x w2 sub y w2 sub w3 add m w3 0 d  0 w3 neg d w3 0 d 0 w3 d w3 0 d  0 w3 d w3 neg 0 d 0 w3 d w3 neg 0 d 0 w3 neg d w3 neg 0 d cl f } def
/m2 {mp x y w2 sub m 0 w d x w2 sub y m w 0 d s} def
/m5 {mp x w2 sub y w2 sub m w w d x w2 sub y w2 add m w w neg d s} def
/reEncode {exch findfont dup length dict begin {1 index /FID eq  {pop pop} {def} ifelse } forall /Encoding exch def currentdict end dup /FontName get exch definefont pop } def [/Times-Bold /Times-Italic /Times-BoldItalic /Helvetica /Helvetica-Oblique
 /Helvetica-Bold /Helvetica-BoldOblique /Courier /Courier-Oblique /Courier-Bold /Courier-BoldOblique /Times-Roman /AvantGarde-Book /AvantGarde-BookOblique /AvantGarde-Demi /AvantGarde-DemiOblique /Bookman-Demi /Bookman-DemiItalic /Bookman-Light
 /Bookman-LightItalic /Helvetica-Narrow /Helvetica-Narrow-Bold /Helvetica-Narrow-BoldOblique /Helvetica-Narrow-Oblique /NewCenturySchlbk-Roman /NewCenturySchlbk-Bold /NewCenturySchlbk-BoldItalic /NewCenturySchlbk-Italic /Palatino-Bold
 /Palatino-BoldItalic /Palatino-Italic /Palatino-Roman ] {ISOLatin1Encoding reEncode } forall
%%EndProlog
%%BeginSetup
%%EndSetup
newpath  gsave  .25 .25 scale  gsave  0 0 t black[  ] 0 sd 6 lw 1 1 1 c 2268 1701 0 0 bf black 1 1 1 c 1837 1344 317 238 bf black 1837 1344 317 238 bl 1 1 1 c 1837 1344 317 238 bf black 1837 1344 317 238 bl 317 238 m 1837 X s
 gsave  2268 1701 0 0 C 1824.23 64.0081 t 0 r /Helvetica-Bold findfont 96.0122 sf 0 0 m ([GeV/c]) show NC gr 
 gsave  2268 1701 0 0 C 1783.08 13.716 t 0 r /Helvetica-Bold findfont 64.0081 sf 0 0 m (T) show NC gr 
 gsave  2268 1701 0 0 C 1723.65 64.0081 t 0 r /Helvetica-Bold findfont 96.0122 sf 0 0 m (p) show NC gr  317 279 m -41 Y s 449 259 m -21 Y s 580 259 m -21 Y s 711 259 m -21 Y s 842 259 m -21 Y s 973 279 m -41 Y s 1105 259 m -21 Y s 1236 259 m -21 Y s
 1367 259 m -21 Y s 1498 259 m -21 Y s 1630 279 m -41 Y s 1630 279 m -41 Y s 1761 259 m -21 Y s 1892 259 m -21 Y s 2023 259 m -21 Y s
 gsave  2268 1701 0 0 C 292.609 146.304 t 0 r /Helvetica-Bold findfont 77.7242 sf 0 0 m (0) show NC gr 
 gsave  2268 1701 0 0 C 946.406 146.304 t 0 r /Helvetica-Bold findfont 77.7242 sf 0 0 m (5) show NC gr 
 gsave  2268 1701 0 0 C 1581.92 146.304 t 0 r /Helvetica-Bold findfont 77.7242 sf 0 0 m (10) show NC gr  317 1582 m 1837 X s 317 1540 m 42 Y s 449 1561 m 21 Y s 580 1561 m 21 Y s 711 1561 m 21 Y s 842 1561 m 21 Y s 973 1540 m 42 Y s 1105 1561 m 21 Y
 s 1236 1561 m 21 Y s 1367 1561 m 21 Y s 1498 1561 m 21 Y s 1630 1540 m 42 Y s 1630 1540 m 42 Y s 1761 1561 m 21 Y s 1892 1561 m 21 Y s 2023 1561 m 21 Y s 317 238 m 1344 Y s
 gsave  2268 1701 0 0 C 109.728 1133.86 t 90 r /Helvetica-Bold findfont 96.0122 sf 0 0 m (b/\(GeV/c\)]) show NC gr 
 gsave  2268 1701 0 0 C 109.728 1078.99 t 90 r /Symbol findfont 96.0122 sf 0 0 m (m) show NC gr 
 gsave  2268 1701 0 0 C 109.728 1019.56 t 90 r /Helvetica-Bold findfont 96.0122 sf 0 0 m ( [) show NC gr 
 gsave  2268 1701 0 0 C 160.02 978.41 t 90 r /Helvetica-Bold findfont 64.0081 sf 0 0 m (T) show NC gr 
 gsave  2268 1701 0 0 C 109.728 836.678 t 90 r /Helvetica-Bold findfont 96.0122 sf 0 0 m (/dp) show NC gr 
 gsave  2268 1701 0 0 C 109.728 777.242 t 90 r /Symbol findfont 96.0122 sf 0 0 m (s) show NC gr 
 gsave  2268 1701 0 0 C 109.728 722.377 t 90 r /Helvetica-Bold findfont 96.0122 sf 0 0 m (d) show NC gr  344 238 m -27 X s 344 317 m -27 X s 344 373 m -27 X s 344 416 m -27 X s 344 452 m -27 X s 344 482 m -27 X s 344 508 m -27 X s 344 531 m -27 X s
 371 551 m -54 X s
 gsave  2268 1701 0 0 C 297.071 518.243 t 0 r  -44 0 t /Helvetica-Bold findfont 77.7242 sf 0 0 m (1) show NC gr  344 686 m -27 X s 344 765 m -27 X s 344 821 m -27 X s 344 864 m -27 X s 344 900 m -27 X s 344 930 m -27 X s 344 956 m -27 X s 344 979 m
 -27 X s 371 999 m -54 X s
 gsave  2268 1701 0 0 C 297.071 966.116 t 0 r  -88 0 t /Helvetica-Bold findfont 77.7242 sf 0 0 m (10) show NC gr  344 1134 m -27 X s 344 1213 m -27 X s 344 1269 m -27 X s 344 1312 m -27 X s 344 1348 m -27 X s 344 1378 m -27 X s 344 1404 m -27 X s 344
 1426 m -27 X s 371 1447 m -54 X s
 gsave  2268 1701 0 0 C 260.605 1444.75 t 0 r /Helvetica-Bold findfont 54.8641 sf 0 0 m (2) show NC gr 
 gsave  2268 1701 0 0 C 173.736 1412.75 t 0 r /Helvetica-Bold findfont 77.7242 sf 0 0 m (10) show NC gr  344 1582 m -27 X s 2154 238 m 1344 Y s 2127 238 m 27 X s 2127 317 m 27 X s 2127 373 m 27 X s 2127 416 m 27 X s 2127 452 m 27 X s 2127 482 m 27 X
 s 2127 508 m 27 X s 2127 531 m 27 X s 2101 551 m 53 X s 2127 686 m 27 X s 2127 765 m 27 X s 2127 821 m 27 X s 2127 864 m 27 X s 2127 900 m 27 X s 2127 930 m 27 X s 2127 956 m 27 X s 2127 979 m 27 X s 2101 999 m 53 X s 2127 1134 m 27 X s 2127 1213 m
 27 X s 2127 1269 m 27 X s 2127 1312 m 27 X s 2127 1348 m 27 X s 2127 1378 m 27 X s 2127 1404 m 27 X s 2127 1426 m 27 X s 2101 1447 m 53 X s 2127 1582 m 27 X s 3 lw /w 37 def /w2 {w 2 div} def /w3 {w 3 div} def 449 1088 645 1171 842 1076 1105 865
 1695 508 5 { m20} R 6 lw 430 1088 m -113 X s 317 1079 m 18 Y s 467 1088 m 113 X s 580 1079 m 18 Y s 449 1106 m 79 Y s 440 1185 m 18 X s 449 1070 m -183 Y s 440 887 m 18 X s 627 1171 m -47 X s 580 1162 m 18 Y s 664 1171 m 47 X s 711 1162 m 18 Y s 645
 1189 m 72 Y s 636 1261 m 19 X s 645 1152 m -154 Y s 636 998 m 19 X s 824 1076 m -113 X s 711 1067 m 19 Y s 861 1076 m 112 X s 973 1067 m 19 Y s 842 1095 m 62 Y s 833 1157 m 18 X s 842 1058 m -122 Y s 833 936 m 18 X s 1086 865 m -113 X s 973 856 m 18
 Y s 1123 865 m 113 X s 1236 856 m 18 Y s 1105 883 m 68 Y s 1096 951 m 18 X s 1105 847 m -141 Y s 1096 706 m 18 X s 1677 508 m -441 X s 1236 499 m 18 Y s 1713 508 m 441 X s 2154 499 m 18 Y s 1695 527 m 60 Y s 1686 587 m 18 X s 1695 490 m -115 Y s
 1686 375 m 18 X s
 gsave  2268 1701 0 0 C 859.538 1371.6 t 0 r /Helvetica-Bold findfont 64.0081 sf 0 0 m ( = 5 TeV) show NC gr 
 gsave  2268 1701 0 0 C 800.102 1348.74 t 0 r /Helvetica-Bold findfont 41.1481 sf 0 0 m (NN) show NC gr 
 gsave  2268 1701 0 0 C 763.526 1371.6 t 0 r /Helvetica-Bold findfont 64.0081 sf 0 0 m (s) show NC gr  736 1408 m 9 -59 d s 0 lw 745 1349 m 9 77 d s 754 1426 m 106 X s
 gsave  2268 1701 0 0 C 406.909 1371.6 t 0 r /Helvetica-Bold findfont 64.0081 sf 0 0 m (pPb\(Bwd\) ) show NC gr 
 gsave  2268 1701 0 0 C 406.909 1449.33 t 0 r /Helvetica-Bold findfont 77.7242 sf 0 0 m (LHCb) show NC gr  6 lw 0.999 0.999 0.999 c 839 204 1247 1327 bf black
 gsave  2268 1701 0 0 C 1901.96 1385.32 t 0 r /Helvetica-Bold findfont 82.2962 sf 0 0 m (\(2S\)) show NC gr 
 gsave  2268 1701 0 0 C 1842.52 1385.32 t 0 r /Symbol findfont 82.2962 sf 0 0 m (y) show NC gr 
 gsave  2268 1701 0 0 C 1453.9 1385.32 t 0 r /Helvetica-Bold findfont 82.2962 sf 0 0 m (inclusive ) show NC gr  1279 1429 m 147 X s 1352 1367 m 123 Y s 3 lw 1352 1429 m20 6 lw
 gsave  2268 1701 0 0 C 859.538 1371.6 t 0 r /Helvetica-Bold findfont 64.0081 sf 0 0 m ( = 5 TeV) show NC gr 
 gsave  2268 1701 0 0 C 800.102 1348.74 t 0 r /Helvetica-Bold findfont 41.1481 sf 0 0 m (NN) show NC gr 
 gsave  2268 1701 0 0 C 763.526 1371.6 t 0 r /Helvetica-Bold findfont 64.0081 sf 0 0 m (s) show NC gr  736 1408 m 9 -59 d s 0 lw 745 1349 m 9 77 d s 754 1426 m 106 X s
 gsave  2268 1701 0 0 C 406.909 1371.6 t 0 r /Helvetica-Bold findfont 64.0081 sf 0 0 m (pPb\(Bwd\) ) show NC gr 
 gsave  2268 1701 0 0 C 406.909 1449.33 t 0 r /Helvetica-Bold findfont 77.7242 sf 0 0 m (LHCb) show NC gr 
 gsave  2268 1701 0 0 C 1357.89 1056.13 t 0 r /Helvetica-Bold findfont 77.7242 sf 0 0 m (2.5 < |y| < 4.0) show NC gr 
 gr  gr showpage
end
%%EOF
