%!PS-Adobe-2.0 EPSF-2.0
%%BoundingBox:  0 0 567 425
%%Title: ../result/CrossSection/Ap_Xsec_Y_pb.eps: 
%%Creator: ROOT Version 5.34/18
%%CreationDate: Wed Sep 23 01:11:13 2015
%%EndComments
%%BeginProlog
80 dict begin
/s {stroke} def /l {lineto} def /m {moveto} def /t {translate} def
/r {rotate} def /rl {roll}  def /R {repeat} def
/d {rlineto} def /rm {rmoveto} def /gr {grestore} def /f {eofill} def
/c {setrgbcolor} def /black {0 setgray} def /sd {setdash} def
/cl {closepath} def /sf {scalefont setfont} def /lw {setlinewidth} def
/box {m dup 0 exch d exch 0 d 0 exch neg d cl} def
/NC{systemdict begin initclip end}def/C{NC box clip newpath}def
/bl {box s} def /bf {box f} def /Y { 0 exch d} def /X { 0 d} def 
/K {{pop pop 0 moveto} exch kshow} bind def
/ita {/ang 15 def gsave [1 0 ang dup sin exch cos div 1 0 0] concat} def 
/mp {newpath /y exch def /x exch def} def
/side {[w .77 mul w .23 mul] .385 w mul sd w 0 l currentpoint t -144 r} def
/mr {mp x y w2 0 360 arc} def /m24 {mr s} def /m20 {mr f} def
/mb {mp x y w2 add m w2 neg 0 d 0 w neg d w 0 d 0 w d cl} def
/mt {mp x y w2 add m w2 neg w neg d w 0 d cl} def
/m21 {mb f} def /m25 {mb s} def /m22 {mt f} def /m26{mt s} def
/m23 {mp x y w2 sub m w2 w d w neg 0 d cl f} def
/m27 {mp x y w2 add m w3 neg w2 neg d w3 w2 neg d w3 w2 d cl s} def
/m28 {mp x w2 sub y w2 sub w3 add m w3 0 d  0 w3 neg d w3 0 d 0 w3 d w3 0 d  0 w3 d w3 neg 0 d 0 w3 d w3 neg 0 d 0 w3 neg d w3 neg 0 d cl s } def
/m29 {mp gsave x w2 sub y w2 add w3 sub m currentpoint t 4 {side} repeat cl fill gr} def
/m30 {mp gsave x w2 sub y w2 add w3 sub m currentpoint t 4 {side} repeat cl s gr} def
/m31 {mp x y w2 sub m 0 w d x w2 sub y m w 0 d x w2 sub y w2 add m w w neg d x w2 sub y w2 sub m w w d s} def
/m32 {mp x y w2 sub m w2 w d w neg 0 d cl s} def
/m33 {mp x y w2 add m w3 neg w2 neg d w3 w2 neg d w3 w2 d cl f} def
/m34 {mp x w2 sub y w2 sub w3 add m w3 0 d  0 w3 neg d w3 0 d 0 w3 d w3 0 d  0 w3 d w3 neg 0 d 0 w3 d w3 neg 0 d 0 w3 neg d w3 neg 0 d cl f } def
/m2 {mp x y w2 sub m 0 w d x w2 sub y m w 0 d s} def
/m5 {mp x w2 sub y w2 sub m w w d x w2 sub y w2 add m w w neg d s} def
/reEncode {exch findfont dup length dict begin {1 index /FID eq  {pop pop} {def} ifelse } forall /Encoding exch def currentdict end dup /FontName get exch definefont pop } def [/Times-Bold /Times-Italic /Times-BoldItalic /Helvetica /Helvetica-Oblique
 /Helvetica-Bold /Helvetica-BoldOblique /Courier /Courier-Oblique /Courier-Bold /Courier-BoldOblique /Times-Roman /AvantGarde-Book /AvantGarde-BookOblique /AvantGarde-Demi /AvantGarde-DemiOblique /Bookman-Demi /Bookman-DemiItalic /Bookman-Light
 /Bookman-LightItalic /Helvetica-Narrow /Helvetica-Narrow-Bold /Helvetica-Narrow-BoldOblique /Helvetica-Narrow-Oblique /NewCenturySchlbk-Roman /NewCenturySchlbk-Bold /NewCenturySchlbk-BoldItalic /NewCenturySchlbk-Italic /Palatino-Bold
 /Palatino-BoldItalic /Palatino-Italic /Palatino-Roman ] {ISOLatin1Encoding reEncode } forall
%%EndProlog
%%BeginSetup
%%EndSetup
newpath  gsave  .25 .25 scale  gsave  0 0 t black[  ] 0 sd 6 lw 1 1 1 c 2268 1701 0 0 bf black 1 1 1 c 1837 1344 317 238 bf black 1837 1344 317 238 bl 1 1 1 c 1837 1344 317 238 bf black 1837 1344 317 238 bl 317 238 m 1837 X s
 gsave  2268 1701 0 0 C 2107.7 64.0081 t 0 r /Times-Italic findfont 96.0122 sf 0 0 m (y) show NC gr 
 gsave  2268 1701 0 0 C 2052.83 64.0081 t 0 r /Symbol findfont 96.0122 sf 0 0 m (-) show NC gr  317 279 m -41 Y s 391 259 m -21 Y s 464 259 m -21 Y s 538 259 m -21 Y s 611 259 m -21 Y s 685 279 m -41 Y s 758 259 m -21 Y s 832 259 m -21 Y s 905 259 m
 -21 Y s 979 259 m -21 Y s 1052 279 m -41 Y s 1126 259 m -21 Y s 1199 259 m -21 Y s 1273 259 m -21 Y s 1346 259 m -21 Y s 1420 279 m -41 Y s 1493 259 m -21 Y s 1567 259 m -21 Y s 1640 259 m -21 Y s 1713 259 m -21 Y s 1787 279 m -41 Y s 1860 259 m -21
 Y s 1934 259 m -21 Y s 2007 259 m -21 Y s 2081 259 m -21 Y s 2154 279 m -41 Y s
 gsave  2268 1701 0 0 C 260.605 146.304 t 0 r /Helvetica-Bold findfont 77.7242 sf 0 0 m (2.5) show NC gr 
 gsave  2268 1701 0 0 C 658.369 146.304 t 0 r /Helvetica-Bold findfont 77.7242 sf 0 0 m (3) show NC gr 
 gsave  2268 1701 0 0 C 996.698 146.304 t 0 r /Helvetica-Bold findfont 77.7242 sf 0 0 m (3.5) show NC gr 
 gsave  2268 1701 0 0 C 1394.46 146.304 t 0 r /Helvetica-Bold findfont 77.7242 sf 0 0 m (4) show NC gr 
 gsave  2268 1701 0 0 C 1728.22 146.304 t 0 r /Helvetica-Bold findfont 77.7242 sf 0 0 m (4.5) show NC gr 
 gsave  2268 1701 0 0 C 2130.56 146.304 t 0 r /Helvetica-Bold findfont 77.7242 sf 0 0 m (5) show NC gr  317 1582 m 1837 X s 317 1540 m 42 Y s 391 1561 m 21 Y s 464 1561 m 21 Y s 538 1561 m 21 Y s 611 1561 m 21 Y s 685 1540 m 42 Y s 758 1561 m 21 Y s
 832 1561 m 21 Y s 905 1561 m 21 Y s 979 1561 m 21 Y s 1052 1540 m 42 Y s 1126 1561 m 21 Y s 1199 1561 m 21 Y s 1273 1561 m 21 Y s 1346 1561 m 21 Y s 1420 1540 m 42 Y s 1493 1561 m 21 Y s 1567 1561 m 21 Y s 1640 1561 m 21 Y s 1713 1561 m 21 Y s 1787
 1540 m 42 Y s 1860 1561 m 21 Y s 1934 1561 m 21 Y s 2007 1561 m 21 Y s 2081 1561 m 21 Y s 2154 1540 m 42 Y s 317 238 m 1344 Y s
 gsave  2268 1701 0 0 C 123.444 1495.05 t 90 r /Helvetica-Bold findfont 96.0122 sf 0 0 m (b]) show NC gr 
 gsave  2268 1701 0 0 C 123.444 1440.18 t 90 r /Symbol findfont 96.0122 sf 0 0 m (m) show NC gr 
 gsave  2268 1701 0 0 C 123.444 1380.75 t 90 r /Helvetica-Bold findfont 96.0122 sf 0 0 m ( [) show NC gr 
 gsave  2268 1701 0 0 C 123.444 1335.03 t 90 r /Times-Italic findfont 96.0122 sf 0 0 m (y) show NC gr 
 gsave  2268 1701 0 0 C 123.444 1252.73 t 90 r /Helvetica-Bold findfont 96.0122 sf 0 0 m (/d) show NC gr 
 gsave  2268 1701 0 0 C 123.444 1024.13 t 90 r /Times-Italic findfont 96.0122 sf 0 0 m (sigma) show NC gr 
 gsave  2268 1701 0 0 C 123.444 909.83 t 90 r /Helvetica-Bold findfont 96.0122 sf 0 0 m (d#) show NC gr  371 360 m -54 X s 344 421 m -27 X s 344 482 m -27 X s 344 543 m -27 X s 344 605 m -27 X s 371 666 m -54 X s 344 727 m -27 X s 344 788 m -27 X s
 344 849 m -27 X s 344 910 m -27 X s 371 971 m -54 X s 344 1032 m -27 X s 344 1093 m -27 X s 344 1154 m -27 X s 344 1215 m -27 X s 371 1276 m -54 X s 344 1337 m -27 X s 344 1399 m -27 X s 344 1460 m -27 X s 344 1521 m -27 X s 371 1582 m -54 X s 371
 360 m -54 X s 344 299 m -27 X s 344 238 m -27 X s
 gsave  2268 1701 0 0 C 260.605 329.185 t 0 r /Helvetica-Bold findfont 77.7242 sf 0 0 m (0) show NC gr 
 gsave  2268 1701 0 0 C 214.884 635.509 t 0 r /Helvetica-Bold findfont 77.7242 sf 0 0 m (50) show NC gr 
 gsave  2268 1701 0 0 C 173.736 941.834 t 0 r /Helvetica-Bold findfont 77.7242 sf 0 0 m (100) show NC gr 
 gsave  2268 1701 0 0 C 173.736 1248.16 t 0 r /Helvetica-Bold findfont 77.7242 sf 0 0 m (150) show NC gr 
 gsave  2268 1701 0 0 C 173.736 1549.91 t 0 r /Helvetica-Bold findfont 77.7242 sf 0 0 m (200) show NC gr  2154 238 m 1344 Y s 2101 360 m 53 X s 2127 421 m 27 X s 2127 482 m 27 X s 2127 543 m 27 X s 2127 605 m 27 X s 2101 666 m 53 X s 2127 727 m 27 X
 s 2127 788 m 27 X s 2127 849 m 27 X s 2127 910 m 27 X s 2101 971 m 53 X s 2127 1032 m 27 X s 2127 1093 m 27 X s 2127 1154 m 27 X s 2127 1215 m 27 X s 2101 1276 m 53 X s 2127 1337 m 27 X s 2127 1399 m 27 X s 2127 1460 m 27 X s 2127 1521 m 27 X s 2101
 1582 m 53 X s 2101 360 m 53 X s 2127 299 m 27 X s 2127 238 m 27 X s 3 lw /w 37 def /w2 {w 2 div} def /w3 {w 3 div} def 501 857 869 871 1236 490 1603 586 1971 499 5 { m20} R 6 lw 483 857 m -166 X s 317 848 m 18 Y s 519 857 m 166 X s 685 848 m 18 Y s
 501 875 m 212 Y s 492 1087 m 18 X s 501 838 m -212 Y s 492 626 m 18 X s 850 871 m -165 X s 685 862 m 18 Y s 887 871 m 165 X s 1052 862 m 18 Y s 869 890 m 170 Y s 859 1060 m 19 X s 869 853 m -170 Y s 859 683 m 19 X s 1218 490 m -166 X s 1052 481 m 19
 Y s 1254 490 m 166 X s 1420 481 m 19 Y s 1236 509 m 132 Y s 1227 641 m 18 X s 1236 472 m -132 Y s 1227 340 m 18 X s 1585 586 m -165 X s 1420 576 m 19 Y s 1622 586 m 165 X s 1787 576 m 19 Y s 1603 604 m 115 Y s 1594 719 m 18 X s 1603 567 m -115 Y s
 1594 452 m 18 X s 1952 499 m -165 X s 1787 489 m 19 Y s 1989 499 m 165 X s 2154 489 m 19 Y s 1971 517 m 101 Y s 1962 618 m 18 X s 1971 480 m -101 Y s 1962 379 m 18 X s
 gsave  2268 1701 0 0 C 809.246 1376.17 t 0 r /Times-Roman findfont 64.0081 sf 0 0 m ( = 5 TeV) show NC gr 
 gsave  2268 1701 0 0 C 745.237 1357.89 t 0 r /Times-Italic findfont 41.1481 sf 0 0 m (NN) show NC gr 
 gsave  2268 1701 0 0 C 717.805 1376.17 t 0 r /Times-Italic findfont 64.0081 sf 0 0 m (s) show NC gr  690 1408 m 10 -55 d s 0 lw 700 1353 m 9 73 d s 709 1426 m 100 X s
 gsave  2268 1701 0 0 C 406.909 1376.17 t 0 r /Times-Roman findfont 64.0081 sf 0 0 m (pPb\(Bwd\) ) show NC gr 
 gsave  2268 1701 0 0 C 406.909 1463.04 t 0 r /Times-Roman findfont 77.7242 sf 0 0 m (LHCb preliminary) show NC gr  6 lw 0.999 0.999 0.999 c 839 204 1247 1327 bf black
 gsave  2268 1701 0 0 C 1865.38 1385.32 t 0 r /Times-Italic findfont 86.8682 sf 0 0 m (\(2S\)) show NC gr 
 gsave  2268 1701 0 0 C 1801.37 1385.32 t 0 r /Symbol findfont 86.8682 sf 0 0 m (y) show NC gr 
 gsave  2268 1701 0 0 C 1453.9 1385.32 t 0 r /Times-Roman findfont 86.8682 sf 0 0 m (Inclusive ) show NC gr  1279 1429 m 147 X s 1352 1367 m 123 Y s 3 lw 1352 1429 m20 6 lw
 gsave  2268 1701 0 0 C 809.246 1376.17 t 0 r /Times-Roman findfont 64.0081 sf 0 0 m ( = 5 TeV) show NC gr 
 gsave  2268 1701 0 0 C 745.237 1357.89 t 0 r /Times-Italic findfont 41.1481 sf 0 0 m (NN) show NC gr 
 gsave  2268 1701 0 0 C 717.805 1376.17 t 0 r /Times-Italic findfont 64.0081 sf 0 0 m (s) show NC gr  690 1408 m 10 -55 d s 0 lw 700 1353 m 9 73 d s 709 1426 m 100 X s
 gsave  2268 1701 0 0 C 406.909 1376.17 t 0 r /Times-Roman findfont 64.0081 sf 0 0 m (pPb\(Bwd\) ) show NC gr 
 gsave  2268 1701 0 0 C 406.909 1463.04 t 0 r /Times-Roman findfont 77.7242 sf 0 0 m (LHCb preliminary) show NC gr 
 gsave  2268 1701 0 0 C 1426.47 1056.13 t 0 r /Times-Roman findfont 73.1521 sf 0 0 m ( < 14 GeV/c) show NC gr 
 gsave  2268 1701 0 0 C 1399.03 1019.56 t 0 r /Times-Roman findfont 45.7201 sf 0 0 m (T) show NC gr 
 gsave  2268 1701 0 0 C 1357.89 1056.13 t 0 r /Times-Italic findfont 73.1521 sf 0 0 m (p) show NC gr 
 gr  gr showpage
end
%%EOF
