%!PS-Adobe-2.0 EPSF-2.0
%%BoundingBox:  0 0 567 425
%%Title: ../result/CrossSection/pA_Xsec_PTc_pb.eps: 
%%Creator: ROOT Version 5.34/18
%%CreationDate: Sun Aug  2 17:35:13 2015
%%EndComments
%%BeginProlog
80 dict begin
/s {stroke} def /l {lineto} def /m {moveto} def /t {translate} def
/r {rotate} def /rl {roll}  def /R {repeat} def
/d {rlineto} def /rm {rmoveto} def /gr {grestore} def /f {eofill} def
/c {setrgbcolor} def /black {0 setgray} def /sd {setdash} def
/cl {closepath} def /sf {scalefont setfont} def /lw {setlinewidth} def
/box {m dup 0 exch d exch 0 d 0 exch neg d cl} def
/NC{systemdict begin initclip end}def/C{NC box clip newpath}def
/bl {box s} def /bf {box f} def /Y { 0 exch d} def /X { 0 d} def 
/K {{pop pop 0 moveto} exch kshow} bind def
/ita {/ang 15 def gsave [1 0 ang dup sin exch cos div 1 0 0] concat} def 
/mp {newpath /y exch def /x exch def} def
/side {[w .77 mul w .23 mul] .385 w mul sd w 0 l currentpoint t -144 r} def
/mr {mp x y w2 0 360 arc} def /m24 {mr s} def /m20 {mr f} def
/mb {mp x y w2 add m w2 neg 0 d 0 w neg d w 0 d 0 w d cl} def
/mt {mp x y w2 add m w2 neg w neg d w 0 d cl} def
/m21 {mb f} def /m25 {mb s} def /m22 {mt f} def /m26{mt s} def
/m23 {mp x y w2 sub m w2 w d w neg 0 d cl f} def
/m27 {mp x y w2 add m w3 neg w2 neg d w3 w2 neg d w3 w2 d cl s} def
/m28 {mp x w2 sub y w2 sub w3 add m w3 0 d  0 w3 neg d w3 0 d 0 w3 d w3 0 d  0 w3 d w3 neg 0 d 0 w3 d w3 neg 0 d 0 w3 neg d w3 neg 0 d cl s } def
/m29 {mp gsave x w2 sub y w2 add w3 sub m currentpoint t 4 {side} repeat cl fill gr} def
/m30 {mp gsave x w2 sub y w2 add w3 sub m currentpoint t 4 {side} repeat cl s gr} def
/m31 {mp x y w2 sub m 0 w d x w2 sub y m w 0 d x w2 sub y w2 add m w w neg d x w2 sub y w2 sub m w w d s} def
/m32 {mp x y w2 sub m w2 w d w neg 0 d cl s} def
/m33 {mp x y w2 add m w3 neg w2 neg d w3 w2 neg d w3 w2 d cl f} def
/m34 {mp x w2 sub y w2 sub w3 add m w3 0 d  0 w3 neg d w3 0 d 0 w3 d w3 0 d  0 w3 d w3 neg 0 d 0 w3 d w3 neg 0 d 0 w3 neg d w3 neg 0 d cl f } def
/m2 {mp x y w2 sub m 0 w d x w2 sub y m w 0 d s} def
/m5 {mp x w2 sub y w2 sub m w w d x w2 sub y w2 add m w w neg d s} def
/reEncode {exch findfont dup length dict begin {1 index /FID eq  {pop pop} {def} ifelse } forall /Encoding exch def currentdict end dup /FontName get exch definefont pop } def [/Times-Bold /Times-Italic /Times-BoldItalic /Helvetica /Helvetica-Oblique
 /Helvetica-Bold /Helvetica-BoldOblique /Courier /Courier-Oblique /Courier-Bold /Courier-BoldOblique /Times-Roman /AvantGarde-Book /AvantGarde-BookOblique /AvantGarde-Demi /AvantGarde-DemiOblique /Bookman-Demi /Bookman-DemiItalic /Bookman-Light
 /Bookman-LightItalic /Helvetica-Narrow /Helvetica-Narrow-Bold /Helvetica-Narrow-BoldOblique /Helvetica-Narrow-Oblique /NewCenturySchlbk-Roman /NewCenturySchlbk-Bold /NewCenturySchlbk-BoldItalic /NewCenturySchlbk-Italic /Palatino-Bold
 /Palatino-BoldItalic /Palatino-Italic /Palatino-Roman ] {ISOLatin1Encoding reEncode } forall
%%EndProlog
%%BeginSetup
%%EndSetup
newpath  gsave  .25 .25 scale  gsave  0 0 t black[  ] 0 sd 6 lw 1 1 1 c 2268 1701 0 0 bf black 1 1 1 c 1837 1344 317 238 bf black 1837 1344 317 238 bl 1 1 1 c 1837 1344 317 238 bf black 1837 1344 317 238 bl 317 238 m 1837 X s
 gsave  2268 1701 0 0 C 1824.23 64.0081 t 0 r /Helvetica-Bold findfont 96.0122 sf 0 0 m ([GeV/c]) show NC gr 
 gsave  2268 1701 0 0 C 1783.08 13.716 t 0 r /Helvetica-Bold findfont 64.0081 sf 0 0 m (T) show NC gr 
 gsave  2268 1701 0 0 C 1723.65 64.0081 t 0 r /Helvetica-Bold findfont 96.0122 sf 0 0 m (p) show NC gr  317 279 m -41 Y s 449 259 m -21 Y s 580 259 m -21 Y s 711 259 m -21 Y s 842 259 m -21 Y s 973 279 m -41 Y s 1105 259 m -21 Y s 1236 259 m -21 Y s
 1367 259 m -21 Y s 1498 259 m -21 Y s 1630 279 m -41 Y s 1630 279 m -41 Y s 1761 259 m -21 Y s 1892 259 m -21 Y s 2023 259 m -21 Y s
 gsave  2268 1701 0 0 C 292.609 146.304 t 0 r /Helvetica-Bold findfont 77.7242 sf 0 0 m (0) show NC gr 
 gsave  2268 1701 0 0 C 946.406 146.304 t 0 r /Helvetica-Bold findfont 77.7242 sf 0 0 m (5) show NC gr 
 gsave  2268 1701 0 0 C 1581.92 146.304 t 0 r /Helvetica-Bold findfont 77.7242 sf 0 0 m (10) show NC gr  317 1582 m 1837 X s 317 1540 m 42 Y s 449 1561 m 21 Y s 580 1561 m 21 Y s 711 1561 m 21 Y s 842 1561 m 21 Y s 973 1540 m 42 Y s 1105 1561 m 21 Y
 s 1236 1561 m 21 Y s 1367 1561 m 21 Y s 1498 1561 m 21 Y s 1630 1540 m 42 Y s 1630 1540 m 42 Y s 1761 1561 m 21 Y s 1892 1561 m 21 Y s 2023 1561 m 21 Y s 317 238 m 1344 Y s
 gsave  2268 1701 0 0 C 109.728 1133.86 t 90 r /Helvetica-Bold findfont 96.0122 sf 0 0 m (b/\(GeV/c\)]) show NC gr 
 gsave  2268 1701 0 0 C 109.728 1078.99 t 90 r /Symbol findfont 96.0122 sf 0 0 m (m) show NC gr 
 gsave  2268 1701 0 0 C 109.728 1019.56 t 90 r /Helvetica-Bold findfont 96.0122 sf 0 0 m ( [) show NC gr 
 gsave  2268 1701 0 0 C 160.02 978.41 t 90 r /Helvetica-Bold findfont 64.0081 sf 0 0 m (T) show NC gr 
 gsave  2268 1701 0 0 C 109.728 836.678 t 90 r /Helvetica-Bold findfont 96.0122 sf 0 0 m (/dp) show NC gr 
 gsave  2268 1701 0 0 C 109.728 777.242 t 90 r /Symbol findfont 96.0122 sf 0 0 m (s) show NC gr 
 gsave  2268 1701 0 0 C 109.728 722.377 t 90 r /Helvetica-Bold findfont 96.0122 sf 0 0 m (d) show NC gr  344 238 m -27 X s 344 317 m -27 X s 344 373 m -27 X s 344 416 m -27 X s 344 452 m -27 X s 344 482 m -27 X s 344 508 m -27 X s 344 531 m -27 X s
 371 551 m -54 X s
 gsave  2268 1701 0 0 C 297.071 518.243 t 0 r  -44 0 t /Helvetica-Bold findfont 77.7242 sf 0 0 m (1) show NC gr  344 686 m -27 X s 344 765 m -27 X s 344 821 m -27 X s 344 864 m -27 X s 344 900 m -27 X s 344 930 m -27 X s 344 956 m -27 X s 344 979 m
 -27 X s 371 999 m -54 X s
 gsave  2268 1701 0 0 C 297.071 966.116 t 0 r  -88 0 t /Helvetica-Bold findfont 77.7242 sf 0 0 m (10) show NC gr  344 1134 m -27 X s 344 1213 m -27 X s 344 1269 m -27 X s 344 1312 m -27 X s 344 1348 m -27 X s 344 1378 m -27 X s 344 1404 m -27 X s 344
 1426 m -27 X s 371 1447 m -54 X s
 gsave  2268 1701 0 0 C 260.605 1444.75 t 0 r /Helvetica-Bold findfont 54.8641 sf 0 0 m (2) show NC gr 
 gsave  2268 1701 0 0 C 173.736 1412.75 t 0 r /Helvetica-Bold findfont 77.7242 sf 0 0 m (10) show NC gr  344 1582 m -27 X s 2154 238 m 1344 Y s 2127 238 m 27 X s 2127 317 m 27 X s 2127 373 m 27 X s 2127 416 m 27 X s 2127 452 m 27 X s 2127 482 m 27 X
 s 2127 508 m 27 X s 2127 531 m 27 X s 2101 551 m 53 X s 2127 686 m 27 X s 2127 765 m 27 X s 2127 821 m 27 X s 2127 864 m 27 X s 2127 900 m 27 X s 2127 930 m 27 X s 2127 956 m 27 X s 2127 979 m 27 X s 2101 999 m 53 X s 2127 1134 m 27 X s 2127 1213 m
 27 X s 2127 1269 m 27 X s 2127 1312 m 27 X s 2127 1348 m 27 X s 2127 1378 m 27 X s 2127 1404 m 27 X s 2127 1426 m 27 X s 2101 1447 m 53 X s 2127 1582 m 27 X s 1 0 0 c 430 837 m -113 X s 317 828 m 18 Y s 467 837 m 113 X s 580 828 m 18 Y s 449 856 m
 56 Y s 440 912 m 18 X s 449 819 m -106 Y s 440 713 m 18 X s 627 749 m -47 X s 580 740 m 18 Y s 664 749 m 47 X s 711 740 m 18 Y s 645 767 m 134 Y s 636 901 m 19 X s 645 731 m -493 Y s 636 238 m 19 X s 824 810 m -113 X s 711 801 m 18 Y s 861 810 m 112
 X s 973 801 m 18 Y s 842 828 m 57 Y s 833 885 m 18 X s 842 792 m -106 Y s 833 686 m 18 X s 1086 632 m -113 X s 973 623 m 18 Y s 1123 632 m 113 X s 1236 623 m 18 Y s 1105 650 m 51 Y s 1096 701 m 18 X s 1105 613 m -91 Y s 1096 522 m 18 X s 1677 323 m
 -441 X s 1236 313 m 19 Y s 1713 323 m 441 X s 2154 313 m 19 Y s 1695 341 m 54 Y s 1686 395 m 18 X s 1695 304 m -66 Y s 1686 238 m 18 X s black 1 0 0 c 3 lw /w 37 def /w2 {w 2 div} def /w3 {w 3 div} def 449 837 645 749 842 810 1105 632 1695 323 5 {
 m21} R 6 lw 0 0 1 c 438 985 m -121 X s 317 976 m 18 Y s 460 985 m 120 X s 580 976 m 18 Y s 449 1003 m 37 Y s 440 1040 m 18 X s 449 966 m -58 Y s 440 908 m 18 X s 635 1171 m -55 X s 580 1162 m 18 Y s 656 1171 m 55 X s 711 1162 m 18 Y s 645 1189 m 22
 Y s 636 1211 m 19 X s 645 1153 m -33 Y s 636 1120 m 19 X s 831 1008 m -120 X s 711 998 m 19 Y s 853 1008 m 120 X s 973 998 m 19 Y s 842 1026 m 28 Y s 833 1054 m 18 X s 842 989 m -42 Y s 833 947 m 18 X s 1094 860 m -121 X s 973 851 m 19 Y s 1116 860
 m 120 X s 1236 851 m 19 Y s 1105 879 m 26 Y s 1096 905 m 18 X s 1105 842 m -39 Y s 1096 803 m 18 X s 1684 472 m -448 X s 1236 463 m 18 Y s 1706 472 m 448 X s 2154 463 m 18 Y s 1695 491 m 31 Y s 1686 522 m 18 X s 1695 454 m -49 Y s 1686 405 m 18 X s
 black 0 0 1 c 3 lw 449 985 645 1171 842 1008 1105 860 1695 472 5 { m22} R 6 lw black 430 1059 m -113 X s 317 1050 m 19 Y s 467 1059 m 113 X s 580 1050 m 19 Y s 449 1078 m 30 Y s 440 1108 m 18 X s 449 1041 m -46 Y s 440 995 m 18 X s 627 1192 m -47 X
 s 580 1183 m 18 Y s 664 1192 m 47 X s 711 1183 m 18 Y s 645 1210 m 21 Y s 636 1231 m 19 X s 645 1174 m -31 Y s 636 1143 m 19 X s 824 1068 m -113 X s 711 1059 m 18 Y s 861 1068 m 112 X s 973 1059 m 18 Y s 842 1086 m 27 Y s 833 1113 m 18 X s 842 1049
 m -41 Y s 833 1008 m 18 X s 1086 913 m -113 X s 973 904 m 18 Y s 1123 913 m 113 X s 1236 904 m 18 Y s 1105 931 m 18 Y s 1096 949 m 18 X s 1105 894 m -25 Y s 1096 869 m 18 X s 1677 546 m -441 X s 1236 537 m 18 Y s 1713 546 m 441 X s 2154 537 m 18 Y s
 1695 565 m 23 Y s 1686 588 m 18 X s 1695 528 m -35 Y s 1686 493 m 18 X s 3 lw 449 1059 645 1192 842 1068 1105 913 1695 546 5 { m20} R 6 lw
 gsave  2268 1701 0 0 C 1655.07 1316.74 t 0 r /Helvetica-Bold findfont 68.5801 sf 0 0 m ( = 5 TeV) show NC gr 
 gsave  2268 1701 0 0 C 1591.06 1289.31 t 0 r /Helvetica-Bold findfont 45.7201 sf 0 0 m (NN) show NC gr 
 gsave  2268 1701 0 0 C 1554.48 1316.74 t 0 r /Helvetica-Bold findfont 68.5801 sf 0 0 m (s) show NC gr  1522 1358 m 14 -69 d s 0 lw 1536 1289 m 9 87 d s 1545 1376 m 110 X s
 gsave  2268 1701 0 0 C 1175.01 1316.74 t 0 r /Helvetica-Bold findfont 68.5801 sf 0 0 m (pPb\(Fwd\) ) show NC gr 
 gsave  2268 1701 0 0 C 1175.01 1421.89 t 0 r /Helvetica-Bold findfont 86.8682 sf 0 0 m (LHCb prelimary) show NC gr 
 gsave  2268 1701 0 0 C 1175.01 1143 t 0 r /Helvetica-Bold findfont 86.8682 sf 0 0 m (1.5 < y < 4.0) show NC gr 
 gr  gr showpage
end
%%EOF
