%!PS-Adobe-2.0 EPSF-2.0
%%BoundingBox:  0 0 567 425
%%Title: ../result/CrossSection/pA_Xsec_PT_pb.eps: 
%%Creator: ROOT Version 5.34/18
%%CreationDate: Wed Sep 23 01:11:12 2015
%%EndComments
%%BeginProlog
80 dict begin
/s {stroke} def /l {lineto} def /m {moveto} def /t {translate} def
/r {rotate} def /rl {roll}  def /R {repeat} def
/d {rlineto} def /rm {rmoveto} def /gr {grestore} def /f {eofill} def
/c {setrgbcolor} def /black {0 setgray} def /sd {setdash} def
/cl {closepath} def /sf {scalefont setfont} def /lw {setlinewidth} def
/box {m dup 0 exch d exch 0 d 0 exch neg d cl} def
/NC{systemdict begin initclip end}def/C{NC box clip newpath}def
/bl {box s} def /bf {box f} def /Y { 0 exch d} def /X { 0 d} def 
/K {{pop pop 0 moveto} exch kshow} bind def
/ita {/ang 15 def gsave [1 0 ang dup sin exch cos div 1 0 0] concat} def 
/mp {newpath /y exch def /x exch def} def
/side {[w .77 mul w .23 mul] .385 w mul sd w 0 l currentpoint t -144 r} def
/mr {mp x y w2 0 360 arc} def /m24 {mr s} def /m20 {mr f} def
/mb {mp x y w2 add m w2 neg 0 d 0 w neg d w 0 d 0 w d cl} def
/mt {mp x y w2 add m w2 neg w neg d w 0 d cl} def
/m21 {mb f} def /m25 {mb s} def /m22 {mt f} def /m26{mt s} def
/m23 {mp x y w2 sub m w2 w d w neg 0 d cl f} def
/m27 {mp x y w2 add m w3 neg w2 neg d w3 w2 neg d w3 w2 d cl s} def
/m28 {mp x w2 sub y w2 sub w3 add m w3 0 d  0 w3 neg d w3 0 d 0 w3 d w3 0 d  0 w3 d w3 neg 0 d 0 w3 d w3 neg 0 d 0 w3 neg d w3 neg 0 d cl s } def
/m29 {mp gsave x w2 sub y w2 add w3 sub m currentpoint t 4 {side} repeat cl fill gr} def
/m30 {mp gsave x w2 sub y w2 add w3 sub m currentpoint t 4 {side} repeat cl s gr} def
/m31 {mp x y w2 sub m 0 w d x w2 sub y m w 0 d x w2 sub y w2 add m w w neg d x w2 sub y w2 sub m w w d s} def
/m32 {mp x y w2 sub m w2 w d w neg 0 d cl s} def
/m33 {mp x y w2 add m w3 neg w2 neg d w3 w2 neg d w3 w2 d cl f} def
/m34 {mp x w2 sub y w2 sub w3 add m w3 0 d  0 w3 neg d w3 0 d 0 w3 d w3 0 d  0 w3 d w3 neg 0 d 0 w3 d w3 neg 0 d 0 w3 neg d w3 neg 0 d cl f } def
/m2 {mp x y w2 sub m 0 w d x w2 sub y m w 0 d s} def
/m5 {mp x w2 sub y w2 sub m w w d x w2 sub y w2 add m w w neg d s} def
/reEncode {exch findfont dup length dict begin {1 index /FID eq  {pop pop} {def} ifelse } forall /Encoding exch def currentdict end dup /FontName get exch definefont pop } def [/Times-Bold /Times-Italic /Times-BoldItalic /Helvetica /Helvetica-Oblique
 /Helvetica-Bold /Helvetica-BoldOblique /Courier /Courier-Oblique /Courier-Bold /Courier-BoldOblique /Times-Roman /AvantGarde-Book /AvantGarde-BookOblique /AvantGarde-Demi /AvantGarde-DemiOblique /Bookman-Demi /Bookman-DemiItalic /Bookman-Light
 /Bookman-LightItalic /Helvetica-Narrow /Helvetica-Narrow-Bold /Helvetica-Narrow-BoldOblique /Helvetica-Narrow-Oblique /NewCenturySchlbk-Roman /NewCenturySchlbk-Bold /NewCenturySchlbk-BoldItalic /NewCenturySchlbk-Italic /Palatino-Bold
 /Palatino-BoldItalic /Palatino-Italic /Palatino-Roman ] {ISOLatin1Encoding reEncode } forall
%%EndProlog
%%BeginSetup
%%EndSetup
newpath  gsave  .25 .25 scale  gsave  0 0 t black[  ] 0 sd 6 lw 1 1 1 c 2268 1701 0 0 bf black 1 1 1 c 1837 1344 317 238 bf black 1837 1344 317 238 bl 1 1 1 c 1837 1344 317 238 bf black 1837 1344 317 238 bl 317 238 m 1837 X s
 gsave  2268 1701 0 0 C 1824.23 64.0081 t 0 r /Helvetica-Bold findfont 96.0122 sf 0 0 m ([GeV/c]) show NC gr 
 gsave  2268 1701 0 0 C 1783.08 13.716 t 0 r /Helvetica-Bold findfont 64.0081 sf 0 0 m (T) show NC gr 
 gsave  2268 1701 0 0 C 1723.65 64.0081 t 0 r /Times-Italic findfont 96.0122 sf 0 0 m (p) show NC gr  317 279 m -41 Y s 449 259 m -21 Y s 580 259 m -21 Y s 711 259 m -21 Y s 842 259 m -21 Y s 973 279 m -41 Y s 1105 259 m -21 Y s 1236 259 m -21 Y s
 1367 259 m -21 Y s 1498 259 m -21 Y s 1630 279 m -41 Y s 1630 279 m -41 Y s 1761 259 m -21 Y s 1892 259 m -21 Y s 2023 259 m -21 Y s
 gsave  2268 1701 0 0 C 292.609 146.304 t 0 r /Helvetica-Bold findfont 77.7242 sf 0 0 m (0) show NC gr 
 gsave  2268 1701 0 0 C 946.406 146.304 t 0 r /Helvetica-Bold findfont 77.7242 sf 0 0 m (5) show NC gr 
 gsave  2268 1701 0 0 C 1581.92 146.304 t 0 r /Helvetica-Bold findfont 77.7242 sf 0 0 m (10) show NC gr  317 1582 m 1837 X s 317 1540 m 42 Y s 449 1561 m 21 Y s 580 1561 m 21 Y s 711 1561 m 21 Y s 842 1561 m 21 Y s 973 1540 m 42 Y s 1105 1561 m 21 Y
 s 1236 1561 m 21 Y s 1367 1561 m 21 Y s 1498 1561 m 21 Y s 1630 1540 m 42 Y s 1630 1540 m 42 Y s 1761 1561 m 21 Y s 1892 1561 m 21 Y s 2023 1561 m 21 Y s 317 238 m 1344 Y s
 gsave  2268 1701 0 0 C 109.728 1133.86 t 90 r /Helvetica-Bold findfont 96.0122 sf 0 0 m (b/\(GeV/c\)]) show NC gr 
 gsave  2268 1701 0 0 C 109.728 1078.99 t 90 r /Symbol findfont 96.0122 sf 0 0 m (m) show NC gr 
 gsave  2268 1701 0 0 C 109.728 1019.56 t 90 r /Helvetica-Bold findfont 96.0122 sf 0 0 m ( [) show NC gr 
 gsave  2268 1701 0 0 C 160.02 978.41 t 90 r /Helvetica-Bold findfont 64.0081 sf 0 0 m (T) show NC gr 
 gsave  2268 1701 0 0 C 109.728 918.974 t 90 r /Times-Italic findfont 96.0122 sf 0 0 m (p) show NC gr 
 gsave  2268 1701 0 0 C 109.728 836.678 t 90 r /Helvetica-Bold findfont 96.0122 sf 0 0 m (/d) show NC gr 
 gsave  2268 1701 0 0 C 109.728 777.242 t 90 r /Symbol findfont 96.0122 sf 0 0 m (s) show NC gr 
 gsave  2268 1701 0 0 C 109.728 722.377 t 90 r /Helvetica-Bold findfont 96.0122 sf 0 0 m (d) show NC gr  344 238 m -27 X s 344 317 m -27 X s 344 373 m -27 X s 344 416 m -27 X s 344 452 m -27 X s 344 482 m -27 X s 344 508 m -27 X s 344 531 m -27 X s
 371 551 m -54 X s
 gsave  2268 1701 0 0 C 297.071 518.243 t 0 r  -44 0 t /Helvetica-Bold findfont 77.7242 sf 0 0 m (1) show NC gr  344 686 m -27 X s 344 765 m -27 X s 344 821 m -27 X s 344 864 m -27 X s 344 900 m -27 X s 344 930 m -27 X s 344 956 m -27 X s 344 979 m
 -27 X s 371 999 m -54 X s
 gsave  2268 1701 0 0 C 297.071 966.116 t 0 r  -88 0 t /Helvetica-Bold findfont 77.7242 sf 0 0 m (10) show NC gr  344 1134 m -27 X s 344 1213 m -27 X s 344 1269 m -27 X s 344 1312 m -27 X s 344 1348 m -27 X s 344 1378 m -27 X s 344 1404 m -27 X s 344
 1426 m -27 X s 371 1447 m -54 X s
 gsave  2268 1701 0 0 C 260.605 1444.75 t 0 r /Helvetica-Bold findfont 54.8641 sf 0 0 m (2) show NC gr 
 gsave  2268 1701 0 0 C 173.736 1412.75 t 0 r /Helvetica-Bold findfont 77.7242 sf 0 0 m (10) show NC gr  344 1582 m -27 X s 2154 238 m 1344 Y s 2127 238 m 27 X s 2127 317 m 27 X s 2127 373 m 27 X s 2127 416 m 27 X s 2127 452 m 27 X s 2127 482 m 27 X
 s 2127 508 m 27 X s 2127 531 m 27 X s 2101 551 m 53 X s 2127 686 m 27 X s 2127 765 m 27 X s 2127 821 m 27 X s 2127 864 m 27 X s 2127 900 m 27 X s 2127 930 m 27 X s 2127 956 m 27 X s 2127 979 m 27 X s 2101 999 m 53 X s 2127 1134 m 27 X s 2127 1213 m
 27 X s 2127 1269 m 27 X s 2127 1312 m 27 X s 2127 1348 m 27 X s 2127 1378 m 27 X s 2127 1404 m 27 X s 2127 1426 m 27 X s 2101 1447 m 53 X s 2127 1582 m 27 X s 1 0 0 c 430 1010 m -113 X s 317 1001 m 19 Y s 467 1010 m 113 X s 580 1001 m 19 Y s 449
 1029 m 26 Y s 440 1055 m 18 X s 449 992 m -39 Y s 440 953 m 18 X s 627 1041 m -47 X s 580 1032 m 18 Y s 664 1041 m 47 X s 711 1032 m 18 Y s 645 1059 m 46 Y s 636 1105 m 19 X s 645 1023 m -79 Y s 636 944 m 19 X s 824 915 m -113 X s 711 906 m 18 Y s
 861 915 m 112 X s 973 906 m 18 Y s 842 933 m 39 Y s 833 972 m 18 X s 842 897 m -62 Y s 833 835 m 18 X s 1086 697 m -113 X s 973 688 m 19 Y s 1123 697 m 113 X s 1236 688 m 19 Y s 1105 716 m 44 Y s 1096 760 m 18 X s 1105 679 m -74 Y s 1096 605 m 18 X
 s 1677 536 m -441 X s 1236 527 m 18 Y s 1713 536 m 441 X s 2154 527 m 18 Y s 1695 555 m 35 Y s 1686 590 m 18 X s 1695 518 m -57 Y s 1686 461 m 18 X s black 1 0 0 c 3 lw /w 37 def /w2 {w 2 div} def /w3 {w 3 div} def 449 1010 645 1041 842 915 1105 697
 1695 536 5 { m21} R 6 lw 0 0 1 c 438 1161 m -121 X s 317 1152 m 18 Y s 460 1161 m 120 X s 580 1152 m 18 Y s 449 1179 m 24 Y s 440 1203 m 18 X s 449 1143 m -36 Y s 440 1107 m 18 X s 635 1292 m -55 X s 580 1283 m 19 Y s 656 1292 m 55 X s 711 1283 m 19
 Y s 645 1311 m 25 Y s 636 1336 m 19 X s 645 1274 m -37 Y s 636 1237 m 19 X s 831 1145 m -120 X s 711 1136 m 18 Y s 853 1145 m 120 X s 973 1136 m 18 Y s 842 1163 m 17 Y s 833 1180 m 18 X s 842 1127 m -25 Y s 833 1102 m 18 X s 1094 1008 m -121 X s 973
 999 m 18 Y s 1116 1008 m 120 X s 1236 999 m 18 Y s 1105 1026 m 17 Y s 1096 1043 m 18 X s 1105 989 m -25 Y s 1096 964 m 18 X s 1684 541 m -448 X s 1236 532 m 18 Y s 1706 541 m 448 X s 2154 532 m 18 Y s 1695 559 m 35 Y s 1686 594 m 18 X s 1695 523 m
 -56 Y s 1686 467 m 18 X s black 0 0 1 c 3 lw 449 1161 645 1292 842 1145 1105 1008 1695 541 5 { m22} R 6 lw black 430 1235 m -113 X s 317 1226 m 18 Y s 467 1235 m 113 X s 580 1226 m 18 Y s 449 1253 m 15 Y s 440 1268 m 18 X s 449 1216 m -22 Y s 440
 1194 m 18 X s 627 1340 m -47 X s 580 1330 m 19 Y s 664 1340 m 47 X s 711 1330 m 19 Y s 645 1358 m 18 Y s 636 1376 m 19 X s 645 1321 m -26 Y s 636 1295 m 19 X s 824 1197 m -113 X s 711 1188 m 18 Y s 861 1197 m 112 X s 973 1188 m 18 Y s 842 1215 m 14
 Y s 833 1229 m 18 X s 842 1179 m -20 Y s 833 1159 m 18 X s 1086 1044 m -113 X s 973 1034 m 19 Y s 1123 1044 m 113 X s 1236 1034 m 19 Y s 1105 1062 m 14 Y s 1096 1076 m 18 X s 1105 1025 m -20 Y s 1096 1005 m 18 X s 1677 673 m -441 X s 1236 664 m 19 Y
 s 1713 673 m 441 X s 2154 664 m 19 Y s 1695 692 m 21 Y s 1686 713 m 18 X s 1695 655 m -32 Y s 1686 623 m 18 X s 3 lw 449 1235 645 1340 842 1197 1105 1044 1695 673 5 { m20} R 6 lw 0.999 0.999 0.999 c 613 340 1247 1191 bf black
 gsave  2268 1701 0 0 C 1700.79 1449.33 t 0 r /Times-Italic findfont 64.0081 sf 0 0 m (\(2S\)) show NC gr 
 gsave  2268 1701 0 0 C 1655.07 1449.33 t 0 r /Symbol findfont 64.0081 sf 0 0 m (y) show NC gr 
 gsave  2268 1701 0 0 C 1399.03 1449.33 t 0 r /Times-Roman findfont 64.0081 sf 0 0 m (Inclusive ) show NC gr  1270 1474 m 107 X s 1324 1440 m 68 Y s 3 lw 1324 1474 m20 6 lw
 gsave  2268 1701 0 0 C 1655.07 1339.6 t 0 r /Times-Italic findfont 64.0081 sf 0 0 m (\(2S\)) show NC gr 
 gsave  2268 1701 0 0 C 1609.35 1339.6 t 0 r /Symbol findfont 64.0081 sf 0 0 m (y) show NC gr 
 gsave  2268 1701 0 0 C 1399.03 1339.6 t 0 r /Times-Roman findfont 64.0081 sf 0 0 m (Prompt ) show NC gr  0 0 1 c 1270 1361 m 107 X s 1324 1327 m 68 Y s 3 lw 1324 1361 m22 6 lw black
 gsave  2268 1701 0 0 C 1709.93 1225.3 t 0 r /Times-Italic findfont 64.0081 sf 0 0 m (b) show NC gr 
 gsave  2268 1701 0 0 C 1549.91 1225.3 t 0 r /Times-Roman findfont 64.0081 sf 0 0 m ( from ) show NC gr 
 gsave  2268 1701 0 0 C 1444.75 1225.3 t 0 r /Times-Italic findfont 64.0081 sf 0 0 m (\(2S\)) show NC gr 
 gsave  2268 1701 0 0 C 1399.03 1225.3 t 0 r /Symbol findfont 64.0081 sf 0 0 m (y) show NC gr  1 0 0 c 1270 1247 m 107 X s 1324 1213 m 68 Y s 3 lw 1324 1247 m21 6 lw black
 gsave  2268 1701 0 0 C 1764.8 978.41 t 0 r /Times-Roman findfont 73.1521 sf 0 0 m ( = 5 TeV) show NC gr 
 gsave  2268 1701 0 0 C 1691.64 955.55 t 0 r /Times-Italic findfont 45.7201 sf 0 0 m (NN) show NC gr 
 gsave  2268 1701 0 0 C 1664.21 978.41 t 0 r /Times-Italic findfont 73.1521 sf 0 0 m (s) show NC gr  1637 1015 m 9 -64 d s 0 lw 1646 951 m 9 87 d s 1655 1038 m 110 X s
 gsave  2268 1701 0 0 C 1312.17 978.41 t 0 r /Times-Roman findfont 73.1521 sf 0 0 m (pPb\(Fwd\) ) show NC gr 
 gsave  2268 1701 0 0 C 1312.17 1074.42 t 0 r /Times-Roman findfont 73.1521 sf 0 0 m (LHCb preliminary) show NC gr 
 gsave  2268 1701 0 0 C 1522.48 850.394 t 0 r /Times-Roman findfont 73.1521 sf 0 0 m ( < 4.0) show NC gr 
 gsave  2268 1701 0 0 C 1485.9 850.394 t 0 r /Times-Italic findfont 73.1521 sf 0 0 m (y) show NC gr 
 gsave  2268 1701 0 0 C 1312.17 850.394 t 0 r /Times-Roman findfont 73.1521 sf 0 0 m (1.5 < ) show NC gr 
 gr  gr showpage
end
%%EOF
