%!PS-Adobe-2.0 EPSF-2.0
%%BoundingBox:  0 0 567 425
%%Title: result/MassFit/ApC_psip.eps: c2
%%Creator: ROOT Version 5.34/18
%%CreationDate: Mon Nov 30 20:13:25 2015
%%EndComments
%%BeginProlog
80 dict begin
/s {stroke} def /l {lineto} def /m {moveto} def /t {translate} def
/r {rotate} def /rl {roll}  def /R {repeat} def
/d {rlineto} def /rm {rmoveto} def /gr {grestore} def /f {eofill} def
/c {setrgbcolor} def /black {0 setgray} def /sd {setdash} def
/cl {closepath} def /sf {scalefont setfont} def /lw {setlinewidth} def
/box {m dup 0 exch d exch 0 d 0 exch neg d cl} def
/NC{systemdict begin initclip end}def/C{NC box clip newpath}def
/bl {box s} def /bf {box f} def /Y { 0 exch d} def /X { 0 d} def 
/K {{pop pop 0 moveto} exch kshow} bind def
/ita {/ang 15 def gsave [1 0 ang dup sin exch cos div 1 0 0] concat} def 
/mp {newpath /y exch def /x exch def} def
/side {[w .77 mul w .23 mul] .385 w mul sd w 0 l currentpoint t -144 r} def
/mr {mp x y w2 0 360 arc} def /m24 {mr s} def /m20 {mr f} def
/mb {mp x y w2 add m w2 neg 0 d 0 w neg d w 0 d 0 w d cl} def
/mt {mp x y w2 add m w2 neg w neg d w 0 d cl} def
/m21 {mb f} def /m25 {mb s} def /m22 {mt f} def /m26{mt s} def
/m23 {mp x y w2 sub m w2 w d w neg 0 d cl f} def
/m27 {mp x y w2 add m w3 neg w2 neg d w3 w2 neg d w3 w2 d cl s} def
/m28 {mp x w2 sub y w2 sub w3 add m w3 0 d  0 w3 neg d w3 0 d 0 w3 d w3 0 d  0 w3 d w3 neg 0 d 0 w3 d w3 neg 0 d 0 w3 neg d w3 neg 0 d cl s } def
/m29 {mp gsave x w2 sub y w2 add w3 sub m currentpoint t 4 {side} repeat cl fill gr} def
/m30 {mp gsave x w2 sub y w2 add w3 sub m currentpoint t 4 {side} repeat cl s gr} def
/m31 {mp x y w2 sub m 0 w d x w2 sub y m w 0 d x w2 sub y w2 add m w w neg d x w2 sub y w2 sub m w w d s} def
/m32 {mp x y w2 sub m w2 w d w neg 0 d cl s} def
/m33 {mp x y w2 add m w3 neg w2 neg d w3 w2 neg d w3 w2 d cl f} def
/m34 {mp x w2 sub y w2 sub w3 add m w3 0 d  0 w3 neg d w3 0 d 0 w3 d w3 0 d  0 w3 d w3 neg 0 d 0 w3 d w3 neg 0 d 0 w3 neg d w3 neg 0 d cl f } def
/m2 {mp x y w2 sub m 0 w d x w2 sub y m w 0 d s} def
/m5 {mp x w2 sub y w2 sub m w w d x w2 sub y w2 add m w w neg d s} def
/reEncode {exch findfont dup length dict begin {1 index /FID eq  {pop pop} {def} ifelse } forall /Encoding exch def currentdict end dup /FontName get exch definefont pop } def [/Times-Bold /Times-Italic /Times-BoldItalic /Helvetica /Helvetica-Oblique
 /Helvetica-Bold /Helvetica-BoldOblique /Courier /Courier-Oblique /Courier-Bold /Courier-BoldOblique /Times-Roman /AvantGarde-Book /AvantGarde-BookOblique /AvantGarde-Demi /AvantGarde-DemiOblique /Bookman-Demi /Bookman-DemiItalic /Bookman-Light
 /Bookman-LightItalic /Helvetica-Narrow /Helvetica-Narrow-Bold /Helvetica-Narrow-BoldOblique /Helvetica-Narrow-Oblique /NewCenturySchlbk-Roman /NewCenturySchlbk-Bold /NewCenturySchlbk-BoldItalic /NewCenturySchlbk-Italic /Palatino-Bold
 /Palatino-BoldItalic /Palatino-Italic /Palatino-Roman ] {ISOLatin1Encoding reEncode } forall
%%EndProlog
%%BeginSetup
%%EndSetup
newpath  gsave  .25 .25 scale  gsave  0 0 t black[  ] 0 sd 6 lw 1 1 1 c 2268 1701 0 0 bf black 1 1 1 c 1837 1344 317 238 bf black 1837 1344 317 238 bl 1 1 1 c 1837 1344 317 238 bf black 1837 1344 317 238 bl 317 238 m 1837 X s
 gsave  2268 1701 0 0 C 2130.56 50.2921 t 0 r /Helvetica findfont 96.0122 sf 0 0 m (]) show NC gr 
 gsave  2268 1701 0 0 C 2093.98 91.4402 t 0 r /Helvetica findfont 64.0081 sf 0 0 m (2) show NC gr 
 gsave  2268 1701 0 0 C 1769.37 50.2921 t 0 r /Helvetica findfont 96.0122 sf 0 0 m ( [MeV/c) show NC gr 
 gsave  2268 1701 0 0 C 1732.79 32.0041 t 0 r /Symbol findfont 64.0081 sf 0 0 m (m) show NC gr 
 gsave  2268 1701 0 0 C 1696.22 32.0041 t 0 r /Symbol findfont 64.0081 sf 0 0 m (m) show NC gr 
 gsave  2268 1701 0 0 C 1618.49 50.2921 t 0 r /Helvetica findfont 96.0122 sf 0 0 m (m) show NC gr  698 279 m -41 Y s 824 259 m -21 Y s 951 259 m -21 Y s 1078 259 m -21 Y s 1204 259 m -21 Y s 1331 279 m -41 Y s 1458 259 m -21 Y s 1584 259 m -21 Y s
 1711 259 m -21 Y s 1838 259 m -21 Y s 1964 279 m -41 Y s 698 279 m -41 Y s 571 259 m -21 Y s 444 259 m -21 Y s 317 259 m -21 Y s 1964 279 m -41 Y s 2091 259 m -21 Y s
 gsave  2268 1701 0 0 C 608.077 146.304 t 0 r /Helvetica findfont 77.7242 sf 0 0 m (3600) show NC gr 
 gsave  2268 1701 0 0 C 1243.59 146.304 t 0 r /Helvetica findfont 77.7242 sf 0 0 m (3700) show NC gr 
 gsave  2268 1701 0 0 C 1874.52 146.304 t 0 r /Helvetica findfont 77.7242 sf 0 0 m (3800) show NC gr  317 1582 m 1837 X s 698 1540 m 42 Y s 824 1561 m 21 Y s 951 1561 m 21 Y s 1078 1561 m 21 Y s 1204 1561 m 21 Y s 1331 1540 m 42 Y s 1458 1561 m 21 Y
 s 1584 1561 m 21 Y s 1711 1561 m 21 Y s 1838 1561 m 21 Y s 1964 1540 m 42 Y s 698 1540 m 42 Y s 571 1561 m 21 Y s 444 1561 m 21 Y s 317 1561 m 21 Y s 1964 1540 m 42 Y s 2091 1561 m 21 Y s 317 238 m 1344 Y s
 gsave  2268 1701 0 0 C 132.588 1554.48 t 90 r /Helvetica findfont 96.0122 sf 0 0 m (\)) show NC gr 
 gsave  2268 1701 0 0 C 86.8682 1517.91 t 90 r /Helvetica findfont 64.0081 sf 0 0 m (2) show NC gr 
 gsave  2268 1701 0 0 C 132.588 708.661 t 90 r /Helvetica findfont 96.0122 sf 0 0 m (Events / \(10 MeV/c) show NC gr  371 238 m -54 X s 344 267 m -27 X s 344 296 m -27 X s 344 324 m -27 X s 344 353 m -27 X s 371 382 m -54 X s 344 411 m -27 X s 344
 440 m -27 X s 344 468 m -27 X s 344 497 m -27 X s 371 526 m -54 X s 344 555 m -27 X s 344 583 m -27 X s 344 612 m -27 X s 344 641 m -27 X s 371 670 m -54 X s 344 699 m -27 X s 344 727 m -27 X s 344 756 m -27 X s 344 785 m -27 X s 371 814 m -54 X s
 344 842 m -27 X s 344 871 m -27 X s 344 900 m -27 X s 344 929 m -27 X s 371 958 m -54 X s 344 986 m -27 X s 344 1015 m -27 X s 344 1044 m -27 X s 344 1073 m -27 X s 371 1102 m -54 X s 344 1130 m -27 X s 344 1159 m -27 X s 344 1188 m -27 X s 344 1217
 m -27 X s 371 1245 m -54 X s 344 1274 m -27 X s 344 1303 m -27 X s 344 1332 m -27 X s 344 1361 m -27 X s 371 1389 m -54 X s 344 1418 m -27 X s 344 1447 m -27 X s 344 1476 m -27 X s 344 1504 m -27 X s 371 1533 m -54 X s 371 1533 m -54 X s 344 1562 m
 -27 X s
 gsave  2268 1701 0 0 C 260.605 210.312 t 0 r /Helvetica findfont 77.7242 sf 0 0 m (0) show NC gr 
 gsave  2268 1701 0 0 C 214.884 352.045 t 0 r /Helvetica findfont 77.7242 sf 0 0 m (10) show NC gr 
 gsave  2268 1701 0 0 C 214.884 498.349 t 0 r /Helvetica findfont 77.7242 sf 0 0 m (20) show NC gr 
 gsave  2268 1701 0 0 C 214.884 640.081 t 0 r /Helvetica findfont 77.7242 sf 0 0 m (30) show NC gr 
 gsave  2268 1701 0 0 C 214.884 781.814 t 0 r /Helvetica findfont 77.7242 sf 0 0 m (40) show NC gr 
 gsave  2268 1701 0 0 C 214.884 928.118 t 0 r /Helvetica findfont 77.7242 sf 0 0 m (50) show NC gr 
 gsave  2268 1701 0 0 C 214.884 1069.85 t 0 r /Helvetica findfont 77.7242 sf 0 0 m (60) show NC gr 
 gsave  2268 1701 0 0 C 214.884 1216.15 t 0 r /Helvetica findfont 77.7242 sf 0 0 m (70) show NC gr 
 gsave  2268 1701 0 0 C 214.884 1357.89 t 0 r /Helvetica findfont 77.7242 sf 0 0 m (80) show NC gr 
 gsave  2268 1701 0 0 C 214.884 1504.19 t 0 r /Helvetica findfont 77.7242 sf 0 0 m (90) show NC gr  2154 238 m 1344 Y s 2101 238 m 53 X s 2127 267 m 27 X s 2127 296 m 27 X s 2127 324 m 27 X s 2127 353 m 27 X s 2101 382 m 53 X s 2127 411 m 27 X s 2127
 440 m 27 X s 2127 468 m 27 X s 2127 497 m 27 X s 2101 526 m 53 X s 2127 555 m 27 X s 2127 583 m 27 X s 2127 612 m 27 X s 2127 641 m 27 X s 2101 670 m 53 X s 2127 699 m 27 X s 2127 727 m 27 X s 2127 756 m 27 X s 2127 785 m 27 X s 2101 814 m 53 X s
 2127 842 m 27 X s 2127 871 m 27 X s 2127 900 m 27 X s 2127 929 m 27 X s 2101 958 m 53 X s 2127 986 m 27 X s 2127 1015 m 27 X s 2127 1044 m 27 X s 2127 1073 m 27 X s 2101 1102 m 53 X s 2127 1130 m 27 X s 2127 1159 m 27 X s 2127 1188 m 27 X s 2127
 1217 m 27 X s 2101 1245 m 53 X s 2127 1274 m 27 X s 2127 1303 m 27 X s 2127 1332 m 27 X s 2127 1361 m 27 X s 2101 1389 m 53 X s 2127 1418 m 27 X s 2127 1447 m 27 X s 2127 1476 m 27 X s 2127 1504 m 27 X s 2101 1533 m 53 X s 2101 1533 m 53 X s 2127
 1562 m 27 X s 349 900 m -32 X s 317 891 m 18 Y s 349 900 m 32 X s 381 891 m 18 Y s 349 900 m 113 Y s 340 1013 m 18 X s 349 900 m -97 Y s 340 803 m 18 X s 412 1116 m -31 X s 381 1107 m 18 Y s 412 1116 m 32 X s 444 1107 m 18 Y s 412 1116 m 127 Y s 403
 1243 m 19 X s 412 1116 m -112 Y s 403 1004 m 19 X s 476 1145 m -32 X s 444 1136 m 18 Y s 476 1145 m 31 X s 507 1136 m 18 Y s 476 1145 m 129 Y s 467 1274 m 18 X s 476 1145 m -114 Y s 467 1031 m 18 X s 539 958 m -32 X s 507 948 m 19 Y s 539 958 m 32 X
 s 571 948 m 19 Y s 539 958 m 116 Y s 530 1074 m 18 X s 539 958 m -102 Y s 530 856 m 18 X s 603 1116 m -32 X s 571 1107 m 18 Y s 603 1116 m 31 X s 634 1107 m 18 Y s 603 1116 m 127 Y s 593 1243 m 19 X s 603 1116 m -112 Y s 593 1004 m 19 X s 666 914 m
 -32 X s 634 905 m 19 Y s 666 914 m 32 X s 698 905 m 19 Y s 666 914 m 114 Y s 657 1028 m 18 X s 666 914 m -98 Y s 657 816 m 18 X s 729 1188 m -31 X s 698 1179 m 18 Y s 729 1188 m 32 X s 761 1179 m 18 Y s 729 1188 m 132 Y s 720 1320 m 18 X s 729 1188
 m -117 Y s 720 1071 m 18 X s 793 986 m -32 X s 761 977 m 19 Y s 793 986 m 31 X s 824 977 m 19 Y s 793 986 m 119 Y s 783 1105 m 19 X s 793 986 m -103 Y s 783 883 m 19 X s 856 1245 m -32 X s 824 1236 m 19 Y s 856 1245 m 32 X s 888 1236 m 19 Y s 856
 1245 m 136 Y s 847 1381 m 18 X s 856 1245 m -120 Y s 847 1125 m 18 X s 919 943 m -31 X s 888 934 m 18 Y s 919 943 m 32 X s 951 934 m 18 Y s 919 943 m 116 Y s 910 1059 m 18 X s 919 943 m -100 Y s 910 843 m 18 X s 983 972 m -32 X s 951 963 m 18 Y s
 983 972 m 31 X s 1014 963 m 18 Y s 983 972 m 118 Y s 973 1090 m 19 X s 983 972 m -102 Y s 973 870 m 19 X s 1046 1173 m -32 X s 1014 1164 m 19 Y s 1046 1173 m 32 X s 1078 1164 m 19 Y s 1046 1173 m 131 Y s 1037 1304 m 18 X s 1046 1173 m -115 Y s 1037
 1058 m 18 X s 1109 1001 m -31 X s 1078 992 m 18 Y s 1109 1001 m 32 X s 1141 992 m 18 Y s 1109 1001 m 120 Y s 1100 1121 m 18 X s 1109 1001 m -105 Y s 1100 896 m 18 X s 1173 1289 m -32 X s 1141 1279 m 19 Y s 1173 1289 m 31 X s 1204 1279 m 19 Y s 1173
 1289 m 137 Y s 1163 1426 m 19 X s 1173 1289 m -123 Y s 1163 1166 m 19 X s 1236 1375 m -32 X s 1204 1366 m 18 Y s 1236 1375 m 32 X s 1268 1366 m 18 Y s 1236 1375 m 143 Y s 1227 1518 m 18 X s 1236 1375 m -128 Y s 1227 1247 m 18 X s 1299 1245 m -31 X s
 1268 1236 m 19 Y s 1299 1245 m 32 X s 1331 1236 m 19 Y s 1299 1245 m 136 Y s 1290 1381 m 18 X s 1299 1245 m -120 Y s 1290 1125 m 18 X s 1363 1130 m -32 X s 1331 1121 m 18 Y s 1363 1130 m 31 X s 1394 1121 m 18 Y s 1363 1130 m 129 Y s 1353 1259 m 19 X
 s 1363 1130 m -113 Y s 1353 1017 m 19 X s 1426 1001 m -32 X s 1394 992 m 18 Y s 1426 1001 m 32 X s 1458 992 m 18 Y s 1426 1001 m 120 Y s 1417 1121 m 18 X s 1426 1001 m -105 Y s 1417 896 m 18 X s 1489 986 m -31 X s 1458 977 m 19 Y s 1489 986 m 32 X s
 1521 977 m 19 Y s 1489 986 m 119 Y s 1480 1105 m 18 X s 1489 986 m -103 Y s 1480 883 m 18 X s 1553 1001 m -32 X s 1521 992 m 18 Y s 1553 1001 m 31 X s 1584 992 m 18 Y s 1553 1001 m 120 Y s 1543 1121 m 19 X s 1553 1001 m -105 Y s 1543 896 m 19 X s
 1616 1058 m -32 X s 1584 1049 m 18 Y s 1616 1058 m 32 X s 1648 1049 m 18 Y s 1616 1058 m 124 Y s 1607 1182 m 18 X s 1616 1058 m -108 Y s 1607 950 m 18 X s 1679 756 m -31 X s 1648 747 m 18 Y s 1679 756 m 32 X s 1711 747 m 18 Y s 1679 756 m 102 Y s
 1670 858 m 18 X s 1679 756 m -86 Y s 1670 670 m 18 X s 1743 1001 m -32 X s 1711 992 m 18 Y s 1743 1001 m 31 X s 1774 992 m 18 Y s 1743 1001 m 120 Y s 1733 1121 m 19 X s 1743 1001 m -105 Y s 1733 896 m 19 X s 1806 1145 m -32 X s 1774 1136 m 18 Y s
 1806 1145 m 32 X s 1838 1136 m 18 Y s 1806 1145 m 129 Y s 1797 1274 m 18 X s 1806 1145 m -114 Y s 1797 1031 m 18 X s 1869 929 m -31 X s 1838 920 m 18 Y s 1869 929 m 32 X s 1901 920 m 18 Y s 1869 929 m 115 Y s 1860 1044 m 18 X s 1869 929 m -100 Y s
 1860 829 m 18 X s 1933 871 m -32 X s 1901 862 m 18 Y s 1933 871 m 31 X s 1964 862 m 18 Y s 1933 871 m 111 Y s 1923 982 m 19 X s 1933 871 m -95 Y s 1923 776 m 19 X s 1996 929 m -32 X s 1964 920 m 18 Y s 1996 929 m 32 X s 2028 920 m 18 Y s 1996 929 m
 115 Y s 1987 1044 m 18 X s 1996 929 m -100 Y s 1987 829 m 18 X s 2059 1044 m -31 X s 2028 1035 m 18 Y s 2059 1044 m 32 X s 2091 1035 m 18 Y s 2059 1044 m 123 Y s 2050 1167 m 18 X s 2059 1044 m -107 Y s 2050 937 m 18 X s 2123 986 m -32 X s 2091 977 m
 19 Y s 2123 986 m 31 X s 2154 977 m 19 Y s 2123 986 m 119 Y s 2114 1105 m 18 X s 2123 986 m -103 Y s 2114 883 m 18 X s 3 lw /w 37 def /w2 {w 2 div} def /w3 {w 3 div} def 349 900 412 1116 476 1145 539 958 603 1116 666 914 729 1188 793 986 856 1245
 919 943 983 972 1046 1173 1109 1001 1173 1289 1236 1375 1299 1245 1363 1130 1426 1001 1489 986 1553 1001 1616 1058 1679 756 1743 1001 1806 1145 1869 929 1933 871 1996 929 2059 1044 2123 986 29 { m20} R 6 lw 0 1 0 c[ 4 8] 0 sd 9 lw black 0 1 0 c 317
 1060 m cl s 317 1060 m 64 -4 d 63 -3 d 63 -4 d 64 -4 d 63 -3 d 64 -4 d 63 -4 d 63 -3 d 64 -4 d 63 -3 d 63 -4 d 64 -3 d 63 -4 d 63 -3 d 64 -4 d 63 -3 d 63 -4 d 64 -3 d 63 -4 d 63 -3 d 64 -4 d 63 -3 d 63 -3 d 64 -4 d 63 -3 d 63 -3 d 64 -4 d 63 -3 d 63
 -3 d s 0 0 1 c[ 12 12] 0 sd black 0 0 1 c 317 240 m cl s 317 240 m 127 X 63 1 d 127 X 64 1 d 63 X 63 1 d 64 2 d 63 2 d 32 2 d 31 3 d 16 2 d 16 3 d 16 5 d 8 3 d 8 5 d 7 6 d 8 9 d 8 10 d 8 12 d 8 14 d 8 16 d 8 17 d 8 19 d 8 20 d 8 22 d 16 45 d 15 45 d
 8 21 d 8 19 d 8 18 d 4 7 d 4 7 d 4 7 d 4 5 d 4 5 d 4 3 d 4 3 d 4 2 d 4 1 d 4 X 4 -2 d 4 -2 d 4 -3 d 4 -3 d 4 -5 d 3 -6 d 4 -6 d 4 -8 d 8 -16 d 8 -19 d 8 -20 d 8 -22 d 16 -46 d 16 -44 d 8 -21 d 8 -19 d 8 -18 d 7 -16 d 8 -15 d 8 -12 d 8 -12 d 8 -9 d 8
 -8 d 8 -7 d 8 -6 d 8 -4 d 8 -4 d 8 -3 d 15 -4 d 16 -2 d 32 -2 d 63 -1 d 570 X s 1 0 0 c[  ] 0 sd black 1 0 0 c 317 1062 m cl s 317 1062 m 64 -4 d 63 -3 d 63 -4 d 64 -3 d 63 -3 d 64 -3 d 63 -3 d 63 -3 d 64 -2 d 63 -2 d 32 1 d 31 1 d 16 1 d 16 2 d 16
 4 d 8 3 d 8 4 d 7 6 d 8 8 d 8 10 d 8 12 d 8 13 d 8 16 d 8 16 d 8 19 d 8 20 d 8 21 d 16 44 d 15 44 d 8 21 d 8 19 d 8 17 d 8 14 d 4 6 d 4 5 d 4 4 d 4 4 d 4 2 d 4 2 d 4 1 d 4 -1 d 4 -1 d 4 -2 d 4 -3 d 4 -5 d 4 -5 d 3 -5 d 8 -15 d 8 -16 d 8 -20 d 8 -21
 d 8 -22 d 16 -46 d 16 -45 d 8 -21 d 8 -20 d 8 -19 d 7 -16 d 8 -15 d 8 -13 d 8 -12 d 8 -10 d 8 -9 d 8 -7 d 8 -6 d 8 -5 d 16 -7 d 15 -5 d 16 -3 d 32 -4 d 63 -4 d 64 -4 d 63 -3 d 63 -3 d 64 -4 d 63 -3 d 63 -3 d 64 -4 d 63 -3 d 63 -3 d s black
 gsave  2268 1701 0 0 C 498.349 388.621 t 0 r /Helvetica findfont 68.5801 sf 0 0 m (pPb\(Bwd\)) show NC gr 
 gsave  2268 1701 0 0 C 498.349 466.345 t 0 r /Helvetica findfont 86.8682 sf 0 0 m (LHCb) show NC gr 
 gsave  2268 1701 0 0 C 1536.2 457.201 t 0 r /Helvetica findfont 86.8682 sf 0 0 m ( < 14.0 GeV/c) show NC gr 
 gsave  2268 1701 0 0 C 1499.62 406.909 t 0 r /Helvetica findfont 59.4361 sf 0 0 m (T) show NC gr 
 gsave  2268 1701 0 0 C 1449.33 457.201 t 0 r /Helvetica findfont 86.8682 sf 0 0 m (p) show NC gr 
 gsave  2268 1701 0 0 C 1911.1 571.501 t 0 r /Helvetica findfont 86.8682 sf 0 0 m (2.5) show NC gr 
 gsave  2268 1701 0 0 C 1860.81 571.501 t 0 r /Symbol findfont 86.8682 sf 0 0 m (-) show NC gr 
 gsave  2268 1701 0 0 C 1499.62 571.501 t 0 r /Helvetica findfont 86.8682 sf 0 0 m (5.0 < y < ) show NC gr 
 gsave  2268 1701 0 0 C 1449.33 571.501 t 0 r /Symbol findfont 86.8682 sf 0 0 m (-) show NC gr  6 lw 317 238 m 1837 X s 698 279 m -41 Y s 824 259 m -21 Y s 951 259 m -21 Y s 1078 259 m -21 Y s 1204 259 m -21 Y s 1331 279 m -41 Y s 1458 259 m -21 Y s
 1584 259 m -21 Y s 1711 259 m -21 Y s 1838 259 m -21 Y s 1964 279 m -41 Y s 698 279 m -41 Y s 571 259 m -21 Y s 444 259 m -21 Y s 317 259 m -21 Y s 1964 279 m -41 Y s 2091 259 m -21 Y s 317 1582 m 1837 X s 698 1540 m 42 Y s 824 1561 m 21 Y s 951
 1561 m 21 Y s 1078 1561 m 21 Y s 1204 1561 m 21 Y s 1331 1540 m 42 Y s 1458 1561 m 21 Y s 1584 1561 m 21 Y s 1711 1561 m 21 Y s 1838 1561 m 21 Y s 1964 1540 m 42 Y s 698 1540 m 42 Y s 571 1561 m 21 Y s 444 1561 m 21 Y s 317 1561 m 21 Y s 1964 1540 m
 42 Y s 2091 1561 m 21 Y s 317 238 m 1344 Y s 371 238 m -54 X s 344 267 m -27 X s 344 296 m -27 X s 344 324 m -27 X s 344 353 m -27 X s 371 382 m -54 X s 344 411 m -27 X s 344 440 m -27 X s 344 468 m -27 X s 344 497 m -27 X s 371 526 m -54 X s 344
 555 m -27 X s 344 583 m -27 X s 344 612 m -27 X s 344 641 m -27 X s 371 670 m -54 X s 344 699 m -27 X s 344 727 m -27 X s 344 756 m -27 X s 344 785 m -27 X s 371 814 m -54 X s 344 842 m -27 X s 344 871 m -27 X s 344 900 m -27 X s 344 929 m -27 X s
 371 958 m -54 X s 344 986 m -27 X s 344 1015 m -27 X s 344 1044 m -27 X s 344 1073 m -27 X s 371 1102 m -54 X s 344 1130 m -27 X s 344 1159 m -27 X s 344 1188 m -27 X s 344 1217 m -27 X s 371 1245 m -54 X s 344 1274 m -27 X s 344 1303 m -27 X s 344
 1332 m -27 X s 344 1361 m -27 X s 371 1389 m -54 X s 344 1418 m -27 X s 344 1447 m -27 X s 344 1476 m -27 X s 344 1504 m -27 X s 371 1533 m -54 X s 371 1533 m -54 X s 344 1562 m -27 X s 2154 238 m 1344 Y s 2101 238 m 53 X s 2127 267 m 27 X s 2127
 296 m 27 X s 2127 324 m 27 X s 2127 353 m 27 X s 2101 382 m 53 X s 2127 411 m 27 X s 2127 440 m 27 X s 2127 468 m 27 X s 2127 497 m 27 X s 2101 526 m 53 X s 2127 555 m 27 X s 2127 583 m 27 X s 2127 612 m 27 X s 2127 641 m 27 X s 2101 670 m 53 X s
 2127 699 m 27 X s 2127 727 m 27 X s 2127 756 m 27 X s 2127 785 m 27 X s 2101 814 m 53 X s 2127 842 m 27 X s 2127 871 m 27 X s 2127 900 m 27 X s 2127 929 m 27 X s 2101 958 m 53 X s 2127 986 m 27 X s 2127 1015 m 27 X s 2127 1044 m 27 X s 2127 1073 m
 27 X s 2101 1102 m 53 X s 2127 1130 m 27 X s 2127 1159 m 27 X s 2127 1188 m 27 X s 2127 1217 m 27 X s 2101 1245 m 53 X s 2127 1274 m 27 X s 2127 1303 m 27 X s 2127 1332 m 27 X s 2127 1361 m 27 X s 2101 1389 m 53 X s 2127 1418 m 27 X s 2127 1447 m 27
 X s 2127 1476 m 27 X s 2127 1504 m 27 X s 2101 1533 m 53 X s 2101 1533 m 53 X s 2127 1562 m 27 X s
 gr  gr showpage
end
%%EOF
