%!PS-Adobe-2.0 EPSF-2.0
%%BoundingBox:  0 0 567 319
%%Title: result/MassFitBin/ApPTc_psip.eps: 
%%Creator: ROOT Version 5.34/18
%%CreationDate: Sun Aug  2 10:54:29 2015
%%EndComments
%%BeginProlog
80 dict begin
/s {stroke} def /l {lineto} def /m {moveto} def /t {translate} def
/r {rotate} def /rl {roll}  def /R {repeat} def
/d {rlineto} def /rm {rmoveto} def /gr {grestore} def /f {eofill} def
/c {setrgbcolor} def /black {0 setgray} def /sd {setdash} def
/cl {closepath} def /sf {scalefont setfont} def /lw {setlinewidth} def
/box {m dup 0 exch d exch 0 d 0 exch neg d cl} def
/NC{systemdict begin initclip end}def/C{NC box clip newpath}def
/bl {box s} def /bf {box f} def /Y { 0 exch d} def /X { 0 d} def 
/K {{pop pop 0 moveto} exch kshow} bind def
/ita {/ang 15 def gsave [1 0 ang dup sin exch cos div 1 0 0] concat} def 
/mp {newpath /y exch def /x exch def} def
/side {[w .77 mul w .23 mul] .385 w mul sd w 0 l currentpoint t -144 r} def
/mr {mp x y w2 0 360 arc} def /m24 {mr s} def /m20 {mr f} def
/mb {mp x y w2 add m w2 neg 0 d 0 w neg d w 0 d 0 w d cl} def
/mt {mp x y w2 add m w2 neg w neg d w 0 d cl} def
/m21 {mb f} def /m25 {mb s} def /m22 {mt f} def /m26{mt s} def
/m23 {mp x y w2 sub m w2 w d w neg 0 d cl f} def
/m27 {mp x y w2 add m w3 neg w2 neg d w3 w2 neg d w3 w2 d cl s} def
/m28 {mp x w2 sub y w2 sub w3 add m w3 0 d  0 w3 neg d w3 0 d 0 w3 d w3 0 d  0 w3 d w3 neg 0 d 0 w3 d w3 neg 0 d 0 w3 neg d w3 neg 0 d cl s } def
/m29 {mp gsave x w2 sub y w2 add w3 sub m currentpoint t 4 {side} repeat cl fill gr} def
/m30 {mp gsave x w2 sub y w2 add w3 sub m currentpoint t 4 {side} repeat cl s gr} def
/m31 {mp x y w2 sub m 0 w d x w2 sub y m w 0 d x w2 sub y w2 add m w w neg d x w2 sub y w2 sub m w w d s} def
/m32 {mp x y w2 sub m w2 w d w neg 0 d cl s} def
/m33 {mp x y w2 add m w3 neg w2 neg d w3 w2 neg d w3 w2 d cl f} def
/m34 {mp x w2 sub y w2 sub w3 add m w3 0 d  0 w3 neg d w3 0 d 0 w3 d w3 0 d  0 w3 d w3 neg 0 d 0 w3 d w3 neg 0 d 0 w3 neg d w3 neg 0 d cl f } def
/m2 {mp x y w2 sub m 0 w d x w2 sub y m w 0 d s} def
/m5 {mp x w2 sub y w2 sub m w w d x w2 sub y w2 add m w w neg d s} def
/reEncode {exch findfont dup length dict begin {1 index /FID eq  {pop pop} {def} ifelse } forall /Encoding exch def currentdict end dup /FontName get exch definefont pop } def [/Times-Bold /Times-Italic /Times-BoldItalic /Helvetica /Helvetica-Oblique
 /Helvetica-Bold /Helvetica-BoldOblique /Courier /Courier-Oblique /Courier-Bold /Courier-BoldOblique /Times-Roman /AvantGarde-Book /AvantGarde-BookOblique /AvantGarde-Demi /AvantGarde-DemiOblique /Bookman-Demi /Bookman-DemiItalic /Bookman-Light
 /Bookman-LightItalic /Helvetica-Narrow /Helvetica-Narrow-Bold /Helvetica-Narrow-BoldOblique /Helvetica-Narrow-Oblique /NewCenturySchlbk-Roman /NewCenturySchlbk-Bold /NewCenturySchlbk-BoldItalic /NewCenturySchlbk-Italic /Palatino-Bold
 /Palatino-BoldItalic /Palatino-Italic /Palatino-Roman ] {ISOLatin1Encoding reEncode } forall
%%EndProlog
%%BeginSetup
%%EndSetup
newpath  gsave  .25 .25 scale  gsave  0 0 t black[  ] 0 sd 6 lw 1 1 1 c 2268 1274 0 0 bf black 1 1 1 c 710 611 23 650 bf black 1 1 1 c 576 484 122 735 bf black 576 484 122 735 bl 1 1 1 c 576 484 122 735 bf black 576 484 122 735 bl 122 735 m 576 X s
 gsave  710 611 23 650 C 688.279 665.526 t 0 r /Helvetica findfont 34.1889 sf 0 0 m (]) show NC gr 
 gsave  710 611 23 650 C 675.006 680.694 t 0 r /Helvetica findfont 22.7926 sf 0 0 m (2) show NC gr 
 gsave  710 611 23 650 C 559.345 665.526 t 0 r /Helvetica findfont 34.1889 sf 0 0 m ( [MeV/c) show NC gr 
 gsave  710 611 23 650 C 546.072 657.941 t 0 r /Symbol findfont 22.7926 sf 0 0 m (m) show NC gr 
 gsave  710 611 23 650 C 532.8 657.941 t 0 r /Symbol findfont 22.7926 sf 0 0 m (m) show NC gr 
 gsave  710 611 23 650 C 506.254 665.526 t 0 r /Helvetica findfont 34.1889 sf 0 0 m (m) show NC gr  241 750 m -15 Y s 281 743 m -8 Y s 321 743 m -8 Y s 360 743 m -8 Y s 400 743 m -8 Y s 440 750 m -15 Y s 479 743 m -8 Y s 519 743 m -8 Y s 559 743 m -8
 Y s 598 743 m -8 Y s 638 750 m -15 Y s 241 750 m -15 Y s 202 743 m -8 Y s 162 743 m -8 Y s 122 743 m -8 Y s 638 750 m -15 Y s 678 743 m -8 Y s
 gsave  710 611 23 650 C 208.569 703.447 t 0 r /Helvetica findfont 28.4907 sf 0 0 m (3600) show NC gr 
 gsave  710 611 23 650 C 405.762 703.447 t 0 r /Helvetica findfont 28.4907 sf 0 0 m (3700) show NC gr 
 gsave  710 611 23 650 C 604.851 703.447 t 0 r /Helvetica findfont 28.4907 sf 0 0 m (3800) show NC gr  122 1219 m 576 X s 241 1204 m 15 Y s 281 1211 m 8 Y s 321 1211 m 8 Y s 360 1211 m 8 Y s 400 1211 m 8 Y s 440 1204 m 15 Y s 479 1211 m 8 Y s 519
 1211 m 8 Y s 559 1211 m 8 Y s 598 1211 m 8 Y s 638 1204 m 15 Y s 241 1204 m 15 Y s 202 1211 m 8 Y s 162 1211 m 8 Y s 122 1211 m 8 Y s 638 1204 m 15 Y s 678 1211 m 8 Y s 122 735 m 484 Y s
 gsave  710 611 23 650 C 66.3629 1209.7 t 90 r /Helvetica findfont 34.1889 sf 0 0 m (\)) show NC gr 
 gsave  710 611 23 650 C 51.1943 1196.43 t 90 r /Helvetica findfont 22.7926 sf 0 0 m (2) show NC gr 
 gsave  710 611 23 650 C 66.3629 908.224 t 90 r /Helvetica findfont 34.1889 sf 0 0 m (Events / \(10 MeV/c) show NC gr  139 735 m -17 X s 131 754 m -9 X s 131 772 m -9 X s 131 790 m -9 X s 131 808 m -9 X s 139 826 m -17 X s 131 845 m -9 X s 131 863 m
 -9 X s 131 881 m -9 X s 131 899 m -9 X s 139 917 m -17 X s 131 935 m -9 X s 131 954 m -9 X s 131 972 m -9 X s 131 990 m -9 X s 139 1008 m -17 X s 131 1026 m -9 X s 131 1045 m -9 X s 131 1063 m -9 X s 131 1081 m -9 X s 139 1099 m -17 X s 131 1117 m
 -9 X s 131 1136 m -9 X s 131 1154 m -9 X s 131 1172 m -9 X s 139 1190 m -17 X s 139 1190 m -17 X s 131 1208 m -9 X s
 gsave  710 611 23 650 C 102.389 724.304 t 0 r /Helvetica findfont 28.4907 sf 0 0 m (0) show NC gr 
 gsave  710 611 23 650 C 87.2199 815.316 t 0 r /Helvetica findfont 28.4907 sf 0 0 m (10) show NC gr 
 gsave  710 611 23 650 C 87.2199 906.328 t 0 r /Helvetica findfont 28.4907 sf 0 0 m (20) show NC gr 
 gsave  710 611 23 650 C 87.2199 997.34 t 0 r /Helvetica findfont 28.4907 sf 0 0 m (30) show NC gr 
 gsave  710 611 23 650 C 87.2199 1088.35 t 0 r /Helvetica findfont 28.4907 sf 0 0 m (40) show NC gr 
 gsave  710 611 23 650 C 87.2199 1179.36 t 0 r /Helvetica findfont 28.4907 sf 0 0 m (50) show NC gr  698 735 m 484 Y s 681 735 m 17 X s 689 754 m 9 X s 689 772 m 9 X s 689 790 m 9 X s 689 808 m 9 X s 681 826 m 17 X s 689 845 m 9 X s 689 863 m 9 X s
 689 881 m 9 X s 689 899 m 9 X s 681 917 m 17 X s 689 935 m 9 X s 689 954 m 9 X s 689 972 m 9 X s 689 990 m 9 X s 681 1008 m 17 X s 689 1026 m 9 X s 689 1045 m 9 X s 689 1063 m 9 X s 689 1081 m 9 X s 681 1099 m 17 X s 689 1117 m 9 X s 689 1136 m 9 X
 s 689 1154 m 9 X s 689 1172 m 9 X s 681 1190 m 17 X s 681 1190 m 17 X s 689 1208 m 9 X s 132 917 m -10 X s 122 914 m 7 Y s 132 917 m 10 X s 142 914 m 7 Y s 132 917 m 51 Y s 128 968 m 8 X s 132 917 m -40 Y s 128 877 m 8 X s 152 972 m -10 X s 142 968
 m 8 Y s 152 972 m 10 X s 162 968 m 8 Y s 152 972 m 56 Y s 148 1028 m 8 X s 152 972 m -46 Y s 148 926 m 8 X s 172 1072 m -10 X s 162 1068 m 8 Y s 172 1072 m 10 X s 182 1068 m 8 Y s 172 1072 m 65 Y s 168 1137 m 8 X s 172 1072 m -55 Y s 168 1017 m 8 X
 s 192 954 m -10 X s 182 950 m 7 Y s 192 954 m 10 X s 202 950 m 7 Y s 192 954 m 54 Y s 188 1008 m 7 X s 192 954 m -45 Y s 188 909 m 7 X s 211 1017 m -9 X s 202 1014 m 7 Y s 211 1017 m 10 X s 221 1014 m 7 Y s 211 1017 m 61 Y s 208 1078 m 7 X s 211
 1017 m -50 Y s 208 967 m 7 X s 231 963 m -10 X s 221 959 m 8 Y s 231 963 m 10 X s 241 959 m 8 Y s 231 963 m 55 Y s 228 1018 m 7 X s 231 963 m -45 Y s 228 918 m 7 X s 251 1045 m -10 X s 241 1041 m 7 Y s 251 1045 m 10 X s 261 1041 m 7 Y s 251 1045 m
 62 Y s 247 1107 m 8 X s 251 1045 m -53 Y s 247 992 m 8 X s 271 1045 m -10 X s 261 1041 m 7 Y s 271 1045 m 10 X s 281 1041 m 7 Y s 271 1045 m 62 Y s 267 1107 m 8 X s 271 1045 m -53 Y s 267 992 m 8 X s 291 1126 m -10 X s 281 1123 m 7 Y s 291 1126 m 10
 X s 301 1123 m 7 Y s 291 1126 m 70 Y s 287 1196 m 8 X s 291 1126 m -59 Y s 287 1067 m 8 X s 311 926 m -10 X s 301 923 m 7 Y s 311 926 m 10 X s 321 923 m 7 Y s 311 926 m 52 Y s 307 978 m 7 X s 311 926 m -41 Y s 307 885 m 7 X s 331 990 m -10 X s 321
 986 m 8 Y s 331 990 m 9 X s 340 986 m 8 Y s 331 990 m 58 Y s 327 1048 m 7 X s 331 990 m -48 Y s 327 942 m 7 X s 350 990 m -10 X s 340 986 m 8 Y s 350 990 m 10 X s 360 986 m 8 Y s 350 990 m 58 Y s 347 1048 m 7 X s 350 990 m -48 Y s 347 942 m 7 X s
 370 990 m -10 X s 360 986 m 8 Y s 370 990 m 10 X s 380 986 m 8 Y s 370 990 m 58 Y s 366 1048 m 8 X s 370 990 m -48 Y s 366 942 m 8 X s 390 1017 m -10 X s 380 1014 m 7 Y s 390 1017 m 10 X s 400 1014 m 7 Y s 390 1017 m 61 Y s 386 1078 m 8 X s 390 1017
 m -50 Y s 386 967 m 8 X s 410 1054 m -10 X s 400 1050 m 7 Y s 410 1054 m 10 X s 420 1050 m 7 Y s 410 1054 m 63 Y s 406 1117 m 8 X s 410 1054 m -54 Y s 406 1000 m 8 X s 430 1054 m -10 X s 420 1050 m 7 Y s 430 1054 m 10 X s 440 1050 m 7 Y s 430 1054 m
 63 Y s 426 1117 m 8 X s 430 1054 m -54 Y s 426 1000 m 8 X s 450 1036 m -10 X s 440 1032 m 7 Y s 450 1036 m 10 X s 460 1032 m 7 Y s 450 1036 m 61 Y s 446 1097 m 7 X s 450 1036 m -52 Y s 446 984 m 7 X s 469 981 m -9 X s 460 977 m 8 Y s 469 981 m 10 X
 s 479 977 m 8 Y s 469 981 m 57 Y s 466 1038 m 7 X s 469 981 m -47 Y s 466 934 m 7 X s 489 963 m -10 X s 479 959 m 8 Y s 489 963 m 10 X s 499 959 m 8 Y s 489 963 m 55 Y s 486 1018 m 7 X s 489 963 m -45 Y s 486 918 m 7 X s 509 981 m -10 X s 499 977 m
 8 Y s 509 981 m 10 X s 519 977 m 8 Y s 509 981 m 57 Y s 505 1038 m 8 X s 509 981 m -47 Y s 505 934 m 8 X s 529 990 m -10 X s 519 986 m 8 Y s 529 990 m 10 X s 539 986 m 8 Y s 529 990 m 58 Y s 525 1048 m 8 X s 529 990 m -48 Y s 525 942 m 8 X s 549 926
 m -10 X s 539 923 m 7 Y s 549 926 m 10 X s 559 923 m 7 Y s 549 926 m 52 Y s 545 978 m 8 X s 549 926 m -41 Y s 545 885 m 8 X s 569 963 m -10 X s 559 959 m 8 Y s 569 963 m 10 X s 579 959 m 8 Y s 569 963 m 55 Y s 565 1018 m 7 X s 569 963 m -45 Y s 565
 918 m 7 X s 589 1063 m -10 X s 579 1059 m 8 Y s 589 1063 m 9 X s 598 1059 m 8 Y s 589 1063 m 64 Y s 585 1127 m 7 X s 589 1063 m -55 Y s 585 1008 m 7 X s 608 935 m -10 X s 598 932 m 7 Y s 608 935 m 10 X s 618 932 m 7 Y s 608 935 m 53 Y s 605 988 m 7
 X s 608 935 m -42 Y s 605 893 m 7 X s 628 890 m -10 X s 618 886 m 8 Y s 628 890 m 10 X s 638 886 m 8 Y s 628 890 m 47 Y s 624 937 m 8 X s 628 890 m -37 Y s 624 853 m 8 X s 648 999 m -10 X s 638 995 m 8 Y s 648 999 m 10 X s 658 995 m 8 Y s 648 999 m
 59 Y s 644 1058 m 8 X s 648 999 m -49 Y s 644 950 m 8 X s 668 990 m -10 X s 658 986 m 8 Y s 668 990 m 10 X s 678 986 m 8 Y s 668 990 m 58 Y s 664 1048 m 8 X s 668 990 m -48 Y s 664 942 m 8 X s 688 945 m -10 X s 678 941 m 7 Y s 688 945 m 10 X s 698
 941 m 7 Y s 688 945 m 53 Y s 684 998 m 8 X s 688 945 m -44 Y s 684 901 m 8 X s 3 lw /w 15 def /w2 {w 2 div} def /w3 {w 3 div} def 132 917 152 972 172 1072 192 954 211 1017 231 963 251 1045 271 1045 291 1126 311 926 331 990 350 990 370 990 390 1017
 410 1054 430 1054 450 1036 469 981 489 963 509 981 529 990 549 926 569 963 589 1063 608 935 628 890 648 999 668 990 688 945 29 { m20} R 6 lw 0 1 0 c[ 4 8] 0 sd 9 lw black 0 1 0 c 122 1003 m cl s 122 1003 m 20 -1 d 20 -2 d 20 -1 d 20 -1 d 19 -2 d 20
 -1 d 20 -2 d 20 -1 d 20 -2 d 20 -1 d 19 -1 d 20 -2 d 20 -1 d 20 -1 d 20 -2 d 20 -1 d 20 -1 d 19 -2 d 20 -1 d 20 -1 d 20 -2 d 20 -1 d 20 -1 d 19 -2 d 20 -1 d 20 -1 d 20 -1 d 20 -2 d 20 -1 d s 0 0 1 c[ 12 12] 0 sd black 0 0 1 c 122 736 m cl s 122 736
 m 119 X 20 1 d 40 X 10 1 d 10 X 10 1 d 5 1 d 4 1 d 3 1 d 2 1 d 3 1 d 2 1 d 3 2 d 2 2 d 3 2 d 2 2 d 3 2 d 2 3 d 3 3 d 2 3 d 5 6 d 5 6 d 5 7 d 5 6 d 3 3 d 2 2 d 3 3 d 2 2 d 2 2 d 3 1 d 2 1 d 3 X 2 1 d 3 -1 d 2 X 3 -2 d 2 -1 d 3 -2 d 2 -2 d 3 -3 d 2 -2
 d 3 -3 d 5 -7 d 10 -12 d 5 -7 d 2 -2 d 3 -3 d 2 -3 d 3 -2 d 2 -2 d 2 -2 d 3 -2 d 2 -1 d 3 -2 d 2 -1 d 3 -1 d 2 -1 d 5 -1 d 5 -1 d 5 -1 d 5 -1 d 15 X 20 -1 d 159 X s 1 0 0 c[  ] 0 sd black 1 0 0 c 122 1004 m cl s 122 1004 m 20 -2 d 20 -1 d 20 -1 d 20
 -2 d 19 -1 d 20 -1 d 20 -2 d 20 -1 d 20 -1 d 35 X 4 1 d 3 1 d 2 1 d 3 1 d 2 1 d 3 1 d 2 2 d 3 2 d 2 2 d 3 2 d 2 3 d 5 5 d 5 6 d 5 6 d 5 6 d 5 6 d 3 2 d 2 3 d 3 2 d 2 2 d 2 2 d 3 1 d 2 1 d 5 X 3 -1 d 2 X 3 -2 d 2 -1 d 3 -3 d 2 -2 d 3 -3 d 2 -2 d 3 -3
 d 5 -7 d 10 -14 d 5 -6 d 5 -6 d 2 -3 d 3 -2 d 2 -2 d 2 -2 d 3 -2 d 2 -2 d 5 -3 d 5 -2 d 5 -2 d 5 -2 d 5 -1 d 5 -1 d 5 X 10 -1 d 20 -2 d 20 -1 d 20 -1 d 19 -2 d 20 -1 d 20 -1 d 20 -1 d 20 -2 d 20 -1 d s black 6 lw 122 735 m 576 X s 241 750 m -15 Y s
 281 743 m -8 Y s 321 743 m -8 Y s 360 743 m -8 Y s 400 743 m -8 Y s 440 750 m -15 Y s 479 743 m -8 Y s 519 743 m -8 Y s 559 743 m -8 Y s 598 743 m -8 Y s 638 750 m -15 Y s 241 750 m -15 Y s 202 743 m -8 Y s 162 743 m -8 Y s 122 743 m -8 Y s 638 750
 m -15 Y s 678 743 m -8 Y s 122 1219 m 576 X s 241 1204 m 15 Y s 281 1211 m 8 Y s 321 1211 m 8 Y s 360 1211 m 8 Y s 400 1211 m 8 Y s 440 1204 m 15 Y s 479 1211 m 8 Y s 519 1211 m 8 Y s 559 1211 m 8 Y s 598 1211 m 8 Y s 638 1204 m 15 Y s 241 1204 m 15
 Y s 202 1211 m 8 Y s 162 1211 m 8 Y s 122 1211 m 8 Y s 638 1204 m 15 Y s 678 1211 m 8 Y s 122 735 m 484 Y s 139 735 m -17 X s 131 754 m -9 X s 131 772 m -9 X s 131 790 m -9 X s 131 808 m -9 X s 139 826 m -17 X s 131 845 m -9 X s 131 863 m -9 X s 131
 881 m -9 X s 131 899 m -9 X s 139 917 m -17 X s 131 935 m -9 X s 131 954 m -9 X s 131 972 m -9 X s 131 990 m -9 X s 139 1008 m -17 X s 131 1026 m -9 X s 131 1045 m -9 X s 131 1063 m -9 X s 131 1081 m -9 X s 139 1099 m -17 X s 131 1117 m -9 X s 131
 1136 m -9 X s 131 1154 m -9 X s 131 1172 m -9 X s 139 1190 m -17 X s 139 1190 m -17 X s 131 1208 m -9 X s 698 735 m 484 Y s 681 735 m 17 X s 689 754 m 9 X s 689 772 m 9 X s 689 790 m 9 X s 689 808 m 9 X s 681 826 m 17 X s 689 845 m 9 X s 689 863 m 9
 X s 689 881 m 9 X s 689 899 m 9 X s 681 917 m 17 X s 689 935 m 9 X s 689 954 m 9 X s 689 972 m 9 X s 689 990 m 9 X s 681 1008 m 17 X s 689 1026 m 9 X s 689 1045 m 9 X s 689 1063 m 9 X s 689 1081 m 9 X s 681 1099 m 17 X s 689 1117 m 9 X s 689 1136 m
 9 X s 689 1154 m 9 X s 689 1172 m 9 X s 681 1190 m 17 X s 681 1190 m 17 X s 689 1208 m 9 X s
 gsave  710 611 23 650 C 312.854 788.771 t 0 r /Helvetica findfont 22.7926 sf 0 0 m ( = 5 TeV) show NC gr 
 gsave  710 611 23 650 C 291.997 781.187 t 0 r /Helvetica findfont 15.1951 sf 0 0 m (NN) show NC gr 
 gsave  710 611 23 650 C 280.62 788.771 t 0 r /Helvetica findfont 22.7926 sf 0 0 m (s) show NC gr  271 802 m 4 -21 d s 0 lw 275 781 m 4 29 d s 279 810 m 34 X s
 gsave  710 611 23 650 C 163.063 788.771 t 0 r /Helvetica findfont 22.7926 sf 0 0 m (pPb\(Bwd\) ) show NC gr 
 gsave  710 611 23 650 C 163.063 824.797 t 0 r /Helvetica findfont 28.4907 sf 0 0 m (Preliminary) show NC gr 
 gsave  710 611 23 650 C 163.063 855.134 t 0 r /Helvetica findfont 28.4907 sf 0 0 m (LHCb) show NC gr 
 gsave  710 611 23 650 C 608.643 834.277 t 0 r /Helvetica findfont 28.4907 sf 0 0 m (2.5) show NC gr 
 gsave  710 611 23 650 C 591.578 834.277 t 0 r /Symbol findfont 28.4907 sf 0 0 m (-) show NC gr 
 gsave  710 611 23 650 C 472.125 834.277 t 0 r /Helvetica findfont 28.4907 sf 0 0 m (4.0 < y < ) show NC gr 
 gsave  710 611 23 650 C 455.06 834.277 t 0 r /Symbol findfont 28.4907 sf 0 0 m (-) show NC gr 
 gsave  710 611 23 650 C 530.904 803.94 t 0 r /Helvetica findfont 28.4907 sf 0 0 m ( < 2 GeV/c) show NC gr 
 gsave  710 611 23 650 C 519.527 788.771 t 0 r /Helvetica findfont 18.9938 sf 0 0 m (T) show NC gr 
 gsave  710 611 23 650 C 455.06 803.94 t 0 r /Helvetica findfont 28.4907 sf 0 0 m ( 0< p) show NC gr  6 lw 1 1 1 c 710 611 779 650 bf black 1 1 1 c 576 484 878 735 bf black 576 484 878 735 bl 1 1 1 c 576 484 878 735 bf black 576 484 878 735 bl 878
 735 m 576 X s
 gsave  710 611 779 650 C 1444.82 665.526 t 0 r /Helvetica findfont 34.1889 sf 0 0 m (]) show NC gr 
 gsave  710 611 779 650 C 1431.54 680.694 t 0 r /Helvetica findfont 22.7926 sf 0 0 m (2) show NC gr 
 gsave  710 611 779 650 C 1315.88 665.526 t 0 r /Helvetica findfont 34.1889 sf 0 0 m ( [MeV/c) show NC gr 
 gsave  710 611 779 650 C 1302.61 657.941 t 0 r /Symbol findfont 22.7926 sf 0 0 m (m) show NC gr 
 gsave  710 611 779 650 C 1289.34 657.941 t 0 r /Symbol findfont 22.7926 sf 0 0 m (m) show NC gr 
 gsave  710 611 779 650 C 1262.79 665.526 t 0 r /Helvetica findfont 34.1889 sf 0 0 m (m) show NC gr  997 750 m -15 Y s 1037 743 m -8 Y s 1077 743 m -8 Y s 1116 743 m -8 Y s 1156 743 m -8 Y s 1196 750 m -15 Y s 1235 743 m -8 Y s 1275 743 m -8 Y s 1315
 743 m -8 Y s 1354 743 m -8 Y s 1394 750 m -15 Y s 997 750 m -15 Y s 957 743 m -8 Y s 918 743 m -8 Y s 878 743 m -8 Y s 1394 750 m -15 Y s 1434 743 m -8 Y s
 gsave  710 611 779 650 C 963.211 703.447 t 0 r /Helvetica findfont 28.4907 sf 0 0 m (3600) show NC gr 
 gsave  710 611 779 650 C 1162.3 703.447 t 0 r /Helvetica findfont 28.4907 sf 0 0 m (3700) show NC gr 
 gsave  710 611 779 650 C 1361.39 703.447 t 0 r /Helvetica findfont 28.4907 sf 0 0 m (3800) show NC gr  878 1219 m 576 X s 997 1204 m 15 Y s 1037 1211 m 8 Y s 1077 1211 m 8 Y s 1116 1211 m 8 Y s 1156 1211 m 8 Y s 1196 1204 m 15 Y s 1235 1211 m 8 Y s
 1275 1211 m 8 Y s 1315 1211 m 8 Y s 1354 1211 m 8 Y s 1394 1204 m 15 Y s 997 1204 m 15 Y s 957 1211 m 8 Y s 918 1211 m 8 Y s 878 1211 m 8 Y s 1394 1204 m 15 Y s 1434 1211 m 8 Y s 878 735 m 484 Y s
 gsave  710 611 779 650 C 822.9 1209.7 t 90 r /Helvetica findfont 34.1889 sf 0 0 m (\)) show NC gr 
 gsave  710 611 779 650 C 807.732 1196.43 t 90 r /Helvetica findfont 22.7926 sf 0 0 m (2) show NC gr 
 gsave  710 611 779 650 C 822.9 908.224 t 90 r /Helvetica findfont 34.1889 sf 0 0 m (Events / \(10 MeV/c) show NC gr  895 735 m -17 X s 886 751 m -8 X s 886 767 m -8 X s 886 783 m -8 X s 886 799 m -8 X s 895 815 m -17 X s 886 831 m -8 X s 886 847 m
 -8 X s 886 863 m -8 X s 886 879 m -8 X s 895 895 m -17 X s 886 911 m -8 X s 886 927 m -8 X s 886 943 m -8 X s 886 959 m -8 X s 895 975 m -17 X s 886 991 m -8 X s 886 1006 m -8 X s 886 1022 m -8 X s 886 1038 m -8 X s 895 1054 m -17 X s 886 1070 m -8
 X s 886 1086 m -8 X s 886 1102 m -8 X s 886 1118 m -8 X s 895 1134 m -17 X s 886 1150 m -8 X s 886 1166 m -8 X s 886 1182 m -8 X s 886 1198 m -8 X s 895 1214 m -17 X s 895 1214 m -17 X s
 gsave  710 611 779 650 C 858.926 724.304 t 0 r /Helvetica findfont 28.4907 sf 0 0 m (0) show NC gr 
 gsave  710 611 779 650 C 858.926 803.94 t 0 r /Helvetica findfont 28.4907 sf 0 0 m (5) show NC gr 
 gsave  710 611 779 650 C 843.757 883.575 t 0 r /Helvetica findfont 28.4907 sf 0 0 m (10) show NC gr 
 gsave  710 611 779 650 C 841.861 963.211 t 0 r /Helvetica findfont 28.4907 sf 0 0 m (15) show NC gr 
 gsave  710 611 779 650 C 843.757 1044.74 t 0 r /Helvetica findfont 28.4907 sf 0 0 m (20) show NC gr 
 gsave  710 611 779 650 C 841.861 1124.38 t 0 r /Helvetica findfont 28.4907 sf 0 0 m (25) show NC gr 
 gsave  710 611 779 650 C 843.757 1204.01 t 0 r /Helvetica findfont 28.4907 sf 0 0 m (30) show NC gr  1454 735 m 484 Y s 1437 735 m 17 X s 1445 751 m 9 X s 1445 767 m 9 X s 1445 783 m 9 X s 1445 799 m 9 X s 1437 815 m 17 X s 1445 831 m 9 X s 1445 847
 m 9 X s 1445 863 m 9 X s 1445 879 m 9 X s 1437 895 m 17 X s 1445 911 m 9 X s 1445 927 m 9 X s 1445 943 m 9 X s 1445 959 m 9 X s 1437 975 m 17 X s 1445 991 m 9 X s 1445 1006 m 9 X s 1445 1022 m 9 X s 1445 1038 m 9 X s 1437 1054 m 17 X s 1445 1070 m 9
 X s 1445 1086 m 9 X s 1445 1102 m 9 X s 1445 1118 m 9 X s 1437 1134 m 17 X s 1445 1150 m 9 X s 1445 1166 m 9 X s 1445 1182 m 9 X s 1445 1198 m 9 X s 1437 1214 m 17 X s 1437 1214 m 17 X s 888 959 m -10 X s 878 955 m 7 Y s 888 959 m 10 X s 898 955 m 7
 Y s 888 959 m 77 Y s 884 1036 m 8 X s 888 959 m -59 Y s 884 900 m 8 X s 908 1022 m -10 X s 898 1019 m 7 Y s 908 1022 m 10 X s 918 1019 m 7 Y s 908 1022 m 85 Y s 904 1107 m 8 X s 908 1022 m -67 Y s 904 955 m 8 X s 928 991 m -10 X s 918 987 m 7 Y s
 928 991 m 10 X s 938 987 m 7 Y s 928 991 m 81 Y s 924 1072 m 7 X s 928 991 m -64 Y s 924 927 m 7 X s 948 991 m -10 X s 938 987 m 7 Y s 948 991 m 9 X s 957 987 m 7 Y s 948 991 m 81 Y s 944 1072 m 7 X s 948 991 m -64 Y s 944 927 m 7 X s 967 959 m -10
 X s 957 955 m 7 Y s 967 959 m 10 X s 977 955 m 7 Y s 967 959 m 77 Y s 964 1036 m 7 X s 967 959 m -59 Y s 964 900 m 7 X s 987 815 m -10 X s 977 811 m 8 Y s 987 815 m 10 X s 997 811 m 8 Y s 987 815 m 54 Y s 983 869 m 8 X s 987 815 m -34 Y s 983 781 m
 8 X s 1007 1006 m -10 X s 997 1003 m 7 Y s 1007 1006 m 10 X s 1017 1003 m 7 Y s 1007 1006 m 83 Y s 1003 1089 m 8 X s 1007 1006 m -65 Y s 1003 941 m 8 X s 1027 911 m -10 X s 1017 907 m 8 Y s 1027 911 m 10 X s 1037 907 m 8 Y s 1027 911 m 70 Y s 1023
 981 m 8 X s 1027 911 m -52 Y s 1023 859 m 8 X s 1047 959 m -10 X s 1037 955 m 7 Y s 1047 959 m 10 X s 1057 955 m 7 Y s 1047 959 m 77 Y s 1043 1036 m 8 X s 1047 959 m -59 Y s 1043 900 m 8 X s 1067 975 m -10 X s 1057 971 m 7 Y s 1067 975 m 10 X s 1077
 971 m 7 Y s 1067 975 m 79 Y s 1063 1054 m 7 X s 1067 975 m -61 Y s 1063 914 m 7 X s 1086 927 m -9 X s 1077 923 m 8 Y s 1086 927 m 10 X s 1096 923 m 8 Y s 1086 927 m 72 Y s 1083 999 m 7 X s 1086 927 m -55 Y s 1083 872 m 7 X s 1106 1006 m -10 X s 1096
 1003 m 7 Y s 1106 1006 m 10 X s 1116 1003 m 7 Y s 1106 1006 m 83 Y s 1103 1089 m 7 X s 1106 1006 m -65 Y s 1103 941 m 7 X s 1126 863 m -10 X s 1116 859 m 8 Y s 1126 863 m 10 X s 1136 859 m 8 Y s 1126 863 m 63 Y s 1122 926 m 8 X s 1126 863 m -44 Y s
 1122 819 m 8 X s 1146 1054 m -10 X s 1136 1050 m 8 Y s 1146 1054 m 10 X s 1156 1050 m 8 Y s 1146 1054 m 89 Y s 1142 1143 m 8 X s 1146 1054 m -70 Y s 1142 984 m 8 X s 1166 1102 m -10 X s 1156 1098 m 8 Y s 1166 1102 m 10 X s 1176 1098 m 8 Y s 1166
 1102 m 94 Y s 1162 1196 m 8 X s 1166 1102 m -76 Y s 1162 1026 m 8 X s 1186 975 m -10 X s 1176 971 m 7 Y s 1186 975 m 10 X s 1196 971 m 7 Y s 1186 975 m 79 Y s 1182 1054 m 7 X s 1186 975 m -61 Y s 1182 914 m 7 X s 1206 831 m -10 X s 1196 827 m 8 Y s
 1206 831 m 9 X s 1215 827 m 8 Y s 1206 831 m 57 Y s 1202 888 m 7 X s 1206 831 m -38 Y s 1202 793 m 7 X s 1225 895 m -10 X s 1215 891 m 8 Y s 1225 895 m 10 X s 1235 891 m 8 Y s 1225 895 m 68 Y s 1222 963 m 7 X s 1225 895 m -50 Y s 1222 845 m 7 X s
 1245 1006 m -10 X s 1235 1003 m 7 Y s 1245 1006 m 10 X s 1255 1003 m 7 Y s 1245 1006 m 83 Y s 1241 1089 m 8 X s 1245 1006 m -65 Y s 1241 941 m 8 X s 1265 959 m -10 X s 1255 955 m 7 Y s 1265 959 m 10 X s 1275 955 m 7 Y s 1265 959 m 77 Y s 1261 1036 m
 8 X s 1265 959 m -59 Y s 1261 900 m 8 X s 1285 927 m -10 X s 1275 923 m 8 Y s 1285 927 m 10 X s 1295 923 m 8 Y s 1285 927 m 72 Y s 1281 999 m 8 X s 1285 927 m -55 Y s 1281 872 m 8 X s 1305 879 m -10 X s 1295 875 m 8 Y s 1305 879 m 10 X s 1315 875 m
 8 Y s 1305 879 m 65 Y s 1301 944 m 8 X s 1305 879 m -47 Y s 1301 832 m 8 X s 1325 863 m -10 X s 1315 859 m 8 Y s 1325 863 m 10 X s 1335 859 m 8 Y s 1325 863 m 63 Y s 1321 926 m 7 X s 1325 863 m -44 Y s 1321 819 m 7 X s 1344 863 m -9 X s 1335 859 m 8
 Y s 1344 863 m 10 X s 1354 859 m 8 Y s 1344 863 m 63 Y s 1341 926 m 7 X s 1344 863 m -44 Y s 1341 819 m 7 X s 1364 975 m -10 X s 1354 971 m 7 Y s 1364 975 m 10 X s 1374 971 m 7 Y s 1364 975 m 79 Y s 1361 1054 m 7 X s 1364 975 m -61 Y s 1361 914 m 7
 X s 1384 895 m -10 X s 1374 891 m 8 Y s 1384 895 m 10 X s 1394 891 m 8 Y s 1384 895 m 68 Y s 1380 963 m 8 X s 1384 895 m -50 Y s 1380 845 m 8 X s 1404 895 m -10 X s 1394 891 m 8 Y s 1404 895 m 10 X s 1414 891 m 8 Y s 1404 895 m 68 Y s 1400 963 m 8 X
 s 1404 895 m -50 Y s 1400 845 m 8 X s 1424 911 m -10 X s 1414 907 m 8 Y s 1424 911 m 10 X s 1434 907 m 8 Y s 1424 911 m 70 Y s 1420 981 m 8 X s 1424 911 m -52 Y s 1420 859 m 8 X s 1444 943 m -10 X s 1434 939 m 7 Y s 1444 943 m 10 X s 1454 939 m 7 Y
 s 1444 943 m 75 Y s 1440 1018 m 7 X s 1444 943 m -57 Y s 1440 886 m 7 X s 3 lw 888 959 908 1022 928 991 948 991 967 959 987 815 1007 1006 1027 911 1047 959 1067 975 1086 927 1106 1006 1126 863 1146 1054 1166 1102 1186 975 1206 831 1225 895 1245 1006
 1265 959 1285 927 1305 879 1325 863 1344 863 1364 975 1384 895 1404 895 1424 911 1444 943 29 { m20} R 6 lw 0 1 0 c[ 4 8] 0 sd 9 lw black 0 1 0 c 878 971 m cl s 878 971 m 20 -3 d 20 -3 d 20 -3 d 19 -3 d 20 -3 d 20 -3 d 20 -2 d 20 -3 d 20 -3 d 20 -2 d
 19 -3 d 20 -3 d 20 -2 d 20 -3 d 20 -2 d 20 -3 d 19 -2 d 20 -2 d 20 -3 d 20 -2 d 20 -2 d 20 -3 d 20 -2 d 19 -2 d 20 -2 d 20 -2 d 20 -3 d 20 -2 d 20 -2 d s 0 0 1 c[ 12 12] 0 sd black 0 0 1 c 878 736 m cl s 878 736 m 99 X 20 1 d 40 X 20 1 d 10 X 10 1 d
 4 X 5 1 d 5 1 d 3 1 d 2 1 d 3 1 d 2 1 d 3 2 d 2 1 d 3 2 d 2 2 d 3 3 d 2 2 d 3 3 d 2 3 d 5 6 d 5 6 d 5 7 d 5 7 d 3 3 d 2 3 d 2 3 d 3 2 d 2 3 d 3 2 d 2 2 d 3 1 d 2 1 d 3 X 2 1 d 3 -1 d 2 X 3 -2 d 2 -1 d 3 -2 d 2 -2 d 3 -3 d 2 -2 d 3 -3 d 5 -7 d 10 -13
 d 4 -7 d 5 -5 d 3 -3 d 2 -3 d 3 -2 d 2 -2 d 3 -2 d 2 -2 d 3 -2 d 2 -1 d 3 -2 d 2 -1 d 5 -2 d 5 -1 d 5 -1 d 5 -1 d 5 -1 d 20 X 10 -1 d 159 X s 1 0 0 c[  ] 0 sd black 1 0 0 c 878 971 m cl s 878 971 m 20 -3 d 20 -3 d 20 -2 d 19 -3 d 20 -3 d 20 -3 d 20
 -2 d 20 -2 d 20 -3 d 10 X 10 -1 d 14 X 5 1 d 3 1 d 2 1 d 5 3 d 5 3 d 5 4 d 5 5 d 5 5 d 5 6 d 5 6 d 5 6 d 5 6 d 2 3 d 3 2 d 2 2 d 3 2 d 2 1 d 3 1 d 2 1 d 5 X 3 -1 d 2 -1 d 3 -1 d 2 -2 d 3 -2 d 2 -3 d 3 -2 d 2 -3 d 3 -4 d 5 -7 d 10 -14 d 4 -7 d 5 -7 d
 5 -6 d 5 -5 d 5 -5 d 5 -3 d 5 -3 d 5 -3 d 5 -2 d 5 -2 d 5 -1 d 5 -1 d 10 -2 d 20 -2 d 20 -3 d 20 -2 d 19 -2 d 20 -2 d 20 -2 d 20 -3 d 20 -2 d 20 -2 d s black 6 lw 878 735 m 576 X s 997 750 m -15 Y s 1037 743 m -8 Y s 1077 743 m -8 Y s 1116 743 m -8
 Y s 1156 743 m -8 Y s 1196 750 m -15 Y s 1235 743 m -8 Y s 1275 743 m -8 Y s 1315 743 m -8 Y s 1354 743 m -8 Y s 1394 750 m -15 Y s 997 750 m -15 Y s 957 743 m -8 Y s 918 743 m -8 Y s 878 743 m -8 Y s 1394 750 m -15 Y s 1434 743 m -8 Y s 878 1219 m
 576 X s 997 1204 m 15 Y s 1037 1211 m 8 Y s 1077 1211 m 8 Y s 1116 1211 m 8 Y s 1156 1211 m 8 Y s 1196 1204 m 15 Y s 1235 1211 m 8 Y s 1275 1211 m 8 Y s 1315 1211 m 8 Y s 1354 1211 m 8 Y s 1394 1204 m 15 Y s 997 1204 m 15 Y s 957 1211 m 8 Y s 918
 1211 m 8 Y s 878 1211 m 8 Y s 1394 1204 m 15 Y s 1434 1211 m 8 Y s 878 735 m 484 Y s 895 735 m -17 X s 886 751 m -8 X s 886 767 m -8 X s 886 783 m -8 X s 886 799 m -8 X s 895 815 m -17 X s 886 831 m -8 X s 886 847 m -8 X s 886 863 m -8 X s 886 879 m
 -8 X s 895 895 m -17 X s 886 911 m -8 X s 886 927 m -8 X s 886 943 m -8 X s 886 959 m -8 X s 895 975 m -17 X s 886 991 m -8 X s 886 1006 m -8 X s 886 1022 m -8 X s 886 1038 m -8 X s 895 1054 m -17 X s 886 1070 m -8 X s 886 1086 m -8 X s 886 1102 m
 -8 X s 886 1118 m -8 X s 895 1134 m -17 X s 886 1150 m -8 X s 886 1166 m -8 X s 886 1182 m -8 X s 886 1198 m -8 X s 895 1214 m -17 X s 895 1214 m -17 X s 1454 735 m 484 Y s 1437 735 m 17 X s 1445 751 m 9 X s 1445 767 m 9 X s 1445 783 m 9 X s 1445
 799 m 9 X s 1437 815 m 17 X s 1445 831 m 9 X s 1445 847 m 9 X s 1445 863 m 9 X s 1445 879 m 9 X s 1437 895 m 17 X s 1445 911 m 9 X s 1445 927 m 9 X s 1445 943 m 9 X s 1445 959 m 9 X s 1437 975 m 17 X s 1445 991 m 9 X s 1445 1006 m 9 X s 1445 1022 m
 9 X s 1445 1038 m 9 X s 1437 1054 m 17 X s 1445 1070 m 9 X s 1445 1086 m 9 X s 1445 1102 m 9 X s 1445 1118 m 9 X s 1437 1134 m 17 X s 1445 1150 m 9 X s 1445 1166 m 9 X s 1445 1182 m 9 X s 1445 1198 m 9 X s 1437 1214 m 17 X s 1437 1214 m 17 X s
 gsave  710 611 779 650 C 1069.39 788.771 t 0 r /Helvetica findfont 22.7926 sf 0 0 m ( = 5 TeV) show NC gr 
 gsave  710 611 779 650 C 1048.53 781.187 t 0 r /Helvetica findfont 15.1951 sf 0 0 m (NN) show NC gr 
 gsave  710 611 779 650 C 1037.16 788.771 t 0 r /Helvetica findfont 22.7926 sf 0 0 m (s) show NC gr  1028 802 m 3 -21 d s 0 lw 1031 781 m 4 29 d s 1035 810 m 34 X s
 gsave  710 611 779 650 C 919.601 788.771 t 0 r /Helvetica findfont 22.7926 sf 0 0 m (pPb\(Bwd\) ) show NC gr 
 gsave  710 611 779 650 C 919.601 824.797 t 0 r /Helvetica findfont 28.4907 sf 0 0 m (Preliminary) show NC gr 
 gsave  710 611 779 650 C 919.601 855.134 t 0 r /Helvetica findfont 28.4907 sf 0 0 m (LHCb) show NC gr 
 gsave  710 611 779 650 C 1365.18 834.277 t 0 r /Helvetica findfont 28.4907 sf 0 0 m (2.5) show NC gr 
 gsave  710 611 779 650 C 1348.12 834.277 t 0 r /Symbol findfont 28.4907 sf 0 0 m (-) show NC gr 
 gsave  710 611 779 650 C 1228.66 834.277 t 0 r /Helvetica findfont 28.4907 sf 0 0 m (4.0 < y < ) show NC gr 
 gsave  710 611 779 650 C 1211.6 834.277 t 0 r /Symbol findfont 28.4907 sf 0 0 m (-) show NC gr 
 gsave  710 611 779 650 C 1287.44 803.94 t 0 r /Helvetica findfont 28.4907 sf 0 0 m ( < 3 GeV/c) show NC gr 
 gsave  710 611 779 650 C 1276.06 788.771 t 0 r /Helvetica findfont 18.9938 sf 0 0 m (T) show NC gr 
 gsave  710 611 779 650 C 1211.6 803.94 t 0 r /Helvetica findfont 28.4907 sf 0 0 m ( 2< p) show NC gr  6 lw 1 1 1 c 711 611 1534 650 bf black 1 1 1 c 576 484 1634 735 bf black 576 484 1634 735 bl 1 1 1 c 576 484 1634 735 bf black 576 484 1634 735 bl
 1634 735 m 576 X s
 gsave  711 611 1534 650 C 2201.35 665.526 t 0 r /Helvetica findfont 34.1889 sf 0 0 m (]) show NC gr 
 gsave  711 611 1534 650 C 2188.08 680.694 t 0 r /Helvetica findfont 22.7926 sf 0 0 m (2) show NC gr 
 gsave  711 611 1534 650 C 2072.42 665.526 t 0 r /Helvetica findfont 34.1889 sf 0 0 m ( [MeV/c) show NC gr 
 gsave  711 611 1534 650 C 2059.15 657.941 t 0 r /Symbol findfont 22.7926 sf 0 0 m (m) show NC gr 
 gsave  711 611 1534 650 C 2045.87 657.941 t 0 r /Symbol findfont 22.7926 sf 0 0 m (m) show NC gr 
 gsave  711 611 1534 650 C 2019.33 665.526 t 0 r /Helvetica findfont 34.1889 sf 0 0 m (m) show NC gr  1753 750 m -15 Y s 1793 743 m -8 Y s 1832 743 m -8 Y s 1872 743 m -8 Y s 1912 743 m -8 Y s 1952 750 m -15 Y s 1991 743 m -8 Y s 2031 743 m -8 Y s
 2071 743 m -8 Y s 2110 743 m -8 Y s 2150 750 m -15 Y s 1753 750 m -15 Y s 1713 743 m -8 Y s 1674 743 m -8 Y s 1634 743 m -8 Y s 2150 750 m -15 Y s 2190 743 m -8 Y s
 gsave  711 611 1534 650 C 1719.75 703.447 t 0 r /Helvetica findfont 28.4907 sf 0 0 m (3600) show NC gr 
 gsave  711 611 1534 650 C 1918.84 703.447 t 0 r /Helvetica findfont 28.4907 sf 0 0 m (3700) show NC gr 
 gsave  711 611 1534 650 C 2116.03 703.447 t 0 r /Helvetica findfont 28.4907 sf 0 0 m (3800) show NC gr  1634 1219 m 576 X s 1753 1204 m 15 Y s 1793 1211 m 8 Y s 1832 1211 m 8 Y s 1872 1211 m 8 Y s 1912 1211 m 8 Y s 1952 1204 m 15 Y s 1991 1211 m 8 Y
 s 2031 1211 m 8 Y s 2071 1211 m 8 Y s 2110 1211 m 8 Y s 2150 1204 m 15 Y s 1753 1204 m 15 Y s 1713 1211 m 8 Y s 1674 1211 m 8 Y s 1634 1211 m 8 Y s 2150 1204 m 15 Y s 2190 1211 m 8 Y s 1634 735 m 484 Y s
 gsave  711 611 1534 650 C 1577.54 1209.7 t 90 r /Helvetica findfont 34.1889 sf 0 0 m (\)) show NC gr 
 gsave  711 611 1534 650 C 1562.37 1196.43 t 90 r /Helvetica findfont 22.7926 sf 0 0 m (2) show NC gr 
 gsave  711 611 1534 650 C 1577.54 908.224 t 90 r /Helvetica findfont 34.1889 sf 0 0 m (Events / \(10 MeV/c) show NC gr  1651 735 m -17 X s 1642 754 m -8 X s 1642 773 m -8 X s 1642 792 m -8 X s 1642 811 m -8 X s 1651 830 m -17 X s 1642 848 m -8 X s
 1642 867 m -8 X s 1642 886 m -8 X s 1642 905 m -8 X s 1651 924 m -17 X s 1642 943 m -8 X s 1642 961 m -8 X s 1642 980 m -8 X s 1642 999 m -8 X s 1651 1018 m -17 X s 1642 1037 m -8 X s 1642 1056 m -8 X s 1642 1074 m -8 X s 1642 1093 m -8 X s 1651
 1112 m -17 X s 1642 1131 m -8 X s 1642 1150 m -8 X s 1642 1169 m -8 X s 1642 1187 m -8 X s 1651 1206 m -17 X s 1651 1206 m -17 X s
 gsave  711 611 1534 650 C 1613.57 724.304 t 0 r /Helvetica findfont 28.4907 sf 0 0 m (0) show NC gr 
 gsave  711 611 1534 650 C 1613.57 819.108 t 0 r /Helvetica findfont 28.4907 sf 0 0 m (5) show NC gr 
 gsave  711 611 1534 650 C 1598.4 913.913 t 0 r /Helvetica findfont 28.4907 sf 0 0 m (10) show NC gr 
 gsave  711 611 1534 650 C 1596.5 1006.82 t 0 r /Helvetica findfont 28.4907 sf 0 0 m (15) show NC gr 
 gsave  711 611 1534 650 C 1598.4 1101.62 t 0 r /Helvetica findfont 28.4907 sf 0 0 m (20) show NC gr 
 gsave  711 611 1534 650 C 1596.5 1196.43 t 0 r /Helvetica findfont 28.4907 sf 0 0 m (25) show NC gr  2210 735 m 484 Y s 2193 735 m 17 X s 2201 754 m 9 X s 2201 773 m 9 X s 2201 792 m 9 X s 2201 811 m 9 X s 2193 830 m 17 X s 2201 848 m 9 X s 2201 867
 m 9 X s 2201 886 m 9 X s 2201 905 m 9 X s 2193 924 m 17 X s 2201 943 m 9 X s 2201 961 m 9 X s 2201 980 m 9 X s 2201 999 m 9 X s 2193 1018 m 17 X s 2201 1037 m 9 X s 2201 1056 m 9 X s 2201 1074 m 9 X s 2201 1093 m 9 X s 2193 1112 m 17 X s 2201 1131 m
 9 X s 2201 1150 m 9 X s 2201 1169 m 9 X s 2201 1187 m 9 X s 2193 1206 m 17 X s 2193 1206 m 17 X s 1644 905 m -10 X s 1634 901 m 8 Y s 1644 905 m 10 X s 1654 901 m 8 Y s 1644 905 m 77 Y s 1640 982 m 8 X s 1644 905 m -55 Y s 1640 850 m 8 X s 1664 980
 m -10 X s 1654 976 m 8 Y s 1664 980 m 10 X s 1674 976 m 8 Y s 1664 980 m 89 Y s 1660 1069 m 8 X s 1664 980 m -67 Y s 1660 913 m 8 X s 1684 848 m -10 X s 1674 845 m 7 Y s 1684 848 m 10 X s 1694 845 m 7 Y s 1684 848 m 68 Y s 1680 916 m 7 X s 1684 848
 m -44 Y s 1680 804 m 7 X s 1703 905 m -9 X s 1694 901 m 8 Y s 1703 905 m 10 X s 1713 901 m 8 Y s 1703 905 m 77 Y s 1700 982 m 7 X s 1703 905 m -55 Y s 1700 850 m 7 X s 1723 1018 m -10 X s 1713 1014 m 8 Y s 1723 1018 m 10 X s 1733 1014 m 8 Y s 1723
 1018 m 93 Y s 1719 1111 m 8 X s 1723 1018 m -72 Y s 1719 946 m 8 X s 1743 1037 m -10 X s 1733 1033 m 8 Y s 1743 1037 m 10 X s 1753 1033 m 8 Y s 1743 1037 m 95 Y s 1739 1132 m 8 X s 1743 1037 m -75 Y s 1739 962 m 8 X s 1763 980 m -10 X s 1753 976 m 8
 Y s 1763 980 m 10 X s 1773 976 m 8 Y s 1763 980 m 89 Y s 1759 1069 m 8 X s 1763 980 m -67 Y s 1759 913 m 8 X s 1783 792 m -10 X s 1773 788 m 8 Y s 1783 792 m 10 X s 1793 788 m 8 Y s 1783 792 m 55 Y s 1779 847 m 8 X s 1783 792 m -31 Y s 1779 761 m 8
 X s 1803 905 m -10 X s 1793 901 m 8 Y s 1803 905 m 10 X s 1813 901 m 8 Y s 1803 905 m 77 Y s 1799 982 m 7 X s 1803 905 m -55 Y s 1799 850 m 7 X s 1823 943 m -10 X s 1813 939 m 7 Y s 1823 943 m 9 X s 1832 939 m 7 Y s 1823 943 m 83 Y s 1819 1026 m 7 X
 s 1823 943 m -62 Y s 1819 881 m 7 X s 1842 905 m -10 X s 1832 901 m 8 Y s 1842 905 m 10 X s 1852 901 m 8 Y s 1842 905 m 77 Y s 1839 982 m 7 X s 1842 905 m -55 Y s 1839 850 m 7 X s 1862 1056 m -10 X s 1852 1052 m 7 Y s 1862 1056 m 10 X s 1872 1052 m
 7 Y s 1862 1056 m 98 Y s 1858 1154 m 8 X s 1862 1056 m -77 Y s 1858 979 m 8 X s 1882 943 m -10 X s 1872 939 m 7 Y s 1882 943 m 10 X s 1892 939 m 7 Y s 1882 943 m 83 Y s 1878 1026 m 8 X s 1882 943 m -62 Y s 1878 881 m 8 X s 1902 999 m -10 X s 1892
 995 m 8 Y s 1902 999 m 10 X s 1912 995 m 8 Y s 1902 999 m 91 Y s 1898 1090 m 8 X s 1902 999 m -70 Y s 1898 929 m 8 X s 1922 961 m -10 X s 1912 958 m 7 Y s 1922 961 m 10 X s 1932 958 m 7 Y s 1922 961 m 86 Y s 1918 1047 m 8 X s 1922 961 m -64 Y s 1918
 897 m 8 X s 1942 1056 m -10 X s 1932 1052 m 7 Y s 1942 1056 m 10 X s 1952 1052 m 7 Y s 1942 1056 m 98 Y s 1938 1154 m 7 X s 1942 1056 m -77 Y s 1938 979 m 7 X s 1961 1093 m -9 X s 1952 1089 m 8 Y s 1961 1093 m 10 X s 1971 1089 m 8 Y s 1961 1093 m
 103 Y s 1958 1196 m 7 X s 1961 1093 m -81 Y s 1958 1012 m 7 X s 1981 980 m -10 X s 1971 976 m 8 Y s 1981 980 m 10 X s 1991 976 m 8 Y s 1981 980 m 89 Y s 1977 1069 m 8 X s 1981 980 m -67 Y s 1977 913 m 8 X s 2001 905 m -10 X s 1991 901 m 8 Y s 2001
 905 m 10 X s 2011 901 m 8 Y s 2001 905 m 77 Y s 1997 982 m 8 X s 2001 905 m -55 Y s 1997 850 m 8 X s 2021 867 m -10 X s 2011 863 m 8 Y s 2021 867 m 10 X s 2031 863 m 8 Y s 2021 867 m 71 Y s 2017 938 m 8 X s 2021 867 m -48 Y s 2017 819 m 8 X s 2041
 943 m -10 X s 2031 939 m 7 Y s 2041 943 m 10 X s 2051 939 m 7 Y s 2041 943 m 83 Y s 2037 1026 m 8 X s 2041 943 m -62 Y s 2037 881 m 8 X s 2061 811 m -10 X s 2051 807 m 8 Y s 2061 811 m 10 X s 2071 807 m 8 Y s 2061 811 m 59 Y s 2057 870 m 7 X s 2061
 811 m -36 Y s 2057 775 m 7 X s 2081 1074 m -10 X s 2071 1071 m 7 Y s 2081 1074 m 9 X s 2090 1071 m 7 Y s 2081 1074 m 101 Y s 2077 1175 m 7 X s 2081 1074 m -79 Y s 2077 995 m 7 X s 2100 1056 m -10 X s 2090 1052 m 7 Y s 2100 1056 m 10 X s 2110 1052 m
 7 Y s 2100 1056 m 98 Y s 2097 1154 m 7 X s 2100 1056 m -77 Y s 2097 979 m 7 X s 2120 886 m -10 X s 2110 882 m 8 Y s 2120 886 m 10 X s 2130 882 m 8 Y s 2120 886 m 74 Y s 2116 960 m 8 X s 2120 886 m -52 Y s 2116 834 m 8 X s 2140 943 m -10 X s 2130 939
 m 7 Y s 2140 943 m 10 X s 2150 939 m 7 Y s 2140 943 m 83 Y s 2136 1026 m 8 X s 2140 943 m -62 Y s 2136 881 m 8 X s 2160 867 m -10 X s 2150 863 m 8 Y s 2160 867 m 10 X s 2170 863 m 8 Y s 2160 867 m 71 Y s 2156 938 m 8 X s 2160 867 m -48 Y s 2156 819
 m 8 X s 2180 1056 m -10 X s 2170 1052 m 7 Y s 2180 1056 m 10 X s 2190 1052 m 7 Y s 2180 1056 m 98 Y s 2176 1154 m 8 X s 2180 1056 m -77 Y s 2176 979 m 8 X s 2200 1018 m -10 X s 2190 1014 m 8 Y s 2200 1018 m 10 X s 2210 1014 m 8 Y s 2200 1018 m 93 Y
 s 2196 1111 m 7 X s 2200 1018 m -72 Y s 2196 946 m 7 X s 3 lw /w 16 def /w2 {w 2 div} def /w3 {w 3 div} def 1644 905 1664 980 1684 848 1703 905 1723 1018 1743 1037 1763 980 1783 792 1803 905 1823 943 1842 905 1862 1056 1882 943 1902 999 1922 961
 1942 1056 1961 1093 1981 980 2001 905 2021 867 2041 943 2061 811 2081 1074 2100 1056 2120 886 2140 943 2160 867 2180 1056 2200 1018 29 { m20} R 6 lw 0 1 0 c[ 4 8] 0 sd 9 lw black 0 1 0 c 1634 921 m cl s 1634 921 m 20 1 d 20 2 d 20 1 d 19 1 d 20 2 d
 20 1 d 20 2 d 20 1 d 20 1 d 19 2 d 20 1 d 20 2 d 20 1 d 20 1 d 20 2 d 20 1 d 19 2 d 20 1 d 20 2 d 20 1 d 20 2 d 20 1 d 19 2 d 20 1 d 20 2 d 20 1 d 20 2 d 20 2 d 20 1 d s 0 0 1 c[ 12 12] 0 sd black 0 0 1 c 1634 736 m cl s 1634 736 m 60 X 19 1 d 60 X
 20 1 d 20 1 d 10 X 9 1 d 5 1 d 5 1 d 3 1 d 2 1 d 3 1 d 2 2 d 3 2 d 2 2 d 3 2 d 2 2 d 3 3 d 2 3 d 3 3 d 2 3 d 5 7 d 5 7 d 10 16 d 5 8 d 2 4 d 3 3 d 2 4 d 3 3 d 2 2 d 3 3 d 2 2 d 3 1 d 2 1 d 3 1 d 5 X 2 -1 d 3 -2 d 2 -1 d 3 -2 d 2 -3 d 3 -3 d 2 -3 d 3
 -3 d 5 -7 d 9 -16 d 5 -8 d 5 -8 d 5 -6 d 3 -3 d 2 -3 d 3 -3 d 2 -3 d 3 -2 d 2 -2 d 3 -2 d 2 -2 d 5 -2 d 5 -3 d 5 -1 d 5 -2 d 5 -1 d 5 X 5 -1 d 20 X 20 -1 d 139 X s 1 0 0 c[  ] 0 sd black 1 0 0 c 1634 922 m cl s 1634 922 m 20 1 d 20 2 d 20 1 d 19 2 d
 20 1 d 20 2 d 20 1 d 20 2 d 20 2 d 10 2 d 9 2 d 5 1 d 5 1 d 5 2 d 3 2 d 2 2 d 5 4 d 5 5 d 5 5 d 5 7 d 5 7 d 5 8 d 10 17 d 5 8 d 5 8 d 2 3 d 3 3 d 2 3 d 3 3 d 2 2 d 3 1 d 2 2 d 3 X 2 1 d 3 X 2 -1 d 3 -1 d 2 -2 d 3 -2 d 2 -2 d 3 -2 d 2 -3 d 3 -4 d 5
 -7 d 9 -15 d 5 -7 d 5 -7 d 5 -7 d 5 -5 d 5 -5 d 5 -4 d 5 -3 d 5 -3 d 5 -2 d 5 -1 d 5 -1 d 5 -1 d 20 X 10 1 d 20 1 d 19 2 d 20 1 d 20 2 d 20 1 d 20 2 d 20 2 d 20 1 d s black 6 lw 1634 735 m 576 X s 1753 750 m -15 Y s 1793 743 m -8 Y s 1832 743 m -8 Y
 s 1872 743 m -8 Y s 1912 743 m -8 Y s 1952 750 m -15 Y s 1991 743 m -8 Y s 2031 743 m -8 Y s 2071 743 m -8 Y s 2110 743 m -8 Y s 2150 750 m -15 Y s 1753 750 m -15 Y s 1713 743 m -8 Y s 1674 743 m -8 Y s 1634 743 m -8 Y s 2150 750 m -15 Y s 2190 743
 m -8 Y s 1634 1219 m 576 X s 1753 1204 m 15 Y s 1793 1211 m 8 Y s 1832 1211 m 8 Y s 1872 1211 m 8 Y s 1912 1211 m 8 Y s 1952 1204 m 15 Y s 1991 1211 m 8 Y s 2031 1211 m 8 Y s 2071 1211 m 8 Y s 2110 1211 m 8 Y s 2150 1204 m 15 Y s 1753 1204 m 15 Y s
 1713 1211 m 8 Y s 1674 1211 m 8 Y s 1634 1211 m 8 Y s 2150 1204 m 15 Y s 2190 1211 m 8 Y s 1634 735 m 484 Y s 1651 735 m -17 X s 1642 754 m -8 X s 1642 773 m -8 X s 1642 792 m -8 X s 1642 811 m -8 X s 1651 830 m -17 X s 1642 848 m -8 X s 1642 867 m
 -8 X s 1642 886 m -8 X s 1642 905 m -8 X s 1651 924 m -17 X s 1642 943 m -8 X s 1642 961 m -8 X s 1642 980 m -8 X s 1642 999 m -8 X s 1651 1018 m -17 X s 1642 1037 m -8 X s 1642 1056 m -8 X s 1642 1074 m -8 X s 1642 1093 m -8 X s 1651 1112 m -17 X s
 1642 1131 m -8 X s 1642 1150 m -8 X s 1642 1169 m -8 X s 1642 1187 m -8 X s 1651 1206 m -17 X s 1651 1206 m -17 X s 2210 735 m 484 Y s 2193 735 m 17 X s 2201 754 m 9 X s 2201 773 m 9 X s 2201 792 m 9 X s 2201 811 m 9 X s 2193 830 m 17 X s 2201 848 m
 9 X s 2201 867 m 9 X s 2201 886 m 9 X s 2201 905 m 9 X s 2193 924 m 17 X s 2201 943 m 9 X s 2201 961 m 9 X s 2201 980 m 9 X s 2201 999 m 9 X s 2193 1018 m 17 X s 2201 1037 m 9 X s 2201 1056 m 9 X s 2201 1074 m 9 X s 2201 1093 m 9 X s 2193 1112 m 17
 X s 2201 1131 m 9 X s 2201 1150 m 9 X s 2201 1169 m 9 X s 2201 1187 m 9 X s 2193 1206 m 17 X s 2193 1206 m 17 X s
 gsave  711 611 1534 650 C 1825.93 788.771 t 0 r /Helvetica findfont 22.7926 sf 0 0 m ( = 5 TeV) show NC gr 
 gsave  711 611 1534 650 C 1805.07 781.187 t 0 r /Helvetica findfont 15.1951 sf 0 0 m (NN) show NC gr 
 gsave  711 611 1534 650 C 1793.7 788.771 t 0 r /Helvetica findfont 22.7926 sf 0 0 m (s) show NC gr  1784 802 m 4 -21 d s 0 lw 1788 781 m 4 29 d s 1792 810 m 34 X s
 gsave  711 611 1534 650 C 1676.14 788.771 t 0 r /Helvetica findfont 22.7926 sf 0 0 m (pPb\(Bwd\) ) show NC gr 
 gsave  711 611 1534 650 C 1676.14 824.797 t 0 r /Helvetica findfont 28.4907 sf 0 0 m (Preliminary) show NC gr 
 gsave  711 611 1534 650 C 1676.14 855.134 t 0 r /Helvetica findfont 28.4907 sf 0 0 m (LHCb) show NC gr 
 gsave  711 611 1534 650 C 2119.82 834.277 t 0 r /Helvetica findfont 28.4907 sf 0 0 m (2.5) show NC gr 
 gsave  711 611 1534 650 C 2102.76 834.277 t 0 r /Symbol findfont 28.4907 sf 0 0 m (-) show NC gr 
 gsave  711 611 1534 650 C 1983.3 834.277 t 0 r /Helvetica findfont 28.4907 sf 0 0 m (4.0 < y < ) show NC gr 
 gsave  711 611 1534 650 C 1966.24 834.277 t 0 r /Symbol findfont 28.4907 sf 0 0 m (-) show NC gr 
 gsave  711 611 1534 650 C 2042.08 803.94 t 0 r /Helvetica findfont 28.4907 sf 0 0 m ( < 5 GeV/c) show NC gr 
 gsave  711 611 1534 650 C 2030.71 788.771 t 0 r /Helvetica findfont 18.9938 sf 0 0 m (T) show NC gr 
 gsave  711 611 1534 650 C 1966.24 803.94 t 0 r /Helvetica findfont 28.4907 sf 0 0 m ( 3< p) show NC gr  6 lw 1 1 1 c 710 611 23 13 bf black 1 1 1 c 576 484 122 98 bf black 576 484 122 98 bl 1 1 1 c 576 484 122 98 bf black 576 484 122 98 bl 122 98 m
 576 X s
 gsave  710 611 23 13 C 688.279 28.4413 t 0 r /Helvetica findfont 34.1889 sf 0 0 m (]) show NC gr 
 gsave  710 611 23 13 C 675.006 43.6099 t 0 r /Helvetica findfont 22.7926 sf 0 0 m (2) show NC gr 
 gsave  710 611 23 13 C 559.345 28.4413 t 0 r /Helvetica findfont 34.1889 sf 0 0 m ( [MeV/c) show NC gr 
 gsave  710 611 23 13 C 546.072 20.8569 t 0 r /Symbol findfont 22.7926 sf 0 0 m (m) show NC gr 
 gsave  710 611 23 13 C 532.8 20.8569 t 0 r /Symbol findfont 22.7926 sf 0 0 m (m) show NC gr 
 gsave  710 611 23 13 C 506.254 28.4413 t 0 r /Helvetica findfont 34.1889 sf 0 0 m (m) show NC gr  241 113 m -15 Y s 281 106 m -8 Y s 321 106 m -8 Y s 360 106 m -8 Y s 400 106 m -8 Y s 440 113 m -15 Y s 479 106 m -8 Y s 519 106 m -8 Y s 559 106 m -8
 Y s 598 106 m -8 Y s 638 113 m -15 Y s 241 113 m -15 Y s 202 106 m -8 Y s 162 106 m -8 Y s 122 106 m -8 Y s 638 113 m -15 Y s 678 106 m -8 Y s
 gsave  710 611 23 13 C 208.569 66.3629 t 0 r /Helvetica findfont 28.4907 sf 0 0 m (3600) show NC gr 
 gsave  710 611 23 13 C 405.762 66.3629 t 0 r /Helvetica findfont 28.4907 sf 0 0 m (3700) show NC gr 
 gsave  710 611 23 13 C 604.851 66.3629 t 0 r /Helvetica findfont 28.4907 sf 0 0 m (3800) show NC gr  122 582 m 576 X s 241 567 m 15 Y s 281 574 m 8 Y s 321 574 m 8 Y s 360 574 m 8 Y s 400 574 m 8 Y s 440 567 m 15 Y s 479 574 m 8 Y s 519 574 m 8 Y s
 559 574 m 8 Y s 598 574 m 8 Y s 638 567 m 15 Y s 241 567 m 15 Y s 202 574 m 8 Y s 162 574 m 8 Y s 122 574 m 8 Y s 638 567 m 15 Y s 678 574 m 8 Y s 122 98 m 484 Y s
 gsave  710 611 23 13 C 66.3629 572.617 t 90 r /Helvetica findfont 34.1889 sf 0 0 m (\)) show NC gr 
 gsave  710 611 23 13 C 51.1943 559.345 t 90 r /Helvetica findfont 22.7926 sf 0 0 m (2) show NC gr 
 gsave  710 611 23 13 C 66.3629 271.14 t 90 r /Helvetica findfont 34.1889 sf 0 0 m (Events / \(10 MeV/c) show NC gr  139 98 m -17 X s 131 120 m -9 X s 131 141 m -9 X s 131 162 m -9 X s 139 184 m -17 X s 131 205 m -9 X s 131 227 m -9 X s 131 248 m -9
 X s 139 269 m -17 X s 131 291 m -9 X s 131 312 m -9 X s 131 333 m -9 X s 139 355 m -17 X s 131 376 m -9 X s 131 397 m -9 X s 131 419 m -9 X s 139 440 m -17 X s 131 462 m -9 X s 131 483 m -9 X s 131 504 m -9 X s 139 526 m -17 X s 139 526 m -17 X s
 131 547 m -9 X s 131 568 m -9 X s
 gsave  710 611 23 13 C 102.389 87.2199 t 0 r /Helvetica findfont 28.4907 sf 0 0 m (0) show NC gr 
 gsave  710 611 23 13 C 102.389 172.544 t 0 r /Helvetica findfont 28.4907 sf 0 0 m (2) show NC gr 
 gsave  710 611 23 13 C 102.389 259.764 t 0 r /Helvetica findfont 28.4907 sf 0 0 m (4) show NC gr 
 gsave  710 611 23 13 C 102.389 345.087 t 0 r /Helvetica findfont 28.4907 sf 0 0 m (6) show NC gr 
 gsave  710 611 23 13 C 102.389 430.411 t 0 r /Helvetica findfont 28.4907 sf 0 0 m (8) show NC gr 
 gsave  710 611 23 13 C 87.2199 515.735 t 0 r /Helvetica findfont 28.4907 sf 0 0 m (10) show NC gr  698 98 m 484 Y s 681 98 m 17 X s 689 120 m 9 X s 689 141 m 9 X s 689 162 m 9 X s 681 184 m 17 X s 689 205 m 9 X s 689 227 m 9 X s 689 248 m 9 X s 681
 269 m 17 X s 689 291 m 9 X s 689 312 m 9 X s 689 333 m 9 X s 681 355 m 17 X s 689 376 m 9 X s 689 397 m 9 X s 689 419 m 9 X s 681 440 m 17 X s 689 462 m 9 X s 689 483 m 9 X s 689 504 m 9 X s 681 526 m 17 X s 681 526 m 17 X s 689 547 m 9 X s 689 568
 m 9 X s 132 227 m -10 X s 122 223 m 7 Y s 132 227 m 10 X s 142 223 m 7 Y s 132 227 m 124 Y s 128 351 m 8 X s 132 227 m -70 Y s 128 157 m 8 X s 152 227 m -10 X s 142 223 m 7 Y s 152 227 m 10 X s 162 223 m 7 Y s 152 227 m 124 Y s 148 351 m 8 X s 152
 227 m -70 Y s 148 157 m 8 X s 172 141 m -10 X s 162 137 m 8 Y s 172 141 m 10 X s 182 137 m 8 Y s 172 141 m 98 Y s 168 239 m 8 X s 172 141 m -35 Y s 168 106 m 8 X s 192 141 m -10 X s 182 137 m 8 Y s 192 141 m 10 X s 202 137 m 8 Y s 192 141 m 98 Y s
 188 239 m 7 X s 192 141 m -35 Y s 188 106 m 7 X s 211 141 m -9 X s 202 137 m 8 Y s 211 141 m 10 X s 221 137 m 8 Y s 211 141 m 98 Y s 208 239 m 7 X s 211 141 m -35 Y s 208 106 m 7 X s 231 141 m -10 X s 221 137 m 8 Y s 231 141 m 10 X s 241 137 m 8 Y s
 231 141 m 98 Y s 228 239 m 7 X s 231 141 m -35 Y s 228 106 m 7 X s 251 184 m -10 X s 241 180 m 8 Y s 251 184 m 10 X s 261 180 m 8 Y s 251 184 m 113 Y s 247 297 m 8 X s 251 184 m -55 Y s 247 129 m 8 X s 271 227 m -10 X s 261 223 m 7 Y s 271 227 m 10
 X s 281 223 m 7 Y s 271 227 m 124 Y s 267 351 m 8 X s 271 227 m -70 Y s 267 157 m 8 X s 291 269 m -10 X s 281 265 m 8 Y s 291 269 m 10 X s 301 265 m 8 Y s 291 269 m 135 Y s 287 404 m 8 X s 291 269 m -82 Y s 287 187 m 8 X s 311 184 m -10 X s 301 180
 m 8 Y s 311 184 m 10 X s 321 180 m 8 Y s 311 184 m 113 Y s 307 297 m 7 X s 311 184 m -55 Y s 307 129 m 7 X s 331 184 m -10 X s 321 180 m 8 Y s 331 184 m 9 X s 340 180 m 8 Y s 331 184 m 113 Y s 327 297 m 7 X s 331 184 m -55 Y s 327 129 m 7 X s 350
 184 m -10 X s 340 180 m 8 Y s 350 184 m 10 X s 360 180 m 8 Y s 350 184 m 113 Y s 347 297 m 7 X s 350 184 m -55 Y s 347 129 m 7 X s 370 227 m -10 X s 360 223 m 7 Y s 370 227 m 10 X s 380 223 m 7 Y s 370 227 m 124 Y s 366 351 m 8 X s 370 227 m -70 Y s
 366 157 m 8 X s 390 397 m -10 X s 380 394 m 7 Y s 390 397 m 10 X s 400 394 m 7 Y s 390 397 m 162 Y s 386 559 m 8 X s 390 397 m -110 Y s 386 287 m 8 X s 410 355 m -10 X s 400 351 m 8 Y s 410 355 m 10 X s 420 351 m 8 Y s 410 355 m 153 Y s 406 508 m 8
 X s 410 355 m -102 Y s 406 253 m 8 X s 430 141 m -10 X s 420 137 m 8 Y s 430 141 m 10 X s 440 137 m 8 Y s 430 141 m 98 Y s 426 239 m 8 X s 430 141 m -35 Y s 426 106 m 8 X s 450 227 m -10 X s 440 223 m 7 Y s 450 227 m 10 X s 460 223 m 7 Y s 450 227 m
 124 Y s 446 351 m 7 X s 450 227 m -70 Y s 446 157 m 7 X s 469 141 m -9 X s 460 137 m 8 Y s 469 141 m 10 X s 479 137 m 8 Y s 469 141 m 98 Y s 466 239 m 7 X s 469 141 m -35 Y s 466 106 m 7 X s 489 141 m -10 X s 479 137 m 8 Y s 489 141 m 10 X s 499 137
 m 8 Y s 489 141 m 98 Y s 486 239 m 7 X s 489 141 m -35 Y s 486 106 m 7 X s 509 269 m -10 X s 499 265 m 8 Y s 509 269 m 10 X s 519 265 m 8 Y s 509 269 m 135 Y s 505 404 m 8 X s 509 269 m -82 Y s 505 187 m 8 X s 529 141 m -10 X s 519 137 m 8 Y s 529
 141 m 10 X s 539 137 m 8 Y s 529 141 m 98 Y s 525 239 m 8 X s 529 141 m -35 Y s 525 106 m 8 X s 549 184 m -10 X s 539 180 m 8 Y s 549 184 m 10 X s 559 180 m 8 Y s 549 184 m 113 Y s 545 297 m 8 X s 549 184 m -55 Y s 545 129 m 8 X s 569 141 m -10 X s
 559 137 m 8 Y s 569 141 m 10 X s 579 137 m 8 Y s 569 141 m 98 Y s 565 239 m 7 X s 569 141 m -35 Y s 565 106 m 7 X s 589 184 m -10 X s 579 180 m 8 Y s 589 184 m 9 X s 598 180 m 8 Y s 589 184 m 113 Y s 585 297 m 7 X s 589 184 m -55 Y s 585 129 m 7 X s
 608 141 m -10 X s 598 137 m 8 Y s 608 141 m 10 X s 618 137 m 8 Y s 608 141 m 98 Y s 605 239 m 7 X s 608 141 m -35 Y s 605 106 m 7 X s 628 269 m -10 X s 618 265 m 8 Y s 628 269 m 10 X s 638 265 m 8 Y s 628 269 m 135 Y s 624 404 m 8 X s 628 269 m -82
 Y s 624 187 m 8 X s 648 184 m -10 X s 638 180 m 8 Y s 648 184 m 10 X s 658 180 m 8 Y s 648 184 m 113 Y s 644 297 m 8 X s 648 184 m -55 Y s 644 129 m 8 X s 668 98 m -10 X s 658 98 m 4 Y s 668 98 m 10 X s 678 98 m 4 Y s 668 98 m 49 Y s 664 147 m 8 X s
 688 98 m -10 X s 678 98 m 4 Y s 688 98 m 10 X s 698 98 m 4 Y s 688 98 m 49 Y s 684 147 m 8 X s 3 lw /w 15 def /w2 {w 2 div} def /w3 {w 3 div} def 132 227 152 227 172 141 192 141 211 141 231 141 251 184 271 227 291 269 311 184 331 184 350 184 370 227
 390 397 410 355 430 141 450 227 469 141 489 141 509 269 529 141 549 184 569 141 589 184 608 141 628 269 648 184 668 98 688 98 29 { m20} R 6 lw 0 1 0 c[ 4 8] 0 sd 9 lw black 0 1 0 c 122 193 m cl s 122 193 m 20 -1 d 20 -2 d 20 -1 d 20 -2 d 19 -1 d 20
 -2 d 20 -1 d 20 -1 d 20 -2 d 20 -1 d 19 -1 d 20 -2 d 20 -1 d 20 -1 d 20 -1 d 20 -2 d 20 -1 d 19 -1 d 20 -1 d 20 -1 d 20 -1 d 20 -1 d 20 -2 d 19 -1 d 20 -1 d 20 -1 d 20 -1 d 20 -1 d 20 -1 d s 0 0 1 c[ 12 12] 0 sd black 0 0 1 c 122 99 m cl s 122 99 m
 40 X 20 1 d 59 X 20 1 d 20 X 20 1 d 10 1 d 10 2 d 5 1 d 5 2 d 2 1 d 3 2 d 4 4 d 3 3 d 2 2 d 3 3 d 2 3 d 3 3 d 2 4 d 5 7 d 5 9 d 5 9 d 10 18 d 5 9 d 3 5 d 2 4 d 3 3 d 2 4 d 3 3 d 2 2 d 2 2 d 3 2 d 2 1 d 3 1 d 5 X 2 -1 d 3 -1 d 2 -2 d 3 -3 d 2 -2 d 3
 -4 d 2 -3 d 3 -4 d 5 -8 d 5 -9 d 5 -10 d 5 -9 d 5 -9 d 5 -8 d 4 -8 d 3 -3 d 2 -3 d 3 -3 d 2 -3 d 3 -2 d 2 -3 d 5 -4 d 5 -3 d 5 -2 d 5 -2 d 5 -1 d 5 -1 d 5 -1 d 10 -1 d 10 X 20 -1 d 139 X s 1 0 0 c[  ] 0 sd black 1 0 0 c 122 194 m cl s 122 194 m 20
 -1 d 20 -2 d 20 -1 d 20 -1 d 19 -2 d 20 -1 d 20 -1 d 20 X 20 -1 d 10 1 d 10 1 d 5 1 d 5 1 d 2 1 d 3 2 d 4 3 d 5 5 d 5 6 d 5 6 d 5 7 d 5 8 d 5 9 d 10 18 d 5 9 d 5 8 d 3 3 d 2 3 d 3 3 d 2 3 d 2 2 d 3 1 d 2 1 d 3 1 d 2 X 3 -1 d 2 -1 d 3 -1 d 2 -2 d 3
 -3 d 2 -3 d 3 -3 d 2 -4 d 3 -4 d 5 -8 d 5 -10 d 5 -9 d 5 -10 d 5 -9 d 5 -9 d 4 -7 d 5 -7 d 5 -6 d 5 -5 d 5 -4 d 5 -4 d 5 -3 d 5 -2 d 5 -1 d 5 -2 d 5 -1 d 10 -1 d 10 -1 d 20 -1 d 20 -2 d 19 -1 d 20 -1 d 20 -1 d 20 -1 d 20 -1 d 20 -1 d s black 6 lw
 122 98 m 576 X s 241 113 m -15 Y s 281 106 m -8 Y s 321 106 m -8 Y s 360 106 m -8 Y s 400 106 m -8 Y s 440 113 m -15 Y s 479 106 m -8 Y s 519 106 m -8 Y s 559 106 m -8 Y s 598 106 m -8 Y s 638 113 m -15 Y s 241 113 m -15 Y s 202 106 m -8 Y s 162 106
 m -8 Y s 122 106 m -8 Y s 638 113 m -15 Y s 678 106 m -8 Y s 122 582 m 576 X s 241 567 m 15 Y s 281 574 m 8 Y s 321 574 m 8 Y s 360 574 m 8 Y s 400 574 m 8 Y s 440 567 m 15 Y s 479 574 m 8 Y s 519 574 m 8 Y s 559 574 m 8 Y s 598 574 m 8 Y s 638 567
 m 15 Y s 241 567 m 15 Y s 202 574 m 8 Y s 162 574 m 8 Y s 122 574 m 8 Y s 638 567 m 15 Y s 678 574 m 8 Y s 122 98 m 484 Y s 139 98 m -17 X s 131 120 m -9 X s 131 141 m -9 X s 131 162 m -9 X s 139 184 m -17 X s 131 205 m -9 X s 131 227 m -9 X s 131
 248 m -9 X s 139 269 m -17 X s 131 291 m -9 X s 131 312 m -9 X s 131 333 m -9 X s 139 355 m -17 X s 131 376 m -9 X s 131 397 m -9 X s 131 419 m -9 X s 139 440 m -17 X s 131 462 m -9 X s 131 483 m -9 X s 131 504 m -9 X s 139 526 m -17 X s 139 526 m
 -17 X s 131 547 m -9 X s 131 568 m -9 X s 698 98 m 484 Y s 681 98 m 17 X s 689 120 m 9 X s 689 141 m 9 X s 689 162 m 9 X s 681 184 m 17 X s 689 205 m 9 X s 689 227 m 9 X s 689 248 m 9 X s 681 269 m 17 X s 689 291 m 9 X s 689 312 m 9 X s 689 333 m 9
 X s 681 355 m 17 X s 689 376 m 9 X s 689 397 m 9 X s 689 419 m 9 X s 681 440 m 17 X s 689 462 m 9 X s 689 483 m 9 X s 689 504 m 9 X s 681 526 m 17 X s 681 526 m 17 X s 689 547 m 9 X s 689 568 m 9 X s
 gsave  710 611 23 13 C 312.854 426.619 t 0 r /Helvetica findfont 22.7926 sf 0 0 m ( = 5 TeV) show NC gr 
 gsave  710 611 23 13 C 291.997 419.035 t 0 r /Helvetica findfont 15.1951 sf 0 0 m (NN) show NC gr 
 gsave  710 611 23 13 C 280.62 426.619 t 0 r /Helvetica findfont 22.7926 sf 0 0 m (s) show NC gr  271 440 m 4 -21 d s 0 lw 275 419 m 4 28 d s 279 447 m 34 X s
 gsave  710 611 23 13 C 163.063 426.619 t 0 r /Helvetica findfont 22.7926 sf 0 0 m (pPb\(Bwd\) ) show NC gr 
 gsave  710 611 23 13 C 163.063 462.645 t 0 r /Helvetica findfont 28.4907 sf 0 0 m (Preliminary) show NC gr 
 gsave  710 611 23 13 C 163.063 492.982 t 0 r /Helvetica findfont 28.4907 sf 0 0 m (LHCb) show NC gr 
 gsave  710 611 23 13 C 608.643 472.125 t 0 r /Helvetica findfont 28.4907 sf 0 0 m (2.5) show NC gr 
 gsave  710 611 23 13 C 591.578 472.125 t 0 r /Symbol findfont 28.4907 sf 0 0 m (-) show NC gr 
 gsave  710 611 23 13 C 472.125 472.125 t 0 r /Helvetica findfont 28.4907 sf 0 0 m (4.0 < y < ) show NC gr 
 gsave  710 611 23 13 C 455.06 472.125 t 0 r /Symbol findfont 28.4907 sf 0 0 m (-) show NC gr 
 gsave  710 611 23 13 C 530.904 441.788 t 0 r /Helvetica findfont 28.4907 sf 0 0 m ( < 7 GeV/c) show NC gr 
 gsave  710 611 23 13 C 519.527 426.619 t 0 r /Helvetica findfont 18.9938 sf 0 0 m (T) show NC gr 
 gsave  710 611 23 13 C 455.06 441.788 t 0 r /Helvetica findfont 28.4907 sf 0 0 m ( 5< p) show NC gr  6 lw 1 1 1 c 710 611 779 13 bf black 1 1 1 c 576 484 878 98 bf black 576 484 878 98 bl 1 1 1 c 576 484 878 98 bf black 576 484 878 98 bl 878 98 m
 576 X s
 gsave  710 611 779 13 C 1444.82 28.4413 t 0 r /Helvetica findfont 34.1889 sf 0 0 m (]) show NC gr 
 gsave  710 611 779 13 C 1431.54 43.6099 t 0 r /Helvetica findfont 22.7926 sf 0 0 m (2) show NC gr 
 gsave  710 611 779 13 C 1315.88 28.4413 t 0 r /Helvetica findfont 34.1889 sf 0 0 m ( [MeV/c) show NC gr 
 gsave  710 611 779 13 C 1302.61 20.8569 t 0 r /Symbol findfont 22.7926 sf 0 0 m (m) show NC gr 
 gsave  710 611 779 13 C 1289.34 20.8569 t 0 r /Symbol findfont 22.7926 sf 0 0 m (m) show NC gr 
 gsave  710 611 779 13 C 1262.79 28.4413 t 0 r /Helvetica findfont 34.1889 sf 0 0 m (m) show NC gr  997 113 m -15 Y s 1037 106 m -8 Y s 1077 106 m -8 Y s 1116 106 m -8 Y s 1156 106 m -8 Y s 1196 113 m -15 Y s 1235 106 m -8 Y s 1275 106 m -8 Y s 1315
 106 m -8 Y s 1354 106 m -8 Y s 1394 113 m -15 Y s 997 113 m -15 Y s 957 106 m -8 Y s 918 106 m -8 Y s 878 106 m -8 Y s 1394 113 m -15 Y s 1434 106 m -8 Y s
 gsave  710 611 779 13 C 963.211 66.3629 t 0 r /Helvetica findfont 28.4907 sf 0 0 m (3600) show NC gr 
 gsave  710 611 779 13 C 1162.3 66.3629 t 0 r /Helvetica findfont 28.4907 sf 0 0 m (3700) show NC gr 
 gsave  710 611 779 13 C 1361.39 66.3629 t 0 r /Helvetica findfont 28.4907 sf 0 0 m (3800) show NC gr  878 582 m 576 X s 997 567 m 15 Y s 1037 574 m 8 Y s 1077 574 m 8 Y s 1116 574 m 8 Y s 1156 574 m 8 Y s 1196 567 m 15 Y s 1235 574 m 8 Y s 1275 574
 m 8 Y s 1315 574 m 8 Y s 1354 574 m 8 Y s 1394 567 m 15 Y s 997 567 m 15 Y s 957 574 m 8 Y s 918 574 m 8 Y s 878 574 m 8 Y s 1394 567 m 15 Y s 1434 574 m 8 Y s 878 98 m 484 Y s
 gsave  710 611 779 13 C 822.9 572.617 t 90 r /Helvetica findfont 34.1889 sf 0 0 m (\)) show NC gr 
 gsave  710 611 779 13 C 807.732 559.345 t 90 r /Helvetica findfont 22.7926 sf 0 0 m (2) show NC gr 
 gsave  710 611 779 13 C 822.9 271.14 t 90 r /Helvetica findfont 34.1889 sf 0 0 m (Events / \(10 MeV/c) show NC gr  895 98 m -17 X s 886 109 m -8 X s 886 120 m -8 X s 886 131 m -8 X s 886 142 m -8 X s 895 153 m -17 X s 886 164 m -8 X s 886 175 m -8 X
 s 886 186 m -8 X s 886 197 m -8 X s 895 208 m -17 X s 886 219 m -8 X s 886 230 m -8 X s 886 241 m -8 X s 886 252 m -8 X s 895 263 m -17 X s 886 274 m -8 X s 886 285 m -8 X s 886 296 m -8 X s 886 307 m -8 X s 895 318 m -17 X s 886 329 m -8 X s 886
 340 m -8 X s 886 351 m -8 X s 886 362 m -8 X s 895 373 m -17 X s 886 384 m -8 X s 886 395 m -8 X s 886 406 m -8 X s 886 417 m -8 X s 895 428 m -17 X s 886 439 m -8 X s 886 450 m -8 X s 886 461 m -8 X s 886 472 m -8 X s 895 483 m -17 X s 886 494 m -8
 X s 886 505 m -8 X s 886 516 m -8 X s 886 527 m -8 X s 895 538 m -17 X s 895 538 m -17 X s 886 549 m -8 X s 886 559 m -8 X s 886 570 m -8 X s 886 581 m -8 X s
 gsave  710 611 779 13 C 858.926 87.2199 t 0 r /Helvetica findfont 28.4907 sf 0 0 m (0) show NC gr 
 gsave  710 611 779 13 C 862.718 142.206 t 0 r /Helvetica findfont 28.4907 sf 0 0 m (1) show NC gr 
 gsave  710 611 779 13 C 858.926 197.193 t 0 r /Helvetica findfont 28.4907 sf 0 0 m (2) show NC gr 
 gsave  710 611 779 13 C 858.926 252.179 t 0 r /Helvetica findfont 28.4907 sf 0 0 m (3) show NC gr 
 gsave  710 611 779 13 C 858.926 307.166 t 0 r /Helvetica findfont 28.4907 sf 0 0 m (4) show NC gr 
 gsave  710 611 779 13 C 858.926 362.152 t 0 r /Helvetica findfont 28.4907 sf 0 0 m (5) show NC gr 
 gsave  710 611 779 13 C 858.926 417.138 t 0 r /Helvetica findfont 28.4907 sf 0 0 m (6) show NC gr 
 gsave  710 611 779 13 C 858.926 472.125 t 0 r /Helvetica findfont 28.4907 sf 0 0 m (7) show NC gr 
 gsave  710 611 779 13 C 858.926 527.111 t 0 r /Helvetica findfont 28.4907 sf 0 0 m (8) show NC gr  1454 98 m 484 Y s 1437 98 m 17 X s 1445 109 m 9 X s 1445 120 m 9 X s 1445 131 m 9 X s 1445 142 m 9 X s 1437 153 m 17 X s 1445 164 m 9 X s 1445 175 m 9
 X s 1445 186 m 9 X s 1445 197 m 9 X s 1437 208 m 17 X s 1445 219 m 9 X s 1445 230 m 9 X s 1445 241 m 9 X s 1445 252 m 9 X s 1437 263 m 17 X s 1445 274 m 9 X s 1445 285 m 9 X s 1445 296 m 9 X s 1445 307 m 9 X s 1437 318 m 17 X s 1445 329 m 9 X s 1445
 340 m 9 X s 1445 351 m 9 X s 1445 362 m 9 X s 1437 373 m 17 X s 1445 384 m 9 X s 1445 395 m 9 X s 1445 406 m 9 X s 1445 417 m 9 X s 1437 428 m 17 X s 1445 439 m 9 X s 1445 450 m 9 X s 1445 461 m 9 X s 1445 472 m 9 X s 1437 483 m 17 X s 1445 494 m 9
 X s 1445 505 m 9 X s 1445 516 m 9 X s 1445 527 m 9 X s 1437 538 m 17 X s 1437 538 m 17 X s 1445 549 m 9 X s 1445 559 m 9 X s 1445 570 m 9 X s 1445 581 m 9 X s 888 98 m -10 X s 878 98 m 4 Y s 888 98 m 10 X s 898 98 m 4 Y s 888 98 m 63 Y s 884 161 m 8
 X s 908 153 m -10 X s 898 149 m 8 Y s 908 153 m 10 X s 918 149 m 8 Y s 908 153 m 126 Y s 904 279 m 8 X s 908 153 m -45 Y s 904 108 m 8 X s 928 263 m -10 X s 918 259 m 8 Y s 928 263 m 10 X s 938 259 m 8 Y s 928 263 m 160 Y s 924 423 m 7 X s 928 263 m
 -90 Y s 924 173 m 7 X s 948 98 m -10 X s 938 98 m 4 Y s 948 98 m 9 X s 957 98 m 4 Y s 948 98 m 63 Y s 944 161 m 7 X s 967 98 m -10 X s 957 98 m 4 Y s 967 98 m 10 X s 977 98 m 4 Y s 967 98 m 63 Y s 964 161 m 7 X s 987 98 m -10 X s 977 98 m 4 Y s 987
 98 m 10 X s 997 98 m 4 Y s 987 98 m 63 Y s 983 161 m 8 X s 1007 98 m -10 X s 997 98 m 4 Y s 1007 98 m 10 X s 1017 98 m 4 Y s 1007 98 m 63 Y s 1003 161 m 8 X s 1027 153 m -10 X s 1017 149 m 8 Y s 1027 153 m 10 X s 1037 149 m 8 Y s 1027 153 m 126 Y s
 1023 279 m 8 X s 1027 153 m -45 Y s 1023 108 m 8 X s 1047 98 m -10 X s 1037 98 m 4 Y s 1047 98 m 10 X s 1057 98 m 4 Y s 1047 98 m 63 Y s 1043 161 m 8 X s 1067 98 m -10 X s 1057 98 m 4 Y s 1067 98 m 10 X s 1077 98 m 4 Y s 1067 98 m 63 Y s 1063 161 m
 7 X s 1086 98 m -9 X s 1077 98 m 4 Y s 1086 98 m 10 X s 1096 98 m 4 Y s 1086 98 m 63 Y s 1083 161 m 7 X s 1106 153 m -10 X s 1096 149 m 8 Y s 1106 153 m 10 X s 1116 149 m 8 Y s 1106 153 m 126 Y s 1103 279 m 7 X s 1106 153 m -45 Y s 1103 108 m 7 X s
 1126 263 m -10 X s 1116 259 m 8 Y s 1126 263 m 10 X s 1136 259 m 8 Y s 1126 263 m 160 Y s 1122 423 m 8 X s 1126 263 m -90 Y s 1122 173 m 8 X s 1146 153 m -10 X s 1136 149 m 8 Y s 1146 153 m 10 X s 1156 149 m 8 Y s 1146 153 m 126 Y s 1142 279 m 8 X s
 1146 153 m -45 Y s 1142 108 m 8 X s 1166 263 m -10 X s 1156 259 m 8 Y s 1166 263 m 10 X s 1176 259 m 8 Y s 1166 263 m 160 Y s 1162 423 m 8 X s 1166 263 m -90 Y s 1162 173 m 8 X s 1186 208 m -10 X s 1176 204 m 8 Y s 1186 208 m 10 X s 1196 204 m 8 Y s
 1186 208 m 145 Y s 1182 353 m 7 X s 1186 208 m -71 Y s 1182 137 m 7 X s 1206 153 m -10 X s 1196 149 m 8 Y s 1206 153 m 9 X s 1215 149 m 8 Y s 1206 153 m 126 Y s 1202 279 m 7 X s 1206 153 m -45 Y s 1202 108 m 7 X s 1225 208 m -10 X s 1215 204 m 8 Y s
 1225 208 m 10 X s 1235 204 m 8 Y s 1225 208 m 145 Y s 1222 353 m 7 X s 1225 208 m -71 Y s 1222 137 m 7 X s 1245 98 m -10 X s 1235 98 m 4 Y s 1245 98 m 10 X s 1255 98 m 4 Y s 1245 98 m 63 Y s 1241 161 m 8 X s 1265 153 m -10 X s 1255 149 m 8 Y s 1265
 153 m 10 X s 1275 149 m 8 Y s 1265 153 m 126 Y s 1261 279 m 8 X s 1265 153 m -45 Y s 1261 108 m 8 X s 1285 373 m -10 X s 1275 369 m 8 Y s 1285 373 m 10 X s 1295 369 m 8 Y s 1285 373 m 186 Y s 1281 559 m 8 X s 1285 373 m -119 Y s 1281 254 m 8 X s
 1305 98 m -10 X s 1295 98 m 4 Y s 1305 98 m 10 X s 1315 98 m 4 Y s 1305 98 m 63 Y s 1301 161 m 8 X s 1325 153 m -10 X s 1315 149 m 8 Y s 1325 153 m 10 X s 1335 149 m 8 Y s 1325 153 m 126 Y s 1321 279 m 7 X s 1325 153 m -45 Y s 1321 108 m 7 X s 1344
 98 m -9 X s 1335 98 m 4 Y s 1344 98 m 10 X s 1354 98 m 4 Y s 1344 98 m 63 Y s 1341 161 m 7 X s 1364 208 m -10 X s 1354 204 m 8 Y s 1364 208 m 10 X s 1374 204 m 8 Y s 1364 208 m 145 Y s 1361 353 m 7 X s 1364 208 m -71 Y s 1361 137 m 7 X s 1384 208 m
 -10 X s 1374 204 m 8 Y s 1384 208 m 10 X s 1394 204 m 8 Y s 1384 208 m 145 Y s 1380 353 m 8 X s 1384 208 m -71 Y s 1380 137 m 8 X s 1404 98 m -10 X s 1394 98 m 4 Y s 1404 98 m 10 X s 1414 98 m 4 Y s 1404 98 m 63 Y s 1400 161 m 8 X s 1424 98 m -10 X
 s 1414 98 m 4 Y s 1424 98 m 10 X s 1434 98 m 4 Y s 1424 98 m 63 Y s 1420 161 m 8 X s 1444 153 m -10 X s 1434 149 m 8 Y s 1444 153 m 10 X s 1454 149 m 8 Y s 1444 153 m 126 Y s 1440 279 m 7 X s 1444 153 m -45 Y s 1440 108 m 7 X s 3 lw 888 98 908 153
 928 263 948 98 967 98 987 98 1007 98 1027 153 1047 98 1067 98 1086 98 1106 153 1126 263 1146 153 1166 263 1186 208 1206 153 1225 208 1245 98 1265 153 1285 373 1305 98 1325 153 1344 98 1364 208 1384 208 1404 98 1424 98 1444 153 29 { m20} R 6 lw 0 1 0
 c[ 4 8] 0 sd 9 lw black 0 1 0 c 878 125 m cl s 878 125 m 20 1 d 20 X 20 1 d 19 1 d 20 1 d 20 1 d 20 1 d 20 X 20 1 d 20 1 d 19 1 d 20 1 d 20 1 d 20 2 d 20 1 d 20 1 d 19 1 d 20 1 d 20 1 d 20 2 d 20 1 d 20 1 d 20 2 d 19 1 d 20 2 d 20 1 d 20 2 d 20 1 d
 20 2 d s 0 0 1 c[ 12 12] 0 sd black 0 0 1 c 878 99 m cl s 878 99 m 60 X 19 1 d 60 X 20 1 d 10 1 d 10 X 10 1 d 5 1 d 5 1 d 4 2 d 3 1 d 2 1 d 5 3 d 5 4 d 5 4 d 5 5 d 5 6 d 5 6 d 5 6 d 5 7 d 10 13 d 5 7 d 3 3 d 2 2 d 2 3 d 3 2 d 2 2 d 3 2 d 2 2 d 3 1 d
 2 X 3 1 d 5 X 2 -1 d 3 -1 d 2 -1 d 3 -2 d 2 -1 d 3 -3 d 2 -2 d 3 -3 d 5 -5 d 5 -7 d 5 -7 d 9 -13 d 5 -6 d 5 -6 d 5 -6 d 5 -5 d 5 -4 d 5 -3 d 5 -3 d 5 -3 d 5 -2 d 5 -1 d 5 -1 d 5 -1 d 5 -1 d 5 X 10 -1 d 20 -1 d 139 X s 1 0 0 c[  ] 0 sd black 1 0 0 c
 878 126 m cl s 878 126 m 20 X 20 1 d 20 1 d 19 1 d 20 1 d 20 1 d 20 2 d 20 1 d 10 1 d 10 1 d 10 2 d 5 1 d 5 1 d 4 2 d 5 3 d 5 3 d 5 4 d 5 5 d 5 5 d 5 6 d 5 6 d 5 7 d 5 7 d 10 14 d 5 6 d 5 6 d 2 3 d 3 2 d 2 2 d 3 2 d 2 2 d 3 1 d 2 1 d 3 1 d 5 X 2 -1
 d 3 -1 d 2 -1 d 3 -1 d 2 -2 d 3 -2 d 2 -2 d 3 -3 d 5 -5 d 5 -6 d 5 -7 d 9 -12 d 5 -7 d 5 -5 d 5 -5 d 5 -5 d 5 -4 d 5 -3 d 5 -3 d 5 -2 d 5 -1 d 5 -2 d 5 X 5 -1 d 10 -1 d 10 1 d 20 X 20 2 d 19 1 d 20 2 d 20 1 d 20 2 d 20 1 d 20 2 d s black 6 lw 878 98
 m 576 X s 997 113 m -15 Y s 1037 106 m -8 Y s 1077 106 m -8 Y s 1116 106 m -8 Y s 1156 106 m -8 Y s 1196 113 m -15 Y s 1235 106 m -8 Y s 1275 106 m -8 Y s 1315 106 m -8 Y s 1354 106 m -8 Y s 1394 113 m -15 Y s 997 113 m -15 Y s 957 106 m -8 Y s 918
 106 m -8 Y s 878 106 m -8 Y s 1394 113 m -15 Y s 1434 106 m -8 Y s 878 582 m 576 X s 997 567 m 15 Y s 1037 574 m 8 Y s 1077 574 m 8 Y s 1116 574 m 8 Y s 1156 574 m 8 Y s 1196 567 m 15 Y s 1235 574 m 8 Y s 1275 574 m 8 Y s 1315 574 m 8 Y s 1354 574 m
 8 Y s 1394 567 m 15 Y s 997 567 m 15 Y s 957 574 m 8 Y s 918 574 m 8 Y s 878 574 m 8 Y s 1394 567 m 15 Y s 1434 574 m 8 Y s 878 98 m 484 Y s 895 98 m -17 X s 886 109 m -8 X s 886 120 m -8 X s 886 131 m -8 X s 886 142 m -8 X s 895 153 m -17 X s 886
 164 m -8 X s 886 175 m -8 X s 886 186 m -8 X s 886 197 m -8 X s 895 208 m -17 X s 886 219 m -8 X s 886 230 m -8 X s 886 241 m -8 X s 886 252 m -8 X s 895 263 m -17 X s 886 274 m -8 X s 886 285 m -8 X s 886 296 m -8 X s 886 307 m -8 X s 895 318 m -17
 X s 886 329 m -8 X s 886 340 m -8 X s 886 351 m -8 X s 886 362 m -8 X s 895 373 m -17 X s 886 384 m -8 X s 886 395 m -8 X s 886 406 m -8 X s 886 417 m -8 X s 895 428 m -17 X s 886 439 m -8 X s 886 450 m -8 X s 886 461 m -8 X s 886 472 m -8 X s 895
 483 m -17 X s 886 494 m -8 X s 886 505 m -8 X s 886 516 m -8 X s 886 527 m -8 X s 895 538 m -17 X s 895 538 m -17 X s 886 549 m -8 X s 886 559 m -8 X s 886 570 m -8 X s 886 581 m -8 X s 1454 98 m 484 Y s 1437 98 m 17 X s 1445 109 m 9 X s 1445 120 m
 9 X s 1445 131 m 9 X s 1445 142 m 9 X s 1437 153 m 17 X s 1445 164 m 9 X s 1445 175 m 9 X s 1445 186 m 9 X s 1445 197 m 9 X s 1437 208 m 17 X s 1445 219 m 9 X s 1445 230 m 9 X s 1445 241 m 9 X s 1445 252 m 9 X s 1437 263 m 17 X s 1445 274 m 9 X s
 1445 285 m 9 X s 1445 296 m 9 X s 1445 307 m 9 X s 1437 318 m 17 X s 1445 329 m 9 X s 1445 340 m 9 X s 1445 351 m 9 X s 1445 362 m 9 X s 1437 373 m 17 X s 1445 384 m 9 X s 1445 395 m 9 X s 1445 406 m 9 X s 1445 417 m 9 X s 1437 428 m 17 X s 1445 439
 m 9 X s 1445 450 m 9 X s 1445 461 m 9 X s 1445 472 m 9 X s 1437 483 m 17 X s 1445 494 m 9 X s 1445 505 m 9 X s 1445 516 m 9 X s 1445 527 m 9 X s 1437 538 m 17 X s 1437 538 m 17 X s 1445 549 m 9 X s 1445 559 m 9 X s 1445 570 m 9 X s 1445 581 m 9 X s
 gsave  710 611 779 13 C 1069.39 426.619 t 0 r /Helvetica findfont 22.7926 sf 0 0 m ( = 5 TeV) show NC gr 
 gsave  710 611 779 13 C 1048.53 419.035 t 0 r /Helvetica findfont 15.1951 sf 0 0 m (NN) show NC gr 
 gsave  710 611 779 13 C 1037.16 426.619 t 0 r /Helvetica findfont 22.7926 sf 0 0 m (s) show NC gr  1028 440 m 3 -21 d s 0 lw 1031 419 m 4 28 d s 1035 447 m 34 X s
 gsave  710 611 779 13 C 919.601 426.619 t 0 r /Helvetica findfont 22.7926 sf 0 0 m (pPb\(Bwd\) ) show NC gr 
 gsave  710 611 779 13 C 919.601 462.645 t 0 r /Helvetica findfont 28.4907 sf 0 0 m (Preliminary) show NC gr 
 gsave  710 611 779 13 C 919.601 492.982 t 0 r /Helvetica findfont 28.4907 sf 0 0 m (LHCb) show NC gr 
 gsave  710 611 779 13 C 1365.18 472.125 t 0 r /Helvetica findfont 28.4907 sf 0 0 m (2.5) show NC gr 
 gsave  710 611 779 13 C 1348.12 472.125 t 0 r /Symbol findfont 28.4907 sf 0 0 m (-) show NC gr 
 gsave  710 611 779 13 C 1228.66 472.125 t 0 r /Helvetica findfont 28.4907 sf 0 0 m (4.0 < y < ) show NC gr 
 gsave  710 611 779 13 C 1211.6 472.125 t 0 r /Symbol findfont 28.4907 sf 0 0 m (-) show NC gr 
 gsave  710 611 779 13 C 1287.44 441.788 t 0 r /Helvetica findfont 28.4907 sf 0 0 m ( <14 GeV/c) show NC gr 
 gsave  710 611 779 13 C 1276.06 426.619 t 0 r /Helvetica findfont 18.9938 sf 0 0 m (T) show NC gr 
 gsave  710 611 779 13 C 1211.6 441.788 t 0 r /Helvetica findfont 28.4907 sf 0 0 m ( 7< p) show NC gr  6 lw 1 1 1 c 711 611 1534 13 bf
 gr  gr showpage
end
%%EOF
