%!PS-Adobe-2.0 EPSF-2.0
%%BoundingBox:  0 0 567 319
%%Title: result/MassFitBin/pAPT_psip.eps: 
%%Creator: ROOT Version 5.34/18
%%CreationDate: Sun Aug  2 10:53:44 2015
%%EndComments
%%BeginProlog
80 dict begin
/s {stroke} def /l {lineto} def /m {moveto} def /t {translate} def
/r {rotate} def /rl {roll}  def /R {repeat} def
/d {rlineto} def /rm {rmoveto} def /gr {grestore} def /f {eofill} def
/c {setrgbcolor} def /black {0 setgray} def /sd {setdash} def
/cl {closepath} def /sf {scalefont setfont} def /lw {setlinewidth} def
/box {m dup 0 exch d exch 0 d 0 exch neg d cl} def
/NC{systemdict begin initclip end}def/C{NC box clip newpath}def
/bl {box s} def /bf {box f} def /Y { 0 exch d} def /X { 0 d} def 
/K {{pop pop 0 moveto} exch kshow} bind def
/ita {/ang 15 def gsave [1 0 ang dup sin exch cos div 1 0 0] concat} def 
/mp {newpath /y exch def /x exch def} def
/side {[w .77 mul w .23 mul] .385 w mul sd w 0 l currentpoint t -144 r} def
/mr {mp x y w2 0 360 arc} def /m24 {mr s} def /m20 {mr f} def
/mb {mp x y w2 add m w2 neg 0 d 0 w neg d w 0 d 0 w d cl} def
/mt {mp x y w2 add m w2 neg w neg d w 0 d cl} def
/m21 {mb f} def /m25 {mb s} def /m22 {mt f} def /m26{mt s} def
/m23 {mp x y w2 sub m w2 w d w neg 0 d cl f} def
/m27 {mp x y w2 add m w3 neg w2 neg d w3 w2 neg d w3 w2 d cl s} def
/m28 {mp x w2 sub y w2 sub w3 add m w3 0 d  0 w3 neg d w3 0 d 0 w3 d w3 0 d  0 w3 d w3 neg 0 d 0 w3 d w3 neg 0 d 0 w3 neg d w3 neg 0 d cl s } def
/m29 {mp gsave x w2 sub y w2 add w3 sub m currentpoint t 4 {side} repeat cl fill gr} def
/m30 {mp gsave x w2 sub y w2 add w3 sub m currentpoint t 4 {side} repeat cl s gr} def
/m31 {mp x y w2 sub m 0 w d x w2 sub y m w 0 d x w2 sub y w2 add m w w neg d x w2 sub y w2 sub m w w d s} def
/m32 {mp x y w2 sub m w2 w d w neg 0 d cl s} def
/m33 {mp x y w2 add m w3 neg w2 neg d w3 w2 neg d w3 w2 d cl f} def
/m34 {mp x w2 sub y w2 sub w3 add m w3 0 d  0 w3 neg d w3 0 d 0 w3 d w3 0 d  0 w3 d w3 neg 0 d 0 w3 d w3 neg 0 d 0 w3 neg d w3 neg 0 d cl f } def
/m2 {mp x y w2 sub m 0 w d x w2 sub y m w 0 d s} def
/m5 {mp x w2 sub y w2 sub m w w d x w2 sub y w2 add m w w neg d s} def
/reEncode {exch findfont dup length dict begin {1 index /FID eq  {pop pop} {def} ifelse } forall /Encoding exch def currentdict end dup /FontName get exch definefont pop } def [/Times-Bold /Times-Italic /Times-BoldItalic /Helvetica /Helvetica-Oblique
 /Helvetica-Bold /Helvetica-BoldOblique /Courier /Courier-Oblique /Courier-Bold /Courier-BoldOblique /Times-Roman /AvantGarde-Book /AvantGarde-BookOblique /AvantGarde-Demi /AvantGarde-DemiOblique /Bookman-Demi /Bookman-DemiItalic /Bookman-Light
 /Bookman-LightItalic /Helvetica-Narrow /Helvetica-Narrow-Bold /Helvetica-Narrow-BoldOblique /Helvetica-Narrow-Oblique /NewCenturySchlbk-Roman /NewCenturySchlbk-Bold /NewCenturySchlbk-BoldItalic /NewCenturySchlbk-Italic /Palatino-Bold
 /Palatino-BoldItalic /Palatino-Italic /Palatino-Roman ] {ISOLatin1Encoding reEncode } forall
%%EndProlog
%%BeginSetup
%%EndSetup
newpath  gsave  .25 .25 scale  gsave  0 0 t black[  ] 0 sd 6 lw 1 1 1 c 2268 1274 0 0 bf black 1 1 1 c 710 611 23 650 bf black 1 1 1 c 576 484 122 735 bf black 576 484 122 735 bl 1 1 1 c 576 484 122 735 bf black 576 484 122 735 bl 122 735 m 576 X s
 gsave  710 611 23 650 C 688.279 665.526 t 0 r /Helvetica findfont 34.1889 sf 0 0 m (]) show NC gr 
 gsave  710 611 23 650 C 675.006 680.694 t 0 r /Helvetica findfont 22.7926 sf 0 0 m (2) show NC gr 
 gsave  710 611 23 650 C 559.345 665.526 t 0 r /Helvetica findfont 34.1889 sf 0 0 m ( [MeV/c) show NC gr 
 gsave  710 611 23 650 C 546.072 657.941 t 0 r /Symbol findfont 22.7926 sf 0 0 m (m) show NC gr 
 gsave  710 611 23 650 C 532.8 657.941 t 0 r /Symbol findfont 22.7926 sf 0 0 m (m) show NC gr 
 gsave  710 611 23 650 C 506.254 665.526 t 0 r /Helvetica findfont 34.1889 sf 0 0 m (m) show NC gr  241 750 m -15 Y s 281 743 m -8 Y s 321 743 m -8 Y s 360 743 m -8 Y s 400 743 m -8 Y s 440 750 m -15 Y s 479 743 m -8 Y s 519 743 m -8 Y s 559 743 m -8
 Y s 598 743 m -8 Y s 638 750 m -15 Y s 241 750 m -15 Y s 202 743 m -8 Y s 162 743 m -8 Y s 122 743 m -8 Y s 638 750 m -15 Y s 678 743 m -8 Y s
 gsave  710 611 23 650 C 208.569 703.447 t 0 r /Helvetica findfont 28.4907 sf 0 0 m (3600) show NC gr 
 gsave  710 611 23 650 C 405.762 703.447 t 0 r /Helvetica findfont 28.4907 sf 0 0 m (3700) show NC gr 
 gsave  710 611 23 650 C 604.851 703.447 t 0 r /Helvetica findfont 28.4907 sf 0 0 m (3800) show NC gr  122 1219 m 576 X s 241 1204 m 15 Y s 281 1211 m 8 Y s 321 1211 m 8 Y s 360 1211 m 8 Y s 400 1211 m 8 Y s 440 1204 m 15 Y s 479 1211 m 8 Y s 519
 1211 m 8 Y s 559 1211 m 8 Y s 598 1211 m 8 Y s 638 1204 m 15 Y s 241 1204 m 15 Y s 202 1211 m 8 Y s 162 1211 m 8 Y s 122 1211 m 8 Y s 638 1204 m 15 Y s 678 1211 m 8 Y s 122 735 m 484 Y s
 gsave  710 611 23 650 C 66.3629 1209.7 t 90 r /Helvetica findfont 34.1889 sf 0 0 m (\)) show NC gr 
 gsave  710 611 23 650 C 51.1943 1196.43 t 90 r /Helvetica findfont 22.7926 sf 0 0 m (2) show NC gr 
 gsave  710 611 23 650 C 66.3629 908.224 t 90 r /Helvetica findfont 34.1889 sf 0 0 m (Events / \(10 MeV/c) show NC gr  139 735 m -17 X s 131 756 m -9 X s 131 777 m -9 X s 131 797 m -9 X s 139 818 m -17 X s 131 839 m -9 X s 131 859 m -9 X s 131 880 m
 -9 X s 139 900 m -17 X s 131 921 m -9 X s 131 942 m -9 X s 131 962 m -9 X s 139 983 m -17 X s 131 1004 m -9 X s 131 1024 m -9 X s 131 1045 m -9 X s 139 1065 m -17 X s 131 1086 m -9 X s 131 1107 m -9 X s 131 1127 m -9 X s 139 1148 m -17 X s 139 1148
 m -17 X s 131 1169 m -9 X s 131 1189 m -9 X s 131 1210 m -9 X s
 gsave  710 611 23 650 C 102.389 724.304 t 0 r /Helvetica findfont 28.4907 sf 0 0 m (0) show NC gr 
 gsave  710 611 23 650 C 87.2199 807.732 t 0 r /Helvetica findfont 28.4907 sf 0 0 m (20) show NC gr 
 gsave  710 611 23 650 C 87.2199 889.263 t 0 r /Helvetica findfont 28.4907 sf 0 0 m (40) show NC gr 
 gsave  710 611 23 650 C 87.2199 972.691 t 0 r /Helvetica findfont 28.4907 sf 0 0 m (60) show NC gr 
 gsave  710 611 23 650 C 87.2199 1054.22 t 0 r /Helvetica findfont 28.4907 sf 0 0 m (80) show NC gr 
 gsave  710 611 23 650 C 70.1551 1137.65 t 0 r /Helvetica findfont 28.4907 sf 0 0 m (100) show NC gr  698 735 m 484 Y s 681 735 m 17 X s 689 756 m 9 X s 689 777 m 9 X s 689 797 m 9 X s 681 818 m 17 X s 689 839 m 9 X s 689 859 m 9 X s 689 880 m 9 X s
 681 900 m 17 X s 689 921 m 9 X s 689 942 m 9 X s 689 962 m 9 X s 681 983 m 17 X s 689 1004 m 9 X s 689 1024 m 9 X s 689 1045 m 9 X s 681 1065 m 17 X s 689 1086 m 9 X s 689 1107 m 9 X s 689 1127 m 9 X s 681 1148 m 17 X s 681 1148 m 17 X s 689 1169 m
 9 X s 689 1189 m 9 X s 689 1210 m 9 X s 132 1020 m -10 X s 122 1016 m 8 Y s 132 1020 m 10 X s 142 1016 m 8 Y s 132 1020 m 39 Y s 128 1059 m 8 X s 132 1020 m -34 Y s 128 986 m 8 X s 152 1004 m -10 X s 142 1000 m 7 Y s 152 1004 m 10 X s 162 1000 m 7 Y
 s 152 1004 m 37 Y s 148 1041 m 8 X s 152 1004 m -34 Y s 148 970 m 8 X s 172 1024 m -10 X s 162 1020 m 8 Y s 172 1024 m 10 X s 182 1020 m 8 Y s 172 1024 m 39 Y s 168 1063 m 8 X s 172 1024 m -34 Y s 168 990 m 8 X s 192 1094 m -10 X s 182 1091 m 7 Y s
 192 1094 m 10 X s 202 1091 m 7 Y s 192 1094 m 43 Y s 188 1137 m 7 X s 192 1094 m -38 Y s 188 1056 m 7 X s 211 1012 m -9 X s 202 1008 m 8 Y s 211 1012 m 10 X s 221 1008 m 8 Y s 211 1012 m 38 Y s 208 1050 m 7 X s 211 1012 m -34 Y s 208 978 m 7 X s 231
 991 m -10 X s 221 987 m 8 Y s 231 991 m 10 X s 241 987 m 8 Y s 231 991 m 37 Y s 228 1028 m 7 X s 231 991 m -32 Y s 228 959 m 7 X s 251 1016 m -10 X s 241 1012 m 8 Y s 251 1016 m 10 X s 261 1012 m 8 Y s 251 1016 m 38 Y s 247 1054 m 8 X s 251 1016 m
 -34 Y s 247 982 m 8 X s 271 1028 m -10 X s 261 1025 m 7 Y s 271 1028 m 10 X s 281 1025 m 7 Y s 271 1028 m 39 Y s 267 1067 m 8 X s 271 1028 m -34 Y s 267 994 m 8 X s 291 1008 m -10 X s 281 1004 m 7 Y s 291 1008 m 10 X s 301 1004 m 7 Y s 291 1008 m 37
 Y s 287 1045 m 8 X s 291 1008 m -34 Y s 287 974 m 8 X s 311 1074 m -10 X s 301 1070 m 7 Y s 311 1074 m 10 X s 321 1070 m 7 Y s 311 1074 m 41 Y s 307 1115 m 7 X s 311 1074 m -38 Y s 307 1036 m 7 X s 331 1008 m -10 X s 321 1004 m 7 Y s 331 1008 m 9 X
 s 340 1004 m 7 Y s 331 1008 m 37 Y s 327 1045 m 7 X s 331 1008 m -34 Y s 327 974 m 7 X s 350 1016 m -10 X s 340 1012 m 8 Y s 350 1016 m 10 X s 360 1012 m 8 Y s 350 1016 m 38 Y s 347 1054 m 7 X s 350 1016 m -34 Y s 347 982 m 7 X s 370 1070 m -10 X s
 360 1066 m 7 Y s 370 1070 m 10 X s 380 1066 m 7 Y s 370 1070 m 41 Y s 366 1111 m 8 X s 370 1070 m -37 Y s 366 1033 m 8 X s 390 1082 m -10 X s 380 1078 m 8 Y s 390 1082 m 10 X s 400 1078 m 8 Y s 390 1082 m 42 Y s 386 1124 m 8 X s 390 1082 m -38 Y s
 386 1044 m 8 X s 410 1152 m -10 X s 400 1148 m 8 Y s 410 1152 m 10 X s 420 1148 m 8 Y s 410 1152 m 44 Y s 406 1196 m 8 X s 410 1152 m -39 Y s 406 1113 m 8 X s 430 1115 m -10 X s 420 1111 m 8 Y s 430 1115 m 10 X s 440 1111 m 8 Y s 430 1115 m 44 Y s
 426 1159 m 8 X s 430 1115 m -40 Y s 426 1075 m 8 X s 450 1078 m -10 X s 440 1074 m 8 Y s 450 1078 m 10 X s 460 1074 m 8 Y s 450 1078 m 42 Y s 446 1120 m 7 X s 450 1078 m -38 Y s 446 1040 m 7 X s 469 1024 m -9 X s 460 1020 m 8 Y s 469 1024 m 10 X s
 479 1020 m 8 Y s 469 1024 m 39 Y s 466 1063 m 7 X s 469 1024 m -34 Y s 466 990 m 7 X s 489 1004 m -10 X s 479 1000 m 7 Y s 489 1004 m 10 X s 499 1000 m 7 Y s 489 1004 m 37 Y s 486 1041 m 7 X s 489 1004 m -34 Y s 486 970 m 7 X s 509 946 m -10 X s 499
 942 m 8 Y s 509 946 m 10 X s 519 942 m 8 Y s 509 946 m 34 Y s 505 980 m 8 X s 509 946 m -30 Y s 505 916 m 8 X s 529 966 m -10 X s 519 963 m 7 Y s 529 966 m 10 X s 539 963 m 7 Y s 529 966 m 36 Y s 525 1002 m 8 X s 529 966 m -30 Y s 525 936 m 8 X s
 549 1037 m -10 X s 539 1033 m 7 Y s 549 1037 m 10 X s 559 1033 m 7 Y s 549 1037 m 39 Y s 545 1076 m 8 X s 549 1037 m -36 Y s 545 1001 m 8 X s 569 1016 m -10 X s 559 1012 m 8 Y s 569 1016 m 10 X s 579 1012 m 8 Y s 569 1016 m 38 Y s 565 1054 m 7 X s
 569 1016 m -34 Y s 565 982 m 7 X s 589 966 m -10 X s 579 963 m 7 Y s 589 966 m 9 X s 598 963 m 7 Y s 589 966 m 36 Y s 585 1002 m 7 X s 589 966 m -30 Y s 585 936 m 7 X s 608 1016 m -10 X s 598 1012 m 8 Y s 608 1016 m 10 X s 618 1012 m 8 Y s 608 1016
 m 38 Y s 605 1054 m 7 X s 608 1016 m -34 Y s 605 982 m 7 X s 628 1004 m -10 X s 618 1000 m 7 Y s 628 1004 m 10 X s 638 1000 m 7 Y s 628 1004 m 37 Y s 624 1041 m 8 X s 628 1004 m -34 Y s 624 970 m 8 X s 648 1016 m -10 X s 638 1012 m 8 Y s 648 1016 m
 10 X s 658 1012 m 8 Y s 648 1016 m 38 Y s 644 1054 m 8 X s 648 1016 m -34 Y s 644 982 m 8 X s 668 954 m -10 X s 658 950 m 8 Y s 668 954 m 10 X s 678 950 m 8 Y s 668 954 m 34 Y s 664 988 m 8 X s 668 954 m -30 Y s 664 924 m 8 X s 688 987 m -10 X s 678
 983 m 8 Y s 688 987 m 10 X s 698 983 m 8 Y s 688 987 m 37 Y s 684 1024 m 8 X s 688 987 m -32 Y s 684 955 m 8 X s 3 lw /w 15 def /w2 {w 2 div} def /w3 {w 3 div} def 132 1020 152 1004 172 1024 192 1094 211 1012 231 991 251 1016 271 1028 291 1008 311
 1074 331 1008 350 1016 370 1070 390 1082 410 1152 430 1115 450 1078 469 1024 489 1004 509 946 529 966 549 1037 569 1016 589 966 608 1016 628 1004 648 1016 668 954 688 987 29 { m20} R 6 lw 0 1 0 c[ 4 8] 0 sd 9 lw black 0 1 0 c 122 1031 m cl s 122
 1031 m 20 -1 d 20 -2 d 20 -2 d 20 -1 d 19 -2 d 20 -2 d 20 -2 d 20 -1 d 20 -2 d 20 -2 d 19 -1 d 20 -2 d 20 -2 d 20 -1 d 20 -2 d 20 -1 d 20 -2 d 19 -2 d 20 -1 d 20 -2 d 20 -1 d 20 -2 d 20 -1 d 19 -2 d 20 -1 d 20 -2 d 20 -1 d 20 -2 d 20 -1 d s 0 0 1 c[
 12 12] 0 sd black 0 0 1 c 122 736 m cl s 122 736 m 40 X 20 1 d 79 X 20 1 d 20 X 20 1 d 10 1 d 9 2 d 5 1 d 5 2 d 3 2 d 2 1 d 3 3 d 2 2 d 3 4 d 2 3 d 3 5 d 2 4 d 3 5 d 2 6 d 3 5 d 2 7 d 5 13 d 5 14 d 5 14 d 3 6 d 2 6 d 2 6 d 3 5 d 2 5 d 3 3 d 2 3 d 3
 2 d 2 1 d 3 X 2 -1 d 3 -2 d 2 -3 d 3 -4 d 2 -4 d 3 -6 d 2 -5 d 3 -7 d 5 -13 d 5 -14 d 5 -14 d 2 -6 d 3 -6 d 2 -6 d 3 -6 d 2 -5 d 2 -4 d 3 -4 d 2 -4 d 3 -3 d 2 -3 d 3 -2 d 2 -2 d 3 -2 d 2 -2 d 5 -2 d 5 -2 d 5 -1 d 5 -1 d 10 X 20 -1 d 159 X s 1 0 0 c[
  ] 0 sd black 1 0 0 c 122 1032 m cl s 122 1032 m 20 -1 d 20 -2 d 20 -2 d 20 -1 d 19 -2 d 20 -1 d 20 -2 d 20 -1 d 20 -1 d 20 -1 d 10 1 d 9 X 5 1 d 5 2 d 3 1 d 2 1 d 3 2 d 2 3 d 3 3 d 2 4 d 3 4 d 2 4 d 3 5 d 2 5 d 3 6 d 2 6 d 5 12 d 5 14 d 5 13 d 3 7
 d 2 6 d 2 5 d 3 5 d 2 4 d 3 4 d 2 2 d 3 2 d 2 1 d 3 X 2 -2 d 3 -2 d 2 -3 d 3 -4 d 2 -5 d 3 -5 d 2 -6 d 3 -7 d 5 -13 d 5 -15 d 5 -14 d 2 -7 d 3 -6 d 2 -6 d 3 -5 d 2 -6 d 2 -4 d 3 -5 d 2 -3 d 3 -4 d 2 -3 d 3 -3 d 2 -2 d 5 -4 d 5 -2 d 5 -2 d 5 -2 d 5
 -1 d 10 -1 d 20 -2 d 20 -2 d 20 -1 d 19 -2 d 20 -1 d 20 -2 d 20 -1 d 20 -2 d 20 -1 d s black 6 lw 122 735 m 576 X s 241 750 m -15 Y s 281 743 m -8 Y s 321 743 m -8 Y s 360 743 m -8 Y s 400 743 m -8 Y s 440 750 m -15 Y s 479 743 m -8 Y s 519 743 m -8
 Y s 559 743 m -8 Y s 598 743 m -8 Y s 638 750 m -15 Y s 241 750 m -15 Y s 202 743 m -8 Y s 162 743 m -8 Y s 122 743 m -8 Y s 638 750 m -15 Y s 678 743 m -8 Y s 122 1219 m 576 X s 241 1204 m 15 Y s 281 1211 m 8 Y s 321 1211 m 8 Y s 360 1211 m 8 Y s
 400 1211 m 8 Y s 440 1204 m 15 Y s 479 1211 m 8 Y s 519 1211 m 8 Y s 559 1211 m 8 Y s 598 1211 m 8 Y s 638 1204 m 15 Y s 241 1204 m 15 Y s 202 1211 m 8 Y s 162 1211 m 8 Y s 122 1211 m 8 Y s 638 1204 m 15 Y s 678 1211 m 8 Y s 122 735 m 484 Y s 139
 735 m -17 X s 131 756 m -9 X s 131 777 m -9 X s 131 797 m -9 X s 139 818 m -17 X s 131 839 m -9 X s 131 859 m -9 X s 131 880 m -9 X s 139 900 m -17 X s 131 921 m -9 X s 131 942 m -9 X s 131 962 m -9 X s 139 983 m -17 X s 131 1004 m -9 X s 131 1024 m
 -9 X s 131 1045 m -9 X s 139 1065 m -17 X s 131 1086 m -9 X s 131 1107 m -9 X s 131 1127 m -9 X s 139 1148 m -17 X s 139 1148 m -17 X s 131 1169 m -9 X s 131 1189 m -9 X s 131 1210 m -9 X s 698 735 m 484 Y s 681 735 m 17 X s 689 756 m 9 X s 689 777
 m 9 X s 689 797 m 9 X s 681 818 m 17 X s 689 839 m 9 X s 689 859 m 9 X s 689 880 m 9 X s 681 900 m 17 X s 689 921 m 9 X s 689 942 m 9 X s 689 962 m 9 X s 681 983 m 17 X s 689 1004 m 9 X s 689 1024 m 9 X s 689 1045 m 9 X s 681 1065 m 17 X s 689 1086
 m 9 X s 689 1107 m 9 X s 689 1127 m 9 X s 681 1148 m 17 X s 681 1148 m 17 X s 689 1169 m 9 X s 689 1189 m 9 X s 689 1210 m 9 X s
 gsave  710 611 23 650 C 312.854 788.771 t 0 r /Helvetica findfont 22.7926 sf 0 0 m ( = 5 TeV) show NC gr 
 gsave  710 611 23 650 C 291.997 781.187 t 0 r /Helvetica findfont 15.1951 sf 0 0 m (NN) show NC gr 
 gsave  710 611 23 650 C 280.62 788.771 t 0 r /Helvetica findfont 22.7926 sf 0 0 m (s) show NC gr  271 802 m 4 -21 d s 0 lw 275 781 m 4 29 d s 279 810 m 34 X s
 gsave  710 611 23 650 C 163.063 788.771 t 0 r /Helvetica findfont 22.7926 sf 0 0 m (pPb\(Pwd\) ) show NC gr 
 gsave  710 611 23 650 C 163.063 824.797 t 0 r /Helvetica findfont 28.4907 sf 0 0 m (Preliminary) show NC gr 
 gsave  710 611 23 650 C 163.063 855.134 t 0 r /Helvetica findfont 28.4907 sf 0 0 m (LHCb) show NC gr 
 gsave  710 611 23 650 C 455.06 834.277 t 0 r /Helvetica findfont 28.4907 sf 0 0 m (1.5< y <4.0) show NC gr 
 gsave  710 611 23 650 C 530.904 803.94 t 0 r /Helvetica findfont 28.4907 sf 0 0 m ( < 2 GeV/c) show NC gr 
 gsave  710 611 23 650 C 519.527 788.771 t 0 r /Helvetica findfont 18.9938 sf 0 0 m (T) show NC gr 
 gsave  710 611 23 650 C 455.06 803.94 t 0 r /Helvetica findfont 28.4907 sf 0 0 m ( 0< p) show NC gr  6 lw 1 1 1 c 710 611 779 650 bf black 1 1 1 c 576 484 878 735 bf black 576 484 878 735 bl 1 1 1 c 576 484 878 735 bf black 576 484 878 735 bl 878
 735 m 576 X s
 gsave  710 611 779 650 C 1444.82 665.526 t 0 r /Helvetica findfont 34.1889 sf 0 0 m (]) show NC gr 
 gsave  710 611 779 650 C 1431.54 680.694 t 0 r /Helvetica findfont 22.7926 sf 0 0 m (2) show NC gr 
 gsave  710 611 779 650 C 1315.88 665.526 t 0 r /Helvetica findfont 34.1889 sf 0 0 m ( [MeV/c) show NC gr 
 gsave  710 611 779 650 C 1302.61 657.941 t 0 r /Symbol findfont 22.7926 sf 0 0 m (m) show NC gr 
 gsave  710 611 779 650 C 1289.34 657.941 t 0 r /Symbol findfont 22.7926 sf 0 0 m (m) show NC gr 
 gsave  710 611 779 650 C 1262.79 665.526 t 0 r /Helvetica findfont 34.1889 sf 0 0 m (m) show NC gr  997 750 m -15 Y s 1037 743 m -8 Y s 1077 743 m -8 Y s 1116 743 m -8 Y s 1156 743 m -8 Y s 1196 750 m -15 Y s 1235 743 m -8 Y s 1275 743 m -8 Y s 1315
 743 m -8 Y s 1354 743 m -8 Y s 1394 750 m -15 Y s 997 750 m -15 Y s 957 743 m -8 Y s 918 743 m -8 Y s 878 743 m -8 Y s 1394 750 m -15 Y s 1434 743 m -8 Y s
 gsave  710 611 779 650 C 963.211 703.447 t 0 r /Helvetica findfont 28.4907 sf 0 0 m (3600) show NC gr 
 gsave  710 611 779 650 C 1162.3 703.447 t 0 r /Helvetica findfont 28.4907 sf 0 0 m (3700) show NC gr 
 gsave  710 611 779 650 C 1361.39 703.447 t 0 r /Helvetica findfont 28.4907 sf 0 0 m (3800) show NC gr  878 1219 m 576 X s 997 1204 m 15 Y s 1037 1211 m 8 Y s 1077 1211 m 8 Y s 1116 1211 m 8 Y s 1156 1211 m 8 Y s 1196 1204 m 15 Y s 1235 1211 m 8 Y s
 1275 1211 m 8 Y s 1315 1211 m 8 Y s 1354 1211 m 8 Y s 1394 1204 m 15 Y s 997 1204 m 15 Y s 957 1211 m 8 Y s 918 1211 m 8 Y s 878 1211 m 8 Y s 1394 1204 m 15 Y s 1434 1211 m 8 Y s 878 735 m 484 Y s
 gsave  710 611 779 650 C 822.9 1209.7 t 90 r /Helvetica findfont 34.1889 sf 0 0 m (\)) show NC gr 
 gsave  710 611 779 650 C 807.732 1196.43 t 90 r /Helvetica findfont 22.7926 sf 0 0 m (2) show NC gr 
 gsave  710 611 779 650 C 822.9 908.224 t 90 r /Helvetica findfont 34.1889 sf 0 0 m (Events / \(10 MeV/c) show NC gr  895 735 m -17 X s 886 749 m -8 X s 886 762 m -8 X s 886 776 m -8 X s 886 789 m -8 X s 895 802 m -17 X s 886 816 m -8 X s 886 829 m
 -8 X s 886 842 m -8 X s 886 856 m -8 X s 895 869 m -17 X s 886 883 m -8 X s 886 896 m -8 X s 886 909 m -8 X s 886 923 m -8 X s 895 936 m -17 X s 886 950 m -8 X s 886 963 m -8 X s 886 976 m -8 X s 886 990 m -8 X s 895 1003 m -17 X s 886 1016 m -8 X s
 886 1030 m -8 X s 886 1043 m -8 X s 886 1057 m -8 X s 895 1070 m -17 X s 886 1083 m -8 X s 886 1097 m -8 X s 886 1110 m -8 X s 886 1123 m -8 X s 895 1137 m -17 X s 886 1150 m -8 X s 886 1164 m -8 X s 886 1177 m -8 X s 886 1190 m -8 X s 895 1204 m
 -17 X s 895 1204 m -17 X s 886 1217 m -8 X s
 gsave  710 611 779 650 C 858.926 724.304 t 0 r /Helvetica findfont 28.4907 sf 0 0 m (0) show NC gr 
 gsave  710 611 779 650 C 843.757 792.563 t 0 r /Helvetica findfont 28.4907 sf 0 0 m (10) show NC gr 
 gsave  710 611 779 650 C 843.757 858.926 t 0 r /Helvetica findfont 28.4907 sf 0 0 m (20) show NC gr 
 gsave  710 611 779 650 C 843.757 925.289 t 0 r /Helvetica findfont 28.4907 sf 0 0 m (30) show NC gr 
 gsave  710 611 779 650 C 843.757 991.652 t 0 r /Helvetica findfont 28.4907 sf 0 0 m (40) show NC gr 
 gsave  710 611 779 650 C 843.757 1059.91 t 0 r /Helvetica findfont 28.4907 sf 0 0 m (50) show NC gr 
 gsave  710 611 779 650 C 843.757 1126.27 t 0 r /Helvetica findfont 28.4907 sf 0 0 m (60) show NC gr 
 gsave  710 611 779 650 C 843.757 1192.64 t 0 r /Helvetica findfont 28.4907 sf 0 0 m (70) show NC gr  1454 735 m 484 Y s 1437 735 m 17 X s 1445 749 m 9 X s 1445 762 m 9 X s 1445 776 m 9 X s 1445 789 m 9 X s 1437 802 m 17 X s 1445 816 m 9 X s 1445 829
 m 9 X s 1445 842 m 9 X s 1445 856 m 9 X s 1437 869 m 17 X s 1445 883 m 9 X s 1445 896 m 9 X s 1445 909 m 9 X s 1445 923 m 9 X s 1437 936 m 17 X s 1445 950 m 9 X s 1445 963 m 9 X s 1445 976 m 9 X s 1445 990 m 9 X s 1437 1003 m 17 X s 1445 1016 m 9 X
 s 1445 1030 m 9 X s 1445 1043 m 9 X s 1445 1057 m 9 X s 1437 1070 m 17 X s 1445 1083 m 9 X s 1445 1097 m 9 X s 1445 1110 m 9 X s 1445 1123 m 9 X s 1437 1137 m 17 X s 1445 1150 m 9 X s 1445 1164 m 9 X s 1445 1177 m 9 X s 1445 1190 m 9 X s 1437 1204 m
 17 X s 1437 1204 m 17 X s 1445 1217 m 9 X s 888 923 m -10 X s 878 919 m 8 Y s 888 923 m 10 X s 898 919 m 8 Y s 888 923 m 42 Y s 884 965 m 8 X s 888 923 m -35 Y s 884 888 m 8 X s 908 923 m -10 X s 898 919 m 8 Y s 908 923 m 10 X s 918 919 m 8 Y s 908
 923 m 42 Y s 904 965 m 8 X s 908 923 m -35 Y s 904 888 m 8 X s 928 909 m -10 X s 918 906 m 7 Y s 928 909 m 10 X s 938 906 m 7 Y s 928 909 m 42 Y s 924 951 m 7 X s 928 909 m -34 Y s 924 875 m 7 X s 948 896 m -10 X s 938 892 m 8 Y s 948 896 m 9 X s
 957 892 m 8 Y s 948 896 m 40 Y s 944 936 m 7 X s 948 896 m -33 Y s 944 863 m 7 X s 967 936 m -10 X s 957 932 m 8 Y s 967 936 m 10 X s 977 932 m 8 Y s 967 936 m 44 Y s 964 980 m 7 X s 967 936 m -36 Y s 964 900 m 7 X s 987 923 m -10 X s 977 919 m 8 Y
 s 987 923 m 10 X s 997 919 m 8 Y s 987 923 m 42 Y s 983 965 m 8 X s 987 923 m -35 Y s 983 888 m 8 X s 1007 990 m -10 X s 997 986 m 7 Y s 1007 990 m 10 X s 1017 986 m 7 Y s 1007 990 m 48 Y s 1003 1038 m 8 X s 1007 990 m -41 Y s 1003 949 m 8 X s 1027
 976 m -10 X s 1017 972 m 8 Y s 1027 976 m 10 X s 1037 972 m 8 Y s 1027 976 m 47 Y s 1023 1023 m 8 X s 1027 976 m -40 Y s 1023 936 m 8 X s 1047 883 m -10 X s 1037 879 m 7 Y s 1047 883 m 10 X s 1057 879 m 7 Y s 1047 883 m 38 Y s 1043 921 m 8 X s 1047
 883 m -32 Y s 1043 851 m 8 X s 1067 936 m -10 X s 1057 932 m 8 Y s 1067 936 m 10 X s 1077 932 m 8 Y s 1067 936 m 44 Y s 1063 980 m 7 X s 1067 936 m -36 Y s 1063 900 m 7 X s 1086 970 m -9 X s 1077 966 m 7 Y s 1086 970 m 10 X s 1096 966 m 7 Y s 1086
 970 m 46 Y s 1083 1016 m 7 X s 1086 970 m -40 Y s 1083 930 m 7 X s 1106 963 m -10 X s 1096 959 m 8 Y s 1106 963 m 10 X s 1116 959 m 8 Y s 1106 963 m 46 Y s 1103 1009 m 7 X s 1106 963 m -39 Y s 1103 924 m 7 X s 1126 943 m -10 X s 1116 939 m 8 Y s
 1126 943 m 10 X s 1136 939 m 8 Y s 1126 943 m 44 Y s 1122 987 m 8 X s 1126 943 m -37 Y s 1122 906 m 8 X s 1146 1036 m -10 X s 1136 1033 m 7 Y s 1146 1036 m 10 X s 1156 1033 m 7 Y s 1146 1036 m 52 Y s 1142 1088 m 8 X s 1146 1036 m -44 Y s 1142 992 m
 8 X s 1166 1137 m -10 X s 1156 1133 m 8 Y s 1166 1137 m 10 X s 1176 1133 m 8 Y s 1166 1137 m 59 Y s 1162 1196 m 8 X s 1166 1137 m -52 Y s 1162 1085 m 8 X s 1186 956 m -10 X s 1176 952 m 8 Y s 1186 956 m 10 X s 1196 952 m 8 Y s 1186 956 m 46 Y s 1182
 1002 m 7 X s 1186 956 m -38 Y s 1182 918 m 7 X s 1206 1023 m -10 X s 1196 1019 m 8 Y s 1206 1023 m 9 X s 1215 1019 m 8 Y s 1206 1023 m 51 Y s 1202 1074 m 7 X s 1206 1023 m -44 Y s 1202 979 m 7 X s 1225 923 m -10 X s 1215 919 m 8 Y s 1225 923 m 10 X
 s 1235 919 m 8 Y s 1225 923 m 42 Y s 1222 965 m 7 X s 1225 923 m -35 Y s 1222 888 m 7 X s 1245 929 m -10 X s 1235 926 m 7 Y s 1245 929 m 10 X s 1255 926 m 7 Y s 1245 929 m 44 Y s 1241 973 m 8 X s 1245 929 m -35 Y s 1241 894 m 8 X s 1265 889 m -10 X
 s 1255 886 m 7 Y s 1265 889 m 10 X s 1275 886 m 7 Y s 1265 889 m 40 Y s 1261 929 m 8 X s 1265 889 m -32 Y s 1261 857 m 8 X s 1285 883 m -10 X s 1275 879 m 7 Y s 1285 883 m 10 X s 1295 879 m 7 Y s 1285 883 m 38 Y s 1281 921 m 8 X s 1285 883 m -32 Y s
 1281 851 m 8 X s 1305 943 m -10 X s 1295 939 m 8 Y s 1305 943 m 10 X s 1315 939 m 8 Y s 1305 943 m 44 Y s 1301 987 m 8 X s 1305 943 m -37 Y s 1301 906 m 8 X s 1325 936 m -10 X s 1315 932 m 8 Y s 1325 936 m 10 X s 1335 932 m 8 Y s 1325 936 m 44 Y s
 1321 980 m 7 X s 1325 936 m -36 Y s 1321 900 m 7 X s 1344 889 m -9 X s 1335 886 m 7 Y s 1344 889 m 10 X s 1354 886 m 7 Y s 1344 889 m 40 Y s 1341 929 m 7 X s 1344 889 m -32 Y s 1341 857 m 7 X s 1364 923 m -10 X s 1354 919 m 8 Y s 1364 923 m 10 X s
 1374 919 m 8 Y s 1364 923 m 42 Y s 1361 965 m 7 X s 1364 923 m -35 Y s 1361 888 m 7 X s 1384 916 m -10 X s 1374 912 m 8 Y s 1384 916 m 10 X s 1394 912 m 8 Y s 1384 916 m 42 Y s 1380 958 m 8 X s 1384 916 m -34 Y s 1380 882 m 8 X s 1404 863 m -10 X s
 1394 859 m 7 Y s 1404 863 m 10 X s 1414 859 m 7 Y s 1404 863 m 36 Y s 1400 899 m 8 X s 1404 863 m -29 Y s 1400 834 m 8 X s 1424 869 m -10 X s 1414 865 m 8 Y s 1424 869 m 10 X s 1434 865 m 8 Y s 1424 869 m 37 Y s 1420 906 m 8 X s 1424 869 m -29 Y s
 1420 840 m 8 X s 1444 923 m -10 X s 1434 919 m 8 Y s 1444 923 m 10 X s 1454 919 m 8 Y s 1444 923 m 42 Y s 1440 965 m 7 X s 1444 923 m -35 Y s 1440 888 m 7 X s 3 lw 888 923 908 923 928 909 948 896 967 936 987 923 1007 990 1027 976 1047 883 1067 936
 1086 970 1106 963 1126 943 1146 1036 1166 1137 1186 956 1206 1023 1225 923 1245 929 1265 889 1285 883 1305 943 1325 936 1344 889 1364 923 1384 916 1404 863 1424 869 1444 923 29 { m20} R 6 lw 0 1 0 c[ 4 8] 0 sd 9 lw black 0 1 0 c 878 935 m cl s 878
 935 m 20 -1 d 20 -2 d 20 -1 d 19 -1 d 20 -1 d 20 -2 d 20 -1 d 20 -1 d 20 -1 d 20 -1 d 19 -2 d 20 -1 d 20 -1 d 20 -1 d 20 -1 d 20 -1 d 19 -2 d 20 -1 d 20 -1 d 20 -1 d 20 -1 d 20 -1 d 20 -1 d 19 -1 d 20 -2 d 20 -1 d 20 -1 d 20 -1 d 20 -1 d s 0 0 1 c[
 12 12] 0 sd black 0 0 1 c 878 736 m cl s 878 736 m 20 1 d 99 X 20 1 d 20 X 20 1 d 10 1 d 10 1 d 9 2 d 5 2 d 5 2 d 3 2 d 2 2 d 3 3 d 2 4 d 3 4 d 2 4 d 3 5 d 2 5 d 3 6 d 2 6 d 3 7 d 2 7 d 5 14 d 5 16 d 5 15 d 3 7 d 2 7 d 2 7 d 3 5 d 2 5 d 3 4 d 2 4 d
 3 2 d 2 1 d 3 X 2 -1 d 3 -2 d 2 -3 d 3 -4 d 2 -5 d 3 -6 d 2 -6 d 3 -7 d 2 -7 d 3 -8 d 5 -15 d 5 -15 d 2 -8 d 3 -7 d 2 -7 d 2 -6 d 3 -6 d 2 -5 d 3 -5 d 2 -4 d 3 -4 d 2 -4 d 3 -3 d 2 -2 d 3 -2 d 2 -2 d 5 -4 d 5 -2 d 5 -1 d 5 -1 d 10 -1 d 10 X 20 -1 d
 159 X s 1 0 0 c[  ] 0 sd black 1 0 0 c 878 936 m cl s 878 936 m 20 -1 d 20 -1 d 20 -2 d 19 -1 d 20 -1 d 20 -1 d 20 X 20 -1 d 30 X 10 1 d 9 1 d 5 1 d 5 2 d 3 2 d 2 2 d 3 3 d 2 3 d 3 4 d 2 4 d 3 5 d 2 5 d 3 5 d 2 6 d 3 7 d 2 7 d 5 14 d 5 15 d 5 15 d 3
 8 d 2 6 d 2 7 d 3 5 d 2 5 d 3 4 d 2 3 d 3 2 d 2 1 d 3 X 2 -1 d 3 -3 d 2 -3 d 3 -4 d 2 -5 d 3 -6 d 2 -6 d 3 -7 d 5 -15 d 5 -16 d 5 -16 d 5 -14 d 2 -7 d 2 -7 d 3 -5 d 2 -6 d 3 -5 d 2 -4 d 3 -5 d 2 -3 d 3 -3 d 2 -3 d 3 -3 d 2 -2 d 5 -3 d 5 -2 d 5 -2 d
 5 -1 d 10 -2 d 10 -1 d 20 -1 d 20 -1 d 20 -1 d 19 -1 d 20 -2 d 20 -1 d 20 -1 d 20 -1 d 20 -1 d s black 6 lw 878 735 m 576 X s 997 750 m -15 Y s 1037 743 m -8 Y s 1077 743 m -8 Y s 1116 743 m -8 Y s 1156 743 m -8 Y s 1196 750 m -15 Y s 1235 743 m -8
 Y s 1275 743 m -8 Y s 1315 743 m -8 Y s 1354 743 m -8 Y s 1394 750 m -15 Y s 997 750 m -15 Y s 957 743 m -8 Y s 918 743 m -8 Y s 878 743 m -8 Y s 1394 750 m -15 Y s 1434 743 m -8 Y s 878 1219 m 576 X s 997 1204 m 15 Y s 1037 1211 m 8 Y s 1077 1211 m
 8 Y s 1116 1211 m 8 Y s 1156 1211 m 8 Y s 1196 1204 m 15 Y s 1235 1211 m 8 Y s 1275 1211 m 8 Y s 1315 1211 m 8 Y s 1354 1211 m 8 Y s 1394 1204 m 15 Y s 997 1204 m 15 Y s 957 1211 m 8 Y s 918 1211 m 8 Y s 878 1211 m 8 Y s 1394 1204 m 15 Y s 1434 1211
 m 8 Y s 878 735 m 484 Y s 895 735 m -17 X s 886 749 m -8 X s 886 762 m -8 X s 886 776 m -8 X s 886 789 m -8 X s 895 802 m -17 X s 886 816 m -8 X s 886 829 m -8 X s 886 842 m -8 X s 886 856 m -8 X s 895 869 m -17 X s 886 883 m -8 X s 886 896 m -8 X s
 886 909 m -8 X s 886 923 m -8 X s 895 936 m -17 X s 886 950 m -8 X s 886 963 m -8 X s 886 976 m -8 X s 886 990 m -8 X s 895 1003 m -17 X s 886 1016 m -8 X s 886 1030 m -8 X s 886 1043 m -8 X s 886 1057 m -8 X s 895 1070 m -17 X s 886 1083 m -8 X s
 886 1097 m -8 X s 886 1110 m -8 X s 886 1123 m -8 X s 895 1137 m -17 X s 886 1150 m -8 X s 886 1164 m -8 X s 886 1177 m -8 X s 886 1190 m -8 X s 895 1204 m -17 X s 895 1204 m -17 X s 886 1217 m -8 X s 1454 735 m 484 Y s 1437 735 m 17 X s 1445 749 m
 9 X s 1445 762 m 9 X s 1445 776 m 9 X s 1445 789 m 9 X s 1437 802 m 17 X s 1445 816 m 9 X s 1445 829 m 9 X s 1445 842 m 9 X s 1445 856 m 9 X s 1437 869 m 17 X s 1445 883 m 9 X s 1445 896 m 9 X s 1445 909 m 9 X s 1445 923 m 9 X s 1437 936 m 17 X s
 1445 950 m 9 X s 1445 963 m 9 X s 1445 976 m 9 X s 1445 990 m 9 X s 1437 1003 m 17 X s 1445 1016 m 9 X s 1445 1030 m 9 X s 1445 1043 m 9 X s 1445 1057 m 9 X s 1437 1070 m 17 X s 1445 1083 m 9 X s 1445 1097 m 9 X s 1445 1110 m 9 X s 1445 1123 m 9 X s
 1437 1137 m 17 X s 1445 1150 m 9 X s 1445 1164 m 9 X s 1445 1177 m 9 X s 1445 1190 m 9 X s 1437 1204 m 17 X s 1437 1204 m 17 X s 1445 1217 m 9 X s
 gsave  710 611 779 650 C 1069.39 788.771 t 0 r /Helvetica findfont 22.7926 sf 0 0 m ( = 5 TeV) show NC gr 
 gsave  710 611 779 650 C 1048.53 781.187 t 0 r /Helvetica findfont 15.1951 sf 0 0 m (NN) show NC gr 
 gsave  710 611 779 650 C 1037.16 788.771 t 0 r /Helvetica findfont 22.7926 sf 0 0 m (s) show NC gr  1028 802 m 3 -21 d s 0 lw 1031 781 m 4 29 d s 1035 810 m 34 X s
 gsave  710 611 779 650 C 919.601 788.771 t 0 r /Helvetica findfont 22.7926 sf 0 0 m (pPb\(Pwd\) ) show NC gr 
 gsave  710 611 779 650 C 919.601 824.797 t 0 r /Helvetica findfont 28.4907 sf 0 0 m (Preliminary) show NC gr 
 gsave  710 611 779 650 C 919.601 855.134 t 0 r /Helvetica findfont 28.4907 sf 0 0 m (LHCb) show NC gr 
 gsave  710 611 779 650 C 1211.6 834.277 t 0 r /Helvetica findfont 28.4907 sf 0 0 m (1.5< y <4.0) show NC gr 
 gsave  710 611 779 650 C 1287.44 803.94 t 0 r /Helvetica findfont 28.4907 sf 0 0 m ( < 3 GeV/c) show NC gr 
 gsave  710 611 779 650 C 1276.06 788.771 t 0 r /Helvetica findfont 18.9938 sf 0 0 m (T) show NC gr 
 gsave  710 611 779 650 C 1211.6 803.94 t 0 r /Helvetica findfont 28.4907 sf 0 0 m ( 2< p) show NC gr  6 lw 1 1 1 c 711 611 1534 650 bf black 1 1 1 c 576 484 1634 735 bf black 576 484 1634 735 bl 1 1 1 c 576 484 1634 735 bf black 576 484 1634 735 bl
 1634 735 m 576 X s
 gsave  711 611 1534 650 C 2201.35 665.526 t 0 r /Helvetica findfont 34.1889 sf 0 0 m (]) show NC gr 
 gsave  711 611 1534 650 C 2188.08 680.694 t 0 r /Helvetica findfont 22.7926 sf 0 0 m (2) show NC gr 
 gsave  711 611 1534 650 C 2072.42 665.526 t 0 r /Helvetica findfont 34.1889 sf 0 0 m ( [MeV/c) show NC gr 
 gsave  711 611 1534 650 C 2059.15 657.941 t 0 r /Symbol findfont 22.7926 sf 0 0 m (m) show NC gr 
 gsave  711 611 1534 650 C 2045.87 657.941 t 0 r /Symbol findfont 22.7926 sf 0 0 m (m) show NC gr 
 gsave  711 611 1534 650 C 2019.33 665.526 t 0 r /Helvetica findfont 34.1889 sf 0 0 m (m) show NC gr  1753 750 m -15 Y s 1793 743 m -8 Y s 1832 743 m -8 Y s 1872 743 m -8 Y s 1912 743 m -8 Y s 1952 750 m -15 Y s 1991 743 m -8 Y s 2031 743 m -8 Y s
 2071 743 m -8 Y s 2110 743 m -8 Y s 2150 750 m -15 Y s 1753 750 m -15 Y s 1713 743 m -8 Y s 1674 743 m -8 Y s 1634 743 m -8 Y s 2150 750 m -15 Y s 2190 743 m -8 Y s
 gsave  711 611 1534 650 C 1719.75 703.447 t 0 r /Helvetica findfont 28.4907 sf 0 0 m (3600) show NC gr 
 gsave  711 611 1534 650 C 1918.84 703.447 t 0 r /Helvetica findfont 28.4907 sf 0 0 m (3700) show NC gr 
 gsave  711 611 1534 650 C 2116.03 703.447 t 0 r /Helvetica findfont 28.4907 sf 0 0 m (3800) show NC gr  1634 1219 m 576 X s 1753 1204 m 15 Y s 1793 1211 m 8 Y s 1832 1211 m 8 Y s 1872 1211 m 8 Y s 1912 1211 m 8 Y s 1952 1204 m 15 Y s 1991 1211 m 8 Y
 s 2031 1211 m 8 Y s 2071 1211 m 8 Y s 2110 1211 m 8 Y s 2150 1204 m 15 Y s 1753 1204 m 15 Y s 1713 1211 m 8 Y s 1674 1211 m 8 Y s 1634 1211 m 8 Y s 2150 1204 m 15 Y s 2190 1211 m 8 Y s 1634 735 m 484 Y s
 gsave  711 611 1534 650 C 1577.54 1209.7 t 90 r /Helvetica findfont 34.1889 sf 0 0 m (\)) show NC gr 
 gsave  711 611 1534 650 C 1562.37 1196.43 t 90 r /Helvetica findfont 22.7926 sf 0 0 m (2) show NC gr 
 gsave  711 611 1534 650 C 1577.54 908.224 t 90 r /Helvetica findfont 34.1889 sf 0 0 m (Events / \(10 MeV/c) show NC gr  1651 735 m -17 X s 1642 750 m -8 X s 1642 764 m -8 X s 1642 778 m -8 X s 1642 792 m -8 X s 1651 807 m -17 X s 1642 821 m -8 X s
 1642 835 m -8 X s 1642 850 m -8 X s 1642 864 m -8 X s 1651 878 m -17 X s 1642 892 m -8 X s 1642 907 m -8 X s 1642 921 m -8 X s 1642 935 m -8 X s 1651 949 m -17 X s 1642 964 m -8 X s 1642 978 m -8 X s 1642 992 m -8 X s 1642 1006 m -8 X s 1651 1021 m
 -17 X s 1642 1035 m -8 X s 1642 1049 m -8 X s 1642 1063 m -8 X s 1642 1078 m -8 X s 1651 1092 m -17 X s 1642 1106 m -8 X s 1642 1121 m -8 X s 1642 1135 m -8 X s 1642 1149 m -8 X s 1651 1163 m -17 X s 1651 1163 m -17 X s 1642 1178 m -8 X s 1642 1192
 m -8 X s 1642 1206 m -8 X s
 gsave  711 611 1534 650 C 1613.57 724.304 t 0 r /Helvetica findfont 28.4907 sf 0 0 m (0) show NC gr 
 gsave  711 611 1534 650 C 1598.4 796.355 t 0 r /Helvetica findfont 28.4907 sf 0 0 m (10) show NC gr 
 gsave  711 611 1534 650 C 1598.4 868.406 t 0 r /Helvetica findfont 28.4907 sf 0 0 m (20) show NC gr 
 gsave  711 611 1534 650 C 1598.4 938.562 t 0 r /Helvetica findfont 28.4907 sf 0 0 m (30) show NC gr 
 gsave  711 611 1534 650 C 1598.4 1010.61 t 0 r /Helvetica findfont 28.4907 sf 0 0 m (40) show NC gr 
 gsave  711 611 1534 650 C 1598.4 1080.77 t 0 r /Helvetica findfont 28.4907 sf 0 0 m (50) show NC gr 
 gsave  711 611 1534 650 C 1598.4 1152.82 t 0 r /Helvetica findfont 28.4907 sf 0 0 m (60) show NC gr  2210 735 m 484 Y s 2193 735 m 17 X s 2201 750 m 9 X s 2201 764 m 9 X s 2201 778 m 9 X s 2201 792 m 9 X s 2193 807 m 17 X s 2201 821 m 9 X s 2201 835
 m 9 X s 2201 850 m 9 X s 2201 864 m 9 X s 2193 878 m 17 X s 2201 892 m 9 X s 2201 907 m 9 X s 2201 921 m 9 X s 2201 935 m 9 X s 2193 949 m 17 X s 2201 964 m 9 X s 2201 978 m 9 X s 2201 992 m 9 X s 2201 1006 m 9 X s 2193 1021 m 17 X s 2201 1035 m 9 X
 s 2201 1049 m 9 X s 2201 1063 m 9 X s 2201 1078 m 9 X s 2193 1092 m 17 X s 2201 1106 m 9 X s 2201 1121 m 9 X s 2201 1135 m 9 X s 2201 1149 m 9 X s 2193 1163 m 17 X s 2193 1163 m 17 X s 2201 1178 m 9 X s 2201 1192 m 9 X s 2201 1206 m 9 X s 1644 928 m
 -10 X s 1634 924 m 8 Y s 1644 928 m 10 X s 1654 924 m 8 Y s 1644 928 m 45 Y s 1640 973 m 8 X s 1644 928 m -37 Y s 1640 891 m 8 X s 1664 892 m -10 X s 1654 889 m 7 Y s 1664 892 m 10 X s 1674 889 m 7 Y s 1664 892 m 41 Y s 1660 933 m 8 X s 1664 892 m
 -33 Y s 1660 859 m 8 X s 1684 885 m -10 X s 1674 881 m 8 Y s 1684 885 m 10 X s 1694 881 m 8 Y s 1684 885 m 41 Y s 1680 926 m 7 X s 1684 885 m -32 Y s 1680 853 m 7 X s 1703 921 m -9 X s 1694 917 m 8 Y s 1703 921 m 10 X s 1713 917 m 8 Y s 1703 921 m
 44 Y s 1700 965 m 7 X s 1703 921 m -36 Y s 1700 885 m 7 X s 1723 914 m -10 X s 1713 910 m 8 Y s 1723 914 m 10 X s 1733 910 m 8 Y s 1723 914 m 43 Y s 1719 957 m 8 X s 1723 914 m -36 Y s 1719 878 m 8 X s 1743 949 m -10 X s 1733 946 m 7 Y s 1743 949 m
 10 X s 1753 946 m 7 Y s 1743 949 m 47 Y s 1739 996 m 8 X s 1743 949 m -38 Y s 1739 911 m 8 X s 1763 914 m -10 X s 1753 910 m 8 Y s 1763 914 m 10 X s 1773 910 m 8 Y s 1763 914 m 43 Y s 1759 957 m 8 X s 1763 914 m -36 Y s 1759 878 m 8 X s 1783 928 m
 -10 X s 1773 924 m 8 Y s 1783 928 m 10 X s 1793 924 m 8 Y s 1783 928 m 45 Y s 1779 973 m 8 X s 1783 928 m -37 Y s 1779 891 m 8 X s 1803 921 m -10 X s 1793 917 m 8 Y s 1803 921 m 10 X s 1813 917 m 8 Y s 1803 921 m 44 Y s 1799 965 m 7 X s 1803 921 m
 -36 Y s 1799 885 m 7 X s 1823 864 m -10 X s 1813 860 m 8 Y s 1823 864 m 9 X s 1832 860 m 8 Y s 1823 864 m 38 Y s 1819 902 m 7 X s 1823 864 m -30 Y s 1819 834 m 7 X s 1842 942 m -10 X s 1832 938 m 8 Y s 1842 942 m 10 X s 1852 938 m 8 Y s 1842 942 m
 46 Y s 1839 988 m 7 X s 1842 942 m -38 Y s 1839 904 m 7 X s 1862 971 m -10 X s 1852 967 m 8 Y s 1862 971 m 10 X s 1872 967 m 8 Y s 1862 971 m 48 Y s 1858 1019 m 8 X s 1862 971 m -41 Y s 1858 930 m 8 X s 1882 949 m -10 X s 1872 946 m 7 Y s 1882 949 m
 10 X s 1892 946 m 7 Y s 1882 949 m 47 Y s 1878 996 m 8 X s 1882 949 m -38 Y s 1878 911 m 8 X s 1902 1014 m -10 X s 1892 1010 m 7 Y s 1902 1014 m 10 X s 1912 1010 m 7 Y s 1902 1014 m 52 Y s 1898 1066 m 8 X s 1902 1014 m -45 Y s 1898 969 m 8 X s 1922
 1085 m -10 X s 1912 1081 m 8 Y s 1922 1085 m 10 X s 1932 1081 m 8 Y s 1922 1085 m 57 Y s 1918 1142 m 8 X s 1922 1085 m -50 Y s 1918 1035 m 8 X s 1942 1135 m -10 X s 1932 1131 m 8 Y s 1942 1135 m 10 X s 1952 1131 m 8 Y s 1942 1135 m 61 Y s 1938 1196
 m 7 X s 1942 1135 m -53 Y s 1938 1082 m 7 X s 1961 978 m -9 X s 1952 974 m 8 Y s 1961 978 m 10 X s 1971 974 m 8 Y s 1961 978 m 49 Y s 1958 1027 m 7 X s 1961 978 m -41 Y s 1958 937 m 7 X s 1981 914 m -10 X s 1971 910 m 8 Y s 1981 914 m 10 X s 1991
 910 m 8 Y s 1981 914 m 43 Y s 1977 957 m 8 X s 1981 914 m -36 Y s 1977 878 m 8 X s 2001 921 m -10 X s 1991 917 m 8 Y s 2001 921 m 10 X s 2011 917 m 8 Y s 2001 921 m 44 Y s 1997 965 m 8 X s 2001 921 m -36 Y s 1997 885 m 8 X s 2021 899 m -10 X s 2011
 896 m 7 Y s 2021 899 m 10 X s 2031 896 m 7 Y s 2021 899 m 42 Y s 2017 941 m 8 X s 2021 899 m -33 Y s 2017 866 m 8 X s 2041 942 m -10 X s 2031 938 m 8 Y s 2041 942 m 10 X s 2051 938 m 8 Y s 2041 942 m 46 Y s 2037 988 m 8 X s 2041 942 m -38 Y s 2037
 904 m 8 X s 2061 921 m -10 X s 2051 917 m 8 Y s 2061 921 m 10 X s 2071 917 m 8 Y s 2061 921 m 44 Y s 2057 965 m 7 X s 2061 921 m -36 Y s 2057 885 m 7 X s 2081 907 m -10 X s 2071 903 m 7 Y s 2081 907 m 9 X s 2090 903 m 7 Y s 2081 907 m 42 Y s 2077
 949 m 7 X s 2081 907 m -35 Y s 2077 872 m 7 X s 2100 885 m -10 X s 2090 881 m 8 Y s 2100 885 m 10 X s 2110 881 m 8 Y s 2100 885 m 41 Y s 2097 926 m 7 X s 2100 885 m -32 Y s 2097 853 m 7 X s 2120 942 m -10 X s 2110 938 m 8 Y s 2120 942 m 10 X s 2130
 938 m 8 Y s 2120 942 m 46 Y s 2116 988 m 8 X s 2120 942 m -38 Y s 2116 904 m 8 X s 2140 914 m -10 X s 2130 910 m 8 Y s 2140 914 m 10 X s 2150 910 m 8 Y s 2140 914 m 43 Y s 2136 957 m 8 X s 2140 914 m -36 Y s 2136 878 m 8 X s 2160 821 m -10 X s 2150
 817 m 8 Y s 2160 821 m 10 X s 2170 817 m 8 Y s 2160 821 m 33 Y s 2156 854 m 8 X s 2160 821 m -24 Y s 2156 797 m 8 X s 2180 935 m -10 X s 2170 931 m 8 Y s 2180 935 m 10 X s 2190 931 m 8 Y s 2180 935 m 45 Y s 2176 980 m 8 X s 2180 935 m -37 Y s 2176
 898 m 8 X s 2200 899 m -10 X s 2190 896 m 7 Y s 2200 899 m 10 X s 2210 896 m 7 Y s 2200 899 m 42 Y s 2196 941 m 7 X s 2200 899 m -33 Y s 2196 866 m 7 X s 3 lw /w 16 def /w2 {w 2 div} def /w3 {w 3 div} def 1644 928 1664 892 1684 885 1703 921 1723 914
 1743 949 1763 914 1783 928 1803 921 1823 864 1842 942 1862 971 1882 949 1902 1014 1922 1085 1942 1135 1961 978 1981 914 2001 921 2021 899 2041 942 2061 921 2081 907 2100 885 2120 942 2140 914 2160 821 2180 935 2200 899 29 { m20} R 6 lw 0 1 0 c[ 4 8]
 0 sd 9 lw black 0 1 0 c 1634 914 m cl s 1634 914 m 40 X 20 -1 d 19 X 20 -1 d 40 X 20 -1 d 20 X 19 -1 d 40 X 20 -1 d 20 X 20 -1 d 39 X 20 -1 d 40 X 20 -1 d 20 X 19 -1 d 40 X 20 -1 d 20 X 20 -1 d 20 X s 0 0 1 c[ 12 12] 0 sd black 0 0 1 c 1634 737 m cl
 s 1634 737 m 99 X 20 1 d 20 X 20 1 d 20 1 d 10 1 d 9 1 d 10 2 d 5 2 d 5 2 d 3 1 d 2 2 d 3 3 d 2 3 d 3 4 d 2 4 d 3 4 d 2 5 d 3 6 d 2 6 d 3 6 d 2 7 d 3 7 d 2 8 d 5 16 d 10 33 d 2 8 d 3 8 d 2 6 d 3 7 d 2 5 d 3 5 d 2 4 d 3 3 d 2 2 d 3 1 d 2 X 3 -2 d 2
 -2 d 3 -3 d 2 -4 d 3 -6 d 2 -5 d 3 -7 d 2 -7 d 3 -8 d 4 -16 d 5 -17 d 5 -16 d 5 -15 d 3 -7 d 2 -7 d 3 -6 d 2 -6 d 3 -6 d 2 -4 d 3 -5 d 2 -4 d 3 -3 d 2 -3 d 3 -3 d 2 -2 d 5 -4 d 5 -3 d 5 -2 d 5 -1 d 10 -2 d 20 X 20 -1 d 139 X s 1 0 0 c[  ] 0 sd black
 1 0 0 c 1634 916 m cl s 1634 916 m 20 -1 d 59 X 20 -1 d 40 X 20 1 d 20 X 10 1 d 9 1 d 10 2 d 5 1 d 5 3 d 3 1 d 2 2 d 3 2 d 2 3 d 3 4 d 2 4 d 3 5 d 2 5 d 3 5 d 2 6 d 3 6 d 2 7 d 5 15 d 5 16 d 10 33 d 2 8 d 3 7 d 2 7 d 3 6 d 2 6 d 3 5 d 2 3 d 3 3 d 2
 2 d 3 1 d 2 X 3 -2 d 2 -2 d 3 -3 d 2 -5 d 3 -5 d 2 -6 d 3 -6 d 2 -8 d 3 -7 d 4 -16 d 5 -17 d 5 -17 d 5 -15 d 3 -7 d 2 -7 d 3 -6 d 2 -6 d 3 -6 d 2 -4 d 3 -5 d 2 -4 d 3 -3 d 2 -4 d 5 -5 d 5 -4 d 5 -2 d 5 -2 d 5 -2 d 10 -2 d 10 X 10 -1 d 20 X 19 -1 d
 40 X 20 -1 d 20 X 20 -1 d 20 X s black 6 lw 1634 735 m 576 X s 1753 750 m -15 Y s 1793 743 m -8 Y s 1832 743 m -8 Y s 1872 743 m -8 Y s 1912 743 m -8 Y s 1952 750 m -15 Y s 1991 743 m -8 Y s 2031 743 m -8 Y s 2071 743 m -8 Y s 2110 743 m -8 Y s 2150
 750 m -15 Y s 1753 750 m -15 Y s 1713 743 m -8 Y s 1674 743 m -8 Y s 1634 743 m -8 Y s 2150 750 m -15 Y s 2190 743 m -8 Y s 1634 1219 m 576 X s 1753 1204 m 15 Y s 1793 1211 m 8 Y s 1832 1211 m 8 Y s 1872 1211 m 8 Y s 1912 1211 m 8 Y s 1952 1204 m 15
 Y s 1991 1211 m 8 Y s 2031 1211 m 8 Y s 2071 1211 m 8 Y s 2110 1211 m 8 Y s 2150 1204 m 15 Y s 1753 1204 m 15 Y s 1713 1211 m 8 Y s 1674 1211 m 8 Y s 1634 1211 m 8 Y s 2150 1204 m 15 Y s 2190 1211 m 8 Y s 1634 735 m 484 Y s 1651 735 m -17 X s 1642
 750 m -8 X s 1642 764 m -8 X s 1642 778 m -8 X s 1642 792 m -8 X s 1651 807 m -17 X s 1642 821 m -8 X s 1642 835 m -8 X s 1642 850 m -8 X s 1642 864 m -8 X s 1651 878 m -17 X s 1642 892 m -8 X s 1642 907 m -8 X s 1642 921 m -8 X s 1642 935 m -8 X s
 1651 949 m -17 X s 1642 964 m -8 X s 1642 978 m -8 X s 1642 992 m -8 X s 1642 1006 m -8 X s 1651 1021 m -17 X s 1642 1035 m -8 X s 1642 1049 m -8 X s 1642 1063 m -8 X s 1642 1078 m -8 X s 1651 1092 m -17 X s 1642 1106 m -8 X s 1642 1121 m -8 X s
 1642 1135 m -8 X s 1642 1149 m -8 X s 1651 1163 m -17 X s 1651 1163 m -17 X s 1642 1178 m -8 X s 1642 1192 m -8 X s 1642 1206 m -8 X s 2210 735 m 484 Y s 2193 735 m 17 X s 2201 750 m 9 X s 2201 764 m 9 X s 2201 778 m 9 X s 2201 792 m 9 X s 2193 807
 m 17 X s 2201 821 m 9 X s 2201 835 m 9 X s 2201 850 m 9 X s 2201 864 m 9 X s 2193 878 m 17 X s 2201 892 m 9 X s 2201 907 m 9 X s 2201 921 m 9 X s 2201 935 m 9 X s 2193 949 m 17 X s 2201 964 m 9 X s 2201 978 m 9 X s 2201 992 m 9 X s 2201 1006 m 9 X s
 2193 1021 m 17 X s 2201 1035 m 9 X s 2201 1049 m 9 X s 2201 1063 m 9 X s 2201 1078 m 9 X s 2193 1092 m 17 X s 2201 1106 m 9 X s 2201 1121 m 9 X s 2201 1135 m 9 X s 2201 1149 m 9 X s 2193 1163 m 17 X s 2193 1163 m 17 X s 2201 1178 m 9 X s 2201 1192 m
 9 X s 2201 1206 m 9 X s
 gsave  711 611 1534 650 C 1825.93 788.771 t 0 r /Helvetica findfont 22.7926 sf 0 0 m ( = 5 TeV) show NC gr 
 gsave  711 611 1534 650 C 1805.07 781.187 t 0 r /Helvetica findfont 15.1951 sf 0 0 m (NN) show NC gr 
 gsave  711 611 1534 650 C 1793.7 788.771 t 0 r /Helvetica findfont 22.7926 sf 0 0 m (s) show NC gr  1784 802 m 4 -21 d s 0 lw 1788 781 m 4 29 d s 1792 810 m 34 X s
 gsave  711 611 1534 650 C 1676.14 788.771 t 0 r /Helvetica findfont 22.7926 sf 0 0 m (pPb\(Pwd\) ) show NC gr 
 gsave  711 611 1534 650 C 1676.14 824.797 t 0 r /Helvetica findfont 28.4907 sf 0 0 m (Preliminary) show NC gr 
 gsave  711 611 1534 650 C 1676.14 855.134 t 0 r /Helvetica findfont 28.4907 sf 0 0 m (LHCb) show NC gr 
 gsave  711 611 1534 650 C 1966.24 834.277 t 0 r /Helvetica findfont 28.4907 sf 0 0 m (1.5< y <4.0) show NC gr 
 gsave  711 611 1534 650 C 2042.08 803.94 t 0 r /Helvetica findfont 28.4907 sf 0 0 m ( < 5 GeV/c) show NC gr 
 gsave  711 611 1534 650 C 2030.71 788.771 t 0 r /Helvetica findfont 18.9938 sf 0 0 m (T) show NC gr 
 gsave  711 611 1534 650 C 1966.24 803.94 t 0 r /Helvetica findfont 28.4907 sf 0 0 m ( 3< p) show NC gr  6 lw 1 1 1 c 710 611 23 13 bf black 1 1 1 c 576 484 122 98 bf black 576 484 122 98 bl 1 1 1 c 576 484 122 98 bf black 576 484 122 98 bl 122 98 m
 576 X s
 gsave  710 611 23 13 C 688.279 28.4413 t 0 r /Helvetica findfont 34.1889 sf 0 0 m (]) show NC gr 
 gsave  710 611 23 13 C 675.006 43.6099 t 0 r /Helvetica findfont 22.7926 sf 0 0 m (2) show NC gr 
 gsave  710 611 23 13 C 559.345 28.4413 t 0 r /Helvetica findfont 34.1889 sf 0 0 m ( [MeV/c) show NC gr 
 gsave  710 611 23 13 C 546.072 20.8569 t 0 r /Symbol findfont 22.7926 sf 0 0 m (m) show NC gr 
 gsave  710 611 23 13 C 532.8 20.8569 t 0 r /Symbol findfont 22.7926 sf 0 0 m (m) show NC gr 
 gsave  710 611 23 13 C 506.254 28.4413 t 0 r /Helvetica findfont 34.1889 sf 0 0 m (m) show NC gr  241 113 m -15 Y s 281 106 m -8 Y s 321 106 m -8 Y s 360 106 m -8 Y s 400 106 m -8 Y s 440 113 m -15 Y s 479 106 m -8 Y s 519 106 m -8 Y s 559 106 m -8
 Y s 598 106 m -8 Y s 638 113 m -15 Y s 241 113 m -15 Y s 202 106 m -8 Y s 162 106 m -8 Y s 122 106 m -8 Y s 638 113 m -15 Y s 678 106 m -8 Y s
 gsave  710 611 23 13 C 208.569 66.3629 t 0 r /Helvetica findfont 28.4907 sf 0 0 m (3600) show NC gr 
 gsave  710 611 23 13 C 405.762 66.3629 t 0 r /Helvetica findfont 28.4907 sf 0 0 m (3700) show NC gr 
 gsave  710 611 23 13 C 604.851 66.3629 t 0 r /Helvetica findfont 28.4907 sf 0 0 m (3800) show NC gr  122 582 m 576 X s 241 567 m 15 Y s 281 574 m 8 Y s 321 574 m 8 Y s 360 574 m 8 Y s 400 574 m 8 Y s 440 567 m 15 Y s 479 574 m 8 Y s 519 574 m 8 Y s
 559 574 m 8 Y s 598 574 m 8 Y s 638 567 m 15 Y s 241 567 m 15 Y s 202 574 m 8 Y s 162 574 m 8 Y s 122 574 m 8 Y s 638 567 m 15 Y s 678 574 m 8 Y s 122 98 m 484 Y s
 gsave  710 611 23 13 C 66.3629 572.617 t 90 r /Helvetica findfont 34.1889 sf 0 0 m (\)) show NC gr 
 gsave  710 611 23 13 C 51.1943 559.345 t 90 r /Helvetica findfont 22.7926 sf 0 0 m (2) show NC gr 
 gsave  710 611 23 13 C 66.3629 271.14 t 90 r /Helvetica findfont 34.1889 sf 0 0 m (Events / \(10 MeV/c) show NC gr  139 98 m -17 X s 131 112 m -9 X s 131 125 m -9 X s 131 139 m -9 X s 131 152 m -9 X s 139 165 m -17 X s 131 179 m -9 X s 131 192 m -9
 X s 131 206 m -9 X s 131 219 m -9 X s 139 232 m -17 X s 131 246 m -9 X s 131 259 m -9 X s 131 272 m -9 X s 131 286 m -9 X s 139 299 m -17 X s 131 313 m -9 X s 131 326 m -9 X s 131 339 m -9 X s 131 353 m -9 X s 139 366 m -17 X s 131 380 m -9 X s 131
 393 m -9 X s 131 406 m -9 X s 131 420 m -9 X s 139 433 m -17 X s 131 447 m -9 X s 131 460 m -9 X s 131 473 m -9 X s 131 487 m -9 X s 139 500 m -17 X s 131 514 m -9 X s 131 527 m -9 X s 131 540 m -9 X s 131 554 m -9 X s 139 567 m -17 X s 139 567 m
 -17 X s 131 581 m -9 X s
 gsave  710 611 23 13 C 102.389 87.2199 t 0 r /Helvetica findfont 28.4907 sf 0 0 m (0) show NC gr 
 gsave  710 611 23 13 C 102.389 155.479 t 0 r /Helvetica findfont 28.4907 sf 0 0 m (5) show NC gr 
 gsave  710 611 23 13 C 87.2199 221.842 t 0 r /Helvetica findfont 28.4907 sf 0 0 m (10) show NC gr 
 gsave  710 611 23 13 C 85.3238 288.205 t 0 r /Helvetica findfont 28.4907 sf 0 0 m (15) show NC gr 
 gsave  710 611 23 13 C 87.2199 356.464 t 0 r /Helvetica findfont 28.4907 sf 0 0 m (20) show NC gr 
 gsave  710 611 23 13 C 85.3238 422.827 t 0 r /Helvetica findfont 28.4907 sf 0 0 m (25) show NC gr 
 gsave  710 611 23 13 C 87.2199 489.19 t 0 r /Helvetica findfont 28.4907 sf 0 0 m (30) show NC gr 
 gsave  710 611 23 13 C 85.3238 557.449 t 0 r /Helvetica findfont 28.4907 sf 0 0 m (35) show NC gr  698 98 m 484 Y s 681 98 m 17 X s 689 112 m 9 X s 689 125 m 9 X s 689 139 m 9 X s 689 152 m 9 X s 681 165 m 17 X s 689 179 m 9 X s 689 192 m 9 X s 689
 206 m 9 X s 689 219 m 9 X s 681 232 m 17 X s 689 246 m 9 X s 689 259 m 9 X s 689 272 m 9 X s 689 286 m 9 X s 681 299 m 17 X s 689 313 m 9 X s 689 326 m 9 X s 689 339 m 9 X s 689 353 m 9 X s 681 366 m 17 X s 689 380 m 9 X s 689 393 m 9 X s 689 406 m
 9 X s 689 420 m 9 X s 681 433 m 17 X s 689 447 m 9 X s 689 460 m 9 X s 689 473 m 9 X s 689 487 m 9 X s 681 500 m 17 X s 689 514 m 9 X s 689 527 m 9 X s 689 540 m 9 X s 689 554 m 9 X s 681 567 m 17 X s 681 567 m 17 X s 689 581 m 9 X s 132 179 m -10 X
 s 122 175 m 8 Y s 132 179 m 10 X s 142 175 m 8 Y s 132 179 m 48 Y s 128 227 m 8 X s 132 179 m -32 Y s 128 147 m 8 X s 152 165 m -10 X s 142 162 m 7 Y s 152 165 m 10 X s 162 162 m 7 Y s 152 165 m 46 Y s 148 211 m 8 X s 152 165 m -29 Y s 148 136 m 8 X
 s 172 125 m -10 X s 162 121 m 8 Y s 172 125 m 10 X s 182 121 m 8 Y s 172 125 m 35 Y s 168 160 m 8 X s 172 125 m -17 Y s 168 108 m 8 X s 192 179 m -10 X s 182 175 m 8 Y s 192 179 m 10 X s 202 175 m 8 Y s 192 179 m 48 Y s 188 227 m 7 X s 192 179 m -32
 Y s 188 147 m 7 X s 211 219 m -9 X s 202 215 m 8 Y s 211 219 m 10 X s 221 215 m 8 Y s 211 219 m 55 Y s 208 274 m 7 X s 211 219 m -40 Y s 208 179 m 7 X s 231 139 m -10 X s 221 135 m 7 Y s 231 139 m 10 X s 241 135 m 7 Y s 231 139 m 39 Y s 228 178 m 7
 X s 231 139 m -22 Y s 228 117 m 7 X s 251 179 m -10 X s 241 175 m 8 Y s 251 179 m 10 X s 261 175 m 8 Y s 251 179 m 48 Y s 247 227 m 8 X s 251 179 m -32 Y s 247 147 m 8 X s 271 112 m -10 X s 261 108 m 8 Y s 271 112 m 10 X s 281 108 m 8 Y s 271 112 m
 31 Y s 267 143 m 8 X s 271 112 m -11 Y s 267 101 m 8 X s 291 152 m -10 X s 281 148 m 8 Y s 291 152 m 10 X s 301 148 m 8 Y s 291 152 m 42 Y s 287 194 m 8 X s 291 152 m -26 Y s 287 126 m 8 X s 311 165 m -10 X s 301 162 m 7 Y s 311 165 m 10 X s 321 162
 m 7 Y s 311 165 m 46 Y s 307 211 m 7 X s 311 165 m -29 Y s 307 136 m 7 X s 331 192 m -10 X s 321 188 m 8 Y s 331 192 m 9 X s 340 188 m 8 Y s 331 192 m 51 Y s 327 243 m 7 X s 331 192 m -34 Y s 327 158 m 7 X s 350 192 m -10 X s 340 188 m 8 Y s 350 192
 m 10 X s 360 188 m 8 Y s 350 192 m 51 Y s 347 243 m 7 X s 350 192 m -34 Y s 347 158 m 7 X s 370 259 m -10 X s 360 255 m 8 Y s 370 259 m 10 X s 380 255 m 8 Y s 370 259 m 61 Y s 366 320 m 8 X s 370 259 m -46 Y s 366 213 m 8 X s 390 353 m -10 X s 380
 349 m 8 Y s 390 353 m 10 X s 400 349 m 8 Y s 390 353 m 73 Y s 386 426 m 8 X s 390 353 m -58 Y s 386 295 m 8 X s 410 473 m -10 X s 400 470 m 7 Y s 410 473 m 10 X s 420 470 m 7 Y s 410 473 m 86 Y s 406 559 m 8 X s 410 473 m -70 Y s 406 403 m 8 X s 430
 272 m -10 X s 420 269 m 7 Y s 430 272 m 10 X s 440 269 m 7 Y s 430 272 m 63 Y s 426 335 m 8 X s 430 272 m -47 Y s 426 225 m 8 X s 450 326 m -10 X s 440 322 m 8 Y s 450 326 m 10 X s 460 322 m 8 Y s 450 326 m 70 Y s 446 396 m 7 X s 450 326 m -55 Y s
 446 271 m 7 X s 469 179 m -9 X s 460 175 m 8 Y s 469 179 m 10 X s 479 175 m 8 Y s 469 179 m 48 Y s 466 227 m 7 X s 469 179 m -32 Y s 466 147 m 7 X s 489 192 m -10 X s 479 188 m 8 Y s 489 192 m 10 X s 499 188 m 8 Y s 489 192 m 51 Y s 486 243 m 7 X s
 489 192 m -34 Y s 486 158 m 7 X s 509 192 m -10 X s 499 188 m 8 Y s 509 192 m 10 X s 519 188 m 8 Y s 509 192 m 51 Y s 505 243 m 8 X s 509 192 m -34 Y s 505 158 m 8 X s 529 152 m -10 X s 519 148 m 8 Y s 529 152 m 10 X s 539 148 m 8 Y s 529 152 m 42 Y
 s 525 194 m 8 X s 529 152 m -26 Y s 525 126 m 8 X s 549 152 m -10 X s 539 148 m 8 Y s 549 152 m 10 X s 559 148 m 8 Y s 549 152 m 42 Y s 545 194 m 8 X s 549 152 m -26 Y s 545 126 m 8 X s 569 165 m -10 X s 559 162 m 7 Y s 569 165 m 10 X s 579 162 m 7
 Y s 569 165 m 46 Y s 565 211 m 7 X s 569 165 m -29 Y s 565 136 m 7 X s 589 192 m -10 X s 579 188 m 8 Y s 589 192 m 9 X s 598 188 m 8 Y s 589 192 m 51 Y s 585 243 m 7 X s 589 192 m -34 Y s 585 158 m 7 X s 608 219 m -10 X s 598 215 m 8 Y s 608 219 m
 10 X s 618 215 m 8 Y s 608 219 m 55 Y s 605 274 m 7 X s 608 219 m -40 Y s 605 179 m 7 X s 628 139 m -10 X s 618 135 m 7 Y s 628 139 m 10 X s 638 135 m 7 Y s 628 139 m 39 Y s 624 178 m 8 X s 628 139 m -22 Y s 624 117 m 8 X s 648 232 m -10 X s 638 229
 m 7 Y s 648 232 m 10 X s 658 229 m 7 Y s 648 232 m 57 Y s 644 289 m 8 X s 648 232 m -41 Y s 644 191 m 8 X s 668 112 m -10 X s 658 108 m 8 Y s 668 112 m 10 X s 678 108 m 8 Y s 668 112 m 31 Y s 664 143 m 8 X s 668 112 m -11 Y s 664 101 m 8 X s 688 139
 m -10 X s 678 135 m 7 Y s 688 139 m 10 X s 698 135 m 7 Y s 688 139 m 39 Y s 684 178 m 8 X s 688 139 m -22 Y s 684 117 m 8 X s 3 lw /w 15 def /w2 {w 2 div} def /w3 {w 3 div} def 132 179 152 165 172 125 192 179 211 219 231 139 251 179 271 112 291 152
 311 165 331 192 350 192 370 259 390 353 410 473 430 272 450 326 469 179 489 192 509 192 529 152 549 152 569 165 589 192 608 219 628 139 648 232 668 112 688 139 29 { m20} R 6 lw 0 1 0 c[ 4 8] 0 sd 9 lw black 0 1 0 c 122 159 m cl s 122 159 m 20 1 d 60
 X 19 1 d 40 X 20 1 d 40 X 19 1 d 60 X 20 1 d 40 X 19 1 d 40 X 20 1 d 40 X 19 1 d 40 X 20 1 d 40 X s 0 0 1 c[ 12 12] 0 sd black 0 0 1 c 122 100 m cl s 122 100 m 40 X 20 1 d 39 X 20 1 d 20 X 20 1 d 20 2 d 10 2 d 10 2 d 5 2 d 5 2 d 5 3 d 2 3 d 2 3 d 3
 4 d 2 4 d 3 5 d 2 5 d 3 6 d 2 7 d 3 7 d 2 7 d 3 8 d 2 9 d 5 18 d 5 19 d 5 20 d 5 20 d 5 18 d 3 9 d 2 8 d 3 7 d 2 6 d 2 5 d 3 4 d 2 3 d 3 2 d 2 1 d 3 -1 d 2 -2 d 3 -3 d 2 -4 d 3 -5 d 2 -6 d 3 -7 d 2 -8 d 3 -8 d 5 -19 d 10 -39 d 5 -20 d 5 -18 d 2 -9 d
 3 -8 d 2 -7 d 2 -7 d 3 -7 d 2 -6 d 3 -5 d 2 -5 d 3 -4 d 2 -4 d 5 -7 d 5 -5 d 5 -3 d 5 -3 d 5 -2 d 10 -2 d 10 -1 d 10 X 20 -1 d 139 X s 1 0 0 c[  ] 0 sd black 1 0 0 c 122 161 m cl s 122 161 m 20 X 20 1 d 20 X 20 1 d 19 1 d 20 X 20 1 d 20 2 d 20 2 d
 10 1 d 10 3 d 5 2 d 5 2 d 5 4 d 2 2 d 2 3 d 3 4 d 2 4 d 3 5 d 2 6 d 3 6 d 2 6 d 3 7 d 2 8 d 3 8 d 2 8 d 5 18 d 5 20 d 5 20 d 5 20 d 5 18 d 3 9 d 2 8 d 3 7 d 2 6 d 2 5 d 3 4 d 2 3 d 3 2 d 2 1 d 3 -1 d 2 -1 d 3 -3 d 2 -4 d 3 -5 d 2 -6 d 3 -7 d 2 -8 d
 3 -9 d 5 -18 d 10 -40 d 5 -19 d 5 -18 d 2 -9 d 3 -8 d 2 -7 d 2 -7 d 3 -6 d 2 -6 d 3 -6 d 2 -4 d 3 -5 d 2 -4 d 5 -6 d 5 -5 d 5 -4 d 5 -2 d 5 -2 d 10 -2 d 10 -1 d 50 X 19 1 d 40 X 20 1 d 40 X s black 6 lw 122 98 m 576 X s 241 113 m -15 Y s 281 106 m
 -8 Y s 321 106 m -8 Y s 360 106 m -8 Y s 400 106 m -8 Y s 440 113 m -15 Y s 479 106 m -8 Y s 519 106 m -8 Y s 559 106 m -8 Y s 598 106 m -8 Y s 638 113 m -15 Y s 241 113 m -15 Y s 202 106 m -8 Y s 162 106 m -8 Y s 122 106 m -8 Y s 638 113 m -15 Y s
 678 106 m -8 Y s 122 582 m 576 X s 241 567 m 15 Y s 281 574 m 8 Y s 321 574 m 8 Y s 360 574 m 8 Y s 400 574 m 8 Y s 440 567 m 15 Y s 479 574 m 8 Y s 519 574 m 8 Y s 559 574 m 8 Y s 598 574 m 8 Y s 638 567 m 15 Y s 241 567 m 15 Y s 202 574 m 8 Y s
 162 574 m 8 Y s 122 574 m 8 Y s 638 567 m 15 Y s 678 574 m 8 Y s 122 98 m 484 Y s 139 98 m -17 X s 131 112 m -9 X s 131 125 m -9 X s 131 139 m -9 X s 131 152 m -9 X s 139 165 m -17 X s 131 179 m -9 X s 131 192 m -9 X s 131 206 m -9 X s 131 219 m -9
 X s 139 232 m -17 X s 131 246 m -9 X s 131 259 m -9 X s 131 272 m -9 X s 131 286 m -9 X s 139 299 m -17 X s 131 313 m -9 X s 131 326 m -9 X s 131 339 m -9 X s 131 353 m -9 X s 139 366 m -17 X s 131 380 m -9 X s 131 393 m -9 X s 131 406 m -9 X s 131
 420 m -9 X s 139 433 m -17 X s 131 447 m -9 X s 131 460 m -9 X s 131 473 m -9 X s 131 487 m -9 X s 139 500 m -17 X s 131 514 m -9 X s 131 527 m -9 X s 131 540 m -9 X s 131 554 m -9 X s 139 567 m -17 X s 139 567 m -17 X s 131 581 m -9 X s 698 98 m
 484 Y s 681 98 m 17 X s 689 112 m 9 X s 689 125 m 9 X s 689 139 m 9 X s 689 152 m 9 X s 681 165 m 17 X s 689 179 m 9 X s 689 192 m 9 X s 689 206 m 9 X s 689 219 m 9 X s 681 232 m 17 X s 689 246 m 9 X s 689 259 m 9 X s 689 272 m 9 X s 689 286 m 9 X s
 681 299 m 17 X s 689 313 m 9 X s 689 326 m 9 X s 689 339 m 9 X s 689 353 m 9 X s 681 366 m 17 X s 689 380 m 9 X s 689 393 m 9 X s 689 406 m 9 X s 689 420 m 9 X s 681 433 m 17 X s 689 447 m 9 X s 689 460 m 9 X s 689 473 m 9 X s 689 487 m 9 X s 681
 500 m 17 X s 689 514 m 9 X s 689 527 m 9 X s 689 540 m 9 X s 689 554 m 9 X s 681 567 m 17 X s 681 567 m 17 X s 689 581 m 9 X s
 gsave  710 611 23 13 C 312.854 426.619 t 0 r /Helvetica findfont 22.7926 sf 0 0 m ( = 5 TeV) show NC gr 
 gsave  710 611 23 13 C 291.997 419.035 t 0 r /Helvetica findfont 15.1951 sf 0 0 m (NN) show NC gr 
 gsave  710 611 23 13 C 280.62 426.619 t 0 r /Helvetica findfont 22.7926 sf 0 0 m (s) show NC gr  271 440 m 4 -21 d s 0 lw 275 419 m 4 28 d s 279 447 m 34 X s
 gsave  710 611 23 13 C 163.063 426.619 t 0 r /Helvetica findfont 22.7926 sf 0 0 m (pPb\(Pwd\) ) show NC gr 
 gsave  710 611 23 13 C 163.063 462.645 t 0 r /Helvetica findfont 28.4907 sf 0 0 m (Preliminary) show NC gr 
 gsave  710 611 23 13 C 163.063 492.982 t 0 r /Helvetica findfont 28.4907 sf 0 0 m (LHCb) show NC gr 
 gsave  710 611 23 13 C 455.06 472.125 t 0 r /Helvetica findfont 28.4907 sf 0 0 m (1.5< y <4.0) show NC gr 
 gsave  710 611 23 13 C 530.904 441.788 t 0 r /Helvetica findfont 28.4907 sf 0 0 m ( < 7 GeV/c) show NC gr 
 gsave  710 611 23 13 C 519.527 426.619 t 0 r /Helvetica findfont 18.9938 sf 0 0 m (T) show NC gr 
 gsave  710 611 23 13 C 455.06 441.788 t 0 r /Helvetica findfont 28.4907 sf 0 0 m ( 5< p) show NC gr  6 lw 1 1 1 c 710 611 779 13 bf black 1 1 1 c 576 484 878 98 bf black 576 484 878 98 bl 1 1 1 c 576 484 878 98 bf black 576 484 878 98 bl 878 98 m
 576 X s
 gsave  710 611 779 13 C 1444.82 28.4413 t 0 r /Helvetica findfont 34.1889 sf 0 0 m (]) show NC gr 
 gsave  710 611 779 13 C 1431.54 43.6099 t 0 r /Helvetica findfont 22.7926 sf 0 0 m (2) show NC gr 
 gsave  710 611 779 13 C 1315.88 28.4413 t 0 r /Helvetica findfont 34.1889 sf 0 0 m ( [MeV/c) show NC gr 
 gsave  710 611 779 13 C 1302.61 20.8569 t 0 r /Symbol findfont 22.7926 sf 0 0 m (m) show NC gr 
 gsave  710 611 779 13 C 1289.34 20.8569 t 0 r /Symbol findfont 22.7926 sf 0 0 m (m) show NC gr 
 gsave  710 611 779 13 C 1262.79 28.4413 t 0 r /Helvetica findfont 34.1889 sf 0 0 m (m) show NC gr  997 113 m -15 Y s 1037 106 m -8 Y s 1077 106 m -8 Y s 1116 106 m -8 Y s 1156 106 m -8 Y s 1196 113 m -15 Y s 1235 106 m -8 Y s 1275 106 m -8 Y s 1315
 106 m -8 Y s 1354 106 m -8 Y s 1394 113 m -15 Y s 997 113 m -15 Y s 957 106 m -8 Y s 918 106 m -8 Y s 878 106 m -8 Y s 1394 113 m -15 Y s 1434 106 m -8 Y s
 gsave  710 611 779 13 C 963.211 66.3629 t 0 r /Helvetica findfont 28.4907 sf 0 0 m (3600) show NC gr 
 gsave  710 611 779 13 C 1162.3 66.3629 t 0 r /Helvetica findfont 28.4907 sf 0 0 m (3700) show NC gr 
 gsave  710 611 779 13 C 1361.39 66.3629 t 0 r /Helvetica findfont 28.4907 sf 0 0 m (3800) show NC gr  878 582 m 576 X s 997 567 m 15 Y s 1037 574 m 8 Y s 1077 574 m 8 Y s 1116 574 m 8 Y s 1156 574 m 8 Y s 1196 567 m 15 Y s 1235 574 m 8 Y s 1275 574
 m 8 Y s 1315 574 m 8 Y s 1354 574 m 8 Y s 1394 567 m 15 Y s 997 567 m 15 Y s 957 574 m 8 Y s 918 574 m 8 Y s 878 574 m 8 Y s 1394 567 m 15 Y s 1434 574 m 8 Y s 878 98 m 484 Y s
 gsave  710 611 779 13 C 822.9 572.617 t 90 r /Helvetica findfont 34.1889 sf 0 0 m (\)) show NC gr 
 gsave  710 611 779 13 C 807.732 559.345 t 90 r /Helvetica findfont 22.7926 sf 0 0 m (2) show NC gr 
 gsave  710 611 779 13 C 822.9 271.14 t 90 r /Helvetica findfont 34.1889 sf 0 0 m (Events / \(10 MeV/c) show NC gr  895 98 m -17 X s 886 108 m -8 X s 886 118 m -8 X s 886 128 m -8 X s 895 138 m -17 X s 886 148 m -8 X s 886 158 m -8 X s 886 167 m -8 X
 s 895 177 m -17 X s 886 187 m -8 X s 886 197 m -8 X s 886 207 m -8 X s 895 217 m -17 X s 886 227 m -8 X s 886 236 m -8 X s 886 246 m -8 X s 895 256 m -17 X s 886 266 m -8 X s 886 276 m -8 X s 886 286 m -8 X s 895 296 m -17 X s 886 306 m -8 X s 886
 315 m -8 X s 886 325 m -8 X s 895 335 m -17 X s 886 345 m -8 X s 886 355 m -8 X s 886 365 m -8 X s 895 375 m -17 X s 886 384 m -8 X s 886 394 m -8 X s 886 404 m -8 X s 895 414 m -17 X s 886 424 m -8 X s 886 434 m -8 X s 886 444 m -8 X s 895 454 m
 -17 X s 886 463 m -8 X s 886 473 m -8 X s 886 483 m -8 X s 895 493 m -17 X s 886 503 m -8 X s 886 513 m -8 X s 886 523 m -8 X s 895 532 m -17 X s 886 542 m -8 X s 886 552 m -8 X s 886 562 m -8 X s 895 572 m -17 X s 895 572 m -17 X s
 gsave  710 611 779 13 C 858.926 87.2199 t 0 r /Helvetica findfont 28.4907 sf 0 0 m (0) show NC gr 
 gsave  710 611 779 13 C 858.926 127.038 t 0 r /Helvetica findfont 28.4907 sf 0 0 m (2) show NC gr 
 gsave  710 611 779 13 C 858.926 166.855 t 0 r /Helvetica findfont 28.4907 sf 0 0 m (4) show NC gr 
 gsave  710 611 779 13 C 858.926 206.673 t 0 r /Helvetica findfont 28.4907 sf 0 0 m (6) show NC gr 
 gsave  710 611 779 13 C 858.926 246.491 t 0 r /Helvetica findfont 28.4907 sf 0 0 m (8) show NC gr 
 gsave  710 611 779 13 C 843.757 284.413 t 0 r /Helvetica findfont 28.4907 sf 0 0 m (10) show NC gr 
 gsave  710 611 779 13 C 841.861 324.23 t 0 r /Helvetica findfont 28.4907 sf 0 0 m (12) show NC gr 
 gsave  710 611 779 13 C 841.861 364.048 t 0 r /Helvetica findfont 28.4907 sf 0 0 m (14) show NC gr 
 gsave  710 611 779 13 C 841.861 403.866 t 0 r /Helvetica findfont 28.4907 sf 0 0 m (16) show NC gr 
 gsave  710 611 779 13 C 841.861 443.684 t 0 r /Helvetica findfont 28.4907 sf 0 0 m (18) show NC gr 
 gsave  710 611 779 13 C 843.757 483.501 t 0 r /Helvetica findfont 28.4907 sf 0 0 m (20) show NC gr 
 gsave  710 611 779 13 C 841.861 521.423 t 0 r /Helvetica findfont 28.4907 sf 0 0 m (22) show NC gr 
 gsave  710 611 779 13 C 841.861 561.241 t 0 r /Helvetica findfont 28.4907 sf 0 0 m (24) show NC gr  1454 98 m 484 Y s 1437 98 m 17 X s 1445 108 m 9 X s 1445 118 m 9 X s 1445 128 m 9 X s 1437 138 m 17 X s 1445 148 m 9 X s 1445 158 m 9 X s 1445 167 m
 9 X s 1437 177 m 17 X s 1445 187 m 9 X s 1445 197 m 9 X s 1445 207 m 9 X s 1437 217 m 17 X s 1445 227 m 9 X s 1445 236 m 9 X s 1445 246 m 9 X s 1437 256 m 17 X s 1445 266 m 9 X s 1445 276 m 9 X s 1445 286 m 9 X s 1437 296 m 17 X s 1445 306 m 9 X s
 1445 315 m 9 X s 1445 325 m 9 X s 1437 335 m 17 X s 1445 345 m 9 X s 1445 355 m 9 X s 1445 365 m 9 X s 1437 375 m 17 X s 1445 384 m 9 X s 1445 394 m 9 X s 1445 404 m 9 X s 1437 414 m 17 X s 1445 424 m 9 X s 1445 434 m 9 X s 1445 444 m 9 X s 1437 454
 m 17 X s 1445 463 m 9 X s 1445 473 m 9 X s 1445 483 m 9 X s 1437 493 m 17 X s 1445 503 m 9 X s 1445 513 m 9 X s 1445 523 m 9 X s 1437 532 m 17 X s 1445 542 m 9 X s 1445 552 m 9 X s 1445 562 m 9 X s 1437 572 m 17 X s 1437 572 m 17 X s 888 98 m -10 X
 s 878 98 m 4 Y s 888 98 m 10 X s 898 98 m 4 Y s 888 98 m 23 Y s 884 121 m 8 X s 908 138 m -10 X s 898 134 m 8 Y s 908 138 m 10 X s 918 134 m 8 Y s 908 138 m 52 Y s 904 190 m 8 X s 908 138 m -26 Y s 904 112 m 8 X s 928 118 m -10 X s 918 114 m 8 Y s
 928 118 m 10 X s 938 114 m 8 Y s 928 118 m 45 Y s 924 163 m 7 X s 928 118 m -16 Y s 924 102 m 7 X s 948 177 m -10 X s 938 173 m 8 Y s 948 177 m 9 X s 957 173 m 8 Y s 948 177 m 63 Y s 944 240 m 7 X s 948 177 m -37 Y s 944 140 m 7 X s 967 158 m -10 X
 s 957 154 m 7 Y s 967 158 m 10 X s 977 154 m 7 Y s 967 158 m 57 Y s 964 215 m 7 X s 967 158 m -33 Y s 964 125 m 7 X s 987 138 m -10 X s 977 134 m 8 Y s 987 138 m 10 X s 997 134 m 8 Y s 987 138 m 52 Y s 983 190 m 8 X s 987 138 m -26 Y s 983 112 m 8 X
 s 1007 118 m -10 X s 997 114 m 8 Y s 1007 118 m 10 X s 1017 114 m 8 Y s 1007 118 m 45 Y s 1003 163 m 8 X s 1007 118 m -16 Y s 1003 102 m 8 X s 1027 138 m -10 X s 1017 134 m 8 Y s 1027 138 m 10 X s 1037 134 m 8 Y s 1027 138 m 52 Y s 1023 190 m 8 X s
 1027 138 m -26 Y s 1023 112 m 8 X s 1047 118 m -10 X s 1037 114 m 8 Y s 1047 118 m 10 X s 1057 114 m 8 Y s 1047 118 m 45 Y s 1043 163 m 8 X s 1047 118 m -16 Y s 1043 102 m 8 X s 1067 158 m -10 X s 1057 154 m 7 Y s 1067 158 m 10 X s 1077 154 m 7 Y s
 1067 158 m 57 Y s 1063 215 m 7 X s 1067 158 m -33 Y s 1063 125 m 7 X s 1086 158 m -9 X s 1077 154 m 7 Y s 1086 158 m 10 X s 1096 154 m 7 Y s 1086 158 m 57 Y s 1083 215 m 7 X s 1086 158 m -33 Y s 1083 125 m 7 X s 1106 177 m -10 X s 1096 173 m 8 Y s
 1106 177 m 10 X s 1116 173 m 8 Y s 1106 177 m 63 Y s 1103 240 m 7 X s 1106 177 m -37 Y s 1103 140 m 7 X s 1126 177 m -10 X s 1116 173 m 8 Y s 1126 177 m 10 X s 1136 173 m 8 Y s 1126 177 m 63 Y s 1122 240 m 8 X s 1126 177 m -37 Y s 1122 140 m 8 X s
 1146 236 m -10 X s 1136 233 m 7 Y s 1146 236 m 10 X s 1156 233 m 7 Y s 1146 236 m 75 Y s 1142 311 m 8 X s 1146 236 m -50 Y s 1142 186 m 8 X s 1166 454 m -10 X s 1156 450 m 7 Y s 1166 454 m 10 X s 1176 450 m 7 Y s 1166 454 m 105 Y s 1162 559 m 8 X s
 1166 454 m -83 Y s 1162 371 m 8 X s 1186 315 m -10 X s 1176 312 m 7 Y s 1186 315 m 10 X s 1196 312 m 7 Y s 1186 315 m 88 Y s 1182 403 m 7 X s 1186 315 m -64 Y s 1182 251 m 7 X s 1206 138 m -10 X s 1196 134 m 8 Y s 1206 138 m 9 X s 1215 134 m 8 Y s
 1206 138 m 52 Y s 1202 190 m 7 X s 1206 138 m -26 Y s 1202 112 m 7 X s 1225 236 m -10 X s 1215 233 m 7 Y s 1225 236 m 10 X s 1235 233 m 7 Y s 1225 236 m 75 Y s 1222 311 m 7 X s 1225 236 m -50 Y s 1222 186 m 7 X s 1245 177 m -10 X s 1235 173 m 8 Y s
 1245 177 m 10 X s 1255 173 m 8 Y s 1245 177 m 63 Y s 1241 240 m 8 X s 1245 177 m -37 Y s 1241 140 m 8 X s 1265 217 m -10 X s 1255 213 m 8 Y s 1265 217 m 10 X s 1275 213 m 8 Y s 1265 217 m 70 Y s 1261 287 m 8 X s 1265 217 m -47 Y s 1261 170 m 8 X s
 1285 158 m -10 X s 1275 154 m 7 Y s 1285 158 m 10 X s 1295 154 m 7 Y s 1285 158 m 57 Y s 1281 215 m 8 X s 1285 158 m -33 Y s 1281 125 m 8 X s 1305 197 m -10 X s 1295 193 m 8 Y s 1305 197 m 10 X s 1315 193 m 8 Y s 1305 197 m 67 Y s 1301 264 m 8 X s
 1305 197 m -43 Y s 1301 154 m 8 X s 1325 138 m -10 X s 1315 134 m 8 Y s 1325 138 m 10 X s 1335 134 m 8 Y s 1325 138 m 52 Y s 1321 190 m 7 X s 1325 138 m -26 Y s 1321 112 m 7 X s 1344 138 m -9 X s 1335 134 m 8 Y s 1344 138 m 10 X s 1354 134 m 8 Y s
 1344 138 m 52 Y s 1341 190 m 7 X s 1344 138 m -26 Y s 1341 112 m 7 X s 1364 158 m -10 X s 1354 154 m 7 Y s 1364 158 m 10 X s 1374 154 m 7 Y s 1364 158 m 57 Y s 1361 215 m 7 X s 1364 158 m -33 Y s 1361 125 m 7 X s 1384 138 m -10 X s 1374 134 m 8 Y s
 1384 138 m 10 X s 1394 134 m 8 Y s 1384 138 m 52 Y s 1380 190 m 8 X s 1384 138 m -26 Y s 1380 112 m 8 X s 1404 138 m -10 X s 1394 134 m 8 Y s 1404 138 m 10 X s 1414 134 m 8 Y s 1404 138 m 52 Y s 1400 190 m 8 X s 1404 138 m -26 Y s 1400 112 m 8 X s
 1424 118 m -10 X s 1414 114 m 8 Y s 1424 118 m 10 X s 1434 114 m 8 Y s 1424 118 m 45 Y s 1420 163 m 8 X s 1424 118 m -16 Y s 1420 102 m 8 X s 1444 118 m -10 X s 1434 114 m 8 Y s 1444 118 m 10 X s 1454 114 m 8 Y s 1444 118 m 45 Y s 1440 163 m 7 X s
 1444 118 m -16 Y s 1440 102 m 7 X s 3 lw 888 98 908 138 928 118 948 177 967 158 987 138 1007 118 1027 138 1047 118 1067 158 1086 158 1106 177 1126 177 1146 236 1166 454 1186 315 1206 138 1225 236 1245 177 1265 217 1285 158 1305 197 1325 138 1344 138
 1364 158 1384 138 1404 138 1424 118 1444 118 29 { m20} R 6 lw 0 1 0 c[ 4 8] 0 sd 9 lw black 0 1 0 c 878 135 m cl s 878 135 m 40 X 20 1 d 39 X 20 1 d 20 X 20 1 d 40 X 19 1 d 20 X 20 1 d 20 X 20 1 d 39 X 20 1 d 20 X 20 1 d 20 X 20 1 d 20 X 19 1 d 20 X
 20 1 d 20 X 20 1 d 20 X s 0 0 1 c[ 12 12] 0 sd black 0 0 1 c 878 100 m cl s 878 100 m 79 X 20 1 d 20 X 20 1 d 20 1 d 20 1 d 10 1 d 10 2 d 4 1 d 5 2 d 5 2 d 3 2 d 2 2 d 5 6 d 5 7 d 5 8 d 5 9 d 5 11 d 5 12 d 5 14 d 5 13 d 10 29 d 5 13 d 2 6 d 3 6 d 2
 5 d 3 5 d 2 4 d 3 4 d 2 3 d 3 2 d 2 2 d 8 X 2 -2 d 3 -2 d 2 -3 d 3 -4 d 2 -4 d 3 -5 d 2 -5 d 3 -6 d 5 -13 d 4 -13 d 5 -15 d 5 -14 d 5 -13 d 5 -13 d 5 -11 d 5 -11 d 5 -8 d 5 -8 d 5 -6 d 5 -5 d 5 -4 d 5 -3 d 5 -3 d 5 -1 d 5 -2 d 10 -1 d 10 -1 d 10 X
 20 -1 d 119 X s 1 0 0 c[  ] 0 sd black 1 0 0 c 878 136 m cl s 878 136 m 20 X 20 1 d 20 1 d 19 X 20 1 d 20 1 d 20 1 d 20 1 d 20 2 d 10 1 d 10 2 d 4 1 d 5 2 d 5 3 d 3 2 d 2 2 d 5 5 d 5 7 d 5 9 d 5 9 d 5 11 d 5 13 d 5 13 d 5 14 d 10 28 d 5 13 d 2 7 d 3
 5 d 2 6 d 3 5 d 2 4 d 3 4 d 2 3 d 3 2 d 2 2 d 3 1 d 2 X 3 -1 d 2 -2 d 3 -2 d 2 -3 d 3 -3 d 2 -5 d 3 -4 d 2 -6 d 3 -5 d 5 -13 d 4 -14 d 5 -14 d 5 -14 d 5 -13 d 5 -12 d 5 -12 d 5 -10 d 5 -9 d 5 -7 d 5 -6 d 5 -5 d 5 -4 d 5 -3 d 5 -2 d 5 -2 d 5 -1 d 10
 -1 d 10 -1 d 30 X 19 1 d 20 X 20 1 d 20 X 20 1 d 20 X s black 6 lw 878 98 m 576 X s 997 113 m -15 Y s 1037 106 m -8 Y s 1077 106 m -8 Y s 1116 106 m -8 Y s 1156 106 m -8 Y s 1196 113 m -15 Y s 1235 106 m -8 Y s 1275 106 m -8 Y s 1315 106 m -8 Y s
 1354 106 m -8 Y s 1394 113 m -15 Y s 997 113 m -15 Y s 957 106 m -8 Y s 918 106 m -8 Y s 878 106 m -8 Y s 1394 113 m -15 Y s 1434 106 m -8 Y s 878 582 m 576 X s 997 567 m 15 Y s 1037 574 m 8 Y s 1077 574 m 8 Y s 1116 574 m 8 Y s 1156 574 m 8 Y s
 1196 567 m 15 Y s 1235 574 m 8 Y s 1275 574 m 8 Y s 1315 574 m 8 Y s 1354 574 m 8 Y s 1394 567 m 15 Y s 997 567 m 15 Y s 957 574 m 8 Y s 918 574 m 8 Y s 878 574 m 8 Y s 1394 567 m 15 Y s 1434 574 m 8 Y s 878 98 m 484 Y s 895 98 m -17 X s 886 108 m
 -8 X s 886 118 m -8 X s 886 128 m -8 X s 895 138 m -17 X s 886 148 m -8 X s 886 158 m -8 X s 886 167 m -8 X s 895 177 m -17 X s 886 187 m -8 X s 886 197 m -8 X s 886 207 m -8 X s 895 217 m -17 X s 886 227 m -8 X s 886 236 m -8 X s 886 246 m -8 X s
 895 256 m -17 X s 886 266 m -8 X s 886 276 m -8 X s 886 286 m -8 X s 895 296 m -17 X s 886 306 m -8 X s 886 315 m -8 X s 886 325 m -8 X s 895 335 m -17 X s 886 345 m -8 X s 886 355 m -8 X s 886 365 m -8 X s 895 375 m -17 X s 886 384 m -8 X s 886 394
 m -8 X s 886 404 m -8 X s 895 414 m -17 X s 886 424 m -8 X s 886 434 m -8 X s 886 444 m -8 X s 895 454 m -17 X s 886 463 m -8 X s 886 473 m -8 X s 886 483 m -8 X s 895 493 m -17 X s 886 503 m -8 X s 886 513 m -8 X s 886 523 m -8 X s 895 532 m -17 X
 s 886 542 m -8 X s 886 552 m -8 X s 886 562 m -8 X s 895 572 m -17 X s 895 572 m -17 X s 1454 98 m 484 Y s 1437 98 m 17 X s 1445 108 m 9 X s 1445 118 m 9 X s 1445 128 m 9 X s 1437 138 m 17 X s 1445 148 m 9 X s 1445 158 m 9 X s 1445 167 m 9 X s 1437
 177 m 17 X s 1445 187 m 9 X s 1445 197 m 9 X s 1445 207 m 9 X s 1437 217 m 17 X s 1445 227 m 9 X s 1445 236 m 9 X s 1445 246 m 9 X s 1437 256 m 17 X s 1445 266 m 9 X s 1445 276 m 9 X s 1445 286 m 9 X s 1437 296 m 17 X s 1445 306 m 9 X s 1445 315 m 9
 X s 1445 325 m 9 X s 1437 335 m 17 X s 1445 345 m 9 X s 1445 355 m 9 X s 1445 365 m 9 X s 1437 375 m 17 X s 1445 384 m 9 X s 1445 394 m 9 X s 1445 404 m 9 X s 1437 414 m 17 X s 1445 424 m 9 X s 1445 434 m 9 X s 1445 444 m 9 X s 1437 454 m 17 X s
 1445 463 m 9 X s 1445 473 m 9 X s 1445 483 m 9 X s 1437 493 m 17 X s 1445 503 m 9 X s 1445 513 m 9 X s 1445 523 m 9 X s 1437 532 m 17 X s 1445 542 m 9 X s 1445 552 m 9 X s 1445 562 m 9 X s 1437 572 m 17 X s 1437 572 m 17 X s
 gsave  710 611 779 13 C 1069.39 426.619 t 0 r /Helvetica findfont 22.7926 sf 0 0 m ( = 5 TeV) show NC gr 
 gsave  710 611 779 13 C 1048.53 419.035 t 0 r /Helvetica findfont 15.1951 sf 0 0 m (NN) show NC gr 
 gsave  710 611 779 13 C 1037.16 426.619 t 0 r /Helvetica findfont 22.7926 sf 0 0 m (s) show NC gr  1028 440 m 3 -21 d s 0 lw 1031 419 m 4 28 d s 1035 447 m 34 X s
 gsave  710 611 779 13 C 919.601 426.619 t 0 r /Helvetica findfont 22.7926 sf 0 0 m (pPb\(Pwd\) ) show NC gr 
 gsave  710 611 779 13 C 919.601 462.645 t 0 r /Helvetica findfont 28.4907 sf 0 0 m (Preliminary) show NC gr 
 gsave  710 611 779 13 C 919.601 492.982 t 0 r /Helvetica findfont 28.4907 sf 0 0 m (LHCb) show NC gr 
 gsave  710 611 779 13 C 1211.6 472.125 t 0 r /Helvetica findfont 28.4907 sf 0 0 m (1.5< y <4.0) show NC gr 
 gsave  710 611 779 13 C 1287.44 441.788 t 0 r /Helvetica findfont 28.4907 sf 0 0 m ( <14 GeV/c) show NC gr 
 gsave  710 611 779 13 C 1276.06 426.619 t 0 r /Helvetica findfont 18.9938 sf 0 0 m (T) show NC gr 
 gsave  710 611 779 13 C 1211.6 441.788 t 0 r /Helvetica findfont 28.4907 sf 0 0 m ( 7< p) show NC gr  6 lw 1 1 1 c 711 611 1534 13 bf
 gr  gr showpage
end
%%EOF
