%!PS-Adobe-2.0 EPSF-2.0
%%BoundingBox:  0 0 567 319
%%Title: result/MassFitBin/pAPTc_psip.eps: 
%%Creator: ROOT Version 5.34/18
%%CreationDate: Sun Aug  2 10:53:48 2015
%%EndComments
%%BeginProlog
80 dict begin
/s {stroke} def /l {lineto} def /m {moveto} def /t {translate} def
/r {rotate} def /rl {roll}  def /R {repeat} def
/d {rlineto} def /rm {rmoveto} def /gr {grestore} def /f {eofill} def
/c {setrgbcolor} def /black {0 setgray} def /sd {setdash} def
/cl {closepath} def /sf {scalefont setfont} def /lw {setlinewidth} def
/box {m dup 0 exch d exch 0 d 0 exch neg d cl} def
/NC{systemdict begin initclip end}def/C{NC box clip newpath}def
/bl {box s} def /bf {box f} def /Y { 0 exch d} def /X { 0 d} def 
/K {{pop pop 0 moveto} exch kshow} bind def
/ita {/ang 15 def gsave [1 0 ang dup sin exch cos div 1 0 0] concat} def 
/mp {newpath /y exch def /x exch def} def
/side {[w .77 mul w .23 mul] .385 w mul sd w 0 l currentpoint t -144 r} def
/mr {mp x y w2 0 360 arc} def /m24 {mr s} def /m20 {mr f} def
/mb {mp x y w2 add m w2 neg 0 d 0 w neg d w 0 d 0 w d cl} def
/mt {mp x y w2 add m w2 neg w neg d w 0 d cl} def
/m21 {mb f} def /m25 {mb s} def /m22 {mt f} def /m26{mt s} def
/m23 {mp x y w2 sub m w2 w d w neg 0 d cl f} def
/m27 {mp x y w2 add m w3 neg w2 neg d w3 w2 neg d w3 w2 d cl s} def
/m28 {mp x w2 sub y w2 sub w3 add m w3 0 d  0 w3 neg d w3 0 d 0 w3 d w3 0 d  0 w3 d w3 neg 0 d 0 w3 d w3 neg 0 d 0 w3 neg d w3 neg 0 d cl s } def
/m29 {mp gsave x w2 sub y w2 add w3 sub m currentpoint t 4 {side} repeat cl fill gr} def
/m30 {mp gsave x w2 sub y w2 add w3 sub m currentpoint t 4 {side} repeat cl s gr} def
/m31 {mp x y w2 sub m 0 w d x w2 sub y m w 0 d x w2 sub y w2 add m w w neg d x w2 sub y w2 sub m w w d s} def
/m32 {mp x y w2 sub m w2 w d w neg 0 d cl s} def
/m33 {mp x y w2 add m w3 neg w2 neg d w3 w2 neg d w3 w2 d cl f} def
/m34 {mp x w2 sub y w2 sub w3 add m w3 0 d  0 w3 neg d w3 0 d 0 w3 d w3 0 d  0 w3 d w3 neg 0 d 0 w3 d w3 neg 0 d 0 w3 neg d w3 neg 0 d cl f } def
/m2 {mp x y w2 sub m 0 w d x w2 sub y m w 0 d s} def
/m5 {mp x w2 sub y w2 sub m w w d x w2 sub y w2 add m w w neg d s} def
/reEncode {exch findfont dup length dict begin {1 index /FID eq  {pop pop} {def} ifelse } forall /Encoding exch def currentdict end dup /FontName get exch definefont pop } def [/Times-Bold /Times-Italic /Times-BoldItalic /Helvetica /Helvetica-Oblique
 /Helvetica-Bold /Helvetica-BoldOblique /Courier /Courier-Oblique /Courier-Bold /Courier-BoldOblique /Times-Roman /AvantGarde-Book /AvantGarde-BookOblique /AvantGarde-Demi /AvantGarde-DemiOblique /Bookman-Demi /Bookman-DemiItalic /Bookman-Light
 /Bookman-LightItalic /Helvetica-Narrow /Helvetica-Narrow-Bold /Helvetica-Narrow-BoldOblique /Helvetica-Narrow-Oblique /NewCenturySchlbk-Roman /NewCenturySchlbk-Bold /NewCenturySchlbk-BoldItalic /NewCenturySchlbk-Italic /Palatino-Bold
 /Palatino-BoldItalic /Palatino-Italic /Palatino-Roman ] {ISOLatin1Encoding reEncode } forall
%%EndProlog
%%BeginSetup
%%EndSetup
newpath  gsave  .25 .25 scale  gsave  0 0 t black[  ] 0 sd 6 lw 1 1 1 c 2268 1274 0 0 bf black 1 1 1 c 710 611 23 650 bf black 1 1 1 c 576 484 122 735 bf black 576 484 122 735 bl 1 1 1 c 576 484 122 735 bf black 576 484 122 735 bl 122 735 m 576 X s
 gsave  710 611 23 650 C 688.279 665.526 t 0 r /Helvetica findfont 34.1889 sf 0 0 m (]) show NC gr 
 gsave  710 611 23 650 C 675.006 680.694 t 0 r /Helvetica findfont 22.7926 sf 0 0 m (2) show NC gr 
 gsave  710 611 23 650 C 559.345 665.526 t 0 r /Helvetica findfont 34.1889 sf 0 0 m ( [MeV/c) show NC gr 
 gsave  710 611 23 650 C 546.072 657.941 t 0 r /Symbol findfont 22.7926 sf 0 0 m (m) show NC gr 
 gsave  710 611 23 650 C 532.8 657.941 t 0 r /Symbol findfont 22.7926 sf 0 0 m (m) show NC gr 
 gsave  710 611 23 650 C 506.254 665.526 t 0 r /Helvetica findfont 34.1889 sf 0 0 m (m) show NC gr  241 750 m -15 Y s 281 743 m -8 Y s 321 743 m -8 Y s 360 743 m -8 Y s 400 743 m -8 Y s 440 750 m -15 Y s 479 743 m -8 Y s 519 743 m -8 Y s 559 743 m -8
 Y s 598 743 m -8 Y s 638 750 m -15 Y s 241 750 m -15 Y s 202 743 m -8 Y s 162 743 m -8 Y s 122 743 m -8 Y s 638 750 m -15 Y s 678 743 m -8 Y s
 gsave  710 611 23 650 C 208.569 703.447 t 0 r /Helvetica findfont 28.4907 sf 0 0 m (3600) show NC gr 
 gsave  710 611 23 650 C 405.762 703.447 t 0 r /Helvetica findfont 28.4907 sf 0 0 m (3700) show NC gr 
 gsave  710 611 23 650 C 604.851 703.447 t 0 r /Helvetica findfont 28.4907 sf 0 0 m (3800) show NC gr  122 1219 m 576 X s 241 1204 m 15 Y s 281 1211 m 8 Y s 321 1211 m 8 Y s 360 1211 m 8 Y s 400 1211 m 8 Y s 440 1204 m 15 Y s 479 1211 m 8 Y s 519
 1211 m 8 Y s 559 1211 m 8 Y s 598 1211 m 8 Y s 638 1204 m 15 Y s 241 1204 m 15 Y s 202 1211 m 8 Y s 162 1211 m 8 Y s 122 1211 m 8 Y s 638 1204 m 15 Y s 678 1211 m 8 Y s 122 735 m 484 Y s
 gsave  710 611 23 650 C 66.3629 1209.7 t 90 r /Helvetica findfont 34.1889 sf 0 0 m (\)) show NC gr 
 gsave  710 611 23 650 C 51.1943 1196.43 t 90 r /Helvetica findfont 22.7926 sf 0 0 m (2) show NC gr 
 gsave  710 611 23 650 C 66.3629 908.224 t 90 r /Helvetica findfont 34.1889 sf 0 0 m (Events / \(10 MeV/c) show NC gr  139 735 m -17 X s 131 749 m -9 X s 131 763 m -9 X s 131 776 m -9 X s 131 790 m -9 X s 139 803 m -17 X s 131 817 m -9 X s 131 831 m
 -9 X s 131 844 m -9 X s 131 858 m -9 X s 139 871 m -17 X s 131 885 m -9 X s 131 899 m -9 X s 131 912 m -9 X s 131 926 m -9 X s 139 939 m -17 X s 131 953 m -9 X s 131 966 m -9 X s 131 980 m -9 X s 131 994 m -9 X s 139 1007 m -17 X s 131 1021 m -9 X s
 131 1034 m -9 X s 131 1048 m -9 X s 131 1062 m -9 X s 139 1075 m -17 X s 131 1089 m -9 X s 131 1102 m -9 X s 131 1116 m -9 X s 131 1130 m -9 X s 139 1143 m -17 X s 131 1157 m -9 X s 131 1170 m -9 X s 131 1184 m -9 X s 131 1197 m -9 X s 139 1211 m
 -17 X s 139 1211 m -17 X s
 gsave  710 611 23 650 C 102.389 724.304 t 0 r /Helvetica findfont 28.4907 sf 0 0 m (0) show NC gr 
 gsave  710 611 23 650 C 87.2199 792.563 t 0 r /Helvetica findfont 28.4907 sf 0 0 m (10) show NC gr 
 gsave  710 611 23 650 C 87.2199 860.822 t 0 r /Helvetica findfont 28.4907 sf 0 0 m (20) show NC gr 
 gsave  710 611 23 650 C 87.2199 929.081 t 0 r /Helvetica findfont 28.4907 sf 0 0 m (30) show NC gr 
 gsave  710 611 23 650 C 87.2199 997.34 t 0 r /Helvetica findfont 28.4907 sf 0 0 m (40) show NC gr 
 gsave  710 611 23 650 C 87.2199 1065.6 t 0 r /Helvetica findfont 28.4907 sf 0 0 m (50) show NC gr 
 gsave  710 611 23 650 C 87.2199 1131.96 t 0 r /Helvetica findfont 28.4907 sf 0 0 m (60) show NC gr 
 gsave  710 611 23 650 C 87.2199 1200.22 t 0 r /Helvetica findfont 28.4907 sf 0 0 m (70) show NC gr  698 735 m 484 Y s 681 735 m 17 X s 689 749 m 9 X s 689 763 m 9 X s 689 776 m 9 X s 689 790 m 9 X s 681 803 m 17 X s 689 817 m 9 X s 689 831 m 9 X s
 689 844 m 9 X s 689 858 m 9 X s 681 871 m 17 X s 689 885 m 9 X s 689 899 m 9 X s 689 912 m 9 X s 689 926 m 9 X s 681 939 m 17 X s 689 953 m 9 X s 689 966 m 9 X s 689 980 m 9 X s 689 994 m 9 X s 681 1007 m 17 X s 689 1021 m 9 X s 689 1034 m 9 X s 689
 1048 m 9 X s 689 1062 m 9 X s 681 1075 m 17 X s 689 1089 m 9 X s 689 1102 m 9 X s 689 1116 m 9 X s 689 1130 m 9 X s 681 1143 m 17 X s 689 1157 m 9 X s 689 1170 m 9 X s 689 1184 m 9 X s 689 1197 m 9 X s 681 1211 m 17 X s 681 1211 m 17 X s 132 1014 m
 -10 X s 122 1010 m 8 Y s 132 1014 m 10 X s 142 1010 m 8 Y s 132 1014 m 51 Y s 128 1065 m 8 X s 132 1014 m -43 Y s 128 971 m 8 X s 152 994 m -10 X s 142 990 m 7 Y s 152 994 m 10 X s 162 990 m 7 Y s 152 994 m 49 Y s 148 1043 m 8 X s 152 994 m -42 Y s
 148 952 m 8 X s 172 987 m -10 X s 162 983 m 8 Y s 172 987 m 10 X s 182 983 m 8 Y s 172 987 m 48 Y s 168 1035 m 8 X s 172 987 m -41 Y s 168 946 m 8 X s 192 1109 m -10 X s 182 1105 m 8 Y s 192 1109 m 10 X s 202 1105 m 8 Y s 192 1109 m 58 Y s 188 1167
 m 7 X s 192 1109 m -50 Y s 188 1059 m 7 X s 211 1028 m -9 X s 202 1024 m 7 Y s 211 1028 m 10 X s 221 1024 m 7 Y s 211 1028 m 51 Y s 208 1079 m 7 X s 211 1028 m -45 Y s 208 983 m 7 X s 231 980 m -10 X s 221 976 m 8 Y s 231 980 m 10 X s 241 976 m 8 Y
 s 231 980 m 48 Y s 228 1028 m 7 X s 231 980 m -41 Y s 228 939 m 7 X s 251 1007 m -10 X s 241 1003 m 8 Y s 251 1007 m 10 X s 261 1003 m 8 Y s 251 1007 m 50 Y s 247 1057 m 8 X s 251 1007 m -43 Y s 247 964 m 8 X s 271 1034 m -10 X s 261 1031 m 7 Y s
 271 1034 m 10 X s 281 1031 m 7 Y s 271 1034 m 53 Y s 267 1087 m 8 X s 271 1034 m -44 Y s 267 990 m 8 X s 291 987 m -10 X s 281 983 m 8 Y s 291 987 m 10 X s 301 983 m 8 Y s 291 987 m 48 Y s 287 1035 m 8 X s 291 987 m -41 Y s 287 946 m 8 X s 311 1048
 m -10 X s 301 1044 m 8 Y s 311 1048 m 10 X s 321 1044 m 8 Y s 311 1048 m 53 Y s 307 1101 m 7 X s 311 1048 m -46 Y s 307 1002 m 7 X s 331 1055 m -10 X s 321 1051 m 8 Y s 331 1055 m 9 X s 340 1051 m 8 Y s 331 1055 m 53 Y s 327 1108 m 7 X s 331 1055 m
 -47 Y s 327 1008 m 7 X s 350 1021 m -10 X s 340 1017 m 8 Y s 350 1021 m 10 X s 360 1017 m 8 Y s 350 1021 m 51 Y s 347 1072 m 7 X s 350 1021 m -44 Y s 347 977 m 7 X s 370 1000 m -10 X s 360 997 m 7 Y s 370 1000 m 10 X s 380 997 m 7 Y s 370 1000 m 50
 Y s 366 1050 m 8 X s 370 1000 m -42 Y s 366 958 m 8 X s 390 987 m -10 X s 380 983 m 8 Y s 390 987 m 10 X s 400 983 m 8 Y s 390 987 m 48 Y s 386 1035 m 8 X s 390 987 m -41 Y s 386 946 m 8 X s 410 1136 m -10 X s 400 1133 m 7 Y s 410 1136 m 10 X s 420
 1133 m 7 Y s 410 1136 m 60 Y s 406 1196 m 8 X s 410 1136 m -52 Y s 406 1084 m 8 X s 430 1123 m -10 X s 420 1119 m 8 Y s 430 1123 m 10 X s 440 1119 m 8 Y s 430 1123 m 58 Y s 426 1181 m 8 X s 430 1123 m -51 Y s 426 1072 m 8 X s 450 1041 m -10 X s 440
 1037 m 8 Y s 450 1041 m 10 X s 460 1037 m 8 Y s 450 1041 m 53 Y s 446 1094 m 7 X s 450 1041 m -45 Y s 446 996 m 7 X s 469 994 m -9 X s 460 990 m 7 Y s 469 994 m 10 X s 479 990 m 7 Y s 469 994 m 49 Y s 466 1043 m 7 X s 469 994 m -42 Y s 466 952 m 7 X
 s 489 1000 m -10 X s 479 997 m 7 Y s 489 1000 m 10 X s 499 997 m 7 Y s 489 1000 m 50 Y s 486 1050 m 7 X s 489 1000 m -42 Y s 486 958 m 7 X s 509 939 m -10 X s 499 935 m 8 Y s 509 939 m 10 X s 519 935 m 8 Y s 509 939 m 45 Y s 505 984 m 8 X s 509 939
 m -37 Y s 505 902 m 8 X s 529 966 m -10 X s 519 963 m 7 Y s 529 966 m 10 X s 539 963 m 7 Y s 529 966 m 47 Y s 525 1013 m 8 X s 529 966 m -39 Y s 525 927 m 8 X s 549 994 m -10 X s 539 990 m 7 Y s 549 994 m 10 X s 559 990 m 7 Y s 549 994 m 49 Y s 545
 1043 m 8 X s 549 994 m -42 Y s 545 952 m 8 X s 569 987 m -10 X s 559 983 m 8 Y s 569 987 m 10 X s 579 983 m 8 Y s 569 987 m 48 Y s 565 1035 m 7 X s 569 987 m -41 Y s 565 946 m 7 X s 589 980 m -10 X s 579 976 m 8 Y s 589 980 m 9 X s 598 976 m 8 Y s
 589 980 m 48 Y s 585 1028 m 7 X s 589 980 m -41 Y s 585 939 m 7 X s 608 1028 m -10 X s 598 1024 m 7 Y s 608 1028 m 10 X s 618 1024 m 7 Y s 608 1028 m 51 Y s 605 1079 m 7 X s 608 1028 m -45 Y s 605 983 m 7 X s 628 960 m -10 X s 618 956 m 7 Y s 628
 960 m 10 X s 638 956 m 7 Y s 628 960 m 46 Y s 624 1006 m 8 X s 628 960 m -39 Y s 624 921 m 8 X s 648 1034 m -10 X s 638 1031 m 7 Y s 648 1034 m 10 X s 658 1031 m 7 Y s 648 1034 m 53 Y s 644 1087 m 8 X s 648 1034 m -44 Y s 644 990 m 8 X s 668 919 m
 -10 X s 658 915 m 8 Y s 668 919 m 10 X s 678 915 m 8 Y s 668 919 m 42 Y s 664 961 m 8 X s 668 919 m -35 Y s 664 884 m 8 X s 688 973 m -10 X s 678 969 m 8 Y s 688 973 m 10 X s 698 969 m 8 Y s 688 973 m 48 Y s 684 1021 m 8 X s 688 973 m -40 Y s 684
 933 m 8 X s 3 lw /w 15 def /w2 {w 2 div} def /w3 {w 3 div} def 132 1014 152 994 172 987 192 1109 211 1028 231 980 251 1007 271 1034 291 987 311 1048 331 1055 350 1021 370 1000 390 987 410 1136 430 1123 450 1041 469 994 489 1000 509 939 529 966 549
 994 569 987 589 980 608 1028 628 960 648 1034 668 919 688 973 29 { m20} R 6 lw 0 1 0 c[ 4 8] 0 sd 9 lw black 0 1 0 c 122 1028 m cl s 122 1028 m 20 -2 d 20 -3 d 20 -2 d 20 -2 d 19 -2 d 20 -2 d 20 -3 d 20 -2 d 20 -2 d 20 -2 d 19 -2 d 20 -2 d 20 -2 d
 20 -2 d 20 -2 d 20 -2 d 20 -2 d 19 -2 d 20 -2 d 20 -2 d 20 -2 d 20 -2 d 20 -2 d 19 -2 d 20 -1 d 20 -2 d 20 -2 d 20 -2 d 20 -2 d s 0 0 1 c[ 12 12] 0 sd black 0 0 1 c 122 736 m cl s 122 736 m 99 X 20 1 d 40 X 20 1 d 20 X 10 1 d 9 1 d 5 1 d 5 1 d 5 1 d
 3 1 d 2 2 d 3 2 d 2 2 d 3 2 d 2 3 d 3 3 d 2 3 d 3 3 d 2 4 d 3 4 d 2 4 d 5 9 d 10 18 d 5 9 d 2 4 d 3 4 d 2 3 d 3 3 d 2 2 d 3 2 d 2 2 d 8 X 2 -1 d 3 -2 d 2 -2 d 3 -3 d 2 -3 d 3 -3 d 2 -4 d 3 -4 d 5 -9 d 5 -10 d 5 -9 d 4 -8 d 3 -4 d 2 -4 d 3 -4 d 2 -3
 d 3 -3 d 2 -3 d 3 -2 d 2 -2 d 3 -2 d 2 -2 d 3 -2 d 2 -1 d 5 -2 d 5 -1 d 5 -2 d 5 X 10 -1 d 10 X 20 -1 d 139 X s 1 0 0 c[  ] 0 sd black 1 0 0 c 122 1028 m cl s 122 1028 m 20 -2 d 20 -2 d 20 -2 d 20 -2 d 19 -2 d 20 -2 d 20 -2 d 20 -2 d 20 -2 d 20 -1 d
 29 X 5 1 d 3 1 d 2 1 d 3 2 d 2 2 d 3 2 d 2 2 d 3 3 d 2 3 d 3 3 d 2 3 d 5 8 d 5 8 d 10 18 d 5 8 d 2 4 d 3 3 d 2 3 d 3 3 d 2 2 d 3 2 d 2 1 d 5 X 3 -1 d 2 -1 d 3 -2 d 2 -2 d 3 -3 d 2 -4 d 3 -3 d 2 -4 d 3 -5 d 5 -9 d 5 -10 d 5 -10 d 4 -9 d 5 -8 d 3 -4 d
 2 -3 d 3 -4 d 2 -3 d 3 -2 d 2 -3 d 5 -4 d 5 -3 d 5 -3 d 5 -2 d 5 -1 d 5 -2 d 10 -1 d 10 -2 d 20 -2 d 20 -2 d 19 -2 d 20 -1 d 20 -2 d 20 -2 d 20 -2 d 20 -2 d s black 6 lw 122 735 m 576 X s 241 750 m -15 Y s 281 743 m -8 Y s 321 743 m -8 Y s 360 743 m
 -8 Y s 400 743 m -8 Y s 440 750 m -15 Y s 479 743 m -8 Y s 519 743 m -8 Y s 559 743 m -8 Y s 598 743 m -8 Y s 638 750 m -15 Y s 241 750 m -15 Y s 202 743 m -8 Y s 162 743 m -8 Y s 122 743 m -8 Y s 638 750 m -15 Y s 678 743 m -8 Y s 122 1219 m 576 X
 s 241 1204 m 15 Y s 281 1211 m 8 Y s 321 1211 m 8 Y s 360 1211 m 8 Y s 400 1211 m 8 Y s 440 1204 m 15 Y s 479 1211 m 8 Y s 519 1211 m 8 Y s 559 1211 m 8 Y s 598 1211 m 8 Y s 638 1204 m 15 Y s 241 1204 m 15 Y s 202 1211 m 8 Y s 162 1211 m 8 Y s 122
 1211 m 8 Y s 638 1204 m 15 Y s 678 1211 m 8 Y s 122 735 m 484 Y s 139 735 m -17 X s 131 749 m -9 X s 131 763 m -9 X s 131 776 m -9 X s 131 790 m -9 X s 139 803 m -17 X s 131 817 m -9 X s 131 831 m -9 X s 131 844 m -9 X s 131 858 m -9 X s 139 871 m
 -17 X s 131 885 m -9 X s 131 899 m -9 X s 131 912 m -9 X s 131 926 m -9 X s 139 939 m -17 X s 131 953 m -9 X s 131 966 m -9 X s 131 980 m -9 X s 131 994 m -9 X s 139 1007 m -17 X s 131 1021 m -9 X s 131 1034 m -9 X s 131 1048 m -9 X s 131 1062 m -9
 X s 139 1075 m -17 X s 131 1089 m -9 X s 131 1102 m -9 X s 131 1116 m -9 X s 131 1130 m -9 X s 139 1143 m -17 X s 131 1157 m -9 X s 131 1170 m -9 X s 131 1184 m -9 X s 131 1197 m -9 X s 139 1211 m -17 X s 139 1211 m -17 X s 698 735 m 484 Y s 681 735
 m 17 X s 689 749 m 9 X s 689 763 m 9 X s 689 776 m 9 X s 689 790 m 9 X s 681 803 m 17 X s 689 817 m 9 X s 689 831 m 9 X s 689 844 m 9 X s 689 858 m 9 X s 681 871 m 17 X s 689 885 m 9 X s 689 899 m 9 X s 689 912 m 9 X s 689 926 m 9 X s 681 939 m 17 X
 s 689 953 m 9 X s 689 966 m 9 X s 689 980 m 9 X s 689 994 m 9 X s 681 1007 m 17 X s 689 1021 m 9 X s 689 1034 m 9 X s 689 1048 m 9 X s 689 1062 m 9 X s 681 1075 m 17 X s 689 1089 m 9 X s 689 1102 m 9 X s 689 1116 m 9 X s 689 1130 m 9 X s 681 1143 m
 17 X s 689 1157 m 9 X s 689 1170 m 9 X s 689 1184 m 9 X s 689 1197 m 9 X s 681 1211 m 17 X s 681 1211 m 17 X s
 gsave  710 611 23 650 C 312.854 788.771 t 0 r /Helvetica findfont 22.7926 sf 0 0 m ( = 5 TeV) show NC gr 
 gsave  710 611 23 650 C 291.997 781.187 t 0 r /Helvetica findfont 15.1951 sf 0 0 m (NN) show NC gr 
 gsave  710 611 23 650 C 280.62 788.771 t 0 r /Helvetica findfont 22.7926 sf 0 0 m (s) show NC gr  271 802 m 4 -21 d s 0 lw 275 781 m 4 29 d s 279 810 m 34 X s
 gsave  710 611 23 650 C 163.063 788.771 t 0 r /Helvetica findfont 22.7926 sf 0 0 m (pPb\(Pwd\) ) show NC gr 
 gsave  710 611 23 650 C 163.063 824.797 t 0 r /Helvetica findfont 28.4907 sf 0 0 m (Preliminary) show NC gr 
 gsave  710 611 23 650 C 163.063 855.134 t 0 r /Helvetica findfont 28.4907 sf 0 0 m (LHCb) show NC gr 
 gsave  710 611 23 650 C 455.06 834.277 t 0 r /Helvetica findfont 28.4907 sf 0 0 m (2.5< y <4.0) show NC gr 
 gsave  710 611 23 650 C 530.904 803.94 t 0 r /Helvetica findfont 28.4907 sf 0 0 m ( < 2 GeV/c) show NC gr 
 gsave  710 611 23 650 C 519.527 788.771 t 0 r /Helvetica findfont 18.9938 sf 0 0 m (T) show NC gr 
 gsave  710 611 23 650 C 455.06 803.94 t 0 r /Helvetica findfont 28.4907 sf 0 0 m ( 0< p) show NC gr  6 lw 1 1 1 c 710 611 779 650 bf black 1 1 1 c 576 484 878 735 bf black 576 484 878 735 bl 1 1 1 c 576 484 878 735 bf black 576 484 878 735 bl 878
 735 m 576 X s
 gsave  710 611 779 650 C 1444.82 665.526 t 0 r /Helvetica findfont 34.1889 sf 0 0 m (]) show NC gr 
 gsave  710 611 779 650 C 1431.54 680.694 t 0 r /Helvetica findfont 22.7926 sf 0 0 m (2) show NC gr 
 gsave  710 611 779 650 C 1315.88 665.526 t 0 r /Helvetica findfont 34.1889 sf 0 0 m ( [MeV/c) show NC gr 
 gsave  710 611 779 650 C 1302.61 657.941 t 0 r /Symbol findfont 22.7926 sf 0 0 m (m) show NC gr 
 gsave  710 611 779 650 C 1289.34 657.941 t 0 r /Symbol findfont 22.7926 sf 0 0 m (m) show NC gr 
 gsave  710 611 779 650 C 1262.79 665.526 t 0 r /Helvetica findfont 34.1889 sf 0 0 m (m) show NC gr  997 750 m -15 Y s 1037 743 m -8 Y s 1077 743 m -8 Y s 1116 743 m -8 Y s 1156 743 m -8 Y s 1196 750 m -15 Y s 1235 743 m -8 Y s 1275 743 m -8 Y s 1315
 743 m -8 Y s 1354 743 m -8 Y s 1394 750 m -15 Y s 997 750 m -15 Y s 957 743 m -8 Y s 918 743 m -8 Y s 878 743 m -8 Y s 1394 750 m -15 Y s 1434 743 m -8 Y s
 gsave  710 611 779 650 C 963.211 703.447 t 0 r /Helvetica findfont 28.4907 sf 0 0 m (3600) show NC gr 
 gsave  710 611 779 650 C 1162.3 703.447 t 0 r /Helvetica findfont 28.4907 sf 0 0 m (3700) show NC gr 
 gsave  710 611 779 650 C 1361.39 703.447 t 0 r /Helvetica findfont 28.4907 sf 0 0 m (3800) show NC gr  878 1219 m 576 X s 997 1204 m 15 Y s 1037 1211 m 8 Y s 1077 1211 m 8 Y s 1116 1211 m 8 Y s 1156 1211 m 8 Y s 1196 1204 m 15 Y s 1235 1211 m 8 Y s
 1275 1211 m 8 Y s 1315 1211 m 8 Y s 1354 1211 m 8 Y s 1394 1204 m 15 Y s 997 1204 m 15 Y s 957 1211 m 8 Y s 918 1211 m 8 Y s 878 1211 m 8 Y s 1394 1204 m 15 Y s 1434 1211 m 8 Y s 878 735 m 484 Y s
 gsave  710 611 779 650 C 822.9 1209.7 t 90 r /Helvetica findfont 34.1889 sf 0 0 m (\)) show NC gr 
 gsave  710 611 779 650 C 807.732 1196.43 t 90 r /Helvetica findfont 22.7926 sf 0 0 m (2) show NC gr 
 gsave  710 611 779 650 C 822.9 908.224 t 90 r /Helvetica findfont 34.1889 sf 0 0 m (Events / \(10 MeV/c) show NC gr  895 735 m -17 X s 886 748 m -8 X s 886 761 m -8 X s 886 773 m -8 X s 886 786 m -8 X s 895 798 m -17 X s 886 811 m -8 X s 886 824 m
 -8 X s 886 836 m -8 X s 886 849 m -8 X s 895 861 m -17 X s 886 874 m -8 X s 886 887 m -8 X s 886 899 m -8 X s 886 912 m -8 X s 895 924 m -17 X s 886 937 m -8 X s 886 950 m -8 X s 886 962 m -8 X s 886 975 m -8 X s 895 987 m -17 X s 886 1000 m -8 X s
 886 1013 m -8 X s 886 1025 m -8 X s 886 1038 m -8 X s 895 1050 m -17 X s 886 1063 m -8 X s 886 1075 m -8 X s 886 1088 m -8 X s 886 1101 m -8 X s 895 1113 m -17 X s 886 1126 m -8 X s 886 1138 m -8 X s 886 1151 m -8 X s 886 1164 m -8 X s 895 1176 m
 -17 X s 895 1176 m -17 X s 886 1189 m -8 X s 886 1201 m -8 X s 886 1214 m -8 X s
 gsave  710 611 779 650 C 858.926 724.304 t 0 r /Helvetica findfont 28.4907 sf 0 0 m (0) show NC gr 
 gsave  710 611 779 650 C 858.926 788.771 t 0 r /Helvetica findfont 28.4907 sf 0 0 m (5) show NC gr 
 gsave  710 611 779 650 C 843.757 851.342 t 0 r /Helvetica findfont 28.4907 sf 0 0 m (10) show NC gr 
 gsave  710 611 779 650 C 841.861 913.913 t 0 r /Helvetica findfont 28.4907 sf 0 0 m (15) show NC gr 
 gsave  710 611 779 650 C 843.757 976.483 t 0 r /Helvetica findfont 28.4907 sf 0 0 m (20) show NC gr 
 gsave  710 611 779 650 C 841.861 1039.05 t 0 r /Helvetica findfont 28.4907 sf 0 0 m (25) show NC gr 
 gsave  710 611 779 650 C 843.757 1103.52 t 0 r /Helvetica findfont 28.4907 sf 0 0 m (30) show NC gr 
 gsave  710 611 779 650 C 841.861 1166.09 t 0 r /Helvetica findfont 28.4907 sf 0 0 m (35) show NC gr  1454 735 m 484 Y s 1437 735 m 17 X s 1445 748 m 9 X s 1445 761 m 9 X s 1445 773 m 9 X s 1445 786 m 9 X s 1437 798 m 17 X s 1445 811 m 9 X s 1445 824
 m 9 X s 1445 836 m 9 X s 1445 849 m 9 X s 1437 861 m 17 X s 1445 874 m 9 X s 1445 887 m 9 X s 1445 899 m 9 X s 1445 912 m 9 X s 1437 924 m 17 X s 1445 937 m 9 X s 1445 950 m 9 X s 1445 962 m 9 X s 1445 975 m 9 X s 1437 987 m 17 X s 1445 1000 m 9 X s
 1445 1013 m 9 X s 1445 1025 m 9 X s 1445 1038 m 9 X s 1437 1050 m 17 X s 1445 1063 m 9 X s 1445 1075 m 9 X s 1445 1088 m 9 X s 1445 1101 m 9 X s 1437 1113 m 17 X s 1445 1126 m 9 X s 1445 1138 m 9 X s 1445 1151 m 9 X s 1445 1164 m 9 X s 1437 1176 m
 17 X s 1437 1176 m 17 X s 1445 1189 m 9 X s 1445 1201 m 9 X s 1445 1214 m 9 X s 888 962 m -10 X s 878 958 m 8 Y s 888 962 m 10 X s 898 958 m 8 Y s 888 962 m 67 Y s 884 1029 m 8 X s 888 962 m -53 Y s 884 909 m 8 X s 908 912 m -10 X s 898 908 m 8 Y s
 908 912 m 10 X s 918 908 m 8 Y s 908 912 m 61 Y s 904 973 m 8 X s 908 912 m -47 Y s 904 865 m 8 X s 928 861 m -10 X s 918 858 m 7 Y s 928 861 m 10 X s 938 858 m 7 Y s 928 861 m 54 Y s 924 915 m 7 X s 928 861 m -39 Y s 924 822 m 7 X s 948 912 m -10 X
 s 938 908 m 8 Y s 948 912 m 9 X s 957 908 m 8 Y s 948 912 m 61 Y s 944 973 m 7 X s 948 912 m -47 Y s 944 865 m 7 X s 967 950 m -10 X s 957 946 m 7 Y s 967 950 m 10 X s 977 946 m 7 Y s 967 950 m 65 Y s 964 1015 m 7 X s 967 950 m -52 Y s 964 898 m 7 X
 s 987 1000 m -10 X s 977 996 m 8 Y s 987 1000 m 10 X s 997 996 m 8 Y s 987 1000 m 71 Y s 983 1071 m 8 X s 987 1000 m -57 Y s 983 943 m 8 X s 1007 1050 m -10 X s 997 1047 m 7 Y s 1007 1050 m 10 X s 1017 1047 m 7 Y s 1007 1050 m 77 Y s 1003 1127 m 8 X
 s 1007 1050 m -62 Y s 1003 988 m 8 X s 1027 962 m -10 X s 1017 958 m 8 Y s 1027 962 m 10 X s 1037 958 m 8 Y s 1027 962 m 67 Y s 1023 1029 m 8 X s 1027 962 m -53 Y s 1023 909 m 8 X s 1047 924 m -10 X s 1037 921 m 7 Y s 1047 924 m 10 X s 1057 921 m 7
 Y s 1047 924 m 63 Y s 1043 987 m 8 X s 1047 924 m -48 Y s 1043 876 m 8 X s 1067 937 m -10 X s 1057 933 m 8 Y s 1067 937 m 10 X s 1077 933 m 8 Y s 1067 937 m 64 Y s 1063 1001 m 7 X s 1067 937 m -50 Y s 1063 887 m 7 X s 1086 1000 m -9 X s 1077 996 m 8
 Y s 1086 1000 m 10 X s 1096 996 m 8 Y s 1086 1000 m 71 Y s 1083 1071 m 7 X s 1086 1000 m -57 Y s 1083 943 m 7 X s 1106 987 m -10 X s 1096 984 m 7 Y s 1106 987 m 10 X s 1116 984 m 7 Y s 1106 987 m 70 Y s 1103 1057 m 7 X s 1106 987 m -56 Y s 1103 931
 m 7 X s 1126 987 m -10 X s 1116 984 m 7 Y s 1126 987 m 10 X s 1136 984 m 7 Y s 1126 987 m 70 Y s 1122 1057 m 8 X s 1126 987 m -56 Y s 1122 931 m 8 X s 1146 1113 m -10 X s 1136 1109 m 8 Y s 1146 1113 m 10 X s 1156 1109 m 8 Y s 1146 1113 m 83 Y s 1142
 1196 m 8 X s 1146 1113 m -68 Y s 1142 1045 m 8 X s 1166 1113 m -10 X s 1156 1109 m 8 Y s 1166 1113 m 10 X s 1176 1109 m 8 Y s 1166 1113 m 83 Y s 1162 1196 m 8 X s 1166 1113 m -68 Y s 1162 1045 m 8 X s 1186 1000 m -10 X s 1176 996 m 8 Y s 1186 1000 m
 10 X s 1196 996 m 8 Y s 1186 1000 m 71 Y s 1182 1071 m 7 X s 1186 1000 m -57 Y s 1182 943 m 7 X s 1206 1088 m -10 X s 1196 1084 m 8 Y s 1206 1088 m 9 X s 1215 1084 m 8 Y s 1206 1088 m 80 Y s 1202 1168 m 7 X s 1206 1088 m -66 Y s 1202 1022 m 7 X s
 1225 937 m -10 X s 1215 933 m 8 Y s 1225 937 m 10 X s 1235 933 m 8 Y s 1225 937 m 64 Y s 1222 1001 m 7 X s 1225 937 m -50 Y s 1222 887 m 7 X s 1245 950 m -10 X s 1235 946 m 7 Y s 1245 950 m 10 X s 1255 946 m 7 Y s 1245 950 m 65 Y s 1241 1015 m 8 X s
 1245 950 m -52 Y s 1241 898 m 8 X s 1265 874 m -10 X s 1255 870 m 8 Y s 1265 874 m 10 X s 1275 870 m 8 Y s 1265 874 m 56 Y s 1261 930 m 8 X s 1265 874 m -41 Y s 1261 833 m 8 X s 1285 887 m -10 X s 1275 883 m 7 Y s 1285 887 m 10 X s 1295 883 m 7 Y s
 1285 887 m 57 Y s 1281 944 m 8 X s 1285 887 m -43 Y s 1281 844 m 8 X s 1305 950 m -10 X s 1295 946 m 7 Y s 1305 950 m 10 X s 1315 946 m 7 Y s 1305 950 m 65 Y s 1301 1015 m 8 X s 1305 950 m -52 Y s 1301 898 m 8 X s 1325 975 m -10 X s 1315 971 m 8 Y s
 1325 975 m 10 X s 1335 971 m 8 Y s 1325 975 m 68 Y s 1321 1043 m 7 X s 1325 975 m -55 Y s 1321 920 m 7 X s 1344 874 m -9 X s 1335 870 m 8 Y s 1344 874 m 10 X s 1354 870 m 8 Y s 1344 874 m 56 Y s 1341 930 m 7 X s 1344 874 m -41 Y s 1341 833 m 7 X s
 1364 912 m -10 X s 1354 908 m 8 Y s 1364 912 m 10 X s 1374 908 m 8 Y s 1364 912 m 61 Y s 1361 973 m 7 X s 1364 912 m -47 Y s 1361 865 m 7 X s 1384 924 m -10 X s 1374 921 m 7 Y s 1384 924 m 10 X s 1394 921 m 7 Y s 1384 924 m 63 Y s 1380 987 m 8 X s
 1384 924 m -48 Y s 1380 876 m 8 X s 1404 849 m -10 X s 1394 845 m 8 Y s 1404 849 m 10 X s 1414 845 m 8 Y s 1404 849 m 52 Y s 1400 901 m 8 X s 1404 849 m -37 Y s 1400 812 m 8 X s 1424 861 m -10 X s 1414 858 m 7 Y s 1424 861 m 10 X s 1434 858 m 7 Y s
 1424 861 m 54 Y s 1420 915 m 8 X s 1424 861 m -39 Y s 1420 822 m 8 X s 1444 912 m -10 X s 1434 908 m 8 Y s 1444 912 m 10 X s 1454 908 m 8 Y s 1444 912 m 61 Y s 1440 973 m 7 X s 1444 912 m -47 Y s 1440 865 m 7 X s 3 lw 888 962 908 912 928 861 948 912
 967 950 987 1000 1007 1050 1027 962 1047 924 1067 937 1086 1000 1106 987 1126 987 1146 1113 1166 1113 1186 1000 1206 1088 1225 937 1245 950 1265 874 1285 887 1305 950 1325 975 1344 874 1364 912 1384 924 1404 849 1424 861 1444 912 29 { m20} R 6 lw 0
 1 0 c[ 4 8] 0 sd 9 lw black 0 1 0 c 878 958 m cl s 878 958 m 20 -3 d 20 -2 d 20 -3 d 19 -2 d 20 -2 d 20 -2 d 20 -3 d 20 -2 d 20 -2 d 20 -2 d 19 -3 d 20 -2 d 20 -2 d 20 -2 d 20 -2 d 20 -2 d 19 -2 d 20 -2 d 20 -2 d 20 -2 d 20 -2 d 20 -2 d 20 -2 d 19
 -2 d 20 -1 d 20 -2 d 20 -2 d 20 -2 d 20 -2 d s 0 0 1 c[ 12 12] 0 sd black 0 0 1 c 878 737 m cl s 878 737 m 79 X 20 1 d 20 X 20 1 d 20 1 d 20 1 d 10 1 d 10 2 d 4 1 d 5 2 d 5 3 d 3 2 d 2 2 d 3 3 d 2 4 d 3 4 d 2 4 d 3 5 d 2 5 d 3 6 d 2 7 d 3 7 d 2 7 d
 5 15 d 5 17 d 5 17 d 5 17 d 3 8 d 2 8 d 2 7 d 3 6 d 2 6 d 3 5 d 2 4 d 3 4 d 2 2 d 3 1 d 2 X 3 -1 d 2 -2 d 3 -3 d 2 -4 d 3 -4 d 2 -6 d 3 -7 d 2 -7 d 3 -7 d 5 -16 d 10 -34 d 4 -17 d 3 -7 d 2 -8 d 3 -7 d 2 -6 d 3 -6 d 2 -6 d 3 -5 d 2 -4 d 3 -4 d 2 -4 d
 3 -3 d 2 -3 d 5 -5 d 5 -4 d 5 -2 d 5 -2 d 5 -1 d 10 -2 d 20 X 20 -1 d 139 X s 1 0 0 c[  ] 0 sd black 1 0 0 c 878 959 m cl s 878 959 m 20 -2 d 20 -3 d 20 -2 d 19 -2 d 20 -2 d 20 -2 d 20 -1 d 20 -2 d 20 -1 d 10 1 d 10 X 4 1 d 5 1 d 5 2 d 3 2 d 2 2 d 3
 3 d 2 3 d 3 4 d 2 4 d 3 5 d 2 5 d 3 6 d 2 6 d 3 6 d 2 7 d 5 15 d 5 16 d 5 17 d 5 16 d 5 15 d 2 7 d 3 7 d 2 5 d 3 5 d 2 4 d 3 3 d 2 2 d 3 1 d 2 X 3 -2 d 2 -2 d 3 -3 d 2 -4 d 3 -5 d 2 -6 d 3 -7 d 2 -7 d 3 -8 d 5 -17 d 10 -35 d 4 -17 d 5 -15 d 3 -7 d 2
 -7 d 3 -6 d 2 -6 d 3 -5 d 2 -5 d 3 -5 d 2 -4 d 5 -6 d 5 -5 d 5 -4 d 5 -4 d 5 -2 d 5 -2 d 10 -2 d 20 -3 d 20 -2 d 20 -2 d 19 -2 d 20 -1 d 20 -2 d 20 -2 d 20 -2 d 20 -2 d s black 6 lw 878 735 m 576 X s 997 750 m -15 Y s 1037 743 m -8 Y s 1077 743 m -8
 Y s 1116 743 m -8 Y s 1156 743 m -8 Y s 1196 750 m -15 Y s 1235 743 m -8 Y s 1275 743 m -8 Y s 1315 743 m -8 Y s 1354 743 m -8 Y s 1394 750 m -15 Y s 997 750 m -15 Y s 957 743 m -8 Y s 918 743 m -8 Y s 878 743 m -8 Y s 1394 750 m -15 Y s 1434 743 m
 -8 Y s 878 1219 m 576 X s 997 1204 m 15 Y s 1037 1211 m 8 Y s 1077 1211 m 8 Y s 1116 1211 m 8 Y s 1156 1211 m 8 Y s 1196 1204 m 15 Y s 1235 1211 m 8 Y s 1275 1211 m 8 Y s 1315 1211 m 8 Y s 1354 1211 m 8 Y s 1394 1204 m 15 Y s 997 1204 m 15 Y s 957
 1211 m 8 Y s 918 1211 m 8 Y s 878 1211 m 8 Y s 1394 1204 m 15 Y s 1434 1211 m 8 Y s 878 735 m 484 Y s 895 735 m -17 X s 886 748 m -8 X s 886 761 m -8 X s 886 773 m -8 X s 886 786 m -8 X s 895 798 m -17 X s 886 811 m -8 X s 886 824 m -8 X s 886 836 m
 -8 X s 886 849 m -8 X s 895 861 m -17 X s 886 874 m -8 X s 886 887 m -8 X s 886 899 m -8 X s 886 912 m -8 X s 895 924 m -17 X s 886 937 m -8 X s 886 950 m -8 X s 886 962 m -8 X s 886 975 m -8 X s 895 987 m -17 X s 886 1000 m -8 X s 886 1013 m -8 X s
 886 1025 m -8 X s 886 1038 m -8 X s 895 1050 m -17 X s 886 1063 m -8 X s 886 1075 m -8 X s 886 1088 m -8 X s 886 1101 m -8 X s 895 1113 m -17 X s 886 1126 m -8 X s 886 1138 m -8 X s 886 1151 m -8 X s 886 1164 m -8 X s 895 1176 m -17 X s 895 1176 m
 -17 X s 886 1189 m -8 X s 886 1201 m -8 X s 886 1214 m -8 X s 1454 735 m 484 Y s 1437 735 m 17 X s 1445 748 m 9 X s 1445 761 m 9 X s 1445 773 m 9 X s 1445 786 m 9 X s 1437 798 m 17 X s 1445 811 m 9 X s 1445 824 m 9 X s 1445 836 m 9 X s 1445 849 m 9
 X s 1437 861 m 17 X s 1445 874 m 9 X s 1445 887 m 9 X s 1445 899 m 9 X s 1445 912 m 9 X s 1437 924 m 17 X s 1445 937 m 9 X s 1445 950 m 9 X s 1445 962 m 9 X s 1445 975 m 9 X s 1437 987 m 17 X s 1445 1000 m 9 X s 1445 1013 m 9 X s 1445 1025 m 9 X s
 1445 1038 m 9 X s 1437 1050 m 17 X s 1445 1063 m 9 X s 1445 1075 m 9 X s 1445 1088 m 9 X s 1445 1101 m 9 X s 1437 1113 m 17 X s 1445 1126 m 9 X s 1445 1138 m 9 X s 1445 1151 m 9 X s 1445 1164 m 9 X s 1437 1176 m 17 X s 1437 1176 m 17 X s 1445 1189 m
 9 X s 1445 1201 m 9 X s 1445 1214 m 9 X s
 gsave  710 611 779 650 C 1069.39 788.771 t 0 r /Helvetica findfont 22.7926 sf 0 0 m ( = 5 TeV) show NC gr 
 gsave  710 611 779 650 C 1048.53 781.187 t 0 r /Helvetica findfont 15.1951 sf 0 0 m (NN) show NC gr 
 gsave  710 611 779 650 C 1037.16 788.771 t 0 r /Helvetica findfont 22.7926 sf 0 0 m (s) show NC gr  1028 802 m 3 -21 d s 0 lw 1031 781 m 4 29 d s 1035 810 m 34 X s
 gsave  710 611 779 650 C 919.601 788.771 t 0 r /Helvetica findfont 22.7926 sf 0 0 m (pPb\(Pwd\) ) show NC gr 
 gsave  710 611 779 650 C 919.601 824.797 t 0 r /Helvetica findfont 28.4907 sf 0 0 m (Preliminary) show NC gr 
 gsave  710 611 779 650 C 919.601 855.134 t 0 r /Helvetica findfont 28.4907 sf 0 0 m (LHCb) show NC gr 
 gsave  710 611 779 650 C 1211.6 834.277 t 0 r /Helvetica findfont 28.4907 sf 0 0 m (2.5< y <4.0) show NC gr 
 gsave  710 611 779 650 C 1287.44 803.94 t 0 r /Helvetica findfont 28.4907 sf 0 0 m ( < 3 GeV/c) show NC gr 
 gsave  710 611 779 650 C 1276.06 788.771 t 0 r /Helvetica findfont 18.9938 sf 0 0 m (T) show NC gr 
 gsave  710 611 779 650 C 1211.6 803.94 t 0 r /Helvetica findfont 28.4907 sf 0 0 m ( 2< p) show NC gr  6 lw 1 1 1 c 711 611 1534 650 bf black 1 1 1 c 576 484 1634 735 bf black 576 484 1634 735 bl 1 1 1 c 576 484 1634 735 bf black 576 484 1634 735 bl
 1634 735 m 576 X s
 gsave  711 611 1534 650 C 2201.35 665.526 t 0 r /Helvetica findfont 34.1889 sf 0 0 m (]) show NC gr 
 gsave  711 611 1534 650 C 2188.08 680.694 t 0 r /Helvetica findfont 22.7926 sf 0 0 m (2) show NC gr 
 gsave  711 611 1534 650 C 2072.42 665.526 t 0 r /Helvetica findfont 34.1889 sf 0 0 m ( [MeV/c) show NC gr 
 gsave  711 611 1534 650 C 2059.15 657.941 t 0 r /Symbol findfont 22.7926 sf 0 0 m (m) show NC gr 
 gsave  711 611 1534 650 C 2045.87 657.941 t 0 r /Symbol findfont 22.7926 sf 0 0 m (m) show NC gr 
 gsave  711 611 1534 650 C 2019.33 665.526 t 0 r /Helvetica findfont 34.1889 sf 0 0 m (m) show NC gr  1753 750 m -15 Y s 1793 743 m -8 Y s 1832 743 m -8 Y s 1872 743 m -8 Y s 1912 743 m -8 Y s 1952 750 m -15 Y s 1991 743 m -8 Y s 2031 743 m -8 Y s
 2071 743 m -8 Y s 2110 743 m -8 Y s 2150 750 m -15 Y s 1753 750 m -15 Y s 1713 743 m -8 Y s 1674 743 m -8 Y s 1634 743 m -8 Y s 2150 750 m -15 Y s 2190 743 m -8 Y s
 gsave  711 611 1534 650 C 1719.75 703.447 t 0 r /Helvetica findfont 28.4907 sf 0 0 m (3600) show NC gr 
 gsave  711 611 1534 650 C 1918.84 703.447 t 0 r /Helvetica findfont 28.4907 sf 0 0 m (3700) show NC gr 
 gsave  711 611 1534 650 C 2116.03 703.447 t 0 r /Helvetica findfont 28.4907 sf 0 0 m (3800) show NC gr  1634 1219 m 576 X s 1753 1204 m 15 Y s 1793 1211 m 8 Y s 1832 1211 m 8 Y s 1872 1211 m 8 Y s 1912 1211 m 8 Y s 1952 1204 m 15 Y s 1991 1211 m 8 Y
 s 2031 1211 m 8 Y s 2071 1211 m 8 Y s 2110 1211 m 8 Y s 2150 1204 m 15 Y s 1753 1204 m 15 Y s 1713 1211 m 8 Y s 1674 1211 m 8 Y s 1634 1211 m 8 Y s 2150 1204 m 15 Y s 2190 1211 m 8 Y s 1634 735 m 484 Y s
 gsave  711 611 1534 650 C 1577.54 1209.7 t 90 r /Helvetica findfont 34.1889 sf 0 0 m (\)) show NC gr 
 gsave  711 611 1534 650 C 1562.37 1196.43 t 90 r /Helvetica findfont 22.7926 sf 0 0 m (2) show NC gr 
 gsave  711 611 1534 650 C 1577.54 908.224 t 90 r /Helvetica findfont 34.1889 sf 0 0 m (Events / \(10 MeV/c) show NC gr  1651 735 m -17 X s 1642 748 m -8 X s 1642 761 m -8 X s 1642 774 m -8 X s 1642 787 m -8 X s 1651 800 m -17 X s 1642 813 m -8 X s
 1642 826 m -8 X s 1642 839 m -8 X s 1642 852 m -8 X s 1651 865 m -17 X s 1642 878 m -8 X s 1642 891 m -8 X s 1642 904 m -8 X s 1642 917 m -8 X s 1651 930 m -17 X s 1642 943 m -8 X s 1642 956 m -8 X s 1642 969 m -8 X s 1642 982 m -8 X s 1651 995 m
 -17 X s 1642 1008 m -8 X s 1642 1021 m -8 X s 1642 1034 m -8 X s 1642 1047 m -8 X s 1651 1060 m -17 X s 1642 1073 m -8 X s 1642 1086 m -8 X s 1642 1099 m -8 X s 1642 1112 m -8 X s 1651 1125 m -17 X s 1642 1138 m -8 X s 1642 1151 m -8 X s 1642 1164 m
 -8 X s 1642 1177 m -8 X s 1651 1190 m -17 X s 1651 1190 m -17 X s 1642 1203 m -8 X s 1642 1216 m -8 X s
 gsave  711 611 1534 650 C 1613.57 724.304 t 0 r /Helvetica findfont 28.4907 sf 0 0 m (0) show NC gr 
 gsave  711 611 1534 650 C 1613.57 790.667 t 0 r /Helvetica findfont 28.4907 sf 0 0 m (5) show NC gr 
 gsave  711 611 1534 650 C 1598.4 855.134 t 0 r /Helvetica findfont 28.4907 sf 0 0 m (10) show NC gr 
 gsave  711 611 1534 650 C 1596.5 919.601 t 0 r /Helvetica findfont 28.4907 sf 0 0 m (15) show NC gr 
 gsave  711 611 1534 650 C 1598.4 984.068 t 0 r /Helvetica findfont 28.4907 sf 0 0 m (20) show NC gr 
 gsave  711 611 1534 650 C 1596.5 1050.43 t 0 r /Helvetica findfont 28.4907 sf 0 0 m (25) show NC gr 
 gsave  711 611 1534 650 C 1598.4 1114.9 t 0 r /Helvetica findfont 28.4907 sf 0 0 m (30) show NC gr 
 gsave  711 611 1534 650 C 1596.5 1179.36 t 0 r /Helvetica findfont 28.4907 sf 0 0 m (35) show NC gr  2210 735 m 484 Y s 2193 735 m 17 X s 2201 748 m 9 X s 2201 761 m 9 X s 2201 774 m 9 X s 2201 787 m 9 X s 2193 800 m 17 X s 2201 813 m 9 X s 2201 826
 m 9 X s 2201 839 m 9 X s 2201 852 m 9 X s 2193 865 m 17 X s 2201 878 m 9 X s 2201 891 m 9 X s 2201 904 m 9 X s 2201 917 m 9 X s 2193 930 m 17 X s 2201 943 m 9 X s 2201 956 m 9 X s 2201 969 m 9 X s 2201 982 m 9 X s 2193 995 m 17 X s 2201 1008 m 9 X s
 2201 1021 m 9 X s 2201 1034 m 9 X s 2201 1047 m 9 X s 2193 1060 m 17 X s 2201 1073 m 9 X s 2201 1086 m 9 X s 2201 1099 m 9 X s 2201 1112 m 9 X s 2193 1125 m 17 X s 2201 1138 m 9 X s 2201 1151 m 9 X s 2201 1164 m 9 X s 2201 1177 m 9 X s 2193 1190 m
 17 X s 2193 1190 m 17 X s 2201 1203 m 9 X s 2201 1216 m 9 X s 1644 891 m -10 X s 1634 887 m 8 Y s 1644 891 m 10 X s 1654 887 m 8 Y s 1644 891 m 59 Y s 1640 950 m 8 X s 1644 891 m -44 Y s 1640 847 m 8 X s 1664 930 m -10 X s 1654 926 m 8 Y s 1664 930
 m 10 X s 1674 926 m 8 Y s 1664 930 m 65 Y s 1660 995 m 8 X s 1664 930 m -50 Y s 1660 880 m 8 X s 1684 826 m -10 X s 1674 823 m 7 Y s 1684 826 m 10 X s 1694 823 m 7 Y s 1684 826 m 49 Y s 1680 875 m 7 X s 1684 826 m -33 Y s 1680 793 m 7 X s 1703 904 m
 -9 X s 1694 900 m 8 Y s 1703 904 m 10 X s 1713 900 m 8 Y s 1703 904 m 61 Y s 1700 965 m 7 X s 1703 904 m -46 Y s 1700 858 m 7 X s 1723 904 m -10 X s 1713 900 m 8 Y s 1723 904 m 10 X s 1733 900 m 8 Y s 1723 904 m 61 Y s 1719 965 m 8 X s 1723 904 m
 -46 Y s 1719 858 m 8 X s 1743 982 m -10 X s 1733 978 m 8 Y s 1743 982 m 10 X s 1753 978 m 8 Y s 1743 982 m 71 Y s 1739 1053 m 8 X s 1743 982 m -56 Y s 1739 926 m 8 X s 1763 878 m -10 X s 1753 874 m 8 Y s 1763 878 m 10 X s 1773 874 m 8 Y s 1763 878 m
 58 Y s 1759 936 m 8 X s 1763 878 m -42 Y s 1759 836 m 8 X s 1783 982 m -10 X s 1773 978 m 8 Y s 1783 982 m 10 X s 1793 978 m 8 Y s 1783 982 m 71 Y s 1779 1053 m 8 X s 1783 982 m -56 Y s 1779 926 m 8 X s 1803 943 m -10 X s 1793 939 m 8 Y s 1803 943 m
 10 X s 1813 939 m 8 Y s 1803 943 m 66 Y s 1799 1009 m 7 X s 1803 943 m -51 Y s 1799 892 m 7 X s 1823 865 m -10 X s 1813 861 m 8 Y s 1823 865 m 9 X s 1832 861 m 8 Y s 1823 865 m 56 Y s 1819 921 m 7 X s 1823 865 m -40 Y s 1819 825 m 7 X s 1842 891 m
 -10 X s 1832 887 m 8 Y s 1842 891 m 10 X s 1852 887 m 8 Y s 1842 891 m 59 Y s 1839 950 m 7 X s 1842 891 m -44 Y s 1839 847 m 7 X s 1862 982 m -10 X s 1852 978 m 8 Y s 1862 982 m 10 X s 1872 978 m 8 Y s 1862 982 m 71 Y s 1858 1053 m 8 X s 1862 982 m
 -56 Y s 1858 926 m 8 X s 1882 1008 m -10 X s 1872 1004 m 8 Y s 1882 1008 m 10 X s 1892 1004 m 8 Y s 1882 1008 m 73 Y s 1878 1081 m 8 X s 1882 1008 m -59 Y s 1878 949 m 8 X s 1902 982 m -10 X s 1892 978 m 8 Y s 1902 982 m 10 X s 1912 978 m 8 Y s 1902
 982 m 71 Y s 1898 1053 m 8 X s 1902 982 m -56 Y s 1898 926 m 8 X s 1922 1112 m -10 X s 1912 1108 m 8 Y s 1922 1112 m 10 X s 1932 1108 m 8 Y s 1922 1112 m 84 Y s 1918 1196 m 8 X s 1922 1112 m -70 Y s 1918 1042 m 8 X s 1942 1086 m -10 X s 1932 1082 m
 8 Y s 1942 1086 m 10 X s 1952 1082 m 8 Y s 1942 1086 m 81 Y s 1938 1167 m 7 X s 1942 1086 m -67 Y s 1938 1019 m 7 X s 1961 956 m -9 X s 1952 952 m 8 Y s 1961 956 m 10 X s 1971 952 m 8 Y s 1961 956 m 68 Y s 1958 1024 m 7 X s 1961 956 m -53 Y s 1958
 903 m 7 X s 1981 930 m -10 X s 1971 926 m 8 Y s 1981 930 m 10 X s 1991 926 m 8 Y s 1981 930 m 65 Y s 1977 995 m 8 X s 1981 930 m -50 Y s 1977 880 m 8 X s 2001 956 m -10 X s 1991 952 m 8 Y s 2001 956 m 10 X s 2011 952 m 8 Y s 2001 956 m 68 Y s 1997
 1024 m 8 X s 2001 956 m -53 Y s 1997 903 m 8 X s 2021 930 m -10 X s 2011 926 m 8 Y s 2021 930 m 10 X s 2031 926 m 8 Y s 2021 930 m 65 Y s 2017 995 m 8 X s 2021 930 m -50 Y s 2017 880 m 8 X s 2041 917 m -10 X s 2031 913 m 8 Y s 2041 917 m 10 X s 2051
 913 m 8 Y s 2041 917 m 63 Y s 2037 980 m 8 X s 2041 917 m -48 Y s 2037 869 m 8 X s 2061 982 m -10 X s 2051 978 m 8 Y s 2061 982 m 10 X s 2071 978 m 8 Y s 2061 982 m 71 Y s 2057 1053 m 7 X s 2061 982 m -56 Y s 2057 926 m 7 X s 2081 917 m -10 X s 2071
 913 m 8 Y s 2081 917 m 9 X s 2090 913 m 8 Y s 2081 917 m 63 Y s 2077 980 m 7 X s 2081 917 m -48 Y s 2077 869 m 7 X s 2100 917 m -10 X s 2090 913 m 8 Y s 2100 917 m 10 X s 2110 913 m 8 Y s 2100 917 m 63 Y s 2097 980 m 7 X s 2100 917 m -48 Y s 2097
 869 m 7 X s 2120 891 m -10 X s 2110 887 m 8 Y s 2120 891 m 10 X s 2130 887 m 8 Y s 2120 891 m 59 Y s 2116 950 m 8 X s 2120 891 m -44 Y s 2116 847 m 8 X s 2140 917 m -10 X s 2130 913 m 8 Y s 2140 917 m 10 X s 2150 913 m 8 Y s 2140 917 m 63 Y s 2136
 980 m 8 X s 2140 917 m -48 Y s 2136 869 m 8 X s 2160 800 m -10 X s 2150 797 m 7 Y s 2160 800 m 10 X s 2170 797 m 7 Y s 2160 800 m 44 Y s 2156 844 m 8 X s 2160 800 m -28 Y s 2156 772 m 8 X s 2180 969 m -10 X s 2170 965 m 8 Y s 2180 969 m 10 X s 2190
 965 m 8 Y s 2180 969 m 69 Y s 2176 1038 m 8 X s 2180 969 m -54 Y s 2176 915 m 8 X s 2200 878 m -10 X s 2190 874 m 8 Y s 2200 878 m 10 X s 2210 874 m 8 Y s 2200 878 m 58 Y s 2196 936 m 7 X s 2200 878 m -42 Y s 2196 836 m 7 X s 3 lw /w 16 def /w2 {w 2
 div} def /w3 {w 3 div} def 1644 891 1664 930 1684 826 1703 904 1723 904 1743 982 1763 878 1783 982 1803 943 1823 865 1842 891 1862 982 1882 1008 1902 982 1922 1112 1942 1086 1961 956 1981 930 2001 956 2021 930 2041 917 2061 982 2081 917 2100 917
 2120 891 2140 917 2160 800 2180 969 2200 878 29 { m20} R 6 lw 0 1 0 c[ 4 8] 0 sd 9 lw black 0 1 0 c 1634 908 m cl s 1634 908 m 20 X 20 1 d 119 X 20 1 d 119 X 20 1 d 119 X 19 1 d 100 X 20 1 d s 0 0 1 c[ 12 12] 0 sd black 0 0 1 c 1634 737 m cl s 1634
 737 m 79 X 20 1 d 20 X 20 1 d 20 X 20 2 d 10 1 d 4 1 d 5 2 d 5 1 d 5 3 d 3 2 d 2 2 d 3 3 d 2 3 d 3 4 d 2 3 d 3 5 d 2 4 d 3 5 d 2 5 d 3 6 d 2 5 d 5 13 d 5 13 d 10 27 d 5 13 d 2 6 d 3 6 d 2 5 d 3 4 d 2 4 d 3 3 d 2 2 d 3 2 d 2 1 d 3 X 2 -1 d 3 -2 d 2
 -2 d 3 -3 d 2 -4 d 3 -4 d 2 -5 d 3 -5 d 2 -6 d 3 -6 d 5 -14 d 9 -27 d 5 -13 d 5 -12 d 3 -5 d 2 -6 d 3 -4 d 2 -5 d 3 -4 d 2 -4 d 3 -4 d 2 -3 d 5 -5 d 5 -4 d 5 -3 d 5 -3 d 5 -2 d 5 -1 d 10 -1 d 10 -1 d 10 X 20 -1 d 139 X s 1 0 0 c[  ] 0 sd black 1 0 0
 c 1634 909 m cl s 1634 909 m 20 1 d 40 X 19 1 d 20 X 20 1 d 20 X 20 1 d 20 2 d 10 2 d 4 1 d 5 1 d 5 2 d 5 2 d 3 2 d 2 3 d 3 2 d 2 4 d 3 3 d 2 4 d 3 4 d 2 4 d 3 5 d 2 6 d 5 11 d 5 13 d 5 13 d 10 27 d 5 13 d 2 6 d 3 5 d 2 5 d 3 5 d 2 4 d 3 3 d 2 2 d 3
 2 d 2 1 d 3 X 2 -1 d 3 -2 d 2 -2 d 3 -3 d 2 -4 d 3 -4 d 2 -5 d 3 -5 d 2 -6 d 3 -6 d 5 -13 d 9 -28 d 5 -12 d 5 -12 d 3 -6 d 2 -5 d 3 -5 d 2 -5 d 3 -4 d 2 -4 d 3 -3 d 2 -3 d 5 -6 d 5 -4 d 5 -3 d 5 -2 d 5 -2 d 5 -1 d 10 -2 d 159 X 20 1 d s black 6 lw
 1634 735 m 576 X s 1753 750 m -15 Y s 1793 743 m -8 Y s 1832 743 m -8 Y s 1872 743 m -8 Y s 1912 743 m -8 Y s 1952 750 m -15 Y s 1991 743 m -8 Y s 2031 743 m -8 Y s 2071 743 m -8 Y s 2110 743 m -8 Y s 2150 750 m -15 Y s 1753 750 m -15 Y s 1713 743 m
 -8 Y s 1674 743 m -8 Y s 1634 743 m -8 Y s 2150 750 m -15 Y s 2190 743 m -8 Y s 1634 1219 m 576 X s 1753 1204 m 15 Y s 1793 1211 m 8 Y s 1832 1211 m 8 Y s 1872 1211 m 8 Y s 1912 1211 m 8 Y s 1952 1204 m 15 Y s 1991 1211 m 8 Y s 2031 1211 m 8 Y s
 2071 1211 m 8 Y s 2110 1211 m 8 Y s 2150 1204 m 15 Y s 1753 1204 m 15 Y s 1713 1211 m 8 Y s 1674 1211 m 8 Y s 1634 1211 m 8 Y s 2150 1204 m 15 Y s 2190 1211 m 8 Y s 1634 735 m 484 Y s 1651 735 m -17 X s 1642 748 m -8 X s 1642 761 m -8 X s 1642 774 m
 -8 X s 1642 787 m -8 X s 1651 800 m -17 X s 1642 813 m -8 X s 1642 826 m -8 X s 1642 839 m -8 X s 1642 852 m -8 X s 1651 865 m -17 X s 1642 878 m -8 X s 1642 891 m -8 X s 1642 904 m -8 X s 1642 917 m -8 X s 1651 930 m -17 X s 1642 943 m -8 X s 1642
 956 m -8 X s 1642 969 m -8 X s 1642 982 m -8 X s 1651 995 m -17 X s 1642 1008 m -8 X s 1642 1021 m -8 X s 1642 1034 m -8 X s 1642 1047 m -8 X s 1651 1060 m -17 X s 1642 1073 m -8 X s 1642 1086 m -8 X s 1642 1099 m -8 X s 1642 1112 m -8 X s 1651 1125
 m -17 X s 1642 1138 m -8 X s 1642 1151 m -8 X s 1642 1164 m -8 X s 1642 1177 m -8 X s 1651 1190 m -17 X s 1651 1190 m -17 X s 1642 1203 m -8 X s 1642 1216 m -8 X s 2210 735 m 484 Y s 2193 735 m 17 X s 2201 748 m 9 X s 2201 761 m 9 X s 2201 774 m 9 X
 s 2201 787 m 9 X s 2193 800 m 17 X s 2201 813 m 9 X s 2201 826 m 9 X s 2201 839 m 9 X s 2201 852 m 9 X s 2193 865 m 17 X s 2201 878 m 9 X s 2201 891 m 9 X s 2201 904 m 9 X s 2201 917 m 9 X s 2193 930 m 17 X s 2201 943 m 9 X s 2201 956 m 9 X s 2201
 969 m 9 X s 2201 982 m 9 X s 2193 995 m 17 X s 2201 1008 m 9 X s 2201 1021 m 9 X s 2201 1034 m 9 X s 2201 1047 m 9 X s 2193 1060 m 17 X s 2201 1073 m 9 X s 2201 1086 m 9 X s 2201 1099 m 9 X s 2201 1112 m 9 X s 2193 1125 m 17 X s 2201 1138 m 9 X s
 2201 1151 m 9 X s 2201 1164 m 9 X s 2201 1177 m 9 X s 2193 1190 m 17 X s 2193 1190 m 17 X s 2201 1203 m 9 X s 2201 1216 m 9 X s
 gsave  711 611 1534 650 C 1825.93 788.771 t 0 r /Helvetica findfont 22.7926 sf 0 0 m ( = 5 TeV) show NC gr 
 gsave  711 611 1534 650 C 1805.07 781.187 t 0 r /Helvetica findfont 15.1951 sf 0 0 m (NN) show NC gr 
 gsave  711 611 1534 650 C 1793.7 788.771 t 0 r /Helvetica findfont 22.7926 sf 0 0 m (s) show NC gr  1784 802 m 4 -21 d s 0 lw 1788 781 m 4 29 d s 1792 810 m 34 X s
 gsave  711 611 1534 650 C 1676.14 788.771 t 0 r /Helvetica findfont 22.7926 sf 0 0 m (pPb\(Pwd\) ) show NC gr 
 gsave  711 611 1534 650 C 1676.14 824.797 t 0 r /Helvetica findfont 28.4907 sf 0 0 m (Preliminary) show NC gr 
 gsave  711 611 1534 650 C 1676.14 855.134 t 0 r /Helvetica findfont 28.4907 sf 0 0 m (LHCb) show NC gr 
 gsave  711 611 1534 650 C 1966.24 834.277 t 0 r /Helvetica findfont 28.4907 sf 0 0 m (2.5< y <4.0) show NC gr 
 gsave  711 611 1534 650 C 2042.08 803.94 t 0 r /Helvetica findfont 28.4907 sf 0 0 m ( < 5 GeV/c) show NC gr 
 gsave  711 611 1534 650 C 2030.71 788.771 t 0 r /Helvetica findfont 18.9938 sf 0 0 m (T) show NC gr 
 gsave  711 611 1534 650 C 1966.24 803.94 t 0 r /Helvetica findfont 28.4907 sf 0 0 m ( 3< p) show NC gr  6 lw 1 1 1 c 710 611 23 13 bf black 1 1 1 c 576 484 122 98 bf black 576 484 122 98 bl 1 1 1 c 576 484 122 98 bf black 576 484 122 98 bl 122 98 m
 576 X s
 gsave  710 611 23 13 C 688.279 28.4413 t 0 r /Helvetica findfont 34.1889 sf 0 0 m (]) show NC gr 
 gsave  710 611 23 13 C 675.006 43.6099 t 0 r /Helvetica findfont 22.7926 sf 0 0 m (2) show NC gr 
 gsave  710 611 23 13 C 559.345 28.4413 t 0 r /Helvetica findfont 34.1889 sf 0 0 m ( [MeV/c) show NC gr 
 gsave  710 611 23 13 C 546.072 20.8569 t 0 r /Symbol findfont 22.7926 sf 0 0 m (m) show NC gr 
 gsave  710 611 23 13 C 532.8 20.8569 t 0 r /Symbol findfont 22.7926 sf 0 0 m (m) show NC gr 
 gsave  710 611 23 13 C 506.254 28.4413 t 0 r /Helvetica findfont 34.1889 sf 0 0 m (m) show NC gr  241 113 m -15 Y s 281 106 m -8 Y s 321 106 m -8 Y s 360 106 m -8 Y s 400 106 m -8 Y s 440 113 m -15 Y s 479 106 m -8 Y s 519 106 m -8 Y s 559 106 m -8
 Y s 598 106 m -8 Y s 638 113 m -15 Y s 241 113 m -15 Y s 202 106 m -8 Y s 162 106 m -8 Y s 122 106 m -8 Y s 638 113 m -15 Y s 678 106 m -8 Y s
 gsave  710 611 23 13 C 208.569 66.3629 t 0 r /Helvetica findfont 28.4907 sf 0 0 m (3600) show NC gr 
 gsave  710 611 23 13 C 405.762 66.3629 t 0 r /Helvetica findfont 28.4907 sf 0 0 m (3700) show NC gr 
 gsave  710 611 23 13 C 604.851 66.3629 t 0 r /Helvetica findfont 28.4907 sf 0 0 m (3800) show NC gr  122 582 m 576 X s 241 567 m 15 Y s 281 574 m 8 Y s 321 574 m 8 Y s 360 574 m 8 Y s 400 574 m 8 Y s 440 567 m 15 Y s 479 574 m 8 Y s 519 574 m 8 Y s
 559 574 m 8 Y s 598 574 m 8 Y s 638 567 m 15 Y s 241 567 m 15 Y s 202 574 m 8 Y s 162 574 m 8 Y s 122 574 m 8 Y s 638 567 m 15 Y s 678 574 m 8 Y s 122 98 m 484 Y s
 gsave  710 611 23 13 C 66.3629 572.617 t 90 r /Helvetica findfont 34.1889 sf 0 0 m (\)) show NC gr 
 gsave  710 611 23 13 C 51.1943 559.345 t 90 r /Helvetica findfont 22.7926 sf 0 0 m (2) show NC gr 
 gsave  710 611 23 13 C 66.3629 271.14 t 90 r /Helvetica findfont 34.1889 sf 0 0 m (Events / \(10 MeV/c) show NC gr  139 98 m -17 X s 131 111 m -9 X s 131 123 m -9 X s 131 135 m -9 X s 139 147 m -17 X s 131 159 m -9 X s 131 172 m -9 X s 131 184 m -9
 X s 139 196 m -17 X s 131 208 m -9 X s 131 221 m -9 X s 131 233 m -9 X s 139 245 m -17 X s 131 257 m -9 X s 131 269 m -9 X s 131 282 m -9 X s 139 294 m -17 X s 131 306 m -9 X s 131 318 m -9 X s 131 331 m -9 X s 139 343 m -17 X s 131 355 m -9 X s 131
 367 m -9 X s 131 379 m -9 X s 139 392 m -17 X s 131 404 m -9 X s 131 416 m -9 X s 131 428 m -9 X s 139 440 m -17 X s 131 453 m -9 X s 131 465 m -9 X s 131 477 m -9 X s 139 489 m -17 X s 131 502 m -9 X s 131 514 m -9 X s 131 526 m -9 X s 139 538 m
 -17 X s 139 538 m -17 X s 131 550 m -9 X s 131 563 m -9 X s 131 575 m -9 X s
 gsave  710 611 23 13 C 102.389 87.2199 t 0 r /Helvetica findfont 28.4907 sf 0 0 m (0) show NC gr 
 gsave  710 611 23 13 C 102.389 136.518 t 0 r /Helvetica findfont 28.4907 sf 0 0 m (2) show NC gr 
 gsave  710 611 23 13 C 102.389 185.816 t 0 r /Helvetica findfont 28.4907 sf 0 0 m (4) show NC gr 
 gsave  710 611 23 13 C 102.389 235.114 t 0 r /Helvetica findfont 28.4907 sf 0 0 m (6) show NC gr 
 gsave  710 611 23 13 C 102.389 282.517 t 0 r /Helvetica findfont 28.4907 sf 0 0 m (8) show NC gr 
 gsave  710 611 23 13 C 87.2199 331.815 t 0 r /Helvetica findfont 28.4907 sf 0 0 m (10) show NC gr 
 gsave  710 611 23 13 C 85.3238 381.113 t 0 r /Helvetica findfont 28.4907 sf 0 0 m (12) show NC gr 
 gsave  710 611 23 13 C 85.3238 430.411 t 0 r /Helvetica findfont 28.4907 sf 0 0 m (14) show NC gr 
 gsave  710 611 23 13 C 85.3238 479.709 t 0 r /Helvetica findfont 28.4907 sf 0 0 m (16) show NC gr 
 gsave  710 611 23 13 C 85.3238 527.111 t 0 r /Helvetica findfont 28.4907 sf 0 0 m (18) show NC gr  698 98 m 484 Y s 681 98 m 17 X s 689 111 m 9 X s 689 123 m 9 X s 689 135 m 9 X s 681 147 m 17 X s 689 159 m 9 X s 689 172 m 9 X s 689 184 m 9 X s 681
 196 m 17 X s 689 208 m 9 X s 689 221 m 9 X s 689 233 m 9 X s 681 245 m 17 X s 689 257 m 9 X s 689 269 m 9 X s 689 282 m 9 X s 681 294 m 17 X s 689 306 m 9 X s 689 318 m 9 X s 689 331 m 9 X s 681 343 m 17 X s 689 355 m 9 X s 689 367 m 9 X s 689 379 m
 9 X s 681 392 m 17 X s 689 404 m 9 X s 689 416 m 9 X s 689 428 m 9 X s 681 440 m 17 X s 689 453 m 9 X s 689 465 m 9 X s 689 477 m 9 X s 681 489 m 17 X s 689 502 m 9 X s 689 514 m 9 X s 689 526 m 9 X s 681 538 m 17 X s 681 538 m 17 X s 689 550 m 9 X
 s 689 563 m 9 X s 689 575 m 9 X s 132 196 m -10 X s 122 192 m 8 Y s 132 196 m 10 X s 142 192 m 8 Y s 132 196 m 77 Y s 128 273 m 8 X s 132 196 m -47 Y s 128 149 m 8 X s 152 147 m -10 X s 142 143 m 8 Y s 152 147 m 10 X s 162 143 m 8 Y s 152 147 m 65 Y
 s 148 212 m 8 X s 152 147 m -31 Y s 148 116 m 8 X s 172 98 m -10 X s 162 98 m 4 Y s 172 98 m 10 X s 182 98 m 4 Y s 172 98 m 28 Y s 168 126 m 8 X s 192 147 m -10 X s 182 143 m 8 Y s 192 147 m 10 X s 202 143 m 8 Y s 192 147 m 65 Y s 188 212 m 7 X s
 192 147 m -31 Y s 188 116 m 7 X s 211 172 m -9 X s 202 168 m 7 Y s 211 172 m 10 X s 221 168 m 7 Y s 211 172 m 71 Y s 208 243 m 7 X s 211 172 m -40 Y s 208 132 m 7 X s 231 123 m -10 X s 221 119 m 8 Y s 231 123 m 10 X s 241 119 m 8 Y s 231 123 m 56 Y
 s 228 179 m 7 X s 231 123 m -20 Y s 228 103 m 7 X s 251 196 m -10 X s 241 192 m 8 Y s 251 196 m 10 X s 261 192 m 8 Y s 251 196 m 77 Y s 247 273 m 8 X s 251 196 m -47 Y s 247 149 m 8 X s 271 123 m -10 X s 261 119 m 8 Y s 271 123 m 10 X s 281 119 m 8
 Y s 271 123 m 56 Y s 267 179 m 8 X s 271 123 m -20 Y s 267 103 m 8 X s 291 172 m -10 X s 281 168 m 7 Y s 291 172 m 10 X s 301 168 m 7 Y s 291 172 m 71 Y s 287 243 m 8 X s 291 172 m -40 Y s 287 132 m 8 X s 311 123 m -10 X s 301 119 m 8 Y s 311 123 m
 10 X s 321 119 m 8 Y s 311 123 m 56 Y s 307 179 m 7 X s 311 123 m -20 Y s 307 103 m 7 X s 331 172 m -10 X s 321 168 m 7 Y s 331 172 m 9 X s 340 168 m 7 Y s 331 172 m 71 Y s 327 243 m 7 X s 331 172 m -40 Y s 327 132 m 7 X s 350 172 m -10 X s 340 168
 m 7 Y s 350 172 m 10 X s 360 168 m 7 Y s 350 172 m 71 Y s 347 243 m 7 X s 350 172 m -40 Y s 347 132 m 7 X s 370 294 m -10 X s 360 290 m 8 Y s 370 294 m 10 X s 380 290 m 8 Y s 370 294 m 96 Y s 366 390 m 8 X s 370 294 m -68 Y s 366 226 m 8 X s 390 392
 m -10 X s 380 388 m 7 Y s 390 392 m 10 X s 400 388 m 7 Y s 390 392 m 111 Y s 386 503 m 8 X s 390 392 m -84 Y s 386 308 m 8 X s 410 440 m -10 X s 400 437 m 7 Y s 410 440 m 10 X s 420 437 m 7 Y s 410 440 m 119 Y s 406 559 m 8 X s 410 440 m -90 Y s 406
 350 m 8 X s 430 245 m -10 X s 420 241 m 8 Y s 430 245 m 10 X s 440 241 m 8 Y s 430 245 m 88 Y s 426 333 m 8 X s 430 245 m -58 Y s 426 187 m 8 X s 450 269 m -10 X s 440 266 m 7 Y s 450 269 m 10 X s 460 266 m 7 Y s 450 269 m 93 Y s 446 362 m 7 X s 450
 269 m -63 Y s 446 206 m 7 X s 469 123 m -9 X s 460 119 m 8 Y s 469 123 m 10 X s 479 119 m 8 Y s 469 123 m 56 Y s 466 179 m 7 X s 469 123 m -20 Y s 466 103 m 7 X s 489 172 m -10 X s 479 168 m 7 Y s 489 172 m 10 X s 499 168 m 7 Y s 489 172 m 71 Y s
 486 243 m 7 X s 489 172 m -40 Y s 486 132 m 7 X s 509 147 m -10 X s 499 143 m 8 Y s 509 147 m 10 X s 519 143 m 8 Y s 509 147 m 65 Y s 505 212 m 8 X s 509 147 m -31 Y s 505 116 m 8 X s 529 172 m -10 X s 519 168 m 7 Y s 529 172 m 10 X s 539 168 m 7 Y
 s 529 172 m 71 Y s 525 243 m 8 X s 529 172 m -40 Y s 525 132 m 8 X s 549 123 m -10 X s 539 119 m 8 Y s 549 123 m 10 X s 559 119 m 8 Y s 549 123 m 56 Y s 545 179 m 8 X s 549 123 m -20 Y s 545 103 m 8 X s 569 147 m -10 X s 559 143 m 8 Y s 569 147 m 10
 X s 579 143 m 8 Y s 569 147 m 65 Y s 565 212 m 7 X s 569 147 m -31 Y s 565 116 m 7 X s 589 147 m -10 X s 579 143 m 8 Y s 589 147 m 9 X s 598 143 m 8 Y s 589 147 m 65 Y s 585 212 m 7 X s 589 147 m -31 Y s 585 116 m 7 X s 608 196 m -10 X s 598 192 m 8
 Y s 608 196 m 10 X s 618 192 m 8 Y s 608 196 m 77 Y s 605 273 m 7 X s 608 196 m -47 Y s 605 149 m 7 X s 628 147 m -10 X s 618 143 m 8 Y s 628 147 m 10 X s 638 143 m 8 Y s 628 147 m 65 Y s 624 212 m 8 X s 628 147 m -31 Y s 624 116 m 8 X s 648 221 m
 -10 X s 638 217 m 7 Y s 648 221 m 10 X s 658 217 m 7 Y s 648 221 m 82 Y s 644 303 m 8 X s 648 221 m -53 Y s 644 168 m 8 X s 668 123 m -10 X s 658 119 m 8 Y s 668 123 m 10 X s 678 119 m 8 Y s 668 123 m 56 Y s 664 179 m 8 X s 668 123 m -20 Y s 664 103
 m 8 X s 688 172 m -10 X s 678 168 m 7 Y s 688 172 m 10 X s 698 168 m 7 Y s 688 172 m 71 Y s 684 243 m 8 X s 688 172 m -40 Y s 684 132 m 8 X s 3 lw /w 15 def /w2 {w 2 div} def /w3 {w 3 div} def 132 196 152 147 172 98 192 147 211 172 231 123 251 196
 271 123 291 172 311 123 331 172 350 172 370 294 390 392 410 440 430 245 450 269 469 123 489 172 509 147 529 172 549 123 569 147 589 147 608 196 628 147 648 221 668 123 688 172 29 { m20} R 6 lw 0 1 0 c[ 4 8] 0 sd 9 lw black 0 1 0 c 122 140 m cl s 122
 140 m 20 1 d 20 X 20 1 d 20 1 d 19 X 20 1 d 20 X 20 1 d 20 1 d 20 X 19 1 d 20 1 d 20 X 20 1 d 20 1 d 20 X 20 1 d 19 1 d 20 1 d 20 X 20 1 d 20 1 d 20 1 d 19 X 20 1 d 20 1 d 20 1 d 20 1 d 20 1 d s 0 0 1 c[ 12 12] 0 sd black 0 0 1 c 122 100 m cl s 122
 100 m 20 X 20 1 d 40 X 19 1 d 20 X 20 1 d 20 2 d 10 1 d 10 2 d 10 3 d 5 2 d 5 3 d 2 2 d 3 3 d 5 7 d 5 9 d 2 6 d 2 5 d 3 6 d 2 7 d 5 14 d 5 15 d 5 17 d 10 35 d 5 18 d 5 16 d 3 7 d 2 6 d 3 6 d 2 6 d 3 4 d 2 4 d 3 2 d 2 2 d 2 1 d 3 X 2 -2 d 3 -2 d 2 -3
 d 3 -4 d 2 -5 d 3 -6 d 2 -6 d 3 -7 d 2 -8 d 3 -8 d 5 -17 d 5 -17 d 5 -18 d 5 -17 d 5 -16 d 5 -14 d 2 -7 d 3 -6 d 2 -6 d 2 -5 d 5 -10 d 5 -7 d 5 -7 d 5 -4 d 5 -4 d 5 -3 d 5 -2 d 5 -1 d 10 -2 d 10 -1 d 10 X 20 -1 d 139 X s 1 0 0 c[  ] 0 sd black 1 0 0
 c 122 142 m cl s 122 142 m 20 1 d 20 1 d 20 X 20 1 d 19 1 d 20 2 d 20 1 d 20 2 d 10 2 d 10 2 d 10 3 d 5 3 d 5 3 d 2 2 d 3 3 d 5 8 d 5 9 d 4 11 d 5 12 d 5 15 d 5 15 d 5 17 d 10 36 d 5 17 d 5 16 d 3 8 d 2 7 d 3 6 d 2 5 d 3 5 d 2 3 d 3 3 d 2 2 d 2 1 d
 3 -1 d 2 -1 d 3 -2 d 2 -3 d 3 -4 d 2 -5 d 3 -5 d 2 -7 d 3 -7 d 2 -7 d 3 -8 d 5 -17 d 5 -17 d 5 -18 d 5 -17 d 5 -15 d 5 -15 d 5 -12 d 4 -11 d 5 -9 d 5 -8 d 5 -6 d 5 -4 d 5 -4 d 5 -3 d 5 -2 d 5 -1 d 10 -1 d 10 -1 d 10 X 20 1 d 20 1 d 19 X 20 1 d 20 1
 d 20 1 d 20 1 d 20 1 d s black 6 lw 122 98 m 576 X s 241 113 m -15 Y s 281 106 m -8 Y s 321 106 m -8 Y s 360 106 m -8 Y s 400 106 m -8 Y s 440 113 m -15 Y s 479 106 m -8 Y s 519 106 m -8 Y s 559 106 m -8 Y s 598 106 m -8 Y s 638 113 m -15 Y s 241
 113 m -15 Y s 202 106 m -8 Y s 162 106 m -8 Y s 122 106 m -8 Y s 638 113 m -15 Y s 678 106 m -8 Y s 122 582 m 576 X s 241 567 m 15 Y s 281 574 m 8 Y s 321 574 m 8 Y s 360 574 m 8 Y s 400 574 m 8 Y s 440 567 m 15 Y s 479 574 m 8 Y s 519 574 m 8 Y s
 559 574 m 8 Y s 598 574 m 8 Y s 638 567 m 15 Y s 241 567 m 15 Y s 202 574 m 8 Y s 162 574 m 8 Y s 122 574 m 8 Y s 638 567 m 15 Y s 678 574 m 8 Y s 122 98 m 484 Y s 139 98 m -17 X s 131 111 m -9 X s 131 123 m -9 X s 131 135 m -9 X s 139 147 m -17 X s
 131 159 m -9 X s 131 172 m -9 X s 131 184 m -9 X s 139 196 m -17 X s 131 208 m -9 X s 131 221 m -9 X s 131 233 m -9 X s 139 245 m -17 X s 131 257 m -9 X s 131 269 m -9 X s 131 282 m -9 X s 139 294 m -17 X s 131 306 m -9 X s 131 318 m -9 X s 131 331
 m -9 X s 139 343 m -17 X s 131 355 m -9 X s 131 367 m -9 X s 131 379 m -9 X s 139 392 m -17 X s 131 404 m -9 X s 131 416 m -9 X s 131 428 m -9 X s 139 440 m -17 X s 131 453 m -9 X s 131 465 m -9 X s 131 477 m -9 X s 139 489 m -17 X s 131 502 m -9 X
 s 131 514 m -9 X s 131 526 m -9 X s 139 538 m -17 X s 139 538 m -17 X s 131 550 m -9 X s 131 563 m -9 X s 131 575 m -9 X s 698 98 m 484 Y s 681 98 m 17 X s 689 111 m 9 X s 689 123 m 9 X s 689 135 m 9 X s 681 147 m 17 X s 689 159 m 9 X s 689 172 m 9
 X s 689 184 m 9 X s 681 196 m 17 X s 689 208 m 9 X s 689 221 m 9 X s 689 233 m 9 X s 681 245 m 17 X s 689 257 m 9 X s 689 269 m 9 X s 689 282 m 9 X s 681 294 m 17 X s 689 306 m 9 X s 689 318 m 9 X s 689 331 m 9 X s 681 343 m 17 X s 689 355 m 9 X s
 689 367 m 9 X s 689 379 m 9 X s 681 392 m 17 X s 689 404 m 9 X s 689 416 m 9 X s 689 428 m 9 X s 681 440 m 17 X s 689 453 m 9 X s 689 465 m 9 X s 689 477 m 9 X s 681 489 m 17 X s 689 502 m 9 X s 689 514 m 9 X s 689 526 m 9 X s 681 538 m 17 X s 681
 538 m 17 X s 689 550 m 9 X s 689 563 m 9 X s 689 575 m 9 X s
 gsave  710 611 23 13 C 312.854 426.619 t 0 r /Helvetica findfont 22.7926 sf 0 0 m ( = 5 TeV) show NC gr 
 gsave  710 611 23 13 C 291.997 419.035 t 0 r /Helvetica findfont 15.1951 sf 0 0 m (NN) show NC gr 
 gsave  710 611 23 13 C 280.62 426.619 t 0 r /Helvetica findfont 22.7926 sf 0 0 m (s) show NC gr  271 440 m 4 -21 d s 0 lw 275 419 m 4 28 d s 279 447 m 34 X s
 gsave  710 611 23 13 C 163.063 426.619 t 0 r /Helvetica findfont 22.7926 sf 0 0 m (pPb\(Pwd\) ) show NC gr 
 gsave  710 611 23 13 C 163.063 462.645 t 0 r /Helvetica findfont 28.4907 sf 0 0 m (Preliminary) show NC gr 
 gsave  710 611 23 13 C 163.063 492.982 t 0 r /Helvetica findfont 28.4907 sf 0 0 m (LHCb) show NC gr 
 gsave  710 611 23 13 C 455.06 472.125 t 0 r /Helvetica findfont 28.4907 sf 0 0 m (2.5< y <4.0) show NC gr 
 gsave  710 611 23 13 C 530.904 441.788 t 0 r /Helvetica findfont 28.4907 sf 0 0 m ( < 7 GeV/c) show NC gr 
 gsave  710 611 23 13 C 519.527 426.619 t 0 r /Helvetica findfont 18.9938 sf 0 0 m (T) show NC gr 
 gsave  710 611 23 13 C 455.06 441.788 t 0 r /Helvetica findfont 28.4907 sf 0 0 m ( 5< p) show NC gr  6 lw 1 1 1 c 710 611 779 13 bf black 1 1 1 c 576 484 878 98 bf black 576 484 878 98 bl 1 1 1 c 576 484 878 98 bf black 576 484 878 98 bl 878 98 m
 576 X s
 gsave  710 611 779 13 C 1444.82 28.4413 t 0 r /Helvetica findfont 34.1889 sf 0 0 m (]) show NC gr 
 gsave  710 611 779 13 C 1431.54 43.6099 t 0 r /Helvetica findfont 22.7926 sf 0 0 m (2) show NC gr 
 gsave  710 611 779 13 C 1315.88 28.4413 t 0 r /Helvetica findfont 34.1889 sf 0 0 m ( [MeV/c) show NC gr 
 gsave  710 611 779 13 C 1302.61 20.8569 t 0 r /Symbol findfont 22.7926 sf 0 0 m (m) show NC gr 
 gsave  710 611 779 13 C 1289.34 20.8569 t 0 r /Symbol findfont 22.7926 sf 0 0 m (m) show NC gr 
 gsave  710 611 779 13 C 1262.79 28.4413 t 0 r /Helvetica findfont 34.1889 sf 0 0 m (m) show NC gr  997 113 m -15 Y s 1037 106 m -8 Y s 1077 106 m -8 Y s 1116 106 m -8 Y s 1156 106 m -8 Y s 1196 113 m -15 Y s 1235 106 m -8 Y s 1275 106 m -8 Y s 1315
 106 m -8 Y s 1354 106 m -8 Y s 1394 113 m -15 Y s 997 113 m -15 Y s 957 106 m -8 Y s 918 106 m -8 Y s 878 106 m -8 Y s 1394 113 m -15 Y s 1434 106 m -8 Y s
 gsave  710 611 779 13 C 963.211 66.3629 t 0 r /Helvetica findfont 28.4907 sf 0 0 m (3600) show NC gr 
 gsave  710 611 779 13 C 1162.3 66.3629 t 0 r /Helvetica findfont 28.4907 sf 0 0 m (3700) show NC gr 
 gsave  710 611 779 13 C 1361.39 66.3629 t 0 r /Helvetica findfont 28.4907 sf 0 0 m (3800) show NC gr  878 582 m 576 X s 997 567 m 15 Y s 1037 574 m 8 Y s 1077 574 m 8 Y s 1116 574 m 8 Y s 1156 574 m 8 Y s 1196 567 m 15 Y s 1235 574 m 8 Y s 1275 574
 m 8 Y s 1315 574 m 8 Y s 1354 574 m 8 Y s 1394 567 m 15 Y s 997 567 m 15 Y s 957 574 m 8 Y s 918 574 m 8 Y s 878 574 m 8 Y s 1394 567 m 15 Y s 1434 574 m 8 Y s 878 98 m 484 Y s
 gsave  710 611 779 13 C 822.9 572.617 t 90 r /Helvetica findfont 34.1889 sf 0 0 m (\)) show NC gr 
 gsave  710 611 779 13 C 807.732 559.345 t 90 r /Helvetica findfont 22.7926 sf 0 0 m (2) show NC gr 
 gsave  710 611 779 13 C 822.9 271.14 t 90 r /Helvetica findfont 34.1889 sf 0 0 m (Events / \(10 MeV/c) show NC gr  895 98 m -17 X s 886 114 m -8 X s 886 131 m -8 X s 886 147 m -8 X s 895 163 m -17 X s 886 179 m -8 X s 886 195 m -8 X s 886 211 m -8 X
 s 895 227 m -17 X s 886 244 m -8 X s 886 260 m -8 X s 886 276 m -8 X s 895 292 m -17 X s 886 308 m -8 X s 886 324 m -8 X s 886 340 m -8 X s 895 356 m -17 X s 886 373 m -8 X s 886 389 m -8 X s 886 405 m -8 X s 895 421 m -17 X s 886 437 m -8 X s 886
 453 m -8 X s 886 469 m -8 X s 895 485 m -17 X s 886 502 m -8 X s 886 518 m -8 X s 886 534 m -8 X s 895 550 m -17 X s 895 550 m -17 X s 886 566 m -8 X s
 gsave  710 611 779 13 C 858.926 87.2199 t 0 r /Helvetica findfont 28.4907 sf 0 0 m (0) show NC gr 
 gsave  710 611 779 13 C 858.926 151.687 t 0 r /Helvetica findfont 28.4907 sf 0 0 m (2) show NC gr 
 gsave  710 611 779 13 C 858.926 216.154 t 0 r /Helvetica findfont 28.4907 sf 0 0 m (4) show NC gr 
 gsave  710 611 779 13 C 858.926 280.62 t 0 r /Helvetica findfont 28.4907 sf 0 0 m (6) show NC gr 
 gsave  710 611 779 13 C 858.926 345.087 t 0 r /Helvetica findfont 28.4907 sf 0 0 m (8) show NC gr 
 gsave  710 611 779 13 C 843.757 409.554 t 0 r /Helvetica findfont 28.4907 sf 0 0 m (10) show NC gr 
 gsave  710 611 779 13 C 841.861 475.917 t 0 r /Helvetica findfont 28.4907 sf 0 0 m (12) show NC gr 
 gsave  710 611 779 13 C 841.861 540.384 t 0 r /Helvetica findfont 28.4907 sf 0 0 m (14) show NC gr  1454 98 m 484 Y s 1437 98 m 17 X s 1445 114 m 9 X s 1445 131 m 9 X s 1445 147 m 9 X s 1437 163 m 17 X s 1445 179 m 9 X s 1445 195 m 9 X s 1445 211 m
 9 X s 1437 227 m 17 X s 1445 244 m 9 X s 1445 260 m 9 X s 1445 276 m 9 X s 1437 292 m 17 X s 1445 308 m 9 X s 1445 324 m 9 X s 1445 340 m 9 X s 1437 356 m 17 X s 1445 373 m 9 X s 1445 389 m 9 X s 1445 405 m 9 X s 1437 421 m 17 X s 1445 437 m 9 X s
 1445 453 m 9 X s 1445 469 m 9 X s 1437 485 m 17 X s 1445 502 m 9 X s 1445 518 m 9 X s 1445 534 m 9 X s 1437 550 m 17 X s 1437 550 m 17 X s 1445 566 m 9 X s 888 98 m -10 X s 878 98 m 4 Y s 888 98 m 10 X s 898 98 m 4 Y s 888 98 m 37 Y s 884 135 m 8 X
 s 908 163 m -10 X s 898 159 m 8 Y s 908 163 m 10 X s 918 159 m 8 Y s 908 163 m 85 Y s 904 248 m 8 X s 908 163 m -42 Y s 904 121 m 8 X s 928 98 m -10 X s 918 98 m 4 Y s 928 98 m 10 X s 938 98 m 4 Y s 928 98 m 37 Y s 924 135 m 7 X s 948 163 m -10 X s
 938 159 m 8 Y s 948 163 m 9 X s 957 159 m 8 Y s 948 163 m 85 Y s 944 248 m 7 X s 948 163 m -42 Y s 944 121 m 7 X s 967 163 m -10 X s 957 159 m 8 Y s 967 163 m 10 X s 977 159 m 8 Y s 967 163 m 85 Y s 964 248 m 7 X s 967 163 m -42 Y s 964 121 m 7 X s
 987 98 m -10 X s 977 98 m 4 Y s 987 98 m 10 X s 997 98 m 4 Y s 987 98 m 37 Y s 983 135 m 8 X s 1007 98 m -10 X s 997 98 m 4 Y s 1007 98 m 10 X s 1017 98 m 4 Y s 1007 98 m 37 Y s 1003 135 m 8 X s 1027 131 m -10 X s 1017 127 m 7 Y s 1027 131 m 10 X s
 1037 127 m 7 Y s 1027 131 m 74 Y s 1023 205 m 8 X s 1027 131 m -27 Y s 1023 104 m 8 X s 1047 131 m -10 X s 1037 127 m 7 Y s 1047 131 m 10 X s 1057 127 m 7 Y s 1047 131 m 74 Y s 1043 205 m 8 X s 1047 131 m -27 Y s 1043 104 m 8 X s 1067 163 m -10 X s
 1057 159 m 8 Y s 1067 163 m 10 X s 1077 159 m 8 Y s 1067 163 m 85 Y s 1063 248 m 7 X s 1067 163 m -42 Y s 1063 121 m 7 X s 1086 163 m -9 X s 1077 159 m 8 Y s 1086 163 m 10 X s 1096 159 m 8 Y s 1086 163 m 85 Y s 1083 248 m 7 X s 1086 163 m -42 Y s
 1083 121 m 7 X s 1106 195 m -10 X s 1096 191 m 8 Y s 1106 195 m 10 X s 1116 191 m 8 Y s 1106 195 m 94 Y s 1103 289 m 7 X s 1106 195 m -53 Y s 1103 142 m 7 X s 1126 195 m -10 X s 1116 191 m 8 Y s 1126 195 m 10 X s 1136 191 m 8 Y s 1126 195 m 94 Y s
 1122 289 m 8 X s 1126 195 m -53 Y s 1122 142 m 8 X s 1146 131 m -10 X s 1136 127 m 7 Y s 1146 131 m 10 X s 1156 127 m 7 Y s 1146 131 m 74 Y s 1142 205 m 8 X s 1146 131 m -27 Y s 1142 104 m 8 X s 1166 421 m -10 X s 1156 417 m 8 Y s 1166 421 m 10 X s
 1176 417 m 8 Y s 1166 421 m 138 Y s 1162 559 m 8 X s 1166 421 m -100 Y s 1162 321 m 8 X s 1186 260 m -10 X s 1176 256 m 7 Y s 1186 260 m 10 X s 1196 256 m 7 Y s 1186 260 m 109 Y s 1182 369 m 7 X s 1186 260 m -70 Y s 1182 190 m 7 X s 1206 131 m -10 X
 s 1196 127 m 7 Y s 1206 131 m 9 X s 1215 127 m 7 Y s 1206 131 m 74 Y s 1202 205 m 7 X s 1206 131 m -27 Y s 1202 104 m 7 X s 1225 324 m -10 X s 1215 320 m 8 Y s 1225 324 m 10 X s 1235 320 m 8 Y s 1225 324 m 122 Y s 1222 446 m 7 X s 1225 324 m -83 Y s
 1222 241 m 7 X s 1245 98 m -10 X s 1235 98 m 4 Y s 1245 98 m 10 X s 1255 98 m 4 Y s 1245 98 m 37 Y s 1241 135 m 8 X s 1265 163 m -10 X s 1255 159 m 8 Y s 1265 163 m 10 X s 1275 159 m 8 Y s 1265 163 m 85 Y s 1261 248 m 8 X s 1265 163 m -42 Y s 1261
 121 m 8 X s 1285 98 m -10 X s 1275 98 m 4 Y s 1285 98 m 10 X s 1295 98 m 4 Y s 1285 98 m 37 Y s 1281 135 m 8 X s 1305 131 m -10 X s 1295 127 m 7 Y s 1305 131 m 10 X s 1315 127 m 7 Y s 1305 131 m 74 Y s 1301 205 m 8 X s 1305 131 m -27 Y s 1301 104 m
 8 X s 1325 98 m -10 X s 1315 98 m 4 Y s 1325 98 m 10 X s 1335 98 m 4 Y s 1325 98 m 37 Y s 1321 135 m 7 X s 1344 98 m -9 X s 1335 98 m 4 Y s 1344 98 m 10 X s 1354 98 m 4 Y s 1344 98 m 37 Y s 1341 135 m 7 X s 1364 163 m -10 X s 1354 159 m 8 Y s 1364
 163 m 10 X s 1374 159 m 8 Y s 1364 163 m 85 Y s 1361 248 m 7 X s 1364 163 m -42 Y s 1361 121 m 7 X s 1384 131 m -10 X s 1374 127 m 7 Y s 1384 131 m 10 X s 1394 127 m 7 Y s 1384 131 m 74 Y s 1380 205 m 8 X s 1384 131 m -27 Y s 1380 104 m 8 X s 1404
 131 m -10 X s 1394 127 m 7 Y s 1404 131 m 10 X s 1414 127 m 7 Y s 1404 131 m 74 Y s 1400 205 m 8 X s 1404 131 m -27 Y s 1400 104 m 8 X s 1424 131 m -10 X s 1414 127 m 7 Y s 1424 131 m 10 X s 1434 127 m 7 Y s 1424 131 m 74 Y s 1420 205 m 8 X s 1424
 131 m -27 Y s 1420 104 m 8 X s 1444 98 m -10 X s 1434 98 m 4 Y s 1444 98 m 10 X s 1454 98 m 4 Y s 1444 98 m 37 Y s 1440 135 m 7 X s 3 lw 888 98 908 163 928 98 948 163 967 163 987 98 1007 98 1027 131 1047 131 1067 163 1086 163 1106 195 1126 195 1146
 131 1166 421 1186 260 1206 131 1225 324 1245 98 1265 163 1285 98 1305 131 1325 98 1344 98 1364 163 1384 131 1404 131 1424 131 1444 98 29 { m20} R 6 lw 0 1 0 c[ 4 8] 0 sd 9 lw black 0 1 0 c 878 129 m cl s 878 129 m 40 X 20 -1 d 39 X 20 -1 d 40 X 20
 -1 d 39 X 20 -1 d 40 X 20 -1 d 39 X 20 -1 d 60 X 20 -1 d 39 X 20 -1 d 60 X 20 -1 d s 0 0 1 c[ 12 12] 0 sd black 0 0 1 c 878 100 m cl s 878 100 m 79 X 20 1 d 20 X 20 1 d 20 1 d 20 1 d 10 2 d 10 2 d 4 1 d 5 3 d 3 1 d 2 2 d 5 5 d 5 6 d 5 7 d 5 8 d 5 10
 d 5 10 d 5 11 d 5 12 d 5 13 d 5 12 d 5 12 d 5 11 d 2 5 d 3 5 d 2 5 d 3 4 d 2 3 d 3 3 d 2 2 d 3 2 d 2 1 d 3 1 d 2 -1 d 3 X 2 -2 d 3 -2 d 2 -3 d 3 -3 d 2 -3 d 3 -5 d 2 -4 d 3 -5 d 5 -11 d 4 -12 d 5 -13 d 10 -24 d 5 -12 d 5 -10 d 5 -10 d 5 -8 d 5 -8 d
 5 -6 d 5 -5 d 5 -4 d 5 -4 d 5 -2 d 5 -2 d 5 -2 d 10 -2 d 10 -1 d 10 X 20 -1 d 119 X s 1 0 0 c[  ] 0 sd black 1 0 0 c 878 131 m cl s 878 131 m 20 X 20 -1 d 99 X 20 1 d 20 1 d 10 1 d 10 2 d 4 2 d 5 2 d 3 2 d 2 1 d 5 5 d 5 6 d 5 7 d 5 8 d 5 10 d 5 10 d
 5 11 d 5 12 d 5 12 d 5 13 d 5 12 d 5 11 d 2 5 d 3 5 d 2 4 d 3 4 d 2 3 d 3 3 d 2 2 d 3 2 d 2 1 d 3 1 d 2 -1 d 3 X 2 -2 d 3 -2 d 2 -3 d 3 -3 d 2 -4 d 3 -4 d 2 -5 d 3 -5 d 5 -11 d 4 -12 d 5 -12 d 10 -25 d 5 -11 d 5 -11 d 5 -10 d 5 -8 d 5 -8 d 5 -6 d 5
 -5 d 5 -5 d 5 -3 d 5 -3 d 5 -2 d 5 -1 d 10 -3 d 10 -1 d 10 X 20 -1 d 19 X 20 -1 d 60 X 20 -1 d s black 6 lw 878 98 m 576 X s 997 113 m -15 Y s 1037 106 m -8 Y s 1077 106 m -8 Y s 1116 106 m -8 Y s 1156 106 m -8 Y s 1196 113 m -15 Y s 1235 106 m -8 Y
 s 1275 106 m -8 Y s 1315 106 m -8 Y s 1354 106 m -8 Y s 1394 113 m -15 Y s 997 113 m -15 Y s 957 106 m -8 Y s 918 106 m -8 Y s 878 106 m -8 Y s 1394 113 m -15 Y s 1434 106 m -8 Y s 878 582 m 576 X s 997 567 m 15 Y s 1037 574 m 8 Y s 1077 574 m 8 Y s
 1116 574 m 8 Y s 1156 574 m 8 Y s 1196 567 m 15 Y s 1235 574 m 8 Y s 1275 574 m 8 Y s 1315 574 m 8 Y s 1354 574 m 8 Y s 1394 567 m 15 Y s 997 567 m 15 Y s 957 574 m 8 Y s 918 574 m 8 Y s 878 574 m 8 Y s 1394 567 m 15 Y s 1434 574 m 8 Y s 878 98 m
 484 Y s 895 98 m -17 X s 886 114 m -8 X s 886 131 m -8 X s 886 147 m -8 X s 895 163 m -17 X s 886 179 m -8 X s 886 195 m -8 X s 886 211 m -8 X s 895 227 m -17 X s 886 244 m -8 X s 886 260 m -8 X s 886 276 m -8 X s 895 292 m -17 X s 886 308 m -8 X s
 886 324 m -8 X s 886 340 m -8 X s 895 356 m -17 X s 886 373 m -8 X s 886 389 m -8 X s 886 405 m -8 X s 895 421 m -17 X s 886 437 m -8 X s 886 453 m -8 X s 886 469 m -8 X s 895 485 m -17 X s 886 502 m -8 X s 886 518 m -8 X s 886 534 m -8 X s 895 550
 m -17 X s 895 550 m -17 X s 886 566 m -8 X s 1454 98 m 484 Y s 1437 98 m 17 X s 1445 114 m 9 X s 1445 131 m 9 X s 1445 147 m 9 X s 1437 163 m 17 X s 1445 179 m 9 X s 1445 195 m 9 X s 1445 211 m 9 X s 1437 227 m 17 X s 1445 244 m 9 X s 1445 260 m 9 X
 s 1445 276 m 9 X s 1437 292 m 17 X s 1445 308 m 9 X s 1445 324 m 9 X s 1445 340 m 9 X s 1437 356 m 17 X s 1445 373 m 9 X s 1445 389 m 9 X s 1445 405 m 9 X s 1437 421 m 17 X s 1445 437 m 9 X s 1445 453 m 9 X s 1445 469 m 9 X s 1437 485 m 17 X s 1445
 502 m 9 X s 1445 518 m 9 X s 1445 534 m 9 X s 1437 550 m 17 X s 1437 550 m 17 X s 1445 566 m 9 X s
 gsave  710 611 779 13 C 1069.39 426.619 t 0 r /Helvetica findfont 22.7926 sf 0 0 m ( = 5 TeV) show NC gr 
 gsave  710 611 779 13 C 1048.53 419.035 t 0 r /Helvetica findfont 15.1951 sf 0 0 m (NN) show NC gr 
 gsave  710 611 779 13 C 1037.16 426.619 t 0 r /Helvetica findfont 22.7926 sf 0 0 m (s) show NC gr  1028 440 m 3 -21 d s 0 lw 1031 419 m 4 28 d s 1035 447 m 34 X s
 gsave  710 611 779 13 C 919.601 426.619 t 0 r /Helvetica findfont 22.7926 sf 0 0 m (pPb\(Pwd\) ) show NC gr 
 gsave  710 611 779 13 C 919.601 462.645 t 0 r /Helvetica findfont 28.4907 sf 0 0 m (Preliminary) show NC gr 
 gsave  710 611 779 13 C 919.601 492.982 t 0 r /Helvetica findfont 28.4907 sf 0 0 m (LHCb) show NC gr 
 gsave  710 611 779 13 C 1211.6 472.125 t 0 r /Helvetica findfont 28.4907 sf 0 0 m (2.5< y <4.0) show NC gr 
 gsave  710 611 779 13 C 1287.44 441.788 t 0 r /Helvetica findfont 28.4907 sf 0 0 m ( <14 GeV/c) show NC gr 
 gsave  710 611 779 13 C 1276.06 426.619 t 0 r /Helvetica findfont 18.9938 sf 0 0 m (T) show NC gr 
 gsave  710 611 779 13 C 1211.6 441.788 t 0 r /Helvetica findfont 28.4907 sf 0 0 m ( 7< p) show NC gr  6 lw 1 1 1 c 711 611 1534 13 bf
 gr  gr showpage
end
%%EOF
