3686	0	13.3542	0	25.7363	9.62295	289.268	18.8705	0.800166	
3686	0	13.6637	0	48.1105	14.3973	656.903	28.5652	0.547443	
3686	0	15.1634	0	12.3005	12.862	600.829	27.4615	0.765326	
3686	0	18.3888	0	18.7492	10.29	269.249	18.8778	0.942008	
3686	0	20	0	5.73454	5.05748	48.3004	8.25458	0.549049	
