%!PS-Adobe-2.0 EPSF-2.0
%%BoundingBox:  0 0 567 425
%%Title: result/TzFit/Aptz_c03.eps: 
%%Creator: ROOT Version 5.34/18
%%CreationDate: Tue Sep 22 23:16:38 2015
%%EndComments
%%BeginProlog
80 dict begin
/s {stroke} def /l {lineto} def /m {moveto} def /t {translate} def
/r {rotate} def /rl {roll}  def /R {repeat} def
/d {rlineto} def /rm {rmoveto} def /gr {grestore} def /f {eofill} def
/c {setrgbcolor} def /black {0 setgray} def /sd {setdash} def
/cl {closepath} def /sf {scalefont setfont} def /lw {setlinewidth} def
/box {m dup 0 exch d exch 0 d 0 exch neg d cl} def
/NC{systemdict begin initclip end}def/C{NC box clip newpath}def
/bl {box s} def /bf {box f} def /Y { 0 exch d} def /X { 0 d} def 
/K {{pop pop 0 moveto} exch kshow} bind def
/ita {/ang 15 def gsave [1 0 ang dup sin exch cos div 1 0 0] concat} def 
/mp {newpath /y exch def /x exch def} def
/side {[w .77 mul w .23 mul] .385 w mul sd w 0 l currentpoint t -144 r} def
/mr {mp x y w2 0 360 arc} def /m24 {mr s} def /m20 {mr f} def
/mb {mp x y w2 add m w2 neg 0 d 0 w neg d w 0 d 0 w d cl} def
/mt {mp x y w2 add m w2 neg w neg d w 0 d cl} def
/m21 {mb f} def /m25 {mb s} def /m22 {mt f} def /m26{mt s} def
/m23 {mp x y w2 sub m w2 w d w neg 0 d cl f} def
/m27 {mp x y w2 add m w3 neg w2 neg d w3 w2 neg d w3 w2 d cl s} def
/m28 {mp x w2 sub y w2 sub w3 add m w3 0 d  0 w3 neg d w3 0 d 0 w3 d w3 0 d  0 w3 d w3 neg 0 d 0 w3 d w3 neg 0 d 0 w3 neg d w3 neg 0 d cl s } def
/m29 {mp gsave x w2 sub y w2 add w3 sub m currentpoint t 4 {side} repeat cl fill gr} def
/m30 {mp gsave x w2 sub y w2 add w3 sub m currentpoint t 4 {side} repeat cl s gr} def
/m31 {mp x y w2 sub m 0 w d x w2 sub y m w 0 d x w2 sub y w2 add m w w neg d x w2 sub y w2 sub m w w d s} def
/m32 {mp x y w2 sub m w2 w d w neg 0 d cl s} def
/m33 {mp x y w2 add m w3 neg w2 neg d w3 w2 neg d w3 w2 d cl f} def
/m34 {mp x w2 sub y w2 sub w3 add m w3 0 d  0 w3 neg d w3 0 d 0 w3 d w3 0 d  0 w3 d w3 neg 0 d 0 w3 d w3 neg 0 d 0 w3 neg d w3 neg 0 d cl f } def
/m2 {mp x y w2 sub m 0 w d x w2 sub y m w 0 d s} def
/m5 {mp x w2 sub y w2 sub m w w d x w2 sub y w2 add m w w neg d s} def
/reEncode {exch findfont dup length dict begin {1 index /FID eq  {pop pop} {def} ifelse } forall /Encoding exch def currentdict end dup /FontName get exch definefont pop } def [/Times-Bold /Times-Italic /Times-BoldItalic /Helvetica /Helvetica-Oblique
 /Helvetica-Bold /Helvetica-BoldOblique /Courier /Courier-Oblique /Courier-Bold /Courier-BoldOblique /Times-Roman /AvantGarde-Book /AvantGarde-BookOblique /AvantGarde-Demi /AvantGarde-DemiOblique /Bookman-Demi /Bookman-DemiItalic /Bookman-Light
 /Bookman-LightItalic /Helvetica-Narrow /Helvetica-Narrow-Bold /Helvetica-Narrow-BoldOblique /Helvetica-Narrow-Oblique /NewCenturySchlbk-Roman /NewCenturySchlbk-Bold /NewCenturySchlbk-BoldItalic /NewCenturySchlbk-Italic /Palatino-Bold
 /Palatino-BoldItalic /Palatino-Italic /Palatino-Roman ] {ISOLatin1Encoding reEncode } forall
%%EndProlog
%%BeginSetup
%%EndSetup
newpath  gsave  .25 .25 scale  gsave  0 0 t black[  ] 0 sd 3 lw 1 1 1 c 2268 1701 0 0 bf black 1 1 1 c 1837 1344 317 238 bf black 1837 1344 317 238 bl 1 1 1 c 1837 1344 317 238 bf black 1837 1344 317 238 bl 317 238 m 1837 X s
 gsave  2268 1701 0 0 C 2125.98 54.8641 t 0 r /Times-Roman findfont 96.0122 sf 0 0 m (]) show NC gr 
 gsave  2268 1701 0 0 C 2093.98 96.0122 t 0 r /Times-Roman findfont 64.0081 sf 0 0 m (2) show NC gr 
 gsave  2268 1701 0 0 C 1773.94 54.8641 t 0 r /Times-Roman findfont 96.0122 sf 0 0 m ( [MeV/c) show NC gr 
 gsave  2268 1701 0 0 C 1737.36 27.4321 t 0 r /Symbol findfont 64.0081 sf 0 0 m (m) show NC gr 
 gsave  2268 1701 0 0 C 1700.79 27.4321 t 0 r /Symbol findfont 64.0081 sf 0 0 m (m) show NC gr 
 gsave  2268 1701 0 0 C 1632.21 54.8641 t 0 r /Times-Italic findfont 96.0122 sf 0 0 m (m) show NC gr  698 279 m -41 Y s 824 259 m -21 Y s 951 259 m -21 Y s 1078 259 m -21 Y s 1204 259 m -21 Y s 1331 279 m -41 Y s 1458 259 m -21 Y s 1584 259 m -21 Y s
 1711 259 m -21 Y s 1838 259 m -21 Y s 1964 279 m -41 Y s 698 279 m -41 Y s 571 259 m -21 Y s 444 259 m -21 Y s 317 259 m -21 Y s 1964 279 m -41 Y s 2091 259 m -21 Y s
 gsave  2268 1701 0 0 C 617.221 146.304 t 0 r /Times-Roman findfont 77.7242 sf 0 0 m (3600) show NC gr 
 gsave  2268 1701 0 0 C 1252.73 146.304 t 0 r /Times-Roman findfont 77.7242 sf 0 0 m (3700) show NC gr 
 gsave  2268 1701 0 0 C 1883.67 146.304 t 0 r /Times-Roman findfont 77.7242 sf 0 0 m (3800) show NC gr  317 1582 m 1837 X s 698 1540 m 42 Y s 824 1561 m 21 Y s 951 1561 m 21 Y s 1078 1561 m 21 Y s 1204 1561 m 21 Y s 1331 1540 m 42 Y s 1458 1561 m 21
 Y s 1584 1561 m 21 Y s 1711 1561 m 21 Y s 1838 1561 m 21 Y s 1964 1540 m 42 Y s 698 1540 m 42 Y s 571 1561 m 21 Y s 444 1561 m 21 Y s 317 1561 m 21 Y s 1964 1540 m 42 Y s 2091 1561 m 21 Y s 317 238 m 1344 Y s
 gsave  2268 1701 0 0 C 91.4402 1554.48 t 90 r /Times-Roman findfont 96.0122 sf 0 0 m (\)) show NC gr 
 gsave  2268 1701 0 0 C 50.2921 1522.48 t 90 r /Times-Roman findfont 64.0081 sf 0 0 m (2) show NC gr 
 gsave  2268 1701 0 0 C 91.4402 603.505 t 90 r /Times-Roman findfont 96.0122 sf 0 0 m (Candidates / \(10 MeV/c) show NC gr  371 238 m -54 X s 344 296 m -27 X s 344 354 m -27 X s 344 413 m -27 X s 371 471 m -54 X s 344 529 m -27 X s 344 587 m -27 X s
 344 645 m -27 X s 371 704 m -54 X s 344 762 m -27 X s 344 820 m -27 X s 344 878 m -27 X s 371 936 m -54 X s 344 994 m -27 X s 344 1053 m -27 X s 344 1111 m -27 X s 371 1169 m -54 X s 344 1227 m -27 X s 344 1285 m -27 X s 344 1343 m -27 X s 371 1402
 m -54 X s 371 1402 m -54 X s 344 1460 m -27 X s 344 1518 m -27 X s 344 1576 m -27 X s
 gsave  2268 1701 0 0 C 260.605 214.884 t 0 r /Times-Roman findfont 77.7242 sf 0 0 m (0) show NC gr 
 gsave  2268 1701 0 0 C 224.028 443.485 t 0 r /Times-Roman findfont 77.7242 sf 0 0 m (20) show NC gr 
 gsave  2268 1701 0 0 C 224.028 676.657 t 0 r /Times-Roman findfont 77.7242 sf 0 0 m (40) show NC gr 
 gsave  2268 1701 0 0 C 224.028 909.83 t 0 r /Times-Roman findfont 77.7242 sf 0 0 m (60) show NC gr 
 gsave  2268 1701 0 0 C 224.028 1143 t 0 r /Times-Roman findfont 77.7242 sf 0 0 m (80) show NC gr 
 gsave  2268 1701 0 0 C 182.88 1376.17 t 0 r /Times-Roman findfont 77.7242 sf 0 0 m (100) show NC gr  2154 238 m 1344 Y s 2101 238 m 53 X s 2127 296 m 27 X s 2127 354 m 27 X s 2127 413 m 27 X s 2101 471 m 53 X s 2127 529 m 27 X s 2127 587 m 27 X s
 2127 645 m 27 X s 2101 704 m 53 X s 2127 762 m 27 X s 2127 820 m 27 X s 2127 878 m 27 X s 2101 936 m 53 X s 2127 994 m 27 X s 2127 1053 m 27 X s 2127 1111 m 27 X s 2101 1169 m 53 X s 2127 1227 m 27 X s 2127 1285 m 27 X s 2127 1343 m 27 X s 2101 1402
 m 53 X s 2101 1402 m 53 X s 2127 1460 m 27 X s 2127 1518 m 27 X s 2127 1576 m 27 X s 349 913 m -32 X s 317 904 m 18 Y s 349 913 m 32 X s 381 904 m 18 Y s 349 913 m 101 Y s 340 1014 m 18 X s 349 913 m -88 Y s 340 825 m 18 X s 412 1122 m -31 X s 381
 1113 m 19 Y s 412 1122 m 32 X s 444 1113 m 19 Y s 412 1122 m 114 Y s 403 1236 m 19 X s 412 1122 m -101 Y s 403 1021 m 19 X s 476 1111 m -32 X s 444 1102 m 18 Y s 476 1111 m 31 X s 507 1102 m 18 Y s 476 1111 m 113 Y s 467 1224 m 18 X s 476 1111 m
 -101 Y s 467 1010 m 18 X s 539 971 m -32 X s 507 962 m 18 Y s 539 971 m 32 X s 571 962 m 18 Y s 539 971 m 105 Y s 530 1076 m 18 X s 539 971 m -92 Y s 530 879 m 18 X s 603 1122 m -32 X s 571 1113 m 19 Y s 603 1122 m 31 X s 634 1113 m 19 Y s 603 1122
 m 114 Y s 593 1236 m 19 X s 603 1122 m -101 Y s 593 1021 m 19 X s 666 901 m -32 X s 634 892 m 18 Y s 666 901 m 32 X s 698 892 m 18 Y s 666 901 m 100 Y s 657 1001 m 18 X s 666 901 m -87 Y s 657 814 m 18 X s 729 1099 m -31 X s 698 1090 m 18 Y s 729
 1099 m 32 X s 761 1090 m 18 Y s 729 1099 m 112 Y s 720 1211 m 18 X s 729 1099 m -100 Y s 720 999 m 18 X s 793 1006 m -32 X s 761 997 m 18 Y s 793 1006 m 31 X s 824 997 m 18 Y s 793 1006 m 107 Y s 783 1113 m 19 X s 793 1006 m -94 Y s 783 912 m 19 X s
 856 1250 m -32 X s 824 1241 m 18 Y s 856 1250 m 32 X s 888 1241 m 18 Y s 856 1250 m 121 Y s 847 1371 m 18 X s 856 1250 m -108 Y s 847 1142 m 18 X s 919 936 m -31 X s 888 927 m 18 Y s 919 936 m 32 X s 951 927 m 18 Y s 919 936 m 102 Y s 910 1038 m 18
 X s 919 936 m -90 Y s 910 846 m 18 X s 983 936 m -32 X s 951 927 m 18 Y s 983 936 m 31 X s 1014 927 m 18 Y s 983 936 m 102 Y s 973 1038 m 19 X s 983 936 m -90 Y s 973 846 m 19 X s 1046 1087 m -32 X s 1014 1078 m 19 Y s 1046 1087 m 32 X s 1078 1078 m
 19 Y s 1046 1087 m 112 Y s 1037 1199 m 18 X s 1046 1087 m -99 Y s 1037 988 m 18 X s 1109 994 m -31 X s 1078 985 m 19 Y s 1109 994 m 32 X s 1141 985 m 19 Y s 1109 994 m 106 Y s 1100 1100 m 18 X s 1109 994 m -93 Y s 1100 901 m 18 X s 1173 1227 m -32 X
 s 1141 1218 m 18 Y s 1173 1227 m 31 X s 1204 1218 m 18 Y s 1173 1227 m 119 Y s 1163 1346 m 19 X s 1173 1227 m -107 Y s 1163 1120 m 19 X s 1236 1390 m -32 X s 1204 1381 m 18 Y s 1236 1390 m 32 X s 1268 1381 m 18 Y s 1236 1390 m 128 Y s 1227 1518 m 18
 X s 1236 1390 m -116 Y s 1227 1274 m 18 X s 1299 1215 m -31 X s 1268 1206 m 19 Y s 1299 1215 m 32 X s 1331 1206 m 19 Y s 1299 1215 m 119 Y s 1290 1334 m 18 X s 1299 1215 m -106 Y s 1290 1109 m 18 X s 1363 1134 m -32 X s 1331 1125 m 18 Y s 1363 1134
 m 31 X s 1394 1125 m 18 Y s 1363 1134 m 114 Y s 1353 1248 m 19 X s 1363 1134 m -102 Y s 1353 1032 m 19 X s 1426 1041 m -32 X s 1394 1032 m 18 Y s 1426 1041 m 32 X s 1458 1032 m 18 Y s 1426 1041 m 109 Y s 1417 1150 m 18 X s 1426 1041 m -96 Y s 1417
 945 m 18 X s 1489 1006 m -31 X s 1458 997 m 18 Y s 1489 1006 m 32 X s 1521 997 m 18 Y s 1489 1006 m 107 Y s 1480 1113 m 18 X s 1489 1006 m -94 Y s 1480 912 m 18 X s 1553 959 m -32 X s 1521 950 m 19 Y s 1553 959 m 31 X s 1584 950 m 19 Y s 1553 959 m
 104 Y s 1543 1063 m 19 X s 1553 959 m -91 Y s 1543 868 m 19 X s 1616 983 m -32 X s 1584 974 m 18 Y s 1616 983 m 32 X s 1648 974 m 18 Y s 1616 983 m 105 Y s 1607 1088 m 18 X s 1616 983 m -93 Y s 1607 890 m 18 X s 1679 773 m -31 X s 1648 764 m 18 Y s
 1679 773 m 32 X s 1711 764 m 18 Y s 1679 773 m 91 Y s 1670 864 m 18 X s 1679 773 m -78 Y s 1670 695 m 18 X s 1743 1053 m -32 X s 1711 1043 m 19 Y s 1743 1053 m 31 X s 1774 1043 m 19 Y s 1743 1053 m 109 Y s 1733 1162 m 19 X s 1743 1053 m -98 Y s 1733
 955 m 19 X s 1806 1064 m -32 X s 1774 1055 m 18 Y s 1806 1064 m 32 X s 1838 1055 m 18 Y s 1806 1064 m 110 Y s 1797 1174 m 18 X s 1806 1064 m -98 Y s 1797 966 m 18 X s 1869 901 m -31 X s 1838 892 m 18 Y s 1869 901 m 32 X s 1901 892 m 18 Y s 1869 901
 m 100 Y s 1860 1001 m 18 X s 1869 901 m -87 Y s 1860 814 m 18 X s 1933 843 m -32 X s 1901 834 m 18 Y s 1933 843 m 31 X s 1964 834 m 18 Y s 1933 843 m 96 Y s 1923 939 m 19 X s 1933 843 m -84 Y s 1923 759 m 19 X s 1996 843 m -32 X s 1964 834 m 18 Y s
 1996 843 m 32 X s 2028 834 m 18 Y s 1996 843 m 96 Y s 1987 939 m 18 X s 1996 843 m -84 Y s 1987 759 m 18 X s 2059 1006 m -31 X s 2028 997 m 18 Y s 2059 1006 m 32 X s 2091 997 m 18 Y s 2059 1006 m 107 Y s 2050 1113 m 18 X s 2059 1006 m -94 Y s 2050
 912 m 18 X s 2123 994 m -32 X s 2091 985 m 19 Y s 2123 994 m 31 X s 2154 985 m 19 Y s 2123 994 m 106 Y s 2114 1100 m 18 X s 2123 994 m -93 Y s 2114 901 m 18 X s /w 37 def /w2 {w 2 div} def /w3 {w 3 div} def 349 913 412 1122 476 1111 539 971 603 1122
 666 901 729 1099 793 1006 856 1250 919 936 983 936 1046 1087 1109 994 1173 1227 1236 1390 1299 1215 1363 1134 1426 1041 1489 1006 1553 959 1616 983 1679 773 1743 1053 1806 1064 1869 901 1933 843 1996 843 2059 1006 2123 994 29 { m20} R 0 0 1 c[ 12
 12] 0 sd 9 lw black 0 0 1 c 317 240 m cl s 317 240 m 147 X 19 1 d 165 X 18 1 d 92 X 19 1 d 55 X 18 1 d 19 X 18 1 d 18 X 19 1 d 18 X 18 1 d 19 1 d 18 2 d 18 2 d 19 2 d 18 4 d 9 3 d 10 3 d 9 4 d 9 7 d 5 4 d 4 6 d 9 12 d 10 14 d 9 17 d 9 20 d 9 21 d 9
 24 d 9 25 d 19 53 d 9 26 d 9 26 d 9 24 d 5 11 d 5 10 d 4 9 d 5 9 d 4 7 d 5 6 d 4 5 d 5 4 d 5 2 d 4 1 d 5 X 4 -2 d 5 -2 d 5 -4 d 4 -6 d 5 -6 d 4 -8 d 5 -8 d 5 -10 d 4 -10 d 9 -23 d 10 -25 d 9 -27 d 18 -53 d 9 -26 d 9 -24 d 10 -22 d 9 -20 d 9 -18 d 9
 -15 d 9 -13 d 10 -11 d 9 -9 d 9 -8 d 9 -5 d 9 -5 d 10 -3 d 9 -3 d 18 -4 d 18 -1 d 19 -1 d 18 -1 d 606 X s 0 0.8 0 c black 0 0.8 0 c 317 1053 m cl s 317 1053 m 19 -2 d 18 -1 d 19 -1 d 18 -2 d 18 -1 d 19 -1 d 18 -2 d 18 -1 d 19 -1 d 18 -2 d 19 -1 d 18
 -1 d 18 -2 d 19 -1 d 18 -1 d 18 -1 d 19 -2 d 18 -1 d 18 -1 d 19 -2 d 18 -1 d 19 -1 d 18 -2 d 18 -1 d 19 -1 d 18 -1 d 18 -2 d 19 -1 d 18 -1 d 19 -2 d 18 -1 d 18 -1 d 19 -1 d 18 -2 d 18 -1 d 19 -1 d 18 -1 d 18 -2 d 19 -1 d 18 -1 d 19 -1 d 18 -2 d 18
 -1 d 19 -1 d 18 -1 d 18 -2 d 19 -1 d 18 -1 d 19 -1 d 18 -2 d 18 -1 d 19 -1 d 18 -1 d 18 -2 d 19 -1 d 18 -1 d 18 -1 d 19 -1 d 18 -2 d 19 -1 d 18 -1 d 18 -1 d 19 -2 d 18 -1 d 18 -1 d 19 -1 d 18 -1 d 19 -2 d 18 -1 d 18 -1 d 19 -1 d 18 -1 d 18 -1 d 19
 -2 d 18 -1 d 18 -1 d 19 -1 d 18 -1 d 19 -2 d 18 -1 d 18 -1 d 19 -1 d 18 -1 d 18 -1 d 19 -2 d 18 -1 d 19 -1 d 18 -1 d 18 -1 d 19 -1 d 18 -2 d 18 -1 d 19 -1 d 18 -1 d 18 -1 d 19 -1 d 18 -1 d 19 -2 d 18 -1 d 18 -1 d s 1 0 0 c[  ] 0 sd black 1 0 0 c 317
 1055 m cl s 317 1055 m 19 -2 d 18 -1 d 19 -1 d 18 -2 d 18 -1 d 19 -1 d 18 -1 d 18 -2 d 19 -1 d 18 -1 d 19 -1 d 18 -2 d 18 -1 d 19 -1 d 18 -1 d 18 -1 d 19 -2 d 18 -1 d 18 -1 d 19 -1 d 18 -1 d 19 -1 d 18 -2 d 18 -1 d 19 -1 d 18 -1 d 18 -1 d 19 -1 d 18
 -1 d 19 -1 d 18 X 18 -1 d 19 -1 d 18 X 18 -1 d 37 X 18 1 d 19 1 d 18 3 d 19 4 d 9 4 d 9 6 d 5 4 d 4 5 d 9 12 d 10 14 d 9 16 d 9 19 d 9 20 d 9 23 d 9 25 d 19 52 d 9 26 d 9 25 d 9 23 d 10 20 d 4 9 d 5 8 d 4 7 d 5 6 d 4 5 d 5 3 d 5 2 d 4 1 d 5 X 4 -2 d
 5 -3 d 5 -5 d 4 -5 d 5 -7 d 4 -8 d 5 -9 d 9 -20 d 9 -24 d 10 -26 d 9 -27 d 18 -54 d 9 -27 d 9 -24 d 10 -23 d 9 -21 d 9 -18 d 9 -16 d 9 -14 d 10 -11 d 9 -10 d 9 -8 d 9 -6 d 9 -5 d 19 -8 d 18 -4 d 18 -3 d 19 -2 d 18 -2 d 19 -1 d 18 -2 d 18 -1 d 19 -1
 d 18 -1 d 18 -1 d 19 -2 d 18 -1 d 18 -1 d 19 -1 d 18 -1 d 19 -2 d 18 -1 d 18 -1 d 19 -1 d 18 -1 d 18 -1 d 19 -2 d 18 -1 d 19 -1 d 18 -1 d 18 -1 d 19 -1 d 18 -2 d 18 -1 d 19 -1 d 18 -1 d 18 -1 d 19 -1 d 18 -1 d 19 -2 d 18 -1 d 18 -1 d s black 3 lw
 317 238 m 1837 X s 698 279 m -41 Y s 824 259 m -21 Y s 951 259 m -21 Y s 1078 259 m -21 Y s 1204 259 m -21 Y s 1331 279 m -41 Y s 1458 259 m -21 Y s 1584 259 m -21 Y s 1711 259 m -21 Y s 1838 259 m -21 Y s 1964 279 m -41 Y s 698 279 m -41 Y s 571
 259 m -21 Y s 444 259 m -21 Y s 317 259 m -21 Y s 1964 279 m -41 Y s 2091 259 m -21 Y s 317 1582 m 1837 X s 698 1540 m 42 Y s 824 1561 m 21 Y s 951 1561 m 21 Y s 1078 1561 m 21 Y s 1204 1561 m 21 Y s 1331 1540 m 42 Y s 1458 1561 m 21 Y s 1584 1561 m
 21 Y s 1711 1561 m 21 Y s 1838 1561 m 21 Y s 1964 1540 m 42 Y s 698 1540 m 42 Y s 571 1561 m 21 Y s 444 1561 m 21 Y s 317 1561 m 21 Y s 1964 1540 m 42 Y s 2091 1561 m 21 Y s 317 238 m 1344 Y s 371 238 m -54 X s 344 296 m -27 X s 344 354 m -27 X s
 344 413 m -27 X s 371 471 m -54 X s 344 529 m -27 X s 344 587 m -27 X s 344 645 m -27 X s 371 704 m -54 X s 344 762 m -27 X s 344 820 m -27 X s 344 878 m -27 X s 371 936 m -54 X s 344 994 m -27 X s 344 1053 m -27 X s 344 1111 m -27 X s 371 1169 m
 -54 X s 344 1227 m -27 X s 344 1285 m -27 X s 344 1343 m -27 X s 371 1402 m -54 X s 371 1402 m -54 X s 344 1460 m -27 X s 344 1518 m -27 X s 344 1576 m -27 X s 2154 238 m 1344 Y s 2101 238 m 53 X s 2127 296 m 27 X s 2127 354 m 27 X s 2127 413 m 27 X
 s 2101 471 m 53 X s 2127 529 m 27 X s 2127 587 m 27 X s 2127 645 m 27 X s 2101 704 m 53 X s 2127 762 m 27 X s 2127 820 m 27 X s 2127 878 m 27 X s 2101 936 m 53 X s 2127 994 m 27 X s 2127 1053 m 27 X s 2127 1111 m 27 X s 2101 1169 m 53 X s 2127 1227
 m 27 X s 2127 1285 m 27 X s 2127 1343 m 27 X s 2101 1402 m 53 X s 2101 1402 m 53 X s 2127 1460 m 27 X s 2127 1518 m 27 X s 2127 1576 m 27 X s
 gsave  2268 1701 0 0 C 864.11 393.193 t 0 r /Times-Roman findfont 59.4361 sf 0 0 m ( = 5 TeV) show NC gr 
 gsave  2268 1701 0 0 C 804.674 374.905 t 0 r /Times-Italic findfont 36.5761 sf 0 0 m (NN) show NC gr 
 gsave  2268 1701 0 0 C 781.814 393.193 t 0 r /Times-Italic findfont 59.4361 sf 0 0 m (s) show NC gr  6 lw 759 421 m 9 -51 d s 0 lw 768 370 m 9 69 d s 777 439 m 87 X s
 gsave  2268 1701 0 0 C 498.349 393.193 t 0 r /Times-Roman findfont 59.4361 sf 0 0 m (pPb\(Fwd\) ) show NC gr 
 gsave  2268 1701 0 0 C 498.349 475.489 t 0 r /Times-Roman findfont 73.1521 sf 0 0 m (LHCb preliminary) show NC gr 
 gsave  2268 1701 0 0 C 1783.08 512.065 t 0 r /Times-Roman findfont 73.1521 sf 0 0 m (2.5) show NC gr 
 gsave  2268 1701 0 0 C 1741.94 512.065 t 0 r /Symbol findfont 73.1521 sf 0 0 m (-) show NC gr 
 gsave  2268 1701 0 0 C 1682.5 512.065 t 0 r /Times-Roman findfont 73.1521 sf 0 0 m ( <) show NC gr 
 gsave  2268 1701 0 0 C 1645.92 512.065 t 0 r /Times-Italic findfont 73.1521 sf 0 0 m (y) show NC gr 
 gsave  2268 1701 0 0 C 1490.47 512.065 t 0 r /Times-Roman findfont 73.1521 sf 0 0 m (5.0< ) show NC gr 
 gsave  2268 1701 0 0 C 1449.33 512.065 t 0 r /Symbol findfont 73.1521 sf 0 0 m (-) show NC gr 
 gsave  2268 1701 0 0 C 1517.91 425.197 t 0 r /Times-Roman findfont 73.1521 sf 0 0 m ( < 14 GeV/c) show NC gr 
 gsave  2268 1701 0 0 C 1490.47 388.621 t 0 r /Times-Roman findfont 45.7201 sf 0 0 m (T) show NC gr 
 gsave  2268 1701 0 0 C 1449.33 425.197 t 0 r /Times-Italic findfont 73.1521 sf 0 0 m (p) show NC gr 
 gr  gr showpage
end
%%EOF
