%!PS-Adobe-2.0 EPSF-2.0
%%BoundingBox:  0 0 567 425
%%Title: result/TzFit/pACtz_c13.eps: 
%%Creator: ROOT Version 5.34/18
%%CreationDate: Wed Sep 16 23:56:18 2015
%%EndComments
%%BeginProlog
80 dict begin
/s {stroke} def /l {lineto} def /m {moveto} def /t {translate} def
/r {rotate} def /rl {roll}  def /R {repeat} def
/d {rlineto} def /rm {rmoveto} def /gr {grestore} def /f {eofill} def
/c {setrgbcolor} def /black {0 setgray} def /sd {setdash} def
/cl {closepath} def /sf {scalefont setfont} def /lw {setlinewidth} def
/box {m dup 0 exch d exch 0 d 0 exch neg d cl} def
/NC{systemdict begin initclip end}def/C{NC box clip newpath}def
/bl {box s} def /bf {box f} def /Y { 0 exch d} def /X { 0 d} def 
/K {{pop pop 0 moveto} exch kshow} bind def
/ita {/ang 15 def gsave [1 0 ang dup sin exch cos div 1 0 0] concat} def 
/mp {newpath /y exch def /x exch def} def
/side {[w .77 mul w .23 mul] .385 w mul sd w 0 l currentpoint t -144 r} def
/mr {mp x y w2 0 360 arc} def /m24 {mr s} def /m20 {mr f} def
/mb {mp x y w2 add m w2 neg 0 d 0 w neg d w 0 d 0 w d cl} def
/mt {mp x y w2 add m w2 neg w neg d w 0 d cl} def
/m21 {mb f} def /m25 {mb s} def /m22 {mt f} def /m26{mt s} def
/m23 {mp x y w2 sub m w2 w d w neg 0 d cl f} def
/m27 {mp x y w2 add m w3 neg w2 neg d w3 w2 neg d w3 w2 d cl s} def
/m28 {mp x w2 sub y w2 sub w3 add m w3 0 d  0 w3 neg d w3 0 d 0 w3 d w3 0 d  0 w3 d w3 neg 0 d 0 w3 d w3 neg 0 d 0 w3 neg d w3 neg 0 d cl s } def
/m29 {mp gsave x w2 sub y w2 add w3 sub m currentpoint t 4 {side} repeat cl fill gr} def
/m30 {mp gsave x w2 sub y w2 add w3 sub m currentpoint t 4 {side} repeat cl s gr} def
/m31 {mp x y w2 sub m 0 w d x w2 sub y m w 0 d x w2 sub y w2 add m w w neg d x w2 sub y w2 sub m w w d s} def
/m32 {mp x y w2 sub m w2 w d w neg 0 d cl s} def
/m33 {mp x y w2 add m w3 neg w2 neg d w3 w2 neg d w3 w2 d cl f} def
/m34 {mp x w2 sub y w2 sub w3 add m w3 0 d  0 w3 neg d w3 0 d 0 w3 d w3 0 d  0 w3 d w3 neg 0 d 0 w3 d w3 neg 0 d 0 w3 neg d w3 neg 0 d cl f } def
/m2 {mp x y w2 sub m 0 w d x w2 sub y m w 0 d s} def
/m5 {mp x w2 sub y w2 sub m w w d x w2 sub y w2 add m w w neg d s} def
/reEncode {exch findfont dup length dict begin {1 index /FID eq  {pop pop} {def} ifelse } forall /Encoding exch def currentdict end dup /FontName get exch definefont pop } def [/Times-Bold /Times-Italic /Times-BoldItalic /Helvetica /Helvetica-Oblique
 /Helvetica-Bold /Helvetica-BoldOblique /Courier /Courier-Oblique /Courier-Bold /Courier-BoldOblique /Times-Roman /AvantGarde-Book /AvantGarde-BookOblique /AvantGarde-Demi /AvantGarde-DemiOblique /Bookman-Demi /Bookman-DemiItalic /Bookman-Light
 /Bookman-LightItalic /Helvetica-Narrow /Helvetica-Narrow-Bold /Helvetica-Narrow-BoldOblique /Helvetica-Narrow-Oblique /NewCenturySchlbk-Roman /NewCenturySchlbk-Bold /NewCenturySchlbk-BoldItalic /NewCenturySchlbk-Italic /Palatino-Bold
 /Palatino-BoldItalic /Palatino-Italic /Palatino-Roman ] {ISOLatin1Encoding reEncode } forall
%%EndProlog
%%BeginSetup
%%EndSetup
newpath  gsave  .25 .25 scale  gsave  0 0 t black[  ] 0 sd 3 lw 1 1 1 c 2268 1701 0 0 bf black 1 1 1 c 1837 1344 317 238 bf black 1837 1344 317 238 bl 1 1 1 c 1837 1344 317 238 bf black 1837 1344 317 238 bl 317 238 m 1837 X s
 gsave  2268 1701 0 0 C 1984.25 54.8641 t 0 r /Times-Roman findfont 96.0122 sf 0 0 m ( [ps]) show NC gr 
 gsave  2268 1701 0 0 C 1956.82 32.0041 t 0 r /Times-Roman findfont 64.0081 sf 0 0 m (z) show NC gr 
 gsave  2268 1701 0 0 C 1929.39 54.8641 t 0 r /Times-Roman findfont 96.0122 sf 0 0 m (t) show NC gr  317 279 m -41 Y s 440 259 m -21 Y s 562 259 m -21 Y s 685 259 m -21 Y s 807 259 m -21 Y s 930 279 m -41 Y s 1052 259 m -21 Y s 1175 259 m -21 Y s
 1297 259 m -21 Y s 1420 259 m -21 Y s 1542 279 m -41 Y s 1665 259 m -21 Y s 1787 259 m -21 Y s 1909 259 m -21 Y s 2032 259 m -21 Y s 2154 279 m -41 Y s
 gsave  2268 1701 0 0 C 283.465 146.304 t 0 r /Times-Roman findfont 77.7242 sf 0 0 m (\2555) show NC gr 
 gsave  2268 1701 0 0 C 905.258 146.304 t 0 r /Times-Roman findfont 77.7242 sf 0 0 m (0) show NC gr 
 gsave  2268 1701 0 0 C 1522.48 146.304 t 0 r /Times-Roman findfont 77.7242 sf 0 0 m (5) show NC gr 
 gsave  2268 1701 0 0 C 2112.27 146.304 t 0 r /Times-Roman findfont 77.7242 sf 0 0 m (10) show NC gr  317 1582 m 1837 X s 317 1540 m 42 Y s 440 1561 m 21 Y s 562 1561 m 21 Y s 685 1561 m 21 Y s 807 1561 m 21 Y s 930 1540 m 42 Y s 1052 1561 m 21 Y s
 1175 1561 m 21 Y s 1297 1561 m 21 Y s 1420 1561 m 21 Y s 1542 1540 m 42 Y s 1665 1561 m 21 Y s 1787 1561 m 21 Y s 1909 1561 m 21 Y s 2032 1561 m 21 Y s 2154 1540 m 42 Y s 317 238 m 1344 Y s
 gsave  2268 1701 0 0 C 118.872 996.698 t 90 r /Times-Roman findfont 96.0122 sf 0 0 m (Candidates / ps) show NC gr  344 238 m -27 X s 344 285 m -27 X s 344 319 m -27 X s 344 345 m -27 X s 344 366 m -27 X s 344 384 m -27 X s 344 400 m -27 X s 344 414
 m -27 X s 371 426 m -54 X s
 gsave  2268 1701 0 0 C 297.071 393.022 t 0 r  -39 0 t /Times-Roman findfont 77.7242 sf 0 0 m (1) show NC gr  344 507 m -27 X s 344 554 m -27 X s 344 588 m -27 X s 344 614 m -27 X s 344 635 m -27 X s 344 653 m -27 X s 344 669 m -27 X s 344 682 m -27
 X s 371 695 m -54 X s
 gsave  2268 1701 0 0 C 297.071 661.747 t 0 r  -79 0 t /Times-Roman findfont 77.7242 sf 0 0 m (10) show NC gr  344 776 m -27 X s 344 823 m -27 X s 344 856 m -27 X s 344 882 m -27 X s 344 904 m -27 X s 344 922 m -27 X s 344 937 m -27 X s 344 951 m -27
 X s 371 963 m -54 X s
 gsave  2268 1701 0 0 C 265.177 960.122 t 0 r /Times-Roman findfont 54.8641 sf 0 0 m (2) show NC gr 
 gsave  2268 1701 0 0 C 187.452 928.118 t 0 r /Times-Roman findfont 77.7242 sf 0 0 m (10) show NC gr  344 1044 m -27 X s 344 1092 m -27 X s 344 1125 m -27 X s 344 1151 m -27 X s 344 1172 m -27 X s 344 1190 m -27 X s 344 1206 m -27 X s 344 1220 m -27
 X s 371 1232 m -54 X s
 gsave  2268 1701 0 0 C 265.177 1234.44 t 0 r /Times-Roman findfont 54.8641 sf 0 0 m (3) show NC gr 
 gsave  2268 1701 0 0 C 187.452 1197.87 t 0 r /Times-Roman findfont 77.7242 sf 0 0 m (10) show NC gr  344 1313 m -27 X s 344 1360 m -27 X s 344 1394 m -27 X s 344 1420 m -27 X s 344 1441 m -27 X s 344 1459 m -27 X s 344 1475 m -27 X s 344 1489 m -27
 X s 371 1501 m -54 X s
 gsave  2268 1701 0 0 C 265.177 1499.62 t 0 r /Times-Roman findfont 54.8641 sf 0 0 m (4) show NC gr 
 gsave  2268 1701 0 0 C 187.452 1467.61 t 0 r /Times-Roman findfont 77.7242 sf 0 0 m (10) show NC gr  344 1582 m -27 X s 2154 238 m 1344 Y s 2127 238 m 27 X s 2127 285 m 27 X s 2127 319 m 27 X s 2127 345 m 27 X s 2127 366 m 27 X s 2127 384 m 27 X s
 2127 400 m 27 X s 2127 414 m 27 X s 2101 426 m 53 X s 2127 507 m 27 X s 2127 554 m 27 X s 2127 588 m 27 X s 2127 614 m 27 X s 2127 635 m 27 X s 2127 653 m 27 X s 2127 669 m 27 X s 2127 682 m 27 X s 2101 695 m 53 X s 2127 776 m 27 X s 2127 823 m 27 X
 s 2127 856 m 27 X s 2127 882 m 27 X s 2127 904 m 27 X s 2127 922 m 27 X s 2127 937 m 27 X s 2127 951 m 27 X s 2101 963 m 53 X s 2127 1044 m 27 X s 2127 1092 m 27 X s 2127 1125 m 27 X s 2127 1151 m 27 X s 2127 1172 m 27 X s 2127 1190 m 27 X s 2127
 1206 m 27 X s 2127 1220 m 27 X s 2101 1232 m 53 X s 2127 1313 m 27 X s 2127 1360 m 27 X s 2127 1394 m 27 X s 2127 1420 m 27 X s 2127 1441 m 27 X s 2127 1459 m 27 X s 2127 1475 m 27 X s 2127 1489 m 27 X s 2101 1501 m 53 X s 2127 1582 m 27 X s 386 238
 m -69 X s 317 238 m 9 Y s 386 238 m 69 X s 455 238 m 9 Y s 386 238 m 117 Y s 377 355 m 19 X s 524 238 m -69 X s 455 238 m 9 Y s 524 238 m 69 X s 593 238 m 9 Y s 524 238 m 117 Y s 515 355 m 18 X s 662 420 m -69 X s 593 411 m 18 Y s 662 420 m 69 X s
 731 411 m 18 Y s 662 420 m 98 Y s 653 518 m 18 X s 662 420 m -121 Y s 653 299 m 18 X s 800 582 m -69 X s 731 573 m 18 Y s 800 582 m 69 X s 869 573 m 18 Y s 800 582 m 47 Y s 791 629 m 18 X s 800 582 m -50 Y s 791 532 m 18 X s 884 876 m -15 X s 869
 866 m 19 Y s 884 876 m 15 X s 899 866 m 19 Y s 884 876 m 27 Y s 875 903 m 18 X s 884 876 m -28 Y s 875 848 m 18 X s 914 1304 m -15 X s 899 1295 m 19 Y s 914 1304 m 16 X s 930 1295 m 19 Y s 914 1304 m 4 Y s 905 1308 m 19 X s 914 1304 m -4 Y s 905
 1300 m 19 X s 936 1406 m -6 X s 930 1397 m 19 Y s 936 1406 m 6 X s 942 1397 m 19 Y s 936 1406 m 4 Y s 927 1410 m 18 X s 936 1406 m -4 Y s 927 1402 m 18 X s 948 1251 m -6 X s 942 1242 m 18 Y s 948 1251 m 6 X s 954 1242 m 18 Y s 948 1251 m 8 Y s 939
 1259 m 18 X s 948 1251 m -8 Y s 939 1243 m 18 X s 960 1165 m -6 X s 954 1156 m 18 Y s 960 1165 m 7 X s 967 1156 m 18 Y s 960 1165 m 11 Y s 951 1176 m 19 X s 960 1165 m -11 Y s 951 1154 m 19 X s 973 1071 m -6 X s 967 1062 m 18 Y s 973 1071 m 6 X s
 979 1062 m 18 Y s 973 1071 m 18 Y s 963 1089 m 19 X s 973 1071 m -18 Y s 963 1053 m 19 X s 985 1011 m -6 X s 979 1002 m 18 Y s 985 1011 m 6 X s 991 1002 m 18 Y s 985 1011 m 24 Y s 976 1035 m 18 X s 985 1011 m -25 Y s 976 986 m 18 X s 997 1006 m -6 X
 s 991 997 m 19 Y s 997 1006 m 6 X s 1003 997 m 19 Y s 997 1006 m 25 Y s 988 1031 m 18 X s 997 1006 m -24 Y s 988 982 m 18 X s 1009 912 m -6 X s 1003 903 m 18 Y s 1009 912 m 6 X s 1015 903 m 18 Y s 1009 912 m 37 Y s 1000 949 m 19 X s 1009 912 m -39 Y
 s 1000 873 m 19 X s 1022 921 m -7 X s 1015 912 m 18 Y s 1022 921 m 6 X s 1028 912 m 18 Y s 1022 921 m 36 Y s 1012 957 m 19 X s 1022 921 m -37 Y s 1012 884 m 19 X s 1034 912 m -6 X s 1028 903 m 18 Y s 1034 912 m 6 X s 1040 903 m 18 Y s 1034 912 m 37
 Y s 1025 949 m 18 X s 1034 912 m -39 Y s 1025 873 m 18 X s 1046 902 m -6 X s 1040 893 m 18 Y s 1046 902 m 6 X s 1052 893 m 18 Y s 1046 902 m 39 Y s 1037 941 m 18 X s 1046 902 m -41 Y s 1037 861 m 18 X s 1068 838 m -16 X s 1052 829 m 19 Y s 1068 838
 m 15 X s 1083 829 m 19 Y s 1068 838 m 33 Y s 1058 871 m 19 X s 1068 838 m -33 Y s 1058 805 m 19 X s 1098 784 m -15 X s 1083 774 m 19 Y s 1098 784 m 15 X s 1113 774 m 19 Y s 1098 784 m 41 Y s 1089 825 m 18 X s 1098 784 m -44 Y s 1089 740 m 18 X s
 1129 814 m -16 X s 1113 805 m 18 Y s 1129 814 m 15 X s 1144 805 m 18 Y s 1129 814 m 36 Y s 1120 850 m 18 X s 1129 814 m -37 Y s 1120 777 m 18 X s 1159 771 m -15 X s 1144 762 m 18 Y s 1159 771 m 16 X s 1175 762 m 18 Y s 1159 771 m 44 Y s 1150 815 m
 19 X s 1159 771 m -46 Y s 1150 725 m 19 X s 1236 684 m -61 X s 1175 675 m 18 Y s 1236 684 m 61 X s 1297 675 m 18 Y s 1236 684 m 31 Y s 1227 715 m 18 X s 1236 684 m -32 Y s 1227 652 m 18 X s 1358 596 m -61 X s 1297 587 m 18 Y s 1358 596 m 62 X s 1420
 587 m 18 Y s 1358 596 m 47 Y s 1349 643 m 19 X s 1358 596 m -50 Y s 1349 546 m 19 X s 1481 353 m -61 X s 1420 344 m 18 Y s 1481 353 m 61 X s 1542 344 m 18 Y s 1481 353 m 139 Y s 1472 492 m 18 X s 1481 353 m -115 Y s 1472 238 m 18 X s 1603 238 m -61
 X s 1542 238 m 9 Y s 1603 238 m 62 X s 1665 238 m 9 Y s 1603 238 m 131 Y s 1594 369 m 18 X s 1726 353 m -61 X s 1665 344 m 18 Y s 1726 353 m 61 X s 1787 344 m 18 Y s 1726 353 m 139 Y s 1717 492 m 18 X s 1726 353 m -115 Y s 1717 238 m 18 X s 1848 353
 m -61 X s 1787 344 m 18 Y s 1848 353 m 61 X s 1909 344 m 18 Y s 1848 353 m 139 Y s 1839 492 m 18 X s 1848 353 m -115 Y s 1839 238 m 18 X s 1971 238 m -62 X s 1909 238 m 9 Y s 1971 238 m 61 X s 2032 238 m 9 Y s 1971 238 m 131 Y s 1962 369 m 18 X s
 2093 238 m -61 X s 2032 238 m 9 Y s 2093 238 m 61 X s 2154 238 m 9 Y s 2093 238 m 131 Y s 2084 369 m 18 X s /w 37 def /w2 {w 2 div} def /w3 {w 3 div} def 662 420 800 582 884 876 914 1304 936 1406 948 1251 960 1165 973 1071 985 1011 997 1006 1009 912
 1022 921 1034 912 1046 902 1068 838 1098 784 1129 814 1159 771 1236 684 1358 596 1481 353 21 { m20} R 1726 353 1848 353 2 { m20} R 0 0 1 c 9 lw 0 0.8 0 c black 0 0.8 0 c 1515 245 m s 1515 245 m -7 -7 d s 1490 278 m -1 Y s 1490 277 m -40 -39 d s 1465
 310 m s 1465 310 m -72 -72 d s 1440 343 m s 1440 343 m -105 -105 d s 1415 376 m s 1415 376 m -138 -138 d s 1390 409 m s 1390 409 m -171 -171 d s 1365 442 m -1 Y s 1365 441 m -203 -203 d s 1340 474 m s 1340 474 m -236 -236 d s 1315 507 m s 1315 507 m
 -269 -269 d s 1290 540 m s 1290 540 m -301 -302 d s 1265 573 m s 1265 573 m -334 -335 d s 1241 606 m -1 -1 d s 1240 605 m -367 -367 d s 1216 638 m s 1216 638 m -401 -400 d s 1191 671 m s 1191 671 m -433 -433 d s 1166 704 m s 1166 704 m -450 -450 d s
 1141 737 m s 1141 737 m -402 -402 d s 1116 770 m -355 -355 d s 1091 802 m -307 -307 d s 1067 836 m -260 -260 d s 1043 870 m -213 -214 d s 1023 907 m -171 -171 d s 1005 948 m -133 -134 d s 992 992 m -105 -105 d s 981 1038 m -85 -84 d s 971 1087 m -69
 -69 d s 963 1136 m -56 -56 d s 956 1187 m -45 -45 d s 950 1238 m -35 -34 d s 944 1291 m -26 -26 d s 940 1344 m -18 -18 d s 936 1397 m -11 -10 d s 0 0 1 c black 3 lw 0 0 1 c 1 lw << /PatternType 1 /PaintType 2 /TilingType 1 /BBox [ 0 0 101 101 ]
 /XStep 100 /YStep 100 /PaintProc { begin gsave 0 0 m 0 30 l 30 0 l f 0 70 m 0 100 l 30 100 l f 70 100 m 100 100 l 100 70 l f 70 0 m 100 0 l 100 30 l f 50 20 m 20 50 l 50 80 l 80 50 l f 50 80 m 30 100 l s 20 50 m 0 30 l s 50 20 m 70 0 l s 80 50 m 100
 70 l s gr end } >> [ 0.24 0 0 0.24 0 0 ] makepattern /P08 exch def /cs {[/Pattern /DeviceRGB] setcolorspace} def /FA {f [/DeviceRGB] setcolorspace} def cs 0 0 1 P08 setcolor 890 238 m 6 146 d 5 122 d 4 124 d 3 63 d 2 66 d 2 67 d 2 68 d 3 70 d 2 68 d
 2 65 d 3 55 d 2 40 d 2 17 d 3 -12 d 2 -36 d 2 -52 d 2 -63 d 3 -68 d 2 -70 d 2 -69 d 3 -67 d 2 -66 d 2 -63 d 2 -63 d 3 -62 d 4 -121 d 6 -159 d FA 9 lw black 912 238 m 5 Y s 912 243 m 2 66 d 3 68 d 2 68 d 2 67 d 3 64 d 2 57 d 2 47 d 3 34 d 2 21 d 2 12
 d 2 6 d 3 3 d 2 1 d 2 X 3 -1 d 4 -2 d 9 -6 d 19 -11 d 18 -11 d 18 -12 d 19 -11 d 18 -11 d 19 -12 d 18 -11 d 18 -12 d 19 -11 d 18 -11 d 18 -12 d 19 -11 d 18 -11 d 19 -12 d 18 -11 d 18 -12 d 19 -11 d 18 -11 d 18 -12 d 19 -11 d 18 -12 d 18 -11 d 19 -11
 d 18 -12 d 19 -11 d 18 -11 d 18 -12 d 19 -11 d 18 -12 d 18 -11 d 19 -11 d 18 -12 d 19 -11 d 18 -12 d 18 -11 d 19 -11 d 18 -12 d 18 -11 d 19 -11 d 18 -12 d 18 -11 d 19 -12 d 18 -11 d 19 -11 d 15 -10 d s 1 0 0 c black 1 0 0 c 711 238 m 11 36 d s 722
 274 m 18 65 d 18 65 d 19 65 d 18 65 d 18 65 d 19 65 d 18 66 d 19 69 d 9 39 d 9 49 d 4 30 d 5 38 d 5 46 d 2 27 d 2 30 d 3 33 d 2 35 d 2 38 d 2 40 d 3 43 d 2 45 d 2 46 d 3 44 d 2 38 d 2 25 d 3 7 d 2 -12 d 2 -26 d 2 -31 d 3 -32 d 2 -30 d 2 -27 d 3 -25
 d 2 -22 d 2 -21 d 2 -19 d 3 -18 d 2 -17 d 2 -16 d 3 -15 d 2 -14 d 5 -26 d 4 -24 d 5 -22 d 4 -20 d 5 -18 d 9 -31 d 9 -25 d 9 -21 d 19 -32 d 18 -26 d 19 -23 d 18 -22 d 18 -21 d 19 -21 d 18 -21 d 18 -20 d 19 -20 d 18 -19 d 19 -19 d 18 -19 d 18 -19 d 19
 -18 d 18 -18 d 18 -17 d 19 -17 d 18 -17 d 18 -17 d 19 -16 d 18 -16 d 19 -15 d 18 -15 d 18 -15 d 19 -15 d 18 -14 d 18 -14 d 19 -14 d 18 -14 d 19 -13 d 18 -14 d 18 -13 d 19 -13 d 18 -12 d 18 -13 d 19 -13 d 18 -12 d 18 -13 d 19 -12 d 18 -12 d 19 -12 d
 18 -12 d 6 -4 d s black 3 lw 317 238 m 1837 X s 317 279 m -41 Y s 440 259 m -21 Y s 562 259 m -21 Y s 685 259 m -21 Y s 807 259 m -21 Y s 930 279 m -41 Y s 1052 259 m -21 Y s 1175 259 m -21 Y s 1297 259 m -21 Y s 1420 259 m -21 Y s 1542 279 m -41 Y
 s 1665 259 m -21 Y s 1787 259 m -21 Y s 1909 259 m -21 Y s 2032 259 m -21 Y s 2154 279 m -41 Y s 317 1582 m 1837 X s 317 1540 m 42 Y s 440 1561 m 21 Y s 562 1561 m 21 Y s 685 1561 m 21 Y s 807 1561 m 21 Y s 930 1540 m 42 Y s 1052 1561 m 21 Y s 1175
 1561 m 21 Y s 1297 1561 m 21 Y s 1420 1561 m 21 Y s 1542 1540 m 42 Y s 1665 1561 m 21 Y s 1787 1561 m 21 Y s 1909 1561 m 21 Y s 2032 1561 m 21 Y s 2154 1540 m 42 Y s 317 238 m 1344 Y s 344 238 m -27 X s 344 285 m -27 X s 344 319 m -27 X s 344 345 m
 -27 X s 344 366 m -27 X s 344 384 m -27 X s 344 400 m -27 X s 344 414 m -27 X s 371 426 m -54 X s 344 507 m -27 X s 344 554 m -27 X s 344 588 m -27 X s 344 614 m -27 X s 344 635 m -27 X s 344 653 m -27 X s 344 669 m -27 X s 344 682 m -27 X s 371 695
 m -54 X s 344 776 m -27 X s 344 823 m -27 X s 344 856 m -27 X s 344 882 m -27 X s 344 904 m -27 X s 344 922 m -27 X s 344 937 m -27 X s 344 951 m -27 X s 371 963 m -54 X s 344 1044 m -27 X s 344 1092 m -27 X s 344 1125 m -27 X s 344 1151 m -27 X s
 344 1172 m -27 X s 344 1190 m -27 X s 344 1206 m -27 X s 344 1220 m -27 X s 371 1232 m -54 X s 344 1313 m -27 X s 344 1360 m -27 X s 344 1394 m -27 X s 344 1420 m -27 X s 344 1441 m -27 X s 344 1459 m -27 X s 344 1475 m -27 X s 344 1489 m -27 X s
 371 1501 m -54 X s 344 1582 m -27 X s 2154 238 m 1344 Y s 2127 238 m 27 X s 2127 285 m 27 X s 2127 319 m 27 X s 2127 345 m 27 X s 2127 366 m 27 X s 2127 384 m 27 X s 2127 400 m 27 X s 2127 414 m 27 X s 2101 426 m 53 X s 2127 507 m 27 X s 2127 554 m
 27 X s 2127 588 m 27 X s 2127 614 m 27 X s 2127 635 m 27 X s 2127 653 m 27 X s 2127 669 m 27 X s 2127 682 m 27 X s 2101 695 m 53 X s 2127 776 m 27 X s 2127 823 m 27 X s 2127 856 m 27 X s 2127 882 m 27 X s 2127 904 m 27 X s 2127 922 m 27 X s 2127 937
 m 27 X s 2127 951 m 27 X s 2101 963 m 53 X s 2127 1044 m 27 X s 2127 1092 m 27 X s 2127 1125 m 27 X s 2127 1151 m 27 X s 2127 1172 m 27 X s 2127 1190 m 27 X s 2127 1206 m 27 X s 2127 1220 m 27 X s 2101 1232 m 53 X s 2127 1313 m 27 X s 2127 1360 m 27
 X s 2127 1394 m 27 X s 2127 1420 m 27 X s 2127 1441 m 27 X s 2127 1459 m 27 X s 2127 1475 m 27 X s 2127 1489 m 27 X s 2101 1501 m 53 X s 2127 1582 m 27 X s
 gsave  2268 1701 0 0 C 1897.38 1147.57 t 0 r /Times-Roman findfont 73.1521 sf 0 0 m ( = 5 TeV) show NC gr 
 gsave  2268 1701 0 0 C 1828.8 1124.71 t 0 r /Times-Roman findfont 45.7201 sf 0 0 m (NN) show NC gr 
 gsave  2268 1701 0 0 C 1801.37 1147.57 t 0 r /Times-Roman findfont 73.1521 sf 0 0 m (s) show NC gr  6 lw 1774 1184 m 9 -64 d s 0 lw 1783 1120 m 9 87 d s 1792 1207 m 105 X s
 gsave  2268 1701 0 0 C 1449.33 1147.57 t 0 r /Times-Roman findfont 73.1521 sf 0 0 m (pPb\(Fwd\) ) show NC gr 
 gsave  2268 1701 0 0 C 1449.33 1243.59 t 0 r /Times-Roman findfont 73.1521 sf 0 0 m (LHCb preliminary) show NC gr 
 gsave  2268 1701 0 0 C 1449.33 937.262 t 0 r /Times-Roman findfont 73.1521 sf 0 0 m (2.5< y <4.0) show NC gr 
 gsave  2268 1701 0 0 C 1513.34 850.394 t 0 r /Times-Roman findfont 73.1521 sf 0 0 m ( < 14 GeV/c) show NC gr 
 gsave  2268 1701 0 0 C 1485.9 813.818 t 0 r /Times-Roman findfont 45.7201 sf 0 0 m (T) show NC gr 
 gsave  2268 1701 0 0 C 1449.33 850.394 t 0 r /Times-Roman findfont 73.1521 sf 0 0 m (p) show NC gr 
 gr  gr showpage
end
%%EOF
