%!PS-Adobe-2.0 EPSF-2.0
%%BoundingBox:  0 0 567 425
%%Title: result/TzFit/pACtz_c03.eps: 
%%Creator: ROOT Version 5.34/18
%%CreationDate: Wed Sep 16 23:56:18 2015
%%EndComments
%%BeginProlog
80 dict begin
/s {stroke} def /l {lineto} def /m {moveto} def /t {translate} def
/r {rotate} def /rl {roll}  def /R {repeat} def
/d {rlineto} def /rm {rmoveto} def /gr {grestore} def /f {eofill} def
/c {setrgbcolor} def /black {0 setgray} def /sd {setdash} def
/cl {closepath} def /sf {scalefont setfont} def /lw {setlinewidth} def
/box {m dup 0 exch d exch 0 d 0 exch neg d cl} def
/NC{systemdict begin initclip end}def/C{NC box clip newpath}def
/bl {box s} def /bf {box f} def /Y { 0 exch d} def /X { 0 d} def 
/K {{pop pop 0 moveto} exch kshow} bind def
/ita {/ang 15 def gsave [1 0 ang dup sin exch cos div 1 0 0] concat} def 
/mp {newpath /y exch def /x exch def} def
/side {[w .77 mul w .23 mul] .385 w mul sd w 0 l currentpoint t -144 r} def
/mr {mp x y w2 0 360 arc} def /m24 {mr s} def /m20 {mr f} def
/mb {mp x y w2 add m w2 neg 0 d 0 w neg d w 0 d 0 w d cl} def
/mt {mp x y w2 add m w2 neg w neg d w 0 d cl} def
/m21 {mb f} def /m25 {mb s} def /m22 {mt f} def /m26{mt s} def
/m23 {mp x y w2 sub m w2 w d w neg 0 d cl f} def
/m27 {mp x y w2 add m w3 neg w2 neg d w3 w2 neg d w3 w2 d cl s} def
/m28 {mp x w2 sub y w2 sub w3 add m w3 0 d  0 w3 neg d w3 0 d 0 w3 d w3 0 d  0 w3 d w3 neg 0 d 0 w3 d w3 neg 0 d 0 w3 neg d w3 neg 0 d cl s } def
/m29 {mp gsave x w2 sub y w2 add w3 sub m currentpoint t 4 {side} repeat cl fill gr} def
/m30 {mp gsave x w2 sub y w2 add w3 sub m currentpoint t 4 {side} repeat cl s gr} def
/m31 {mp x y w2 sub m 0 w d x w2 sub y m w 0 d x w2 sub y w2 add m w w neg d x w2 sub y w2 sub m w w d s} def
/m32 {mp x y w2 sub m w2 w d w neg 0 d cl s} def
/m33 {mp x y w2 add m w3 neg w2 neg d w3 w2 neg d w3 w2 d cl f} def
/m34 {mp x w2 sub y w2 sub w3 add m w3 0 d  0 w3 neg d w3 0 d 0 w3 d w3 0 d  0 w3 d w3 neg 0 d 0 w3 d w3 neg 0 d 0 w3 neg d w3 neg 0 d cl f } def
/m2 {mp x y w2 sub m 0 w d x w2 sub y m w 0 d s} def
/m5 {mp x w2 sub y w2 sub m w w d x w2 sub y w2 add m w w neg d s} def
/reEncode {exch findfont dup length dict begin {1 index /FID eq  {pop pop} {def} ifelse } forall /Encoding exch def currentdict end dup /FontName get exch definefont pop } def [/Times-Bold /Times-Italic /Times-BoldItalic /Helvetica /Helvetica-Oblique
 /Helvetica-Bold /Helvetica-BoldOblique /Courier /Courier-Oblique /Courier-Bold /Courier-BoldOblique /Times-Roman /AvantGarde-Book /AvantGarde-BookOblique /AvantGarde-Demi /AvantGarde-DemiOblique /Bookman-Demi /Bookman-DemiItalic /Bookman-Light
 /Bookman-LightItalic /Helvetica-Narrow /Helvetica-Narrow-Bold /Helvetica-Narrow-BoldOblique /Helvetica-Narrow-Oblique /NewCenturySchlbk-Roman /NewCenturySchlbk-Bold /NewCenturySchlbk-BoldItalic /NewCenturySchlbk-Italic /Palatino-Bold
 /Palatino-BoldItalic /Palatino-Italic /Palatino-Roman ] {ISOLatin1Encoding reEncode } forall
%%EndProlog
%%BeginSetup
%%EndSetup
newpath  gsave  .25 .25 scale  gsave  0 0 t black[  ] 0 sd 3 lw 1 1 1 c 2268 1701 0 0 bf black 1 1 1 c 1837 1344 317 238 bf black 1837 1344 317 238 bl 1 1 1 c 1837 1344 317 238 bf black 1837 1344 317 238 bl 317 238 m 1837 X s
 gsave  2268 1701 0 0 C 2125.98 50.2921 t 0 r /Times-Roman findfont 96.0122 sf 0 0 m (]) show NC gr 
 gsave  2268 1701 0 0 C 2093.98 91.4402 t 0 r /Times-Roman findfont 64.0081 sf 0 0 m (2) show NC gr 
 gsave  2268 1701 0 0 C 1773.94 50.2921 t 0 r /Times-Roman findfont 96.0122 sf 0 0 m ( [MeV/c) show NC gr 
 gsave  2268 1701 0 0 C 1737.36 32.0041 t 0 r /Symbol findfont 64.0081 sf 0 0 m (m) show NC gr 
 gsave  2268 1701 0 0 C 1700.79 32.0041 t 0 r /Symbol findfont 64.0081 sf 0 0 m (m) show NC gr 
 gsave  2268 1701 0 0 C 1623.06 50.2921 t 0 r /Times-Roman findfont 96.0122 sf 0 0 m (m) show NC gr  698 279 m -41 Y s 824 259 m -21 Y s 951 259 m -21 Y s 1078 259 m -21 Y s 1204 259 m -21 Y s 1331 279 m -41 Y s 1458 259 m -21 Y s 1584 259 m -21 Y s
 1711 259 m -21 Y s 1838 259 m -21 Y s 1964 279 m -41 Y s 698 279 m -41 Y s 571 259 m -21 Y s 444 259 m -21 Y s 317 259 m -21 Y s 1964 279 m -41 Y s 2091 259 m -21 Y s
 gsave  2268 1701 0 0 C 617.221 146.304 t 0 r /Times-Roman findfont 77.7242 sf 0 0 m (3600) show NC gr 
 gsave  2268 1701 0 0 C 1252.73 146.304 t 0 r /Times-Roman findfont 77.7242 sf 0 0 m (3700) show NC gr 
 gsave  2268 1701 0 0 C 1883.67 146.304 t 0 r /Times-Roman findfont 77.7242 sf 0 0 m (3800) show NC gr  317 1582 m 1837 X s 698 1540 m 42 Y s 824 1561 m 21 Y s 951 1561 m 21 Y s 1078 1561 m 21 Y s 1204 1561 m 21 Y s 1331 1540 m 42 Y s 1458 1561 m 21
 Y s 1584 1561 m 21 Y s 1711 1561 m 21 Y s 1838 1561 m 21 Y s 1964 1540 m 42 Y s 698 1540 m 42 Y s 571 1561 m 21 Y s 444 1561 m 21 Y s 317 1561 m 21 Y s 1964 1540 m 42 Y s 2091 1561 m 21 Y s 317 238 m 1344 Y s
 gsave  2268 1701 0 0 C 91.4402 1554.48 t 90 r /Times-Roman findfont 96.0122 sf 0 0 m (\)) show NC gr 
 gsave  2268 1701 0 0 C 50.2921 1522.48 t 90 r /Times-Roman findfont 64.0081 sf 0 0 m (2) show NC gr 
 gsave  2268 1701 0 0 C 91.4402 603.505 t 90 r /Times-Roman findfont 96.0122 sf 0 0 m (Candidates / \(20 MeV/c) show NC gr  371 238 m -54 X s 344 272 m -27 X s 344 307 m -27 X s 344 341 m -27 X s 344 375 m -27 X s 371 409 m -54 X s 344 443 m -27 X s
 344 478 m -27 X s 344 512 m -27 X s 344 546 m -27 X s 371 580 m -54 X s 344 614 m -27 X s 344 649 m -27 X s 344 683 m -27 X s 344 717 m -27 X s 371 751 m -54 X s 344 785 m -27 X s 344 820 m -27 X s 344 854 m -27 X s 344 888 m -27 X s 371 922 m -54 X
 s 344 956 m -27 X s 344 991 m -27 X s 344 1025 m -27 X s 344 1059 m -27 X s 371 1093 m -54 X s 344 1127 m -27 X s 344 1162 m -27 X s 344 1196 m -27 X s 344 1230 m -27 X s 371 1264 m -54 X s 344 1298 m -27 X s 344 1333 m -27 X s 344 1367 m -27 X s
 344 1401 m -27 X s 371 1435 m -54 X s 371 1435 m -54 X s 344 1469 m -27 X s 344 1504 m -27 X s 344 1538 m -27 X s 344 1572 m -27 X s
 gsave  2268 1701 0 0 C 260.605 214.884 t 0 r /Times-Roman findfont 77.7242 sf 0 0 m (0) show NC gr 
 gsave  2268 1701 0 0 C 224.028 384.049 t 0 r /Times-Roman findfont 77.7242 sf 0 0 m (50) show NC gr 
 gsave  2268 1701 0 0 C 182.88 553.213 t 0 r /Times-Roman findfont 77.7242 sf 0 0 m (100) show NC gr 
 gsave  2268 1701 0 0 C 182.88 726.949 t 0 r /Times-Roman findfont 77.7242 sf 0 0 m (150) show NC gr 
 gsave  2268 1701 0 0 C 182.88 896.114 t 0 r /Times-Roman findfont 77.7242 sf 0 0 m (200) show NC gr 
 gsave  2268 1701 0 0 C 182.88 1069.85 t 0 r /Times-Roman findfont 77.7242 sf 0 0 m (250) show NC gr 
 gsave  2268 1701 0 0 C 182.88 1239.01 t 0 r /Times-Roman findfont 77.7242 sf 0 0 m (300) show NC gr 
 gsave  2268 1701 0 0 C 182.88 1408.18 t 0 r /Times-Roman findfont 77.7242 sf 0 0 m (350) show NC gr  2154 238 m 1344 Y s 2101 238 m 53 X s 2127 272 m 27 X s 2127 307 m 27 X s 2127 341 m 27 X s 2127 375 m 27 X s 2101 409 m 53 X s 2127 443 m 27 X s
 2127 478 m 27 X s 2127 512 m 27 X s 2127 546 m 27 X s 2101 580 m 53 X s 2127 614 m 27 X s 2127 649 m 27 X s 2127 683 m 27 X s 2127 717 m 27 X s 2101 751 m 53 X s 2127 785 m 27 X s 2127 820 m 27 X s 2127 854 m 27 X s 2127 888 m 27 X s 2101 922 m 53 X
 s 2127 956 m 27 X s 2127 991 m 27 X s 2127 1025 m 27 X s 2127 1059 m 27 X s 2101 1093 m 53 X s 2127 1127 m 27 X s 2127 1162 m 27 X s 2127 1196 m 27 X s 2127 1230 m 27 X s 2101 1264 m 53 X s 2127 1298 m 27 X s 2127 1333 m 27 X s 2127 1367 m 27 X s
 2127 1401 m 27 X s 2101 1435 m 53 X s 2101 1435 m 53 X s 2127 1469 m 27 X s 2127 1504 m 27 X s 2127 1538 m 27 X s 2127 1572 m 27 X s 409 902 m -92 X s 317 892 m 19 Y s 409 902 m 92 X s 501 892 m 19 Y s 409 902 m 49 Y s 400 951 m 18 X s 409 902 m -46
 Y s 400 856 m 18 X s 593 1038 m -92 X s 501 1029 m 19 Y s 593 1038 m 92 X s 685 1029 m 19 Y s 593 1038 m 54 Y s 584 1092 m 18 X s 593 1038 m -50 Y s 584 988 m 18 X s 777 1008 m -92 X s 685 999 m 18 Y s 777 1008 m 92 X s 869 999 m 18 Y s 777 1008 m
 53 Y s 768 1061 m 18 X s 777 1008 m -50 Y s 768 958 m 18 X s 960 1035 m -91 X s 869 1026 m 18 Y s 960 1035 m 92 X s 1052 1026 m 18 Y s 960 1035 m 54 Y s 951 1089 m 19 X s 960 1035 m -51 Y s 951 984 m 19 X s 1144 1240 m -92 X s 1052 1231 m 18 Y s
 1144 1240 m 92 X s 1236 1231 m 18 Y s 1144 1240 m 61 Y s 1135 1301 m 18 X s 1144 1240 m -57 Y s 1135 1183 m 18 X s 1328 1353 m -92 X s 1236 1344 m 18 Y s 1328 1353 m 92 X s 1420 1344 m 18 Y s 1328 1353 m 64 Y s 1319 1417 m 18 X s 1328 1353 m -60 Y s
 1319 1293 m 18 X s 1511 919 m -91 X s 1420 910 m 18 Y s 1511 919 m 92 X s 1603 910 m 18 Y s 1511 919 m 50 Y s 1502 969 m 19 X s 1511 919 m -47 Y s 1502 872 m 19 X s 1695 932 m -92 X s 1603 923 m 19 Y s 1695 932 m 92 X s 1787 923 m 19 Y s 1695 932 m
 51 Y s 1686 983 m 18 X s 1695 932 m -47 Y s 1686 885 m 18 X s 1879 898 m -92 X s 1787 889 m 18 Y s 1879 898 m 92 X s 1971 889 m 18 Y s 1879 898 m 49 Y s 1870 947 m 18 X s 1879 898 m -46 Y s 1870 852 m 18 X s 2062 854 m -91 X s 1971 845 m 18 Y s 2062
 854 m 92 X s 2154 845 m 18 Y s 2062 854 m 47 Y s 2053 901 m 19 X s 2062 854 m -44 Y s 2053 810 m 19 X s /w 37 def /w2 {w 2 div} def /w3 {w 3 div} def 409 902 593 1038 777 1008 960 1035 1144 1240 1328 1353 1511 919 1695 932 1879 898 2062 854 10 {
 m20} R 0 0 1 c[ 12 12] 0 sd 9 lw black 0 0 1 c 317 242 m cl s 317 242 m 147 X 19 1 d 110 X 18 1 d 55 X 19 1 d 37 X 18 1 d 37 X 18 1 d 18 1 d 19 X 18 1 d 19 1 d 18 1 d 18 1 d 19 1 d 18 2 d 18 2 d 19 3 d 18 3 d 18 6 d 19 7 d 9 6 d 9 7 d 9 11 d 10 14 d
 9 17 d 9 20 d 9 22 d 9 24 d 10 28 d 9 29 d 9 32 d 9 34 d 18 70 d 19 70 d 9 33 d 9 30 d 9 27 d 10 23 d 4 10 d 5 9 d 4 7 d 5 6 d 4 4 d 5 3 d 5 2 d 4 X 5 -2 d 4 -3 d 5 -4 d 5 -6 d 4 -7 d 5 -8 d 4 -10 d 5 -11 d 9 -25 d 9 -29 d 10 -32 d 9 -34 d 18 -70 d
 18 -70 d 10 -33 d 9 -30 d 9 -29 d 9 -26 d 9 -23 d 10 -21 d 9 -18 d 9 -16 d 9 -13 d 9 -11 d 10 -10 d 9 -7 d 9 -7 d 9 -5 d 18 -7 d 19 -4 d 18 -2 d 19 -2 d 18 X 18 -1 d 551 X s 0 0.8 0 c black 0 0.8 0 c 317 1008 m cl s 317 1008 m 19 -1 d 18 -2 d 19 -1
 d 18 -1 d 18 -2 d 19 -1 d 18 -1 d 18 -2 d 19 -1 d 18 -1 d 19 -2 d 18 -1 d 18 -1 d 19 -2 d 18 -1 d 18 -1 d 19 -2 d 18 -1 d 18 -1 d 19 -2 d 18 -1 d 19 -1 d 18 -2 d 18 -1 d 19 -1 d 18 -1 d 18 -2 d 19 -1 d 18 -1 d 19 -2 d 18 -1 d 18 -1 d 19 -2 d 18 -1 d
 18 -1 d 19 -1 d 18 -2 d 18 -1 d 19 -1 d 18 -1 d 19 -2 d 18 -1 d 18 -1 d 19 -2 d 18 -1 d 18 -1 d 19 -1 d 18 -2 d 19 -1 d 18 -1 d 18 -1 d 19 -2 d 18 -1 d 18 -1 d 19 -1 d 18 -1 d 18 -2 d 19 -1 d 18 -1 d 19 -1 d 18 -2 d 18 -1 d 19 -1 d 18 -1 d 18 -1 d
 19 -2 d 18 -1 d 19 -1 d 18 -1 d 18 -1 d 19 -2 d 18 -1 d 18 -1 d 19 -1 d 18 -1 d 18 -2 d 19 -1 d 18 -1 d 19 -1 d 18 -1 d 18 -2 d 19 -1 d 18 -1 d 18 -1 d 19 -1 d 18 -1 d 19 -2 d 18 -1 d 18 -1 d 19 -1 d 18 -1 d 18 -1 d 19 -2 d 18 -1 d 18 -1 d 19 -1 d
 18 -1 d 19 -1 d 18 -1 d 18 -2 d s 1 0 0 c[  ] 0 sd black 1 0 0 c 317 1012 m cl s 317 1012 m 19 -2 d 18 -1 d 19 -1 d 18 -1 d 18 -2 d 19 -1 d 18 -1 d 18 -1 d 19 -2 d 18 -1 d 19 -1 d 18 -1 d 18 -1 d 19 -2 d 18 -1 d 18 -1 d 19 -1 d 18 -1 d 18 -1 d 19 -1
 d 18 -1 d 19 -1 d 18 -1 d 18 -1 d 19 -1 d 18 -1 d 18 X 19 -1 d 18 -1 d 92 X 18 1 d 19 1 d 18 3 d 18 4 d 19 6 d 9 5 d 9 7 d 9 10 d 10 14 d 9 16 d 9 19 d 9 21 d 9 24 d 10 27 d 9 29 d 9 31 d 9 33 d 18 69 d 19 68 d 9 33 d 9 30 d 9 26 d 10 23 d 9 17 d 4
 7 d 5 6 d 4 4 d 5 3 d 5 1 d 4 -1 d 5 -1 d 4 -4 d 5 -4 d 5 -6 d 4 -8 d 5 -9 d 9 -21 d 9 -26 d 9 -29 d 10 -33 d 9 -34 d 18 -72 d 18 -71 d 10 -33 d 9 -31 d 9 -30 d 9 -26 d 9 -24 d 10 -22 d 9 -18 d 9 -17 d 9 -14 d 9 -11 d 10 -10 d 9 -9 d 18 -12 d 18 -8
 d 19 -6 d 18 -3 d 19 -3 d 18 -2 d 18 -1 d 19 -2 d 18 -1 d 18 -1 d 19 -1 d 18 -1 d 18 -2 d 19 -1 d 18 -1 d 19 -1 d 18 -1 d 18 -2 d 19 -1 d 18 -1 d 18 -1 d 19 -1 d 18 -1 d 19 -2 d 18 -1 d 18 -1 d 19 -1 d 18 -1 d 18 -1 d 19 -2 d 18 -1 d 18 -1 d 19 -1 d
 18 -1 d 19 -1 d 18 -1 d 18 -2 d s black 3 lw 317 238 m 1837 X s 698 279 m -41 Y s 824 259 m -21 Y s 951 259 m -21 Y s 1078 259 m -21 Y s 1204 259 m -21 Y s 1331 279 m -41 Y s 1458 259 m -21 Y s 1584 259 m -21 Y s 1711 259 m -21 Y s 1838 259 m -21 Y
 s 1964 279 m -41 Y s 698 279 m -41 Y s 571 259 m -21 Y s 444 259 m -21 Y s 317 259 m -21 Y s 1964 279 m -41 Y s 2091 259 m -21 Y s 317 1582 m 1837 X s 698 1540 m 42 Y s 824 1561 m 21 Y s 951 1561 m 21 Y s 1078 1561 m 21 Y s 1204 1561 m 21 Y s 1331
 1540 m 42 Y s 1458 1561 m 21 Y s 1584 1561 m 21 Y s 1711 1561 m 21 Y s 1838 1561 m 21 Y s 1964 1540 m 42 Y s 698 1540 m 42 Y s 571 1561 m 21 Y s 444 1561 m 21 Y s 317 1561 m 21 Y s 1964 1540 m 42 Y s 2091 1561 m 21 Y s 317 238 m 1344 Y s 371 238 m
 -54 X s 344 272 m -27 X s 344 307 m -27 X s 344 341 m -27 X s 344 375 m -27 X s 371 409 m -54 X s 344 443 m -27 X s 344 478 m -27 X s 344 512 m -27 X s 344 546 m -27 X s 371 580 m -54 X s 344 614 m -27 X s 344 649 m -27 X s 344 683 m -27 X s 344 717
 m -27 X s 371 751 m -54 X s 344 785 m -27 X s 344 820 m -27 X s 344 854 m -27 X s 344 888 m -27 X s 371 922 m -54 X s 344 956 m -27 X s 344 991 m -27 X s 344 1025 m -27 X s 344 1059 m -27 X s 371 1093 m -54 X s 344 1127 m -27 X s 344 1162 m -27 X s
 344 1196 m -27 X s 344 1230 m -27 X s 371 1264 m -54 X s 344 1298 m -27 X s 344 1333 m -27 X s 344 1367 m -27 X s 344 1401 m -27 X s 371 1435 m -54 X s 371 1435 m -54 X s 344 1469 m -27 X s 344 1504 m -27 X s 344 1538 m -27 X s 344 1572 m -27 X s
 2154 238 m 1344 Y s 2101 238 m 53 X s 2127 272 m 27 X s 2127 307 m 27 X s 2127 341 m 27 X s 2127 375 m 27 X s 2101 409 m 53 X s 2127 443 m 27 X s 2127 478 m 27 X s 2127 512 m 27 X s 2127 546 m 27 X s 2101 580 m 53 X s 2127 614 m 27 X s 2127 649 m 27
 X s 2127 683 m 27 X s 2127 717 m 27 X s 2101 751 m 53 X s 2127 785 m 27 X s 2127 820 m 27 X s 2127 854 m 27 X s 2127 888 m 27 X s 2101 922 m 53 X s 2127 956 m 27 X s 2127 991 m 27 X s 2127 1025 m 27 X s 2127 1059 m 27 X s 2101 1093 m 53 X s 2127
 1127 m 27 X s 2127 1162 m 27 X s 2127 1196 m 27 X s 2127 1230 m 27 X s 2101 1264 m 53 X s 2127 1298 m 27 X s 2127 1333 m 27 X s 2127 1367 m 27 X s 2127 1401 m 27 X s 2101 1435 m 53 X s 2101 1435 m 53 X s 2127 1469 m 27 X s 2127 1504 m 27 X s 2127
 1538 m 27 X s 2127 1572 m 27 X s
 gsave  2268 1701 0 0 C 717.805 379.477 t 0 r /Times-Roman findfont 73.1521 sf 0 0 m ( = 5 TeV) show NC gr 
 gsave  2268 1701 0 0 C 649.225 356.617 t 0 r /Times-Roman findfont 45.7201 sf 0 0 m (NN) show NC gr 
 gsave  2268 1701 0 0 C 621.793 379.477 t 0 r /Times-Roman findfont 73.1521 sf 0 0 m (s) show NC gr  6 lw 594 416 m 10 -64 d s 0 lw 604 352 m 9 87 d s 613 439 m 105 X s
 gsave  2268 1701 0 0 C 269.749 379.477 t 0 r /Times-Roman findfont 73.1521 sf 0 0 m (pPb\(Fwd\) ) show NC gr 
 gsave  2268 1701 0 0 C 269.749 475.489 t 0 r /Times-Roman findfont 73.1521 sf 0 0 m (LHCb preliminary) show NC gr 
 gsave  2268 1701 0 0 C 1449.33 512.065 t 0 r /Times-Roman findfont 73.1521 sf 0 0 m (2.5< y <4.0) show NC gr 
 gsave  2268 1701 0 0 C 1513.34 425.197 t 0 r /Times-Roman findfont 73.1521 sf 0 0 m ( < 14 GeV/c) show NC gr 
 gsave  2268 1701 0 0 C 1485.9 388.621 t 0 r /Times-Roman findfont 45.7201 sf 0 0 m (T) show NC gr 
 gsave  2268 1701 0 0 C 1449.33 425.197 t 0 r /Times-Roman findfont 73.1521 sf 0 0 m (p) show NC gr 
 gr  gr showpage
end
%%EOF
