%!PS-Adobe-2.0 EPSF-2.0
%%BoundingBox:  0 0 567 425
%%Title: ../result/CrossSection/pA_Xsec_PT_pb.eps: 
%%Creator: ROOT Version 5.34/18
%%CreationDate: Mon Nov 30 22:44:39 2015
%%EndComments
%%BeginProlog
80 dict begin
/s {stroke} def /l {lineto} def /m {moveto} def /t {translate} def
/r {rotate} def /rl {roll}  def /R {repeat} def
/d {rlineto} def /rm {rmoveto} def /gr {grestore} def /f {eofill} def
/c {setrgbcolor} def /black {0 setgray} def /sd {setdash} def
/cl {closepath} def /sf {scalefont setfont} def /lw {setlinewidth} def
/box {m dup 0 exch d exch 0 d 0 exch neg d cl} def
/NC{systemdict begin initclip end}def/C{NC box clip newpath}def
/bl {box s} def /bf {box f} def /Y { 0 exch d} def /X { 0 d} def 
/K {{pop pop 0 moveto} exch kshow} bind def
/ita {/ang 15 def gsave [1 0 ang dup sin exch cos div 1 0 0] concat} def 
/mp {newpath /y exch def /x exch def} def
/side {[w .77 mul w .23 mul] .385 w mul sd w 0 l currentpoint t -144 r} def
/mr {mp x y w2 0 360 arc} def /m24 {mr s} def /m20 {mr f} def
/mb {mp x y w2 add m w2 neg 0 d 0 w neg d w 0 d 0 w d cl} def
/mt {mp x y w2 add m w2 neg w neg d w 0 d cl} def
/m21 {mb f} def /m25 {mb s} def /m22 {mt f} def /m26{mt s} def
/m23 {mp x y w2 sub m w2 w d w neg 0 d cl f} def
/m27 {mp x y w2 add m w3 neg w2 neg d w3 w2 neg d w3 w2 d cl s} def
/m28 {mp x w2 sub y w2 sub w3 add m w3 0 d  0 w3 neg d w3 0 d 0 w3 d w3 0 d  0 w3 d w3 neg 0 d 0 w3 d w3 neg 0 d 0 w3 neg d w3 neg 0 d cl s } def
/m29 {mp gsave x w2 sub y w2 add w3 sub m currentpoint t 4 {side} repeat cl fill gr} def
/m30 {mp gsave x w2 sub y w2 add w3 sub m currentpoint t 4 {side} repeat cl s gr} def
/m31 {mp x y w2 sub m 0 w d x w2 sub y m w 0 d x w2 sub y w2 add m w w neg d x w2 sub y w2 sub m w w d s} def
/m32 {mp x y w2 sub m w2 w d w neg 0 d cl s} def
/m33 {mp x y w2 add m w3 neg w2 neg d w3 w2 neg d w3 w2 d cl f} def
/m34 {mp x w2 sub y w2 sub w3 add m w3 0 d  0 w3 neg d w3 0 d 0 w3 d w3 0 d  0 w3 d w3 neg 0 d 0 w3 d w3 neg 0 d 0 w3 neg d w3 neg 0 d cl f } def
/m2 {mp x y w2 sub m 0 w d x w2 sub y m w 0 d s} def
/m5 {mp x w2 sub y w2 sub m w w d x w2 sub y w2 add m w w neg d s} def
/reEncode {exch findfont dup length dict begin {1 index /FID eq  {pop pop} {def} ifelse } forall /Encoding exch def currentdict end dup /FontName get exch definefont pop } def [/Times-Bold /Times-Italic /Times-BoldItalic /Helvetica /Helvetica-Oblique
 /Helvetica-Bold /Helvetica-BoldOblique /Courier /Courier-Oblique /Courier-Bold /Courier-BoldOblique /Times-Roman /AvantGarde-Book /AvantGarde-BookOblique /AvantGarde-Demi /AvantGarde-DemiOblique /Bookman-Demi /Bookman-DemiItalic /Bookman-Light
 /Bookman-LightItalic /Helvetica-Narrow /Helvetica-Narrow-Bold /Helvetica-Narrow-BoldOblique /Helvetica-Narrow-Oblique /NewCenturySchlbk-Roman /NewCenturySchlbk-Bold /NewCenturySchlbk-BoldItalic /NewCenturySchlbk-Italic /Palatino-Bold
 /Palatino-BoldItalic /Palatino-Italic /Palatino-Roman ] {ISOLatin1Encoding reEncode } forall
%%EndProlog
%%BeginSetup
%%EndSetup
newpath  gsave  .25 .25 scale  gsave  0 0 t black[  ] 0 sd 6 lw 1 1 1 c 2268 1701 0 0 bf black 1 1 1 c 1837 1344 317 238 bf black 1837 1344 317 238 bl 1 1 1 c 1837 1344 317 238 bf black 1837 1344 317 238 bl 317 238 m 1837 X s
 gsave  2268 1701 0 0 C 2125.98 64.0081 t 0 r /Times-Roman findfont 96.0122 sf 0 0 m (]) show NC gr 
 gsave  2268 1701 0 0 C 2080.26 64.0081 t 0 r /Times-Italic findfont 96.0122 sf 0 0 m (c) show NC gr 
 gsave  2268 1701 0 0 C 1837.95 64.0081 t 0 r /Times-Roman findfont 96.0122 sf 0 0 m ([GeV/) show NC gr 
 gsave  2268 1701 0 0 C 1796.8 13.716 t 0 r /Times-Roman findfont 64.0081 sf 0 0 m (T) show NC gr 
 gsave  2268 1701 0 0 C 1737.36 64.0081 t 0 r /Times-Italic findfont 96.0122 sf 0 0 m (p) show NC gr  317 279 m -41 Y s 449 259 m -21 Y s 580 259 m -21 Y s 711 259 m -21 Y s 842 259 m -21 Y s 973 279 m -41 Y s 1105 259 m -21 Y s 1236 259 m -21 Y s
 1367 259 m -21 Y s 1498 259 m -21 Y s 1630 279 m -41 Y s 1630 279 m -41 Y s 1761 259 m -21 Y s 1892 259 m -21 Y s 2023 259 m -21 Y s
 gsave  2268 1701 0 0 C 292.609 146.304 t 0 r /Times-Roman findfont 77.7242 sf 0 0 m (0) show NC gr 
 gsave  2268 1701 0 0 C 950.978 146.304 t 0 r /Times-Roman findfont 77.7242 sf 0 0 m (5) show NC gr 
 gsave  2268 1701 0 0 C 1586.49 146.304 t 0 r /Times-Roman findfont 77.7242 sf 0 0 m (10) show NC gr  317 1582 m 1837 X s 317 1540 m 42 Y s 449 1561 m 21 Y s 580 1561 m 21 Y s 711 1561 m 21 Y s 842 1561 m 21 Y s 973 1540 m 42 Y s 1105 1561 m 21 Y s
 1236 1561 m 21 Y s 1367 1561 m 21 Y s 1498 1561 m 21 Y s 1630 1540 m 42 Y s 1630 1540 m 42 Y s 1761 1561 m 21 Y s 1892 1561 m 21 Y s 2023 1561 m 21 Y s 317 238 m 1344 Y s
 gsave  2268 1701 0 0 C 109.728 1522.48 t 90 r /Times-Roman findfont 96.0122 sf 0 0 m (\)]) show NC gr 
 gsave  2268 1701 0 0 C 109.728 1476.76 t 90 r /Times-Italic findfont 96.0122 sf 0 0 m (c) show NC gr 
 gsave  2268 1701 0 0 C 105.156 1156.72 t 90 r /Times-Roman findfont 96.0122 sf 0 0 m (b/\(GeV/) show NC gr 
 gsave  2268 1701 0 0 C 105.156 1101.85 t 90 r /Symbol findfont 96.0122 sf 0 0 m (m) show NC gr 
 gsave  2268 1701 0 0 C 105.156 1046.99 t 90 r /Times-Roman findfont 96.0122 sf 0 0 m ( [) show NC gr 
 gsave  2268 1701 0 0 C 155.448 1005.84 t 90 r /Times-Roman findfont 64.0081 sf 0 0 m (T) show NC gr 
 gsave  2268 1701 0 0 C 105.156 946.406 t 90 r /Times-Italic findfont 96.0122 sf 0 0 m (p) show NC gr 
 gsave  2268 1701 0 0 C 105.156 864.11 t 90 r /Times-Roman findfont 96.0122 sf 0 0 m (/d) show NC gr 
 gsave  2268 1701 0 0 C 105.156 804.674 t 90 r /Symbol findfont 96.0122 sf 0 0 m (s) show NC gr 
 gsave  2268 1701 0 0 C 105.156 754.382 t 90 r /Times-Roman findfont 96.0122 sf 0 0 m (d) show NC gr  344 238 m -27 X s 344 308 m -27 X s 344 357 m -27 X s 344 395 m -27 X s 344 427 m -27 X s 344 453 m -27 X s 344 476 m -27 X s 344 496 m -27 X s 371
 514 m -54 X s
 gsave  2268 1701 0 0 C 297.071 481.581 t 0 r  -39 0 t /Times-Roman findfont 77.7242 sf 0 0 m (1) show NC gr  344 634 m -27 X s 344 703 m -27 X s 344 753 m -27 X s 344 791 m -27 X s 344 822 m -27 X s 344 849 m -27 X s 344 872 m -27 X s 344 892 m -27
 X s 371 910 m -54 X s
 gsave  2268 1701 0 0 C 297.071 877.003 t 0 r  -79 0 t /Times-Roman findfont 77.7242 sf 0 0 m (10) show NC gr  344 1029 m -27 X s 344 1099 m -27 X s 344 1148 m -27 X s 344 1186 m -27 X s 344 1218 m -27 X s 344 1244 m -27 X s 344 1267 m -27 X s 344
 1287 m -27 X s 371 1305 m -54 X s
 gsave  2268 1701 0 0 C 265.177 1303.02 t 0 r /Times-Roman findfont 54.8641 sf 0 0 m (2) show NC gr 
 gsave  2268 1701 0 0 C 187.452 1271.02 t 0 r /Times-Roman findfont 77.7242 sf 0 0 m (10) show NC gr  344 1424 m -27 X s 344 1494 m -27 X s 344 1543 m -27 X s 344 1582 m -27 X s 2154 238 m 1344 Y s 2127 238 m 27 X s 2127 308 m 27 X s 2127 357 m 27 X
 s 2127 395 m 27 X s 2127 427 m 27 X s 2127 453 m 27 X s 2127 476 m 27 X s 2127 496 m 27 X s 2101 514 m 53 X s 2127 634 m 27 X s 2127 703 m 27 X s 2127 753 m 27 X s 2127 791 m 27 X s 2127 822 m 27 X s 2127 849 m 27 X s 2127 872 m 27 X s 2127 892 m 27
 X s 2101 910 m 53 X s 2127 1029 m 27 X s 2127 1099 m 27 X s 2127 1148 m 27 X s 2127 1186 m 27 X s 2127 1218 m 27 X s 2127 1244 m 27 X s 2127 1267 m 27 X s 2127 1287 m 27 X s 2101 1305 m 53 X s 2127 1424 m 27 X s 2127 1494 m 27 X s 2127 1543 m 27 X s
 2127 1582 m 27 X s 1 0 0 c 430 920 m -113 X s 317 911 m 18 Y s 467 920 m 113 X s 580 911 m 18 Y s 449 938 m 21 Y s 440 959 m 18 X s 449 902 m -33 Y s 440 869 m 18 X s 627 947 m -47 X s 580 938 m 18 Y s 664 947 m 47 X s 711 938 m 18 Y s 645 965 m 39
 Y s 636 1004 m 19 X s 645 929 m -67 Y s 636 862 m 19 X s 824 836 m -113 X s 711 827 m 18 Y s 861 836 m 112 X s 973 827 m 18 Y s 842 854 m 32 Y s 833 886 m 18 X s 842 818 m -53 Y s 833 765 m 18 X s 1086 644 m -113 X s 973 635 m 18 Y s 1123 644 m 113
 X s 1236 635 m 18 Y s 1105 662 m 37 Y s 1096 699 m 18 X s 1105 625 m -63 Y s 1096 562 m 18 X s 1677 501 m -441 X s 1236 492 m 18 Y s 1713 501 m 441 X s 2154 492 m 18 Y s 1695 520 m 29 Y s 1686 549 m 18 X s 1695 483 m -48 Y s 1686 435 m 18 X s black
 1 0 0 c 3 lw /w 37 def /w2 {w 2 div} def /w3 {w 3 div} def 449 920 645 947 842 836 1105 644 1695 501 5 { m21} R 6 lw 0 0 1 c 438 1053 m -121 X s 317 1044 m 18 Y s 460 1053 m 120 X s 580 1044 m 18 Y s 449 1071 m 19 Y s 440 1090 m 18 X s 449 1035 m
 -30 Y s 440 1005 m 18 X s 635 1169 m -55 X s 580 1160 m 18 Y s 656 1169 m 55 X s 711 1160 m 18 Y s 645 1187 m 20 Y s 636 1207 m 19 X s 645 1151 m -31 Y s 636 1120 m 19 X s 831 1039 m -120 X s 711 1030 m 18 Y s 853 1039 m 120 X s 973 1030 m 18 Y s
 842 1057 m 13 Y s 833 1070 m 18 X s 842 1021 m -20 Y s 833 1001 m 18 X s 1094 918 m -121 X s 973 908 m 19 Y s 1116 918 m 120 X s 1236 908 m 19 Y s 1105 936 m 13 Y s 1096 949 m 18 X s 1105 899 m -20 Y s 1096 879 m 18 X s 1684 505 m -448 X s 1236 496
 m 19 Y s 1706 505 m 448 X s 2154 496 m 19 Y s 1695 524 m 28 Y s 1686 552 m 18 X s 1695 487 m -47 Y s 1686 440 m 18 X s black 0 0 1 c 3 lw 449 1053 645 1169 842 1039 1105 918 1695 505 5 { m22} R 6 lw black 430 1118 m -113 X s 317 1109 m 18 Y s 467
 1118 m 113 X s 580 1109 m 18 Y s 449 1136 m 12 Y s 440 1148 m 18 X s 449 1100 m -18 Y s 440 1082 m 18 X s 627 1211 m -47 X s 580 1201 m 19 Y s 664 1211 m 47 X s 711 1201 m 19 Y s 645 1229 m 14 Y s 636 1243 m 19 X s 645 1192 m -21 Y s 636 1171 m 19 X
 s 824 1085 m -113 X s 711 1076 m 18 Y s 861 1085 m 112 X s 973 1076 m 18 Y s 842 1103 m 10 Y s 833 1113 m 18 X s 842 1066 m -15 Y s 833 1051 m 18 X s 1086 949 m -113 X s 973 940 m 18 Y s 1123 949 m 113 X s 1236 940 m 18 Y s 1105 968 m 9 Y s 1096 977
 m 18 X s 1105 931 m -16 Y s 1096 915 m 18 X s 1677 622 m -441 X s 1236 613 m 19 Y s 1713 622 m 441 X s 2154 613 m 19 Y s 1695 641 m 17 Y s 1686 658 m 18 X s 1695 604 m -26 Y s 1686 578 m 18 X s 3 lw 449 1118 645 1211 842 1085 1105 949 1695 622 5 {
 m20} R 6 lw 0.999 0.999 0.999 c 771 255 1315 1276 bf black
 gsave  2268 1701 0 0 C 1897.38 1472.19 t 0 r /Times-Roman findfont 64.0081 sf 0 0 m (\)) show NC gr 
 gsave  2268 1701 0 0 C 1860.81 1472.19 t 0 r /Times-Italic findfont 64.0081 sf 0 0 m (S) show NC gr 
 gsave  2268 1701 0 0 C 1805.94 1472.19 t 0 r /Times-Roman findfont 64.0081 sf 0 0 m (\(2) show NC gr 
 gsave  2268 1701 0 0 C 1760.22 1472.19 t 0 r /Symbol findfont 64.0081 sf 0 0 m (y) show NC gr 
 gsave  2268 1701 0 0 C 1504.19 1472.19 t 0 r /Times-Roman findfont 64.0081 sf 0 0 m (Inclusive ) show NC gr  1344 1488 m 135 X s 1412 1463 m 51 Y s 3 lw 1412 1488 m20 6 lw
 gsave  2268 1701 0 0 C 1851.66 1385.32 t 0 r /Times-Roman findfont 64.0081 sf 0 0 m (\)) show NC gr 
 gsave  2268 1701 0 0 C 1815.09 1385.32 t 0 r /Times-Italic findfont 64.0081 sf 0 0 m (S) show NC gr 
 gsave  2268 1701 0 0 C 1760.22 1385.32 t 0 r /Times-Roman findfont 64.0081 sf 0 0 m (\(2) show NC gr 
 gsave  2268 1701 0 0 C 1714.5 1385.32 t 0 r /Symbol findfont 64.0081 sf 0 0 m (y) show NC gr 
 gsave  2268 1701 0 0 C 1504.19 1385.32 t 0 r /Times-Roman findfont 64.0081 sf 0 0 m (Prompt ) show NC gr  0 0 1 c 1344 1403 m 135 X s 1412 1378 m 51 Y s 3 lw 1412 1403 m22 6 lw black
 gsave  2268 1701 0 0 C 1824.23 1303.02 t 0 r /Times-Italic findfont 64.0081 sf 0 0 m (b) show NC gr 
 gsave  2268 1701 0 0 C 1641.35 1303.02 t 0 r /Times-Roman findfont 64.0081 sf 0 0 m (\) from ) show NC gr 
 gsave  2268 1701 0 0 C 1604.78 1303.02 t 0 r /Times-Italic findfont 64.0081 sf 0 0 m (S) show NC gr 
 gsave  2268 1701 0 0 C 1549.91 1303.02 t 0 r /Times-Roman findfont 64.0081 sf 0 0 m (\(2) show NC gr 
 gsave  2268 1701 0 0 C 1504.19 1303.02 t 0 r /Symbol findfont 64.0081 sf 0 0 m (y) show NC gr  1 0 0 c 1344 1318 m 135 X s 1412 1293 m 51 Y s 3 lw 1412 1318 m21 6 lw black
 gsave  2268 1701 0 0 C 859.538 1367.03 t 0 r /Times-Roman findfont 73.1521 sf 0 0 m ( = 5 TeV) show NC gr 
 gsave  2268 1701 0 0 C 786.386 1344.17 t 0 r /Times-Italic findfont 45.7201 sf 0 0 m (NN) show NC gr 
 gsave  2268 1701 0 0 C 758.953 1367.03 t 0 r /Times-Italic findfont 73.1521 sf 0 0 m (s) show NC gr  732 1404 m 9 -64 d s 0 lw 741 1340 m 9 86 d s 750 1426 m 110 X s
 gsave  2268 1701 0 0 C 406.909 1367.03 t 0 r /Times-Roman findfont 73.1521 sf 0 0 m (pPb\(Fwd\) ) show NC gr 
 gsave  2268 1701 0 0 C 406.909 1449.33 t 0 r /Times-Roman findfont 73.1521 sf 0 0 m (LHCb) show NC gr 
 gsave  2268 1701 0 0 C 1568.2 1056.13 t 0 r /Times-Roman findfont 73.1521 sf 0 0 m ( < 4.0) show NC gr 
 gsave  2268 1701 0 0 C 1531.62 1056.13 t 0 r /Times-Italic findfont 73.1521 sf 0 0 m (y) show NC gr 
 gsave  2268 1701 0 0 C 1357.89 1056.13 t 0 r /Times-Roman findfont 73.1521 sf 0 0 m (1.5 < ) show NC gr 
 gr  gr showpage
end
%%EOF
