%!PS-Adobe-2.0 EPSF-2.0
%%BoundingBox:  0 0 567 425
%%Title: ../result/CrossSection/pA_Xsec_Y_pb.eps: 
%%Creator: ROOT Version 5.34/18
%%CreationDate: Mon Nov 30 22:45:28 2015
%%EndComments
%%BeginProlog
80 dict begin
/s {stroke} def /l {lineto} def /m {moveto} def /t {translate} def
/r {rotate} def /rl {roll}  def /R {repeat} def
/d {rlineto} def /rm {rmoveto} def /gr {grestore} def /f {eofill} def
/c {setrgbcolor} def /black {0 setgray} def /sd {setdash} def
/cl {closepath} def /sf {scalefont setfont} def /lw {setlinewidth} def
/box {m dup 0 exch d exch 0 d 0 exch neg d cl} def
/NC{systemdict begin initclip end}def/C{NC box clip newpath}def
/bl {box s} def /bf {box f} def /Y { 0 exch d} def /X { 0 d} def 
/K {{pop pop 0 moveto} exch kshow} bind def
/ita {/ang 15 def gsave [1 0 ang dup sin exch cos div 1 0 0] concat} def 
/mp {newpath /y exch def /x exch def} def
/side {[w .77 mul w .23 mul] .385 w mul sd w 0 l currentpoint t -144 r} def
/mr {mp x y w2 0 360 arc} def /m24 {mr s} def /m20 {mr f} def
/mb {mp x y w2 add m w2 neg 0 d 0 w neg d w 0 d 0 w d cl} def
/mt {mp x y w2 add m w2 neg w neg d w 0 d cl} def
/m21 {mb f} def /m25 {mb s} def /m22 {mt f} def /m26{mt s} def
/m23 {mp x y w2 sub m w2 w d w neg 0 d cl f} def
/m27 {mp x y w2 add m w3 neg w2 neg d w3 w2 neg d w3 w2 d cl s} def
/m28 {mp x w2 sub y w2 sub w3 add m w3 0 d  0 w3 neg d w3 0 d 0 w3 d w3 0 d  0 w3 d w3 neg 0 d 0 w3 d w3 neg 0 d 0 w3 neg d w3 neg 0 d cl s } def
/m29 {mp gsave x w2 sub y w2 add w3 sub m currentpoint t 4 {side} repeat cl fill gr} def
/m30 {mp gsave x w2 sub y w2 add w3 sub m currentpoint t 4 {side} repeat cl s gr} def
/m31 {mp x y w2 sub m 0 w d x w2 sub y m w 0 d x w2 sub y w2 add m w w neg d x w2 sub y w2 sub m w w d s} def
/m32 {mp x y w2 sub m w2 w d w neg 0 d cl s} def
/m33 {mp x y w2 add m w3 neg w2 neg d w3 w2 neg d w3 w2 d cl f} def
/m34 {mp x w2 sub y w2 sub w3 add m w3 0 d  0 w3 neg d w3 0 d 0 w3 d w3 0 d  0 w3 d w3 neg 0 d 0 w3 d w3 neg 0 d 0 w3 neg d w3 neg 0 d cl f } def
/m2 {mp x y w2 sub m 0 w d x w2 sub y m w 0 d s} def
/m5 {mp x w2 sub y w2 sub m w w d x w2 sub y w2 add m w w neg d s} def
/reEncode {exch findfont dup length dict begin {1 index /FID eq  {pop pop} {def} ifelse } forall /Encoding exch def currentdict end dup /FontName get exch definefont pop } def [/Times-Bold /Times-Italic /Times-BoldItalic /Helvetica /Helvetica-Oblique
 /Helvetica-Bold /Helvetica-BoldOblique /Courier /Courier-Oblique /Courier-Bold /Courier-BoldOblique /Times-Roman /AvantGarde-Book /AvantGarde-BookOblique /AvantGarde-Demi /AvantGarde-DemiOblique /Bookman-Demi /Bookman-DemiItalic /Bookman-Light
 /Bookman-LightItalic /Helvetica-Narrow /Helvetica-Narrow-Bold /Helvetica-Narrow-BoldOblique /Helvetica-Narrow-Oblique /NewCenturySchlbk-Roman /NewCenturySchlbk-Bold /NewCenturySchlbk-BoldItalic /NewCenturySchlbk-Italic /Palatino-Bold
 /Palatino-BoldItalic /Palatino-Italic /Palatino-Roman ] {ISOLatin1Encoding reEncode } forall
%%EndProlog
%%BeginSetup
%%EndSetup
newpath  gsave  .25 .25 scale  gsave  0 0 t black[  ] 0 sd 6 lw 1 1 1 c 2268 1701 0 0 bf black 1 1 1 c 1837 1344 317 238 bf black 1837 1344 317 238 bl 1 1 1 c 1837 1344 317 238 bf black 1837 1344 317 238 bl 317 238 m 1837 X s
 gsave  2268 1701 0 0 C 2107.7 64.0081 t 0 r /Times-Italic findfont 96.0122 sf 0 0 m (y) show NC gr  317 279 m -41 Y s 391 259 m -21 Y s 464 259 m -21 Y s 538 259 m -21 Y s 611 259 m -21 Y s 685 279 m -41 Y s 758 259 m -21 Y s 832 259 m -21 Y s 905
 259 m -21 Y s 979 259 m -21 Y s 1052 279 m -41 Y s 1126 259 m -21 Y s 1199 259 m -21 Y s 1273 259 m -21 Y s 1346 259 m -21 Y s 1420 279 m -41 Y s 1493 259 m -21 Y s 1567 259 m -21 Y s 1640 259 m -21 Y s 1713 259 m -21 Y s 1787 279 m -41 Y s 1860 259
 m -21 Y s 1934 259 m -21 Y s 2007 259 m -21 Y s 2081 259 m -21 Y s 2154 279 m -41 Y s
 gsave  2268 1701 0 0 C 265.177 146.304 t 0 r /Times-Roman findfont 77.7242 sf 0 0 m (1.5) show NC gr 
 gsave  2268 1701 0 0 C 658.369 146.304 t 0 r /Times-Roman findfont 77.7242 sf 0 0 m (2) show NC gr 
 gsave  2268 1701 0 0 C 1001.27 146.304 t 0 r /Times-Roman findfont 77.7242 sf 0 0 m (2.5) show NC gr 
 gsave  2268 1701 0 0 C 1399.03 146.304 t 0 r /Times-Roman findfont 77.7242 sf 0 0 m (3) show NC gr 
 gsave  2268 1701 0 0 C 1732.79 146.304 t 0 r /Times-Roman findfont 77.7242 sf 0 0 m (3.5) show NC gr 
 gsave  2268 1701 0 0 C 2130.56 146.304 t 0 r /Times-Roman findfont 77.7242 sf 0 0 m (4) show NC gr  317 1582 m 1837 X s 317 1540 m 42 Y s 391 1561 m 21 Y s 464 1561 m 21 Y s 538 1561 m 21 Y s 611 1561 m 21 Y s 685 1540 m 42 Y s 758 1561 m 21 Y s 832
 1561 m 21 Y s 905 1561 m 21 Y s 979 1561 m 21 Y s 1052 1540 m 42 Y s 1126 1561 m 21 Y s 1199 1561 m 21 Y s 1273 1561 m 21 Y s 1346 1561 m 21 Y s 1420 1540 m 42 Y s 1493 1561 m 21 Y s 1567 1561 m 21 Y s 1640 1561 m 21 Y s 1713 1561 m 21 Y s 1787 1540
 m 42 Y s 1860 1561 m 21 Y s 1934 1561 m 21 Y s 2007 1561 m 21 Y s 2081 1561 m 21 Y s 2154 1540 m 42 Y s 317 238 m 1344 Y s
 gsave  2268 1701 0 0 C 123.444 1508.76 t 90 r /Times-Roman findfont 96.0122 sf 0 0 m (b]) show NC gr 
 gsave  2268 1701 0 0 C 123.444 1453.9 t 90 r /Symbol findfont 96.0122 sf 0 0 m (m) show NC gr 
 gsave  2268 1701 0 0 C 118.872 1399.03 t 90 r /Times-Roman findfont 96.0122 sf 0 0 m ( [) show NC gr 
 gsave  2268 1701 0 0 C 118.872 1353.31 t 90 r /Times-Italic findfont 96.0122 sf 0 0 m (y) show NC gr 
 gsave  2268 1701 0 0 C 118.872 1271.02 t 90 r /Times-Roman findfont 96.0122 sf 0 0 m (/d) show NC gr 
 gsave  2268 1701 0 0 C 118.872 1211.58 t 90 r /Symbol findfont 96.0122 sf 0 0 m (s) show NC gr 
 gsave  2268 1701 0 0 C 118.872 1161.29 t 90 r /Times-Roman findfont 96.0122 sf 0 0 m (d) show NC gr  371 360 m -54 X s 344 421 m -27 X s 344 482 m -27 X s 344 543 m -27 X s 344 605 m -27 X s 371 666 m -54 X s 344 727 m -27 X s 344 788 m -27 X s 344
 849 m -27 X s 344 910 m -27 X s 371 971 m -54 X s 344 1032 m -27 X s 344 1093 m -27 X s 344 1154 m -27 X s 344 1215 m -27 X s 371 1276 m -54 X s 344 1337 m -27 X s 344 1399 m -27 X s 344 1460 m -27 X s 344 1521 m -27 X s 371 1582 m -54 X s 371 360 m
 -54 X s 344 299 m -27 X s 344 238 m -27 X s
 gsave  2268 1701 0 0 C 260.605 333.757 t 0 r /Times-Roman findfont 77.7242 sf 0 0 m (0) show NC gr 
 gsave  2268 1701 0 0 C 224.028 640.081 t 0 r /Times-Roman findfont 77.7242 sf 0 0 m (50) show NC gr 
 gsave  2268 1701 0 0 C 182.88 946.406 t 0 r /Times-Roman findfont 77.7242 sf 0 0 m (100) show NC gr 
 gsave  2268 1701 0 0 C 182.88 1252.73 t 0 r /Times-Roman findfont 77.7242 sf 0 0 m (150) show NC gr 
 gsave  2268 1701 0 0 C 182.88 1554.48 t 0 r /Times-Roman findfont 77.7242 sf 0 0 m (200) show NC gr  2154 238 m 1344 Y s 2101 360 m 53 X s 2127 421 m 27 X s 2127 482 m 27 X s 2127 543 m 27 X s 2127 605 m 27 X s 2101 666 m 53 X s 2127 727 m 27 X s
 2127 788 m 27 X s 2127 849 m 27 X s 2127 910 m 27 X s 2101 971 m 53 X s 2127 1032 m 27 X s 2127 1093 m 27 X s 2127 1154 m 27 X s 2127 1215 m 27 X s 2101 1276 m 53 X s 2127 1337 m 27 X s 2127 1399 m 27 X s 2127 1460 m 27 X s 2127 1521 m 27 X s 2101
 1582 m 53 X s 2101 360 m 53 X s 2127 299 m 27 X s 2127 238 m 27 X s 1 0 0 c 483 597 m -166 X s 317 587 m 19 Y s 519 597 m 166 X s 685 587 m 19 Y s 501 615 m 58 Y s 492 673 m 18 X s 501 578 m -58 Y s 492 520 m 18 X s 850 533 m -165 X s 685 524 m 19 Y
 s 887 533 m 165 X s 1052 524 m 19 Y s 869 552 m 25 Y s 859 577 m 19 X s 869 515 m -25 Y s 859 490 m 19 X s 1218 476 m -166 X s 1052 467 m 19 Y s 1254 476 m 166 X s 1420 467 m 19 Y s 1236 495 m 23 Y s 1227 518 m 18 X s 1236 458 m -23 Y s 1227 435 m
 18 X s 1585 463 m -165 X s 1420 454 m 19 Y s 1622 463 m 165 X s 1787 454 m 19 Y s 1603 482 m 26 Y s 1594 508 m 18 X s 1603 445 m -27 Y s 1594 418 m 18 X s 1952 425 m -165 X s 1787 416 m 18 Y s 1989 425 m 165 X s 2154 416 m 18 Y s 1971 443 m 19 Y s
 1962 462 m 18 X s 1971 407 m -18 Y s 1962 389 m 18 X s black 1 0 0 c 3 lw /w 37 def /w2 {w 2 div} def /w3 {w 3 div} def 501 597 869 533 1236 476 1603 463 1971 425 5 { m21} R 6 lw 0 0 1 c 490 905 m -173 X s 317 896 m 18 Y s 512 905 m 173 X s 685 896
 m 18 Y s 501 923 m 125 Y s 492 1048 m 18 X s 501 887 m -125 Y s 492 762 m 18 X s 858 793 m -173 X s 685 784 m 18 Y s 880 793 m 172 X s 1052 784 m 18 Y s 869 811 m 68 Y s 859 879 m 19 X s 869 775 m -67 Y s 859 708 m 19 X s 1225 747 m -173 X s 1052
 738 m 18 Y s 1247 747 m 173 X s 1420 738 m 18 Y s 1236 765 m 64 Y s 1227 829 m 18 X s 1236 729 m -64 Y s 1227 665 m 18 X s 1592 652 m -172 X s 1420 643 m 18 Y s 1614 652 m 173 X s 1787 643 m 18 Y s 1603 670 m 55 Y s 1594 725 m 18 X s 1603 634 m -55
 Y s 1594 579 m 18 X s 1960 607 m -173 X s 1787 598 m 18 Y s 1982 607 m 172 X s 2154 598 m 18 Y s 1971 626 m 49 Y s 1962 675 m 18 X s 1971 589 m -50 Y s 1962 539 m 18 X s black 0 0 1 c 3 lw 501 905 869 793 1236 747 1603 652 1971 607 5 { m22} R 6 lw
 black 483 1141 m -166 X s 317 1132 m 18 Y s 519 1141 m 166 X s 685 1132 m 18 Y s 501 1160 m 150 Y s 492 1310 m 18 X s 501 1123 m -150 Y s 492 973 m 18 X s 850 966 m -165 X s 685 957 m 18 Y s 887 966 m 165 X s 1052 957 m 18 Y s 869 985 m 79 Y s 859
 1064 m 19 X s 869 948 m -79 Y s 859 869 m 19 X s 1218 863 m -166 X s 1052 854 m 18 Y s 1254 863 m 166 X s 1420 854 m 18 Y s 1236 881 m 78 Y s 1227 959 m 18 X s 1236 845 m -78 Y s 1227 767 m 18 X s 1585 755 m -165 X s 1420 746 m 18 Y s 1622 755 m 165
 X s 1787 746 m 18 Y s 1603 773 m 67 Y s 1594 840 m 18 X s 1603 737 m -68 Y s 1594 669 m 18 X s 1952 672 m -165 X s 1787 663 m 18 Y s 1989 672 m 165 X s 2154 663 m 18 Y s 1971 690 m 59 Y s 1962 749 m 18 X s 1971 654 m -58 Y s 1962 596 m 18 X s 3 lw
 501 1141 869 966 1236 863 1603 755 1971 672 5 { m20} R 6 lw 0.999 0.999 0.999 c 771 255 1315 1276 bf black
 gsave  2268 1701 0 0 C 1897.38 1472.19 t 0 r /Times-Roman findfont 64.0081 sf 0 0 m (\)) show NC gr 
 gsave  2268 1701 0 0 C 1860.81 1472.19 t 0 r /Times-Italic findfont 64.0081 sf 0 0 m (S) show NC gr 
 gsave  2268 1701 0 0 C 1805.94 1472.19 t 0 r /Times-Roman findfont 64.0081 sf 0 0 m (\(2) show NC gr 
 gsave  2268 1701 0 0 C 1760.22 1472.19 t 0 r /Symbol findfont 64.0081 sf 0 0 m (y) show NC gr 
 gsave  2268 1701 0 0 C 1504.19 1472.19 t 0 r /Times-Roman findfont 64.0081 sf 0 0 m (Inclusive ) show NC gr  1344 1488 m 135 X s 1412 1463 m 51 Y s 3 lw 1412 1488 m20 6 lw
 gsave  2268 1701 0 0 C 1851.66 1385.32 t 0 r /Times-Roman findfont 64.0081 sf 0 0 m (\)) show NC gr 
 gsave  2268 1701 0 0 C 1815.09 1385.32 t 0 r /Times-Italic findfont 64.0081 sf 0 0 m (S) show NC gr 
 gsave  2268 1701 0 0 C 1760.22 1385.32 t 0 r /Times-Roman findfont 64.0081 sf 0 0 m (\(2) show NC gr 
 gsave  2268 1701 0 0 C 1714.5 1385.32 t 0 r /Symbol findfont 64.0081 sf 0 0 m (y) show NC gr 
 gsave  2268 1701 0 0 C 1504.19 1385.32 t 0 r /Times-Roman findfont 64.0081 sf 0 0 m (Prompt ) show NC gr  0 0 1 c 1344 1403 m 135 X s 1412 1378 m 51 Y s 3 lw 1412 1403 m22 6 lw black
 gsave  2268 1701 0 0 C 1824.23 1303.02 t 0 r /Times-Italic findfont 64.0081 sf 0 0 m (b) show NC gr 
 gsave  2268 1701 0 0 C 1641.35 1303.02 t 0 r /Times-Roman findfont 64.0081 sf 0 0 m (\) from ) show NC gr 
 gsave  2268 1701 0 0 C 1604.78 1303.02 t 0 r /Times-Italic findfont 64.0081 sf 0 0 m (S) show NC gr 
 gsave  2268 1701 0 0 C 1549.91 1303.02 t 0 r /Times-Roman findfont 64.0081 sf 0 0 m (\(2) show NC gr 
 gsave  2268 1701 0 0 C 1504.19 1303.02 t 0 r /Symbol findfont 64.0081 sf 0 0 m (y) show NC gr  1 0 0 c 1344 1318 m 135 X s 1412 1293 m 51 Y s 3 lw 1412 1318 m21 6 lw black
 gsave  2268 1701 0 0 C 859.538 1367.03 t 0 r /Times-Roman findfont 73.1521 sf 0 0 m ( = 5 TeV) show NC gr 
 gsave  2268 1701 0 0 C 786.386 1344.17 t 0 r /Times-Italic findfont 45.7201 sf 0 0 m (NN) show NC gr 
 gsave  2268 1701 0 0 C 758.953 1367.03 t 0 r /Times-Italic findfont 73.1521 sf 0 0 m (s) show NC gr  732 1404 m 9 -64 d s 0 lw 741 1340 m 9 86 d s 750 1426 m 110 X s
 gsave  2268 1701 0 0 C 406.909 1367.03 t 0 r /Times-Roman findfont 73.1521 sf 0 0 m (pPb\(Fwd\) ) show NC gr 
 gsave  2268 1701 0 0 C 406.909 1449.33 t 0 r /Times-Roman findfont 73.1521 sf 0 0 m (LHCb) show NC gr 
 gsave  2268 1701 0 0 C 1755.65 1056.13 t 0 r /Times-Italic findfont 73.1521 sf 0 0 m (c) show NC gr 
 gsave  2268 1701 0 0 C 1426.47 1056.13 t 0 r /Times-Roman findfont 73.1521 sf 0 0 m ( < 14 GeV/) show NC gr 
 gsave  2268 1701 0 0 C 1399.03 1019.56 t 0 r /Times-Roman findfont 45.7201 sf 0 0 m (T) show NC gr 
 gsave  2268 1701 0 0 C 1357.89 1056.13 t 0 r /Times-Italic findfont 73.1521 sf 0 0 m (p) show NC gr 
 gr  gr showpage
end
%%EOF
