%!PS-Adobe-2.0 EPSF-2.0
%%BoundingBox:  0 0 567 425
%%Title: ../result/CNM/R.eps: 
%%Creator: ROOT Version 5.34/18
%%CreationDate: Mon Nov 30 19:58:34 2015
%%EndComments
%%BeginProlog
80 dict begin
/s {stroke} def /l {lineto} def /m {moveto} def /t {translate} def
/r {rotate} def /rl {roll}  def /R {repeat} def
/d {rlineto} def /rm {rmoveto} def /gr {grestore} def /f {eofill} def
/c {setrgbcolor} def /black {0 setgray} def /sd {setdash} def
/cl {closepath} def /sf {scalefont setfont} def /lw {setlinewidth} def
/box {m dup 0 exch d exch 0 d 0 exch neg d cl} def
/NC{systemdict begin initclip end}def/C{NC box clip newpath}def
/bl {box s} def /bf {box f} def /Y { 0 exch d} def /X { 0 d} def 
/K {{pop pop 0 moveto} exch kshow} bind def
/ita {/ang 15 def gsave [1 0 ang dup sin exch cos div 1 0 0] concat} def 
/mp {newpath /y exch def /x exch def} def
/side {[w .77 mul w .23 mul] .385 w mul sd w 0 l currentpoint t -144 r} def
/mr {mp x y w2 0 360 arc} def /m24 {mr s} def /m20 {mr f} def
/mb {mp x y w2 add m w2 neg 0 d 0 w neg d w 0 d 0 w d cl} def
/mt {mp x y w2 add m w2 neg w neg d w 0 d cl} def
/m21 {mb f} def /m25 {mb s} def /m22 {mt f} def /m26{mt s} def
/m23 {mp x y w2 sub m w2 w d w neg 0 d cl f} def
/m27 {mp x y w2 add m w3 neg w2 neg d w3 w2 neg d w3 w2 d cl s} def
/m28 {mp x w2 sub y w2 sub w3 add m w3 0 d  0 w3 neg d w3 0 d 0 w3 d w3 0 d  0 w3 d w3 neg 0 d 0 w3 d w3 neg 0 d 0 w3 neg d w3 neg 0 d cl s } def
/m29 {mp gsave x w2 sub y w2 add w3 sub m currentpoint t 4 {side} repeat cl fill gr} def
/m30 {mp gsave x w2 sub y w2 add w3 sub m currentpoint t 4 {side} repeat cl s gr} def
/m31 {mp x y w2 sub m 0 w d x w2 sub y m w 0 d x w2 sub y w2 add m w w neg d x w2 sub y w2 sub m w w d s} def
/m32 {mp x y w2 sub m w2 w d w neg 0 d cl s} def
/m33 {mp x y w2 add m w3 neg w2 neg d w3 w2 neg d w3 w2 d cl f} def
/m34 {mp x w2 sub y w2 sub w3 add m w3 0 d  0 w3 neg d w3 0 d 0 w3 d w3 0 d  0 w3 d w3 neg 0 d 0 w3 d w3 neg 0 d 0 w3 neg d w3 neg 0 d cl f } def
/m2 {mp x y w2 sub m 0 w d x w2 sub y m w 0 d s} def
/m5 {mp x w2 sub y w2 sub m w w d x w2 sub y w2 add m w w neg d s} def
/reEncode {exch findfont dup length dict begin {1 index /FID eq  {pop pop} {def} ifelse } forall /Encoding exch def currentdict end dup /FontName get exch definefont pop } def [/Times-Bold /Times-Italic /Times-BoldItalic /Helvetica /Helvetica-Oblique
 /Helvetica-Bold /Helvetica-BoldOblique /Courier /Courier-Oblique /Courier-Bold /Courier-BoldOblique /Times-Roman /AvantGarde-Book /AvantGarde-BookOblique /AvantGarde-Demi /AvantGarde-DemiOblique /Bookman-Demi /Bookman-DemiItalic /Bookman-Light
 /Bookman-LightItalic /Helvetica-Narrow /Helvetica-Narrow-Bold /Helvetica-Narrow-BoldOblique /Helvetica-Narrow-Oblique /NewCenturySchlbk-Roman /NewCenturySchlbk-Bold /NewCenturySchlbk-BoldItalic /NewCenturySchlbk-Italic /Palatino-Bold
 /Palatino-BoldItalic /Palatino-Italic /Palatino-Roman ] {ISOLatin1Encoding reEncode } forall
%%EndProlog
%%BeginSetup
%%EndSetup
newpath  gsave  .25 .25 scale  gsave  0 0 t black[  ] 0 sd 9 lw 1 1 1 c 2268 1701 0 0 bf black 6 lw 1 1 1 c 1837 1344 317 238 bf black 1837 1344 317 238 bl 1 1 1 c 1837 1344 317 238 bf black 1837 1344 317 238 bl 9 lw 317 238 m 1837 X s
 gsave  2268 1701 0 0 C 2107.7 64.0081 t 0 r /Times-Italic findfont 96.0122 sf 0 0 m (y) show NC gr  501 279 m -41 Y s 593 259 m -21 Y s 685 259 m -21 Y s 777 259 m -21 Y s 869 279 m -41 Y s 960 259 m -21 Y s 1052 259 m -21 Y s 1144 259 m -21 Y s
 1236 279 m -41 Y s 1328 259 m -21 Y s 1420 259 m -21 Y s 1511 259 m -21 Y s 1603 279 m -41 Y s 1695 259 m -21 Y s 1787 259 m -21 Y s 1879 259 m -21 Y s 1971 279 m -41 Y s 501 279 m -41 Y s 409 259 m -21 Y s 317 259 m -21 Y s 1971 279 m -41 Y s 2062
 259 m -21 Y s 2154 259 m -21 Y s
 gsave  2268 1701 0 0 C 466.345 146.304 t 0 r /Times-Roman findfont 77.7242 sf 0 0 m (\2554) show NC gr 
 gsave  2268 1701 0 0 C 832.106 146.304 t 0 r /Times-Roman findfont 77.7242 sf 0 0 m (\2552) show NC gr 
 gsave  2268 1701 0 0 C 1211.58 146.304 t 0 r /Times-Roman findfont 77.7242 sf 0 0 m (0) show NC gr 
 gsave  2268 1701 0 0 C 1577.34 146.304 t 0 r /Times-Roman findfont 77.7242 sf 0 0 m (2) show NC gr 
 gsave  2268 1701 0 0 C 1947.68 146.304 t 0 r /Times-Roman findfont 77.7242 sf 0 0 m (4) show NC gr  317 1582 m 1837 X s 501 1540 m 42 Y s 593 1561 m 21 Y s 685 1561 m 21 Y s 777 1561 m 21 Y s 869 1540 m 42 Y s 960 1561 m 21 Y s 1052 1561 m 21 Y s
 1144 1561 m 21 Y s 1236 1540 m 42 Y s 1328 1561 m 21 Y s 1420 1561 m 21 Y s 1511 1561 m 21 Y s 1603 1540 m 42 Y s 1695 1561 m 21 Y s 1787 1561 m 21 Y s 1879 1561 m 21 Y s 1971 1540 m 42 Y s 501 1540 m 42 Y s 409 1561 m 21 Y s 317 1561 m 21 Y s 1971
 1540 m 42 Y s 2062 1561 m 21 Y s 2154 1561 m 21 Y s 317 238 m 1344 Y s
 gsave  2268 1701 0 0 C 132.588 1517.91 t 90 r /Times-Italic findfont 96.0122 sf 0 0 m (R) show NC gr  371 238 m -54 X s 344 283 m -27 X s 344 328 m -27 X s 344 372 m -27 X s 371 417 m -54 X s 344 462 m -27 X s 344 507 m -27 X s 344 552 m -27 X s 371
 596 m -54 X s 344 641 m -27 X s 344 686 m -27 X s 344 731 m -27 X s 371 776 m -54 X s 344 820 m -27 X s 344 865 m -27 X s 344 910 m -27 X s 371 955 m -54 X s 344 999 m -27 X s 344 1044 m -27 X s 344 1089 m -27 X s 371 1134 m -54 X s 344 1179 m -27 X
 s 344 1223 m -27 X s 344 1268 m -27 X s 371 1313 m -54 X s 344 1358 m -27 X s 344 1403 m -27 X s 344 1447 m -27 X s 371 1492 m -54 X s 371 1492 m -54 X s 344 1537 m -27 X s
 gsave  2268 1701 0 0 C 260.605 214.884 t 0 r /Times-Roman findfont 77.7242 sf 0 0 m (0) show NC gr 
 gsave  2268 1701 0 0 C 205.74 393.193 t 0 r /Times-Roman findfont 77.7242 sf 0 0 m (0.2) show NC gr 
 gsave  2268 1701 0 0 C 205.74 571.501 t 0 r /Times-Roman findfont 77.7242 sf 0 0 m (0.4) show NC gr 
 gsave  2268 1701 0 0 C 205.74 749.81 t 0 r /Times-Roman findfont 77.7242 sf 0 0 m (0.6) show NC gr 
 gsave  2268 1701 0 0 C 205.74 928.118 t 0 r /Times-Roman findfont 77.7242 sf 0 0 m (0.8) show NC gr 
 gsave  2268 1701 0 0 C 269.749 1101.85 t 0 r /Times-Roman findfont 77.7242 sf 0 0 m (1) show NC gr 
 gsave  2268 1701 0 0 C 205.74 1289.31 t 0 r /Times-Roman findfont 77.7242 sf 0 0 m (1.2) show NC gr 
 gsave  2268 1701 0 0 C 205.74 1467.61 t 0 r /Times-Roman findfont 77.7242 sf 0 0 m (1.4) show NC gr  2154 238 m 1344 Y s 2101 238 m 53 X s 2127 283 m 27 X s 2127 328 m 27 X s 2127 372 m 27 X s 2101 417 m 53 X s 2127 462 m 27 X s 2127 507 m 27 X s
 2127 552 m 27 X s 2101 596 m 53 X s 2127 641 m 27 X s 2127 686 m 27 X s 2127 731 m 27 X s 2101 776 m 53 X s 2127 820 m 27 X s 2127 865 m 27 X s 2127 910 m 27 X s 2101 955 m 53 X s 2127 999 m 27 X s 2127 1044 m 27 X s 2127 1089 m 27 X s 2101 1134 m
 53 X s 2127 1179 m 27 X s 2127 1223 m 27 X s 2127 1268 m 27 X s 2101 1313 m 53 X s 2127 1358 m 27 X s 2127 1403 m 27 X s 2127 1447 m 27 X s 2101 1492 m 53 X s 2101 1492 m 53 X s 2127 1537 m 27 X s 3 lw /w 55 def /w2 {w 2 div} def /w3 {w 3 div} def
 1833 907 639 730 2 { m20} R 9 lw 1805 907 m -110 X s 1695 889 m 37 Y s 1860 907 m 111 X s 1971 889 m 37 Y s 1833 935 m 66 Y s 1815 1001 m 36 X s 1833 880 m -67 Y s 1815 813 m 36 X s 611 730 m -110 X s 501 712 m 36 Y s 666 730 m 111 X s 777 712 m 36
 Y s 639 757 m 113 Y s 621 870 m 36 X s 639 703 m -113 Y s 621 590 m 36 X s 0 0 1 c 527 722 m -110 X s 417 704 m 36 Y s 582 722 m 110 X s 692 704 m 36 Y s 554 749 m 71 Y s 536 820 m 37 X s 554 694 m -71 Y s 536 623 m 37 X s 1719 829 m -110 X s 1609
 811 m 37 Y s 1774 829 m 110 X s 1884 811 m 37 Y s 1747 857 m 89 Y s 1728 946 m 37 X s 1747 802 m -89 Y s 1728 713 m 37 X s black 0 0 1 c 3 lw 554 722 1747 829 2 { m24} R 9 lw 1 0.6 0 c 1219 847 m -75 X s 1252 847 m 76 X s 1236 875 m 196 Y s 1236 820
 m -197 Y s 1219 847 m -75 X s 1144 829 m 37 Y s 1252 847 m 76 X s 1328 829 m 37 Y s 1236 875 m 151 Y s 1218 1026 m 36 X s 1236 820 m -152 Y s 1218 668 m 36 X s black 1 0.6 0 c 3 lw 1236 847 m22 9 lw black 1805 907 m -110 X s 1860 907 m 111 X s 1833
 935 m 106 Y s 1833 880 m -107 Y s 611 730 m -110 X s 666 730 m 111 X s 639 757 m 128 Y s 639 703 m -128 Y s 1805 907 m -110 X s 1695 889 m 37 Y s 1860 907 m 111 X s 1971 889 m 37 Y s 1833 935 m 66 Y s 1815 1001 m 36 X s 1833 880 m -67 Y s 1815 813 m
 36 X s 611 730 m -110 X s 501 712 m 36 Y s 666 730 m 111 X s 777 712 m 36 Y s 639 757 m 113 Y s 621 870 m 36 X s 639 703 m -113 Y s 621 590 m 36 X s 3 lw 1833 907 639 730 2 { m20} R 9 lw 0.999 0.999 0.999 c 1066 340 1020 1191 bf black
 gsave  2268 1701 0 0 C 1668.78 1449.33 t 0 r /Times-Roman findfont 77.7242 sf 0 0 m (= 5 TeV) show NC gr 
 gsave  2268 1701 0 0 C 1591.06 1426.47 t 0 r /Times-Italic findfont 50.2921 sf 0 0 m (NN) show NC gr 
 gsave  2268 1701 0 0 C 1559.06 1449.33 t 0 r /Times-Italic findfont 77.7242 sf 0 0 m (s) show NC gr  6 lw 1527 1486 m 9 -64 d s 0 lw 1536 1422 m 14 87 d s 1550 1509 m 119 X s
 gsave  2268 1701 0 0 C 1284.73 1449.33 t 0 r /Times-Roman findfont 77.7242 sf 0 0 m (LHCb, ) show NC gr  9 lw 1060 1474 m 187 X s 1154 1440 m 68 Y s 3 lw 1154 1474 m20 9 lw
 gsave  2268 1701 0 0 C 1705.36 1339.6 t 0 r /Times-Roman findfont 77.7242 sf 0 0 m (= 5 TeV) show NC gr 
 gsave  2268 1701 0 0 C 1627.64 1316.74 t 0 r /Times-Italic findfont 50.2921 sf 0 0 m (NN) show NC gr 
 gsave  2268 1701 0 0 C 1595.63 1339.6 t 0 r /Times-Italic findfont 77.7242 sf 0 0 m (s) show NC gr  6 lw 1564 1376 m 9 -64 d s 0 lw 1573 1312 m 13 87 d s 1586 1399 m 119 X s
 gsave  2268 1701 0 0 C 1284.73 1339.6 t 0 r /Times-Roman findfont 77.7242 sf 0 0 m (ALICE, ) show NC gr  0 0 1 c 9 lw 1060 1361 m 187 X s 1154 1327 m 68 Y s 3 lw 1154 1361 m24 9 lw black
 gsave  2268 1701 0 0 C 1760.22 1225.3 t 0 r /Times-Roman findfont 77.7242 sf 0 0 m (= 0.2 TeV) show NC gr 
 gsave  2268 1701 0 0 C 1682.5 1202.44 t 0 r /Times-Italic findfont 50.2921 sf 0 0 m (NN) show NC gr 
 gsave  2268 1701 0 0 C 1650.5 1225.3 t 0 r /Times-Italic findfont 77.7242 sf 0 0 m (s) show NC gr  6 lw 1618 1262 m 10 -64 d s 0 lw 1628 1198 m 13 87 d s 1641 1285 m 119 X s
 gsave  2268 1701 0 0 C 1284.73 1225.3 t 0 r /Times-Roman findfont 77.7242 sf 0 0 m (PHENIX, ) show NC gr  1 0.6 0 c 9 lw 1060 1247 m 187 X s 1154 1213 m 68 Y s 3 lw 1154 1247 m22 9 lw black
 gsave  2268 1701 0 0 C 708.661 1284.73 t 0 r /Times-Roman findfont 77.7242 sf 0 0 m ( = 5 TeV) show NC gr 
 gsave  2268 1701 0 0 C 626.365 1257.3 t 0 r /Times-Italic findfont 54.8641 sf 0 0 m (NN) show NC gr 
 gsave  2268 1701 0 0 C 594.361 1284.73 t 0 r /Times-Italic findfont 77.7242 sf 0 0 m (s) show NC gr  6 lw 562 1321 m 14 -68 d s 0 lw 576 1253 m 9 91 d s 585 1344 m 124 X s
 gsave  2268 1701 0 0 C 406.909 1284.73 t 0 r /Times-Roman findfont 77.7242 sf 0 0 m (pPb ) show NC gr 
 gsave  2268 1701 0 0 C 406.909 1367.03 t 0 r /Times-Roman findfont 77.7242 sf 0 0 m (LHCb) show NC gr  0.8 0.8 0.8 c[ 12 12] 0 sd 9 lw 317 1134 m 1837 X s black
 gsave  2268 1701 0 0 C 804.674 480.061 t 0 r /Times-Italic findfont 73.1521 sf 0 0 m (c) show NC gr 
 gsave  2268 1701 0 0 C 475.489 480.061 t 0 r /Times-Roman findfont 73.1521 sf 0 0 m ( < 14 GeV/) show NC gr 
 gsave  2268 1701 0 0 C 448.057 443.485 t 0 r /Times-Roman findfont 45.7201 sf 0 0 m (T) show NC gr 
 gsave  2268 1701 0 0 C 406.909 480.061 t 0 r /Times-Italic findfont 73.1521 sf 0 0 m (p) show NC gr 
 gsave  2268 1701 0 0 C 854.966 306.325 t 0 r /Times-Roman findfont 73.1521 sf 0 0 m (\)) show NC gr 
 gsave  2268 1701 0 0 C 813.818 306.325 t 0 r /Times-Italic findfont 73.1521 sf 0 0 m (S) show NC gr 
 gsave  2268 1701 0 0 C 754.382 306.325 t 0 r /Times-Roman findfont 73.1521 sf 0 0 m (\(2) show NC gr 
 gsave  2268 1701 0 0 C 699.517 306.325 t 0 r /Symbol findfont 73.1521 sf 0 0 m (y) show NC gr 
 gsave  2268 1701 0 0 C 406.909 306.325 t 0 r /Times-Roman findfont 73.1521 sf 0 0 m (Inclusive ) show NC gr 
 gr  gr showpage
end
%%EOF
