%!PS-Adobe-2.0 EPSF-2.0
%%BoundingBox:  0 0 567 425
%%Title: ../result/CNM/R_pPb_inclusive.eps: 
%%Creator: ROOT Version 5.34/18
%%CreationDate: Mon Nov 30 19:57:44 2015
%%EndComments
%%BeginProlog
80 dict begin
/s {stroke} def /l {lineto} def /m {moveto} def /t {translate} def
/r {rotate} def /rl {roll}  def /R {repeat} def
/d {rlineto} def /rm {rmoveto} def /gr {grestore} def /f {eofill} def
/c {setrgbcolor} def /black {0 setgray} def /sd {setdash} def
/cl {closepath} def /sf {scalefont setfont} def /lw {setlinewidth} def
/box {m dup 0 exch d exch 0 d 0 exch neg d cl} def
/NC{systemdict begin initclip end}def/C{NC box clip newpath}def
/bl {box s} def /bf {box f} def /Y { 0 exch d} def /X { 0 d} def 
/K {{pop pop 0 moveto} exch kshow} bind def
/ita {/ang 15 def gsave [1 0 ang dup sin exch cos div 1 0 0] concat} def 
/mp {newpath /y exch def /x exch def} def
/side {[w .77 mul w .23 mul] .385 w mul sd w 0 l currentpoint t -144 r} def
/mr {mp x y w2 0 360 arc} def /m24 {mr s} def /m20 {mr f} def
/mb {mp x y w2 add m w2 neg 0 d 0 w neg d w 0 d 0 w d cl} def
/mt {mp x y w2 add m w2 neg w neg d w 0 d cl} def
/m21 {mb f} def /m25 {mb s} def /m22 {mt f} def /m26{mt s} def
/m23 {mp x y w2 sub m w2 w d w neg 0 d cl f} def
/m27 {mp x y w2 add m w3 neg w2 neg d w3 w2 neg d w3 w2 d cl s} def
/m28 {mp x w2 sub y w2 sub w3 add m w3 0 d  0 w3 neg d w3 0 d 0 w3 d w3 0 d  0 w3 d w3 neg 0 d 0 w3 d w3 neg 0 d 0 w3 neg d w3 neg 0 d cl s } def
/m29 {mp gsave x w2 sub y w2 add w3 sub m currentpoint t 4 {side} repeat cl fill gr} def
/m30 {mp gsave x w2 sub y w2 add w3 sub m currentpoint t 4 {side} repeat cl s gr} def
/m31 {mp x y w2 sub m 0 w d x w2 sub y m w 0 d x w2 sub y w2 add m w w neg d x w2 sub y w2 sub m w w d s} def
/m32 {mp x y w2 sub m w2 w d w neg 0 d cl s} def
/m33 {mp x y w2 add m w3 neg w2 neg d w3 w2 neg d w3 w2 d cl f} def
/m34 {mp x w2 sub y w2 sub w3 add m w3 0 d  0 w3 neg d w3 0 d 0 w3 d w3 0 d  0 w3 d w3 neg 0 d 0 w3 d w3 neg 0 d 0 w3 neg d w3 neg 0 d cl f } def
/m2 {mp x y w2 sub m 0 w d x w2 sub y m w 0 d s} def
/m5 {mp x w2 sub y w2 sub m w w d x w2 sub y w2 add m w w neg d s} def
/reEncode {exch findfont dup length dict begin {1 index /FID eq  {pop pop} {def} ifelse } forall /Encoding exch def currentdict end dup /FontName get exch definefont pop } def [/Times-Bold /Times-Italic /Times-BoldItalic /Helvetica /Helvetica-Oblique
 /Helvetica-Bold /Helvetica-BoldOblique /Courier /Courier-Oblique /Courier-Bold /Courier-BoldOblique /Times-Roman /AvantGarde-Book /AvantGarde-BookOblique /AvantGarde-Demi /AvantGarde-DemiOblique /Bookman-Demi /Bookman-DemiItalic /Bookman-Light
 /Bookman-LightItalic /Helvetica-Narrow /Helvetica-Narrow-Bold /Helvetica-Narrow-BoldOblique /Helvetica-Narrow-Oblique /NewCenturySchlbk-Roman /NewCenturySchlbk-Bold /NewCenturySchlbk-BoldItalic /NewCenturySchlbk-Italic /Palatino-Bold
 /Palatino-BoldItalic /Palatino-Italic /Palatino-Roman ] {ISOLatin1Encoding reEncode } forall
%%EndProlog
%%BeginSetup
%%EndSetup
newpath  gsave  .25 .25 scale  gsave  0 0 t black[  ] 0 sd 9 lw 1 1 1 c 2268 1701 0 0 bf black 6 lw 1 1 1 c 1837 1344 317 238 bf black 1837 1344 317 238 bl 1 1 1 c 1837 1344 317 238 bf black 1837 1344 317 238 bl 9 lw 317 238 m 1837 X s
 gsave  2268 1701 0 0 C 2107.7 64.0081 t 0 r /Times-Italic findfont 96.0122 sf 0 0 m (y) show NC gr  501 279 m -41 Y s 593 259 m -21 Y s 685 259 m -21 Y s 777 259 m -21 Y s 869 279 m -41 Y s 960 259 m -21 Y s 1052 259 m -21 Y s 1144 259 m -21 Y s
 1236 279 m -41 Y s 1328 259 m -21 Y s 1420 259 m -21 Y s 1511 259 m -21 Y s 1603 279 m -41 Y s 1695 259 m -21 Y s 1787 259 m -21 Y s 1879 259 m -21 Y s 1971 279 m -41 Y s 501 279 m -41 Y s 409 259 m -21 Y s 317 259 m -21 Y s 1971 279 m -41 Y s 2062
 259 m -21 Y s 2154 259 m -21 Y s
 gsave  2268 1701 0 0 C 466.345 146.304 t 0 r /Times-Roman findfont 77.7242 sf 0 0 m (\2554) show NC gr 
 gsave  2268 1701 0 0 C 832.106 146.304 t 0 r /Times-Roman findfont 77.7242 sf 0 0 m (\2552) show NC gr 
 gsave  2268 1701 0 0 C 1211.58 146.304 t 0 r /Times-Roman findfont 77.7242 sf 0 0 m (0) show NC gr 
 gsave  2268 1701 0 0 C 1577.34 146.304 t 0 r /Times-Roman findfont 77.7242 sf 0 0 m (2) show NC gr 
 gsave  2268 1701 0 0 C 1947.68 146.304 t 0 r /Times-Roman findfont 77.7242 sf 0 0 m (4) show NC gr  317 1582 m 1837 X s 501 1540 m 42 Y s 593 1561 m 21 Y s 685 1561 m 21 Y s 777 1561 m 21 Y s 869 1540 m 42 Y s 960 1561 m 21 Y s 1052 1561 m 21 Y s
 1144 1561 m 21 Y s 1236 1540 m 42 Y s 1328 1561 m 21 Y s 1420 1561 m 21 Y s 1511 1561 m 21 Y s 1603 1540 m 42 Y s 1695 1561 m 21 Y s 1787 1561 m 21 Y s 1879 1561 m 21 Y s 1971 1540 m 42 Y s 501 1540 m 42 Y s 409 1561 m 21 Y s 317 1561 m 21 Y s 1971
 1540 m 42 Y s 2062 1561 m 21 Y s 2154 1561 m 21 Y s 317 238 m 1344 Y s
 gsave  2268 1701 0 0 C 137.16 1481.33 t 90 r /Times-Roman findfont 64.0081 sf 0 0 m (pPb) show NC gr 
 gsave  2268 1701 0 0 C 105.156 1417.32 t 90 r /Times-Italic findfont 96.0122 sf 0 0 m (R) show NC gr  371 238 m -54 X s 344 272 m -27 X s 344 305 m -27 X s 344 339 m -27 X s 371 372 m -54 X s 344 406 m -27 X s 344 440 m -27 X s 344 473 m -27 X s 371
 507 m -54 X s 344 540 m -27 X s 344 574 m -27 X s 344 608 m -27 X s 371 641 m -54 X s 344 675 m -27 X s 344 708 m -27 X s 344 742 m -27 X s 371 776 m -54 X s 344 809 m -27 X s 344 843 m -27 X s 344 876 m -27 X s 371 910 m -54 X s 344 944 m -27 X s
 344 977 m -27 X s 344 1011 m -27 X s 371 1044 m -54 X s 344 1078 m -27 X s 344 1111 m -27 X s 344 1145 m -27 X s 371 1179 m -54 X s 344 1212 m -27 X s 344 1246 m -27 X s 344 1279 m -27 X s 371 1313 m -54 X s 344 1347 m -27 X s 344 1380 m -27 X s 344
 1414 m -27 X s 371 1447 m -54 X s 344 1481 m -27 X s 344 1515 m -27 X s 344 1548 m -27 X s 371 1582 m -54 X s
 gsave  2268 1701 0 0 C 260.605 214.884 t 0 r /Times-Roman findfont 77.7242 sf 0 0 m (0) show NC gr 
 gsave  2268 1701 0 0 C 205.74 347.473 t 0 r /Times-Roman findfont 77.7242 sf 0 0 m (0.2) show NC gr 
 gsave  2268 1701 0 0 C 205.74 480.061 t 0 r /Times-Roman findfont 77.7242 sf 0 0 m (0.4) show NC gr 
 gsave  2268 1701 0 0 C 205.74 617.221 t 0 r /Times-Roman findfont 77.7242 sf 0 0 m (0.6) show NC gr 
 gsave  2268 1701 0 0 C 205.74 749.81 t 0 r /Times-Roman findfont 77.7242 sf 0 0 m (0.8) show NC gr 
 gsave  2268 1701 0 0 C 269.749 882.398 t 0 r /Times-Roman findfont 77.7242 sf 0 0 m (1) show NC gr 
 gsave  2268 1701 0 0 C 205.74 1019.56 t 0 r /Times-Roman findfont 77.7242 sf 0 0 m (1.2) show NC gr 
 gsave  2268 1701 0 0 C 205.74 1152.15 t 0 r /Times-Roman findfont 77.7242 sf 0 0 m (1.4) show NC gr 
 gsave  2268 1701 0 0 C 205.74 1289.31 t 0 r /Times-Roman findfont 77.7242 sf 0 0 m (1.6) show NC gr 
 gsave  2268 1701 0 0 C 205.74 1421.89 t 0 r /Times-Roman findfont 77.7242 sf 0 0 m (1.8) show NC gr 
 gsave  2268 1701 0 0 C 260.605 1549.91 t 0 r /Times-Roman findfont 77.7242 sf 0 0 m (2) show NC gr  2154 238 m 1344 Y s 2101 238 m 53 X s 2127 272 m 27 X s 2127 305 m 27 X s 2127 339 m 27 X s 2101 372 m 53 X s 2127 406 m 27 X s 2127 440 m 27 X s
 2127 473 m 27 X s 2101 507 m 53 X s 2127 540 m 27 X s 2127 574 m 27 X s 2127 608 m 27 X s 2101 641 m 53 X s 2127 675 m 27 X s 2127 708 m 27 X s 2127 742 m 27 X s 2101 776 m 53 X s 2127 809 m 27 X s 2127 843 m 27 X s 2127 876 m 27 X s 2101 910 m 53 X
 s 2127 944 m 27 X s 2127 977 m 27 X s 2127 1011 m 27 X s 2101 1044 m 53 X s 2127 1078 m 27 X s 2127 1111 m 27 X s 2127 1145 m 27 X s 2101 1179 m 53 X s 2127 1212 m 27 X s 2127 1246 m 27 X s 2127 1279 m 27 X s 2101 1313 m 53 X s 2127 1347 m 27 X s
 2127 1380 m 27 X s 2127 1414 m 27 X s 2101 1447 m 53 X s 2127 1481 m 27 X s 2127 1515 m 27 X s 2127 1548 m 27 X s 2101 1582 m 53 X s 3 lw /w 55 def /w2 {w 2 div} def /w3 {w 3 div} def 1833 556 639 581 2 { m20} R 9 lw 1805 556 m -110 X s 1695 538 m
 36 Y s 1860 556 m 111 X s 1971 538 m 36 Y s 1833 583 m 18 Y s 1815 601 m 36 X s 1833 528 m -17 Y s 1815 511 m 36 X s 611 581 m -110 X s 501 563 m 36 Y s 666 581 m 111 X s 777 563 m 36 Y s 639 609 m 70 Y s 621 679 m 36 X s 639 554 m -71 Y s 621 483 m
 36 X s 1 0 0 c 611 863 m -110 X s 501 845 m 36 Y s 666 863 m 111 X s 777 845 m 36 Y s 1805 663 m -110 X s 1695 645 m 37 Y s 1860 663 m 111 X s 1971 645 m 37 Y s black 1 0 0 c 3 lw 639 863 1833 663 2 { m25} R 9 lw 611 863 m -110 X s 666 863 m 111 X s
 639 890 m 21 Y s 639 835 m -20 Y s 1805 663 m -110 X s 1860 663 m 111 X s 1833 691 m 2 Y s 1833 636 m -2 Y s 0 0 1 c 527 628 m -110 X s 417 609 m 37 Y s 582 628 m 110 X s 692 609 m 37 Y s 554 655 m 60 Y s 536 715 m 37 X s 554 600 m -60 Y s 536 540 m
 37 X s 1719 554 m -110 X s 1609 536 m 36 Y s 1774 554 m 110 X s 1884 536 m 36 Y s 1747 581 m 40 Y s 1728 621 m 37 X s 1747 526 m -39 Y s 1728 487 m 37 X s black 0 0 1 c 3 lw 554 628 1747 554 2 { m24} R 9 lw black 1805 556 m -110 X s 1860 556 m 111 X
 s 1833 583 m 32 Y s 1833 528 m -31 Y s 611 581 m -110 X s 666 581 m 111 X s 639 609 m 79 Y s 639 554 m -80 Y s 1805 556 m -110 X s 1695 538 m 36 Y s 1860 556 m 111 X s 1971 538 m 36 Y s 1833 583 m 18 Y s 1815 601 m 36 X s 1833 528 m -17 Y s 1815 511
 m 36 X s 611 581 m -110 X s 501 563 m 36 Y s 666 581 m 111 X s 777 563 m 36 Y s 639 609 m 70 Y s 621 679 m 36 X s 639 554 m -71 Y s 621 483 m 36 X s 3 lw 1833 556 639 581 2 { m20} R 9 lw 0.999 0.999 0.999 c 1066 425 1020 1106 bf black
 gsave  2268 1701 0 0 C 1906.53 1431.04 t 0 r /Times-Roman findfont 68.5801 sf 0 0 m (\)) show NC gr 
 gsave  2268 1701 0 0 C 1869.95 1431.04 t 0 r /Times-Italic findfont 68.5801 sf 0 0 m (S) show NC gr 
 gsave  2268 1701 0 0 C 1810.52 1431.04 t 0 r /Times-Roman findfont 68.5801 sf 0 0 m (\(2) show NC gr 
 gsave  2268 1701 0 0 C 1760.22 1431.04 t 0 r /Symbol findfont 68.5801 sf 0 0 m (y) show NC gr 
 gsave  2268 1701 0 0 C 1284.73 1431.04 t 0 r /Times-Roman findfont 68.5801 sf 0 0 m (LHCb, inclusive ) show NC gr  1060 1460 m 187 X s 1154 1417 m 85 Y s 3 lw 1154 1460 m20 9 lw
 gsave  2268 1701 0 0 C 1874.52 1289.31 t 0 r /Times-Roman findfont 68.5801 sf 0 0 m ( ) show NC gr 
 gsave  2268 1701 0 0 C 1824.23 1289.31 t 0 r /Symbol findfont 68.5801 sf 0 0 m (y) show NC gr 
 gsave  2268 1701 0 0 C 1760.22 1289.31 t 0 r /Times-Italic findfont 68.5801 sf 0 0 m (J/) show NC gr 
 gsave  2268 1701 0 0 C 1284.73 1289.31 t 0 r /Times-Roman findfont 68.5801 sf 0 0 m (LHCb, inclusive ) show NC gr  1 0 0 c 1060 1318 m 187 X s 1154 1276 m 85 Y s 3 lw 1154 1318 m25 9 lw black
 gsave  2268 1701 0 0 C 1938.53 1147.57 t 0 r /Times-Roman findfont 68.5801 sf 0 0 m (\)) show NC gr 
 gsave  2268 1701 0 0 C 1901.96 1147.57 t 0 r /Times-Italic findfont 68.5801 sf 0 0 m (S) show NC gr 
 gsave  2268 1701 0 0 C 1842.52 1147.57 t 0 r /Times-Roman findfont 68.5801 sf 0 0 m (\(2) show NC gr 
 gsave  2268 1701 0 0 C 1792.23 1147.57 t 0 r /Symbol findfont 68.5801 sf 0 0 m (y) show NC gr 
 gsave  2268 1701 0 0 C 1284.73 1147.57 t 0 r /Times-Roman findfont 68.5801 sf 0 0 m (ALICE, inclusive ) show NC gr  0 0 1 c 1060 1176 m 187 X s 1154 1134 m 85 Y s 3 lw 1154 1176 m24 9 lw black
 gsave  2268 1701 0 0 C 708.661 1284.73 t 0 r /Times-Roman findfont 77.7242 sf 0 0 m ( = 5 TeV) show NC gr 
 gsave  2268 1701 0 0 C 626.365 1257.3 t 0 r /Times-Italic findfont 54.8641 sf 0 0 m (NN) show NC gr 
 gsave  2268 1701 0 0 C 594.361 1284.73 t 0 r /Times-Italic findfont 77.7242 sf 0 0 m (s) show NC gr  6 lw 562 1321 m 14 -68 d s 0 lw 576 1253 m 9 91 d s 585 1344 m 124 X s
 gsave  2268 1701 0 0 C 406.909 1284.73 t 0 r /Times-Roman findfont 77.7242 sf 0 0 m (pPb ) show NC gr 
 gsave  2268 1701 0 0 C 406.909 1367.03 t 0 r /Times-Roman findfont 77.7242 sf 0 0 m (LHCb) show NC gr  0.8 0.8 0.8 c[ 12 12] 0 sd 9 lw 317 910 m 1837 X s black
 gsave  2268 1701 0 0 C 804.674 306.325 t 0 r /Times-Italic findfont 73.1521 sf 0 0 m (c) show NC gr 
 gsave  2268 1701 0 0 C 475.489 306.325 t 0 r /Times-Roman findfont 73.1521 sf 0 0 m ( < 14 GeV/) show NC gr 
 gsave  2268 1701 0 0 C 448.057 269.749 t 0 r /Times-Roman findfont 45.7201 sf 0 0 m (T) show NC gr 
 gsave  2268 1701 0 0 C 406.909 306.325 t 0 r /Times-Italic findfont 73.1521 sf 0 0 m (p) show NC gr 
 gr  gr showpage
end
%%EOF
