%!PS-Adobe-2.0 EPSF-2.0
%%BoundingBox:  0 0 567 425
%%Title: ../result/CNM/R_prompt.eps: 
%%Creator: ROOT Version 5.34/18
%%CreationDate: Mon Nov 30 19:58:34 2015
%%EndComments
%%BeginProlog
80 dict begin
/s {stroke} def /l {lineto} def /m {moveto} def /t {translate} def
/r {rotate} def /rl {roll}  def /R {repeat} def
/d {rlineto} def /rm {rmoveto} def /gr {grestore} def /f {eofill} def
/c {setrgbcolor} def /black {0 setgray} def /sd {setdash} def
/cl {closepath} def /sf {scalefont setfont} def /lw {setlinewidth} def
/box {m dup 0 exch d exch 0 d 0 exch neg d cl} def
/NC{systemdict begin initclip end}def/C{NC box clip newpath}def
/bl {box s} def /bf {box f} def /Y { 0 exch d} def /X { 0 d} def 
/K {{pop pop 0 moveto} exch kshow} bind def
/ita {/ang 15 def gsave [1 0 ang dup sin exch cos div 1 0 0] concat} def 
/mp {newpath /y exch def /x exch def} def
/side {[w .77 mul w .23 mul] .385 w mul sd w 0 l currentpoint t -144 r} def
/mr {mp x y w2 0 360 arc} def /m24 {mr s} def /m20 {mr f} def
/mb {mp x y w2 add m w2 neg 0 d 0 w neg d w 0 d 0 w d cl} def
/mt {mp x y w2 add m w2 neg w neg d w 0 d cl} def
/m21 {mb f} def /m25 {mb s} def /m22 {mt f} def /m26{mt s} def
/m23 {mp x y w2 sub m w2 w d w neg 0 d cl f} def
/m27 {mp x y w2 add m w3 neg w2 neg d w3 w2 neg d w3 w2 d cl s} def
/m28 {mp x w2 sub y w2 sub w3 add m w3 0 d  0 w3 neg d w3 0 d 0 w3 d w3 0 d  0 w3 d w3 neg 0 d 0 w3 d w3 neg 0 d 0 w3 neg d w3 neg 0 d cl s } def
/m29 {mp gsave x w2 sub y w2 add w3 sub m currentpoint t 4 {side} repeat cl fill gr} def
/m30 {mp gsave x w2 sub y w2 add w3 sub m currentpoint t 4 {side} repeat cl s gr} def
/m31 {mp x y w2 sub m 0 w d x w2 sub y m w 0 d x w2 sub y w2 add m w w neg d x w2 sub y w2 sub m w w d s} def
/m32 {mp x y w2 sub m w2 w d w neg 0 d cl s} def
/m33 {mp x y w2 add m w3 neg w2 neg d w3 w2 neg d w3 w2 d cl f} def
/m34 {mp x w2 sub y w2 sub w3 add m w3 0 d  0 w3 neg d w3 0 d 0 w3 d w3 0 d  0 w3 d w3 neg 0 d 0 w3 d w3 neg 0 d 0 w3 neg d w3 neg 0 d cl f } def
/m2 {mp x y w2 sub m 0 w d x w2 sub y m w 0 d s} def
/m5 {mp x w2 sub y w2 sub m w w d x w2 sub y w2 add m w w neg d s} def
/reEncode {exch findfont dup length dict begin {1 index /FID eq  {pop pop} {def} ifelse } forall /Encoding exch def currentdict end dup /FontName get exch definefont pop } def [/Times-Bold /Times-Italic /Times-BoldItalic /Helvetica /Helvetica-Oblique
 /Helvetica-Bold /Helvetica-BoldOblique /Courier /Courier-Oblique /Courier-Bold /Courier-BoldOblique /Times-Roman /AvantGarde-Book /AvantGarde-BookOblique /AvantGarde-Demi /AvantGarde-DemiOblique /Bookman-Demi /Bookman-DemiItalic /Bookman-Light
 /Bookman-LightItalic /Helvetica-Narrow /Helvetica-Narrow-Bold /Helvetica-Narrow-BoldOblique /Helvetica-Narrow-Oblique /NewCenturySchlbk-Roman /NewCenturySchlbk-Bold /NewCenturySchlbk-BoldItalic /NewCenturySchlbk-Italic /Palatino-Bold
 /Palatino-BoldItalic /Palatino-Italic /Palatino-Roman ] {ISOLatin1Encoding reEncode } forall
%%EndProlog
%%BeginSetup
%%EndSetup
newpath  gsave  .25 .25 scale  gsave  0 0 t black[  ] 0 sd 9 lw 1 1 1 c 2268 1701 0 0 bf black 6 lw 1 1 1 c 1837 1344 317 238 bf black 1837 1344 317 238 bl 1 1 1 c 1837 1344 317 238 bf black 1837 1344 317 238 bl 9 lw 317 238 m 1837 X s
 gsave  2268 1701 0 0 C 2107.7 64.0081 t 0 r /Times-Italic findfont 96.0122 sf 0 0 m (y) show NC gr  501 279 m -41 Y s 593 259 m -21 Y s 685 259 m -21 Y s 777 259 m -21 Y s 869 279 m -41 Y s 960 259 m -21 Y s 1052 259 m -21 Y s 1144 259 m -21 Y s
 1236 279 m -41 Y s 1328 259 m -21 Y s 1420 259 m -21 Y s 1511 259 m -21 Y s 1603 279 m -41 Y s 1695 259 m -21 Y s 1787 259 m -21 Y s 1879 259 m -21 Y s 1971 279 m -41 Y s 501 279 m -41 Y s 409 259 m -21 Y s 317 259 m -21 Y s 1971 279 m -41 Y s 2062
 259 m -21 Y s 2154 259 m -21 Y s
 gsave  2268 1701 0 0 C 466.345 146.304 t 0 r /Times-Roman findfont 77.7242 sf 0 0 m (\2554) show NC gr 
 gsave  2268 1701 0 0 C 832.106 146.304 t 0 r /Times-Roman findfont 77.7242 sf 0 0 m (\2552) show NC gr 
 gsave  2268 1701 0 0 C 1211.58 146.304 t 0 r /Times-Roman findfont 77.7242 sf 0 0 m (0) show NC gr 
 gsave  2268 1701 0 0 C 1577.34 146.304 t 0 r /Times-Roman findfont 77.7242 sf 0 0 m (2) show NC gr 
 gsave  2268 1701 0 0 C 1947.68 146.304 t 0 r /Times-Roman findfont 77.7242 sf 0 0 m (4) show NC gr  317 1582 m 1837 X s 501 1540 m 42 Y s 593 1561 m 21 Y s 685 1561 m 21 Y s 777 1561 m 21 Y s 869 1540 m 42 Y s 960 1561 m 21 Y s 1052 1561 m 21 Y s
 1144 1561 m 21 Y s 1236 1540 m 42 Y s 1328 1561 m 21 Y s 1420 1561 m 21 Y s 1511 1561 m 21 Y s 1603 1540 m 42 Y s 1695 1561 m 21 Y s 1787 1561 m 21 Y s 1879 1561 m 21 Y s 1971 1540 m 42 Y s 501 1540 m 42 Y s 409 1561 m 21 Y s 317 1561 m 21 Y s 1971
 1540 m 42 Y s 2062 1561 m 21 Y s 2154 1561 m 21 Y s 317 238 m 1344 Y s
 gsave  2268 1701 0 0 C 132.588 1517.91 t 90 r /Times-Italic findfont 96.0122 sf 0 0 m (R) show NC gr  371 238 m -54 X s 344 278 m -27 X s 344 317 m -27 X s 344 357 m -27 X s 371 396 m -54 X s 344 436 m -27 X s 344 475 m -27 X s 344 515 m -27 X s 371
 554 m -54 X s 344 594 m -27 X s 344 633 m -27 X s 344 673 m -27 X s 371 712 m -54 X s 344 752 m -27 X s 344 791 m -27 X s 344 831 m -27 X s 371 870 m -54 X s 344 910 m -27 X s 344 949 m -27 X s 344 989 m -27 X s 371 1028 m -54 X s 344 1068 m -27 X s
 344 1108 m -27 X s 344 1147 m -27 X s 371 1187 m -54 X s 344 1226 m -27 X s 344 1266 m -27 X s 344 1305 m -27 X s 371 1345 m -54 X s 344 1384 m -27 X s 344 1424 m -27 X s 344 1463 m -27 X s 371 1503 m -54 X s 371 1503 m -54 X s 344 1542 m -27 X s
 gsave  2268 1701 0 0 C 260.605 214.884 t 0 r /Times-Roman findfont 77.7242 sf 0 0 m (0) show NC gr 
 gsave  2268 1701 0 0 C 205.74 370.333 t 0 r /Times-Roman findfont 77.7242 sf 0 0 m (0.2) show NC gr 
 gsave  2268 1701 0 0 C 205.74 530.353 t 0 r /Times-Roman findfont 77.7242 sf 0 0 m (0.4) show NC gr 
 gsave  2268 1701 0 0 C 205.74 685.801 t 0 r /Times-Roman findfont 77.7242 sf 0 0 m (0.6) show NC gr 
 gsave  2268 1701 0 0 C 205.74 845.822 t 0 r /Times-Roman findfont 77.7242 sf 0 0 m (0.8) show NC gr 
 gsave  2268 1701 0 0 C 269.749 996.698 t 0 r /Times-Roman findfont 77.7242 sf 0 0 m (1) show NC gr 
 gsave  2268 1701 0 0 C 205.74 1161.29 t 0 r /Times-Roman findfont 77.7242 sf 0 0 m (1.2) show NC gr 
 gsave  2268 1701 0 0 C 205.74 1321.31 t 0 r /Times-Roman findfont 77.7242 sf 0 0 m (1.4) show NC gr 
 gsave  2268 1701 0 0 C 205.74 1476.76 t 0 r /Times-Roman findfont 77.7242 sf 0 0 m (1.6) show NC gr  2154 238 m 1344 Y s 2101 238 m 53 X s 2127 278 m 27 X s 2127 317 m 27 X s 2127 357 m 27 X s 2101 396 m 53 X s 2127 436 m 27 X s 2127 475 m 27 X s
 2127 515 m 27 X s 2101 554 m 53 X s 2127 594 m 27 X s 2127 633 m 27 X s 2127 673 m 27 X s 2101 712 m 53 X s 2127 752 m 27 X s 2127 791 m 27 X s 2127 831 m 27 X s 2101 870 m 53 X s 2127 910 m 27 X s 2127 949 m 27 X s 2127 989 m 27 X s 2101 1028 m 53
 X s 2127 1068 m 27 X s 2127 1108 m 27 X s 2127 1147 m 27 X s 2101 1187 m 53 X s 2127 1226 m 27 X s 2127 1266 m 27 X s 2127 1305 m 27 X s 2101 1345 m 53 X s 2127 1384 m 27 X s 2127 1424 m 27 X s 2127 1463 m 27 X s 2101 1503 m 53 X s 2101 1503 m 53 X
 s 2127 1542 m 27 X s 0 0 1 c black 0 0 1 c 3 lw /w 55 def /w2 {w 2 div} def /w3 {w 3 div} def 1833 785 639 664 2 { m22} R 9 lw 1816 785 m -121 X s 1695 767 m 37 Y s 1849 785 m 122 X s 1971 767 m 37 Y s 1833 813 m 53 Y s 1815 866 m 36 X s 1833 758 m
 -54 Y s 1815 704 m 36 X s 622 664 m -121 X s 501 645 m 37 Y s 655 664 m 122 X s 777 645 m 37 Y s 639 691 m 102 Y s 621 793 m 36 X s 639 636 m -102 Y s 621 534 m 36 X s 1816 785 m -121 X s 1849 785 m 122 X s 1833 813 m 84 Y s 1833 758 m -84 Y s 622
 664 m -121 X s 655 664 m 122 X s 639 691 m 123 Y s 639 636 m -122 Y s 1 0 0 c 1824 1192 m -129 X s 1879 1192 m 128 X s 1851 1219 m 212 Y s 1851 1164 m -212 Y s 630 759 m -129 X s 685 759 m 128 X s 657 786 m 318 Y s 657 731 m -317 Y s 1824 1192 m
 -129 X s 1695 1173 m 37 Y s 1879 1192 m 128 X s 2007 1173 m 37 Y s 1851 1219 m 180 Y s 1833 1399 m 37 X s 1851 1164 m -180 Y s 1833 984 m 37 X s 630 759 m -129 X s 501 740 m 37 Y s 685 759 m 128 X s 813 740 m 37 Y s 657 786 m 234 Y s 639 1020 m 37 X
 s 657 731 m -234 Y s 639 497 m 37 X s black 1 0 0 c 3 lw 1851 1192 657 759 2 { m21} R 9 lw 0 0 1 c 1816 785 m -121 X s 1695 767 m 37 Y s 1849 785 m 122 X s 1971 767 m 37 Y s 1833 813 m 53 Y s 1815 866 m 36 X s 1833 758 m -54 Y s 1815 704 m 36 X s
 622 664 m -121 X s 501 645 m 37 Y s 655 664 m 122 X s 777 645 m 37 Y s 639 691 m 102 Y s 621 793 m 36 X s 639 636 m -102 Y s 621 534 m 36 X s black 0 0 1 c 3 lw 1833 785 639 664 2 { m22} R 9 lw black 0.999 0.999 0.999 c 1066 221 1020 255 bf black
 gsave  2268 1701 0 0 C 1975.11 397.765 t 0 r /Times-Roman findfont 82.2962 sf 0 0 m (\)) show NC gr 
 gsave  2268 1701 0 0 C 1929.39 397.765 t 0 r /Times-Italic findfont 82.2962 sf 0 0 m (S) show NC gr 
 gsave  2268 1701 0 0 C 1860.81 397.765 t 0 r /Times-Roman findfont 82.2962 sf 0 0 m (\(2) show NC gr 
 gsave  2268 1701 0 0 C 1801.37 397.765 t 0 r /Symbol findfont 82.2962 sf 0 0 m (y) show NC gr 
 gsave  2268 1701 0 0 C 1284.73 397.765 t 0 r /Times-Roman findfont 82.2962 sf 0 0 m (LHCb, prompt ) show NC gr  0 0 1 c 1060 421 m 187 X s 1154 388 m 66 Y s 3 lw 1154 421 m22 9 lw black
 gsave  2268 1701 0 0 C 1947.68 288.037 t 0 r /Times-Italic findfont 82.2962 sf 0 0 m (b) show NC gr 
 gsave  2268 1701 0 0 C 1709.93 288.037 t 0 r /Times-Roman findfont 82.2962 sf 0 0 m (\) from ) show NC gr 
 gsave  2268 1701 0 0 C 1664.21 288.037 t 0 r /Times-Italic findfont 82.2962 sf 0 0 m (S) show NC gr 
 gsave  2268 1701 0 0 C 1595.63 288.037 t 0 r /Times-Roman findfont 82.2962 sf 0 0 m (\(2) show NC gr 
 gsave  2268 1701 0 0 C 1536.2 288.037 t 0 r /Symbol findfont 82.2962 sf 0 0 m (y) show NC gr 
 gsave  2268 1701 0 0 C 1284.73 288.037 t 0 r /Times-Roman findfont 82.2962 sf 0 0 m (LHCb, ) show NC gr  1 0 0 c 1060 310 m 187 X s 1154 277 m 67 Y s 3 lw 1154 310 m21 9 lw black
 gsave  2268 1701 0 0 C 708.661 1284.73 t 0 r /Times-Roman findfont 77.7242 sf 0 0 m ( = 5 TeV) show NC gr 
 gsave  2268 1701 0 0 C 626.365 1257.3 t 0 r /Times-Italic findfont 54.8641 sf 0 0 m (NN) show NC gr 
 gsave  2268 1701 0 0 C 594.361 1284.73 t 0 r /Times-Italic findfont 77.7242 sf 0 0 m (s) show NC gr  6 lw 562 1321 m 14 -68 d s 0 lw 576 1253 m 9 91 d s 585 1344 m 124 X s
 gsave  2268 1701 0 0 C 406.909 1284.73 t 0 r /Times-Roman findfont 77.7242 sf 0 0 m (pPb ) show NC gr 
 gsave  2268 1701 0 0 C 406.909 1367.03 t 0 r /Times-Roman findfont 77.7242 sf 0 0 m (LHCb) show NC gr  0.8 0.8 0.8 c[ 12 12] 0 sd 9 lw 317 1028 m 1837 X s black
 gsave  2268 1701 0 0 C 1531.62 562.357 t 0 r /Times-Italic findfont 73.1521 sf 0 0 m (c) show NC gr 
 gsave  2268 1701 0 0 C 1202.44 562.357 t 0 r /Times-Roman findfont 73.1521 sf 0 0 m ( < 14 GeV/) show NC gr 
 gsave  2268 1701 0 0 C 1175.01 525.781 t 0 r /Times-Roman findfont 45.7201 sf 0 0 m (T) show NC gr 
 gsave  2268 1701 0 0 C 1133.86 562.357 t 0 r /Times-Italic findfont 73.1521 sf 0 0 m (p) show NC gr [  ] 0 sd 0.999 0.999 0.999 c 1066 221 1020 255 bf black
 gsave  2268 1701 0 0 C 1975.11 397.765 t 0 r /Times-Roman findfont 82.2962 sf 0 0 m (\)) show NC gr 
 gsave  2268 1701 0 0 C 1929.39 397.765 t 0 r /Times-Italic findfont 82.2962 sf 0 0 m (S) show NC gr 
 gsave  2268 1701 0 0 C 1860.81 397.765 t 0 r /Times-Roman findfont 82.2962 sf 0 0 m (\(2) show NC gr 
 gsave  2268 1701 0 0 C 1801.37 397.765 t 0 r /Symbol findfont 82.2962 sf 0 0 m (y) show NC gr 
 gsave  2268 1701 0 0 C 1284.73 397.765 t 0 r /Times-Roman findfont 82.2962 sf 0 0 m (LHCb, prompt ) show NC gr  0 0 1 c 1060 421 m 187 X s 1154 388 m 66 Y s 3 lw 1154 421 m22 9 lw black
 gsave  2268 1701 0 0 C 1947.68 288.037 t 0 r /Times-Italic findfont 82.2962 sf 0 0 m (b) show NC gr 
 gsave  2268 1701 0 0 C 1709.93 288.037 t 0 r /Times-Roman findfont 82.2962 sf 0 0 m (\) from ) show NC gr 
 gsave  2268 1701 0 0 C 1664.21 288.037 t 0 r /Times-Italic findfont 82.2962 sf 0 0 m (S) show NC gr 
 gsave  2268 1701 0 0 C 1595.63 288.037 t 0 r /Times-Roman findfont 82.2962 sf 0 0 m (\(2) show NC gr 
 gsave  2268 1701 0 0 C 1536.2 288.037 t 0 r /Symbol findfont 82.2962 sf 0 0 m (y) show NC gr 
 gsave  2268 1701 0 0 C 1284.73 288.037 t 0 r /Times-Roman findfont 82.2962 sf 0 0 m (LHCb, ) show NC gr  1 0 0 c 1060 310 m 187 X s 1154 277 m 67 Y s 3 lw 1154 310 m21 9 lw black
 gsave  2268 1701 0 0 C 708.661 1284.73 t 0 r /Times-Roman findfont 77.7242 sf 0 0 m ( = 5 TeV) show NC gr 
 gsave  2268 1701 0 0 C 626.365 1257.3 t 0 r /Times-Italic findfont 54.8641 sf 0 0 m (NN) show NC gr 
 gsave  2268 1701 0 0 C 594.361 1284.73 t 0 r /Times-Italic findfont 77.7242 sf 0 0 m (s) show NC gr  6 lw 562 1321 m 14 -68 d s 0 lw 576 1253 m 9 91 d s 585 1344 m 124 X s
 gsave  2268 1701 0 0 C 406.909 1284.73 t 0 r /Times-Roman findfont 77.7242 sf 0 0 m (pPb ) show NC gr 
 gsave  2268 1701 0 0 C 406.909 1367.03 t 0 r /Times-Roman findfont 77.7242 sf 0 0 m (LHCb) show NC gr 
 gr  gr showpage
end
%%EOF
