[\xx0,\xx1]& $0.54 \pm 0.02$ & $0.82 \pm 0.01$ & $0.91 \pm 0.01$ & $0.91 \pm 0.01$ & $0.80 \pm 0.02$ \\ 
[\xx1,\xx2]& $0.57 \pm 0.01$ & $0.82 \pm 0.01$ & $0.91 \pm 0.01$ & $0.91 \pm 0.01$ & $0.80 \pm 0.01$ \\ 
[\xx2,\xx3] & $0.62 \pm 0.01$ & $0.83 \pm 0.01$ & $0.93 \pm 0.01$ & $0.93 \pm 0.01$ & $0.82 \pm 0.01$ \\ 
[\xx3,\xx4]& $0.68 \pm 0.01$ & $0.88 \pm 0.01$ & $0.94 \pm 0.01$ & $0.93 \pm 0.01$ & $0.87 \pm 0.01$ \\ 
[\xx4,\xx5]& $0.70 \pm 0.01$ & $0.89 \pm 0.01$ & $0.96 \pm 0.01$ & $0.95 \pm 0.01$ & $0.90 \pm 0.01$ \\ 
[\xx5,\xx6]& $0.75 \pm 0.02$ & $0.92 \pm 0.01$ & $0.96 \pm 0.01$ & $0.96 \pm 0.01$ & $0.92 \pm 0.02$ \\ 
[\xx6,\xx7]& $0.80 \pm 0.02$ & $0.94 \pm 0.01$ & $0.97 \pm 0.01$ & $0.98 \pm 0.01$ & $0.94 \pm 0.02$ \\ 
[\xx7,\xx8]& $0.84 \pm 0.02$ & $0.93 \pm 0.02$ & $0.98 \pm 0.01$ & $0.97 \pm 0.02$ & $0.88 \pm 0.04$ \\ 
[\xx8,10]& $0.83 \pm 0.02$ & $0.96 \pm 0.01$ & $0.97 \pm 0.01$ & $0.99 \pm 0.01$ & $0.96 \pm 0.02$ \\ 
[10,14]& $0.88 \pm 0.02$ & $0.99 \pm 0.01$ & $1.00 \pm 0.00$ & $0.98 \pm 0.02$ & $1.00 \pm 0.00$ \\ 

