[\xx0,\xx1]& $0.414 \pm 0.004$ & $0.626 \pm 0.003$ & $0.619 \pm 0.003$ & $0.531 \pm 0.004$ & $0.342 \pm 0.004$ \\ 
[\xx1,\xx2]& $0.397 \pm 0.002$ & $0.562 \pm 0.002$ & $0.572 \pm 0.002$ & $0.484 \pm 0.003$ & $0.316 \pm 0.003$ \\ 
[\xx2,\xx3] & $0.335 \pm 0.002$ & $0.470 \pm 0.002$ & $0.497 \pm 0.002$ & $0.425 \pm 0.003$ & $0.250 \pm 0.003$ \\ 
[\xx3,\xx4]& $0.297 \pm 0.002$ & $0.460 \pm 0.002$ & $0.490 \pm 0.003$ & $0.420 \pm 0.003$ & $0.222 \pm 0.003$ \\ 
[\xx4,\xx5]& $0.321 \pm 0.003$ & $0.505 \pm 0.003$ & $0.530 \pm 0.003$ & $0.470 \pm 0.004$ & $0.241 \pm 0.004$ \\ 
[\xx5,\xx6]& $0.348 \pm 0.003$ & $0.557 \pm 0.003$ & $0.557 \pm 0.004$ & $0.501 \pm 0.005$ & $0.268 \pm 0.005$ \\ 
[\xx6,\xx7]& $0.390 \pm 0.004$ & $0.585 \pm 0.004$ & $0.591 \pm 0.005$ & $0.537 \pm 0.006$ & $0.316 \pm 0.007$ \\ 
[\xx7,\xx8]& $0.418 \pm 0.005$ & $0.583 \pm 0.005$ & $0.607 \pm 0.006$ & $0.588 \pm 0.008$ & $0.334 \pm 0.010$ \\ 
[\xx8,10]& $0.447 \pm 0.005$ & $0.637 \pm 0.005$ & $0.636 \pm 0.006$ & $0.598 \pm 0.008$ & $0.389 \pm 0.011$ \\ 
[10,14]& $0.514 \pm 0.006$ & $0.663 \pm 0.006$ & $0.694 \pm 0.007$ & $0.643 \pm 0.010$ & $0.439 \pm 0.016$ \\ 

