$[1.5,2.0]$ & $38.688 \pm 11.702 \pm 4.112 \pm 1.116$ & $89.189 \pm 22.823 \pm 4.758 \pm 2.573$ & $132.174 \pm 27.634 \pm 9.352 \pm 3.812$ \\
$[2.0,2.5]$ & $28.352 \pm 6.988 \pm 0.831 \pm 0.818$ & $70.872 \pm 13.710 \pm 1.865 \pm 2.044$ & $98.870 \pm 18.137 \pm 2.468 \pm 2.852$ \\
$[2.5,3.0]$ & $19.025 \pm 5.502 \pm 3.892 \pm 0.549$ & $63.312 \pm 13.154 \pm 2.076 \pm 1.826$ & $76.279 \pm 16.088 \pm 5.435 \pm 2.200$ \\
$[3.0,3.5]$ & $16.892 \pm 5.593 \pm 4.782 \pm 0.487$ & $47.735 \pm 11.818 \pm 1.208 \pm 1.377$ & $69.238 \pm 14.575 \pm 4.574 \pm 1.997$ \\
$[3.5,4.0]$ & $10.635 \pm 5.239 \pm 2.823 \pm 0.307$ & $40.438 \pm 10.003 \pm 4.791 \pm 1.166$ & $47.367 \pm 14.017 \pm 4.642 \pm 1.366$ \\


