%cross-section
%pA
inclusive & $\xx196 \pm \xx\xx21 \pm \xx\xx10$ \\
prompy    & $\xx138 \pm \xx\xx17 \pm \xx\xx\xx8$ \\
delayed   & $\xx\xx54 \pm \xx\xx\xx8 \pm \xx\xx\xx4$ \\

%Ap
inclusive & $\xx114 \pm \xx\xx28 \pm \xx\xx16$ \\
prompt    & $\xx\xx93 \pm \xx\xx25 \pm \xx\xx10$ \\
delayed   & $\xx\xx20 \pm \xx\xx\xx8 \pm \xx\xx\xx4$ \\

