%!PS-Adobe-2.0 EPSF-2.0
%%BoundingBox:  0 0 567 425
%%Title: result/TzFit/ApCtz_c03.eps: 
%%Creator: ROOT Version 5.34/18
%%CreationDate: Sun Sep 13 00:50:32 2015
%%EndComments
%%BeginProlog
80 dict begin
/s {stroke} def /l {lineto} def /m {moveto} def /t {translate} def
/r {rotate} def /rl {roll}  def /R {repeat} def
/d {rlineto} def /rm {rmoveto} def /gr {grestore} def /f {eofill} def
/c {setrgbcolor} def /black {0 setgray} def /sd {setdash} def
/cl {closepath} def /sf {scalefont setfont} def /lw {setlinewidth} def
/box {m dup 0 exch d exch 0 d 0 exch neg d cl} def
/NC{systemdict begin initclip end}def/C{NC box clip newpath}def
/bl {box s} def /bf {box f} def /Y { 0 exch d} def /X { 0 d} def 
/K {{pop pop 0 moveto} exch kshow} bind def
/ita {/ang 15 def gsave [1 0 ang dup sin exch cos div 1 0 0] concat} def 
/mp {newpath /y exch def /x exch def} def
/side {[w .77 mul w .23 mul] .385 w mul sd w 0 l currentpoint t -144 r} def
/mr {mp x y w2 0 360 arc} def /m24 {mr s} def /m20 {mr f} def
/mb {mp x y w2 add m w2 neg 0 d 0 w neg d w 0 d 0 w d cl} def
/mt {mp x y w2 add m w2 neg w neg d w 0 d cl} def
/m21 {mb f} def /m25 {mb s} def /m22 {mt f} def /m26{mt s} def
/m23 {mp x y w2 sub m w2 w d w neg 0 d cl f} def
/m27 {mp x y w2 add m w3 neg w2 neg d w3 w2 neg d w3 w2 d cl s} def
/m28 {mp x w2 sub y w2 sub w3 add m w3 0 d  0 w3 neg d w3 0 d 0 w3 d w3 0 d  0 w3 d w3 neg 0 d 0 w3 d w3 neg 0 d 0 w3 neg d w3 neg 0 d cl s } def
/m29 {mp gsave x w2 sub y w2 add w3 sub m currentpoint t 4 {side} repeat cl fill gr} def
/m30 {mp gsave x w2 sub y w2 add w3 sub m currentpoint t 4 {side} repeat cl s gr} def
/m31 {mp x y w2 sub m 0 w d x w2 sub y m w 0 d x w2 sub y w2 add m w w neg d x w2 sub y w2 sub m w w d s} def
/m32 {mp x y w2 sub m w2 w d w neg 0 d cl s} def
/m33 {mp x y w2 add m w3 neg w2 neg d w3 w2 neg d w3 w2 d cl f} def
/m34 {mp x w2 sub y w2 sub w3 add m w3 0 d  0 w3 neg d w3 0 d 0 w3 d w3 0 d  0 w3 d w3 neg 0 d 0 w3 d w3 neg 0 d 0 w3 neg d w3 neg 0 d cl f } def
/m2 {mp x y w2 sub m 0 w d x w2 sub y m w 0 d s} def
/m5 {mp x w2 sub y w2 sub m w w d x w2 sub y w2 add m w w neg d s} def
/reEncode {exch findfont dup length dict begin {1 index /FID eq  {pop pop} {def} ifelse } forall /Encoding exch def currentdict end dup /FontName get exch definefont pop } def [/Times-Bold /Times-Italic /Times-BoldItalic /Helvetica /Helvetica-Oblique
 /Helvetica-Bold /Helvetica-BoldOblique /Courier /Courier-Oblique /Courier-Bold /Courier-BoldOblique /Times-Roman /AvantGarde-Book /AvantGarde-BookOblique /AvantGarde-Demi /AvantGarde-DemiOblique /Bookman-Demi /Bookman-DemiItalic /Bookman-Light
 /Bookman-LightItalic /Helvetica-Narrow /Helvetica-Narrow-Bold /Helvetica-Narrow-BoldOblique /Helvetica-Narrow-Oblique /NewCenturySchlbk-Roman /NewCenturySchlbk-Bold /NewCenturySchlbk-BoldItalic /NewCenturySchlbk-Italic /Palatino-Bold
 /Palatino-BoldItalic /Palatino-Italic /Palatino-Roman ] {ISOLatin1Encoding reEncode } forall
%%EndProlog
%%BeginSetup
%%EndSetup
newpath  gsave  .25 .25 scale  gsave  0 0 t black[  ] 0 sd 3 lw 1 1 1 c 2268 1701 0 0 bf black 1 1 1 c 1837 1344 317 238 bf black 1837 1344 317 238 bl 1 1 1 c 1837 1344 317 238 bf black 1837 1344 317 238 bl 317 238 m 1837 X s
 gsave  2268 1701 0 0 C 2125.98 50.2921 t 0 r /Times-Roman findfont 96.0122 sf 0 0 m (]) show NC gr 
 gsave  2268 1701 0 0 C 2093.98 91.4402 t 0 r /Times-Roman findfont 64.0081 sf 0 0 m (2) show NC gr 
 gsave  2268 1701 0 0 C 1773.94 50.2921 t 0 r /Times-Roman findfont 96.0122 sf 0 0 m ( [MeV/c) show NC gr 
 gsave  2268 1701 0 0 C 1737.36 32.0041 t 0 r /Symbol findfont 64.0081 sf 0 0 m (m) show NC gr 
 gsave  2268 1701 0 0 C 1700.79 32.0041 t 0 r /Symbol findfont 64.0081 sf 0 0 m (m) show NC gr 
 gsave  2268 1701 0 0 C 1623.06 50.2921 t 0 r /Times-Roman findfont 96.0122 sf 0 0 m (m) show NC gr  698 279 m -41 Y s 824 259 m -21 Y s 951 259 m -21 Y s 1078 259 m -21 Y s 1204 259 m -21 Y s 1331 279 m -41 Y s 1458 259 m -21 Y s 1584 259 m -21 Y s
 1711 259 m -21 Y s 1838 259 m -21 Y s 1964 279 m -41 Y s 698 279 m -41 Y s 571 259 m -21 Y s 444 259 m -21 Y s 317 259 m -21 Y s 1964 279 m -41 Y s 2091 259 m -21 Y s
 gsave  2268 1701 0 0 C 617.221 146.304 t 0 r /Times-Roman findfont 77.7242 sf 0 0 m (3600) show NC gr 
 gsave  2268 1701 0 0 C 1252.73 146.304 t 0 r /Times-Roman findfont 77.7242 sf 0 0 m (3700) show NC gr 
 gsave  2268 1701 0 0 C 1883.67 146.304 t 0 r /Times-Roman findfont 77.7242 sf 0 0 m (3800) show NC gr  317 1582 m 1837 X s 698 1540 m 42 Y s 824 1561 m 21 Y s 951 1561 m 21 Y s 1078 1561 m 21 Y s 1204 1561 m 21 Y s 1331 1540 m 42 Y s 1458 1561 m 21
 Y s 1584 1561 m 21 Y s 1711 1561 m 21 Y s 1838 1561 m 21 Y s 1964 1540 m 42 Y s 698 1540 m 42 Y s 571 1561 m 21 Y s 444 1561 m 21 Y s 317 1561 m 21 Y s 1964 1540 m 42 Y s 2091 1561 m 21 Y s 317 238 m 1344 Y s
 gsave  2268 1701 0 0 C 91.4402 1554.48 t 90 r /Times-Roman findfont 96.0122 sf 0 0 m (\)) show NC gr 
 gsave  2268 1701 0 0 C 50.2921 1522.48 t 90 r /Times-Roman findfont 64.0081 sf 0 0 m (2) show NC gr 
 gsave  2268 1701 0 0 C 91.4402 603.505 t 90 r /Times-Roman findfont 96.0122 sf 0 0 m (Candidates / \(10 MeV/c) show NC gr  371 238 m -54 X s 344 288 m -27 X s 344 339 m -27 X s 344 389 m -27 X s 344 439 m -27 X s 371 489 m -54 X s 344 540 m -27 X s
 344 590 m -27 X s 344 640 m -27 X s 344 690 m -27 X s 371 741 m -54 X s 344 791 m -27 X s 344 841 m -27 X s 344 891 m -27 X s 344 942 m -27 X s 371 992 m -54 X s 344 1042 m -27 X s 344 1092 m -27 X s 344 1142 m -27 X s 344 1193 m -27 X s 371 1243 m
 -54 X s 344 1293 m -27 X s 344 1343 m -27 X s 344 1394 m -27 X s 344 1444 m -27 X s 371 1494 m -54 X s 371 1494 m -54 X s 344 1544 m -27 X s
 gsave  2268 1701 0 0 C 260.605 214.884 t 0 r /Times-Roman findfont 77.7242 sf 0 0 m (0) show NC gr 
 gsave  2268 1701 0 0 C 182.88 466.345 t 0 r /Times-Roman findfont 77.7242 sf 0 0 m (100) show NC gr 
 gsave  2268 1701 0 0 C 182.88 713.233 t 0 r /Times-Roman findfont 77.7242 sf 0 0 m (200) show NC gr 
 gsave  2268 1701 0 0 C 182.88 964.694 t 0 r /Times-Roman findfont 77.7242 sf 0 0 m (300) show NC gr 
 gsave  2268 1701 0 0 C 182.88 1216.15 t 0 r /Times-Roman findfont 77.7242 sf 0 0 m (400) show NC gr 
 gsave  2268 1701 0 0 C 182.88 1467.61 t 0 r /Times-Roman findfont 77.7242 sf 0 0 m (500) show NC gr  2154 238 m 1344 Y s 2101 238 m 53 X s 2127 288 m 27 X s 2127 339 m 27 X s 2127 389 m 27 X s 2127 439 m 27 X s 2101 489 m 53 X s 2127 540 m 27 X s
 2127 590 m 27 X s 2127 640 m 27 X s 2127 690 m 27 X s 2101 741 m 53 X s 2127 791 m 27 X s 2127 841 m 27 X s 2127 891 m 27 X s 2127 942 m 27 X s 2101 992 m 53 X s 2127 1042 m 27 X s 2127 1092 m 27 X s 2127 1142 m 27 X s 2127 1193 m 27 X s 2101 1243 m
 53 X s 2127 1293 m 27 X s 2127 1343 m 27 X s 2127 1394 m 27 X s 2127 1444 m 27 X s 2101 1494 m 53 X s 2101 1494 m 53 X s 2127 1544 m 27 X s 409 650 m -92 X s 317 641 m 18 Y s 409 650 m 92 X s 501 641 m 18 Y s 409 650 m 34 Y s 400 684 m 18 X s 409
 650 m -31 Y s 400 619 m 18 X s 593 615 m -92 X s 501 606 m 18 Y s 593 615 m 92 X s 685 606 m 18 Y s 593 615 m 32 Y s 584 647 m 18 X s 593 615 m -30 Y s 584 585 m 18 X s 777 698 m -92 X s 685 689 m 18 Y s 777 698 m 92 X s 869 689 m 18 Y s 777 698 m
 35 Y s 768 733 m 18 X s 777 698 m -33 Y s 768 665 m 18 X s 960 633 m -91 X s 869 623 m 19 Y s 960 633 m 92 X s 1052 623 m 19 Y s 960 633 m 32 Y s 951 665 m 19 X s 960 633 m -31 Y s 951 602 m 19 X s 1144 720 m -92 X s 1052 711 m 19 Y s 1144 720 m 92
 X s 1236 711 m 19 Y s 1144 720 m 37 Y s 1135 757 m 18 X s 1144 720 m -33 Y s 1135 687 m 18 X s 1328 736 m -92 X s 1236 726 m 19 Y s 1328 736 m 92 X s 1420 726 m 19 Y s 1328 736 m 36 Y s 1319 772 m 18 X s 1328 736 m -35 Y s 1319 701 m 18 X s 1511 625
 m -91 X s 1420 616 m 18 Y s 1511 625 m 92 X s 1603 616 m 18 Y s 1511 625 m 32 Y s 1502 657 m 19 X s 1511 625 m -30 Y s 1502 595 m 19 X s 1695 577 m -92 X s 1603 568 m 18 Y s 1695 577 m 92 X s 1787 568 m 18 Y s 1695 577 m 31 Y s 1686 608 m 18 X s
 1695 577 m -28 Y s 1686 549 m 18 X s 1879 605 m -92 X s 1787 596 m 18 Y s 1879 605 m 92 X s 1971 596 m 18 Y s 1879 605 m 32 Y s 1870 637 m 18 X s 1879 605 m -29 Y s 1870 576 m 18 X s 2062 625 m -91 X s 1971 616 m 18 Y s 2062 625 m 92 X s 2154 616 m
 18 Y s 2062 625 m 32 Y s 2053 657 m 19 X s 2062 625 m -30 Y s 2053 595 m 19 X s /w 37 def /w2 {w 2 div} def /w3 {w 3 div} def 409 650 593 615 777 698 960 633 1144 720 1328 736 1511 625 1695 577 1879 605 2062 625 10 { m20} R 0 0 1 c[ 12 12] 0 sd 9 lw
 black 0 0 1 c 317 239 m cl s 317 239 m 239 X 19 1 d 220 X 18 1 d 74 X 18 1 d 37 X 18 1 d 19 X 18 1 d 18 1 d 19 2 d 18 2 d 9 2 d 10 2 d 9 3 d 9 4 d 9 4 d 9 5 d 10 6 d 9 6 d 9 7 d 9 8 d 9 8 d 9 8 d 19 17 d 18 17 d 9 8 d 10 7 d 9 6 d 9 6 d 9 6 d 5 3 d
 2 2 d 2 3 d 3 3 d 2 6 d 2 14 d 2 83 d 3 636 d 2 -57 d 2 -605 d 3 -88 d 2 -2 d 2 -1 d 5 -1 d 4 -1 d 5 -2 d 5 -1 d 4 -3 d 9 -5 d 10 -6 d 9 -7 d 9 -8 d 9 -8 d 18 -17 d 19 -16 d 9 -8 d 9 -7 d 9 -7 d 10 -6 d 9 -6 d 9 -4 d 9 -5 d 9 -3 d 10 -4 d 9 -2 d 9
 -2 d 9 -2 d 18 -3 d 19 -2 d 18 -1 d 19 X 18 -1 d 569 X s 0 0.8 0 c black 0 0.8 0 c 317 655 m cl s 317 655 m 19 X 18 -1 d 19 -1 d 18 X 18 -1 d 19 X 18 -1 d 18 X 19 -1 d 18 -1 d 19 X 18 -1 d 18 X 19 -1 d 18 X 18 -1 d 19 -1 d 18 X 18 -1 d 19 X 18 -1 d
 19 X 18 -1 d 18 X 19 -1 d 18 -1 d 18 X 19 -1 d 18 X 19 -1 d 18 X 18 -1 d 19 X 18 -1 d 18 X 19 -1 d 18 -1 d 18 X 19 -1 d 18 X 19 -1 d 18 X 18 -1 d 19 X 18 -1 d 18 X 19 -1 d 18 X 19 -1 d 18 -1 d 18 X 19 -1 d 18 X 18 -1 d 19 X 18 -1 d 18 X 19 -1 d 18 X
 19 -1 d 18 X 18 -1 d 19 X 18 -1 d 18 X 19 -1 d 18 -1 d 19 X 18 -1 d 18 X 19 -1 d 18 X 18 -1 d 19 X 18 -1 d 18 X 19 -1 d 18 X 19 -1 d 18 X 18 -1 d 19 X 18 -1 d 18 X 19 -1 d 18 X 19 -1 d 18 X 18 -1 d 19 X 18 -1 d 18 X 19 -1 d 18 X 18 -1 d 19 X 18 -1 d
 19 X 18 -1 d 18 X s 1 0 0 c[  ] 0 sd black 1 0 0 c 317 656 m cl s 317 656 m 19 -1 d 18 X 19 -1 d 18 X 18 -1 d 19 X 18 -1 d 18 X 19 -1 d 18 X 19 -1 d 18 X 18 -1 d 19 X 18 -1 d 18 X 19 -1 d 18 X 18 -1 d 19 X 18 -1 d 19 X 18 -1 d 18 X 19 -1 d 18 X 18
 -1 d 37 X 19 -1 d 36 X 19 -1 d 73 X 18 1 d 19 1 d 18 2 d 9 1 d 10 2 d 9 3 d 9 4 d 9 4 d 9 5 d 10 5 d 9 6 d 9 7 d 9 7 d 9 7 d 9 8 d 19 17 d 18 16 d 9 8 d 10 7 d 9 6 d 9 6 d 9 5 d 5 3 d 2 2 d 2 2 d 3 4 d 2 6 d 2 14 d 2 82 d 3 637 d 2 -58 d 2 -605 d 3
 -88 d 18 -7 d 9 -4 d 9 -6 d 10 -6 d 9 -8 d 9 -8 d 9 -8 d 18 -17 d 19 -17 d 9 -8 d 9 -8 d 9 -7 d 10 -6 d 9 -6 d 9 -5 d 9 -5 d 9 -3 d 10 -4 d 9 -3 d 9 -2 d 9 -2 d 18 -4 d 19 -2 d 18 -1 d 19 -1 d 18 -1 d 18 -1 d 19 -1 d 18 X 18 -1 d 19 X 18 -1 d 18 X
 19 -1 d 18 X 19 -1 d 18 X 18 -1 d 19 X 18 -1 d 18 X 19 -1 d 18 X 19 -1 d 18 X 18 -1 d 19 X 18 -1 d 18 X 19 -1 d 18 X 18 -1 d 19 X 18 -1 d 19 X 18 -1 d 18 X s black 3 lw 317 238 m 1837 X s 698 279 m -41 Y s 824 259 m -21 Y s 951 259 m -21 Y s 1078
 259 m -21 Y s 1204 259 m -21 Y s 1331 279 m -41 Y s 1458 259 m -21 Y s 1584 259 m -21 Y s 1711 259 m -21 Y s 1838 259 m -21 Y s 1964 279 m -41 Y s 698 279 m -41 Y s 571 259 m -21 Y s 444 259 m -21 Y s 317 259 m -21 Y s 1964 279 m -41 Y s 2091 259 m
 -21 Y s 317 1582 m 1837 X s 698 1540 m 42 Y s 824 1561 m 21 Y s 951 1561 m 21 Y s 1078 1561 m 21 Y s 1204 1561 m 21 Y s 1331 1540 m 42 Y s 1458 1561 m 21 Y s 1584 1561 m 21 Y s 1711 1561 m 21 Y s 1838 1561 m 21 Y s 1964 1540 m 42 Y s 698 1540 m 42 Y
 s 571 1561 m 21 Y s 444 1561 m 21 Y s 317 1561 m 21 Y s 1964 1540 m 42 Y s 2091 1561 m 21 Y s 317 238 m 1344 Y s 371 238 m -54 X s 344 288 m -27 X s 344 339 m -27 X s 344 389 m -27 X s 344 439 m -27 X s 371 489 m -54 X s 344 540 m -27 X s 344 590 m
 -27 X s 344 640 m -27 X s 344 690 m -27 X s 371 741 m -54 X s 344 791 m -27 X s 344 841 m -27 X s 344 891 m -27 X s 344 942 m -27 X s 371 992 m -54 X s 344 1042 m -27 X s 344 1092 m -27 X s 344 1142 m -27 X s 344 1193 m -27 X s 371 1243 m -54 X s
 344 1293 m -27 X s 344 1343 m -27 X s 344 1394 m -27 X s 344 1444 m -27 X s 371 1494 m -54 X s 371 1494 m -54 X s 344 1544 m -27 X s 2154 238 m 1344 Y s 2101 238 m 53 X s 2127 288 m 27 X s 2127 339 m 27 X s 2127 389 m 27 X s 2127 439 m 27 X s 2101
 489 m 53 X s 2127 540 m 27 X s 2127 590 m 27 X s 2127 640 m 27 X s 2127 690 m 27 X s 2101 741 m 53 X s 2127 791 m 27 X s 2127 841 m 27 X s 2127 891 m 27 X s 2127 942 m 27 X s 2101 992 m 53 X s 2127 1042 m 27 X s 2127 1092 m 27 X s 2127 1142 m 27 X s
 2127 1193 m 27 X s 2101 1243 m 53 X s 2127 1293 m 27 X s 2127 1343 m 27 X s 2127 1394 m 27 X s 2127 1444 m 27 X s 2101 1494 m 53 X s 2101 1494 m 53 X s 2127 1544 m 27 X s
 gsave  2268 1701 0 0 C 859.538 393.193 t 0 r /Times-Roman findfont 59.4361 sf 0 0 m ( = 5 TeV) show NC gr 
 gsave  2268 1701 0 0 C 804.674 374.905 t 0 r /Times-Roman findfont 36.5761 sf 0 0 m (NN) show NC gr 
 gsave  2268 1701 0 0 C 781.814 393.193 t 0 r /Times-Roman findfont 59.4361 sf 0 0 m (s) show NC gr  6 lw 759 421 m 9 -51 d s 0 lw 768 370 m 9 69 d s 777 439 m 83 X s
 gsave  2268 1701 0 0 C 498.349 393.193 t 0 r /Times-Roman findfont 59.4361 sf 0 0 m (pPb\(Fwd\) ) show NC gr 
 gsave  2268 1701 0 0 C 498.349 475.489 t 0 r /Times-Roman findfont 73.1521 sf 0 0 m (Preliminary) show NC gr 
 gsave  2268 1701 0 0 C 498.349 548.641 t 0 r /Times-Roman findfont 73.1521 sf 0 0 m (LHCb) show NC gr 
 gsave  2268 1701 0 0 C 1778.51 512.065 t 0 r /Times-Roman findfont 73.1521 sf 0 0 m (2.5) show NC gr 
 gsave  2268 1701 0 0 C 1737.36 512.065 t 0 r /Symbol findfont 73.1521 sf 0 0 m (-) show NC gr 
 gsave  2268 1701 0 0 C 1490.47 512.065 t 0 r /Times-Roman findfont 73.1521 sf 0 0 m (4.0< y <) show NC gr 
 gsave  2268 1701 0 0 C 1449.33 512.065 t 0 r /Symbol findfont 73.1521 sf 0 0 m (-) show NC gr 
 gsave  2268 1701 0 0 C 1513.34 425.197 t 0 r /Times-Roman findfont 73.1521 sf 0 0 m ( < 14 GeV/c) show NC gr 
 gsave  2268 1701 0 0 C 1485.9 388.621 t 0 r /Times-Roman findfont 45.7201 sf 0 0 m (T) show NC gr 
 gsave  2268 1701 0 0 C 1449.33 425.197 t 0 r /Times-Roman findfont 73.1521 sf 0 0 m (p) show NC gr 
 gr  gr showpage
end
%%EOF
