%!PS-Adobe-2.0 EPSF-2.0
%%BoundingBox:  0 0 567 425
%%Title: result/TzFit/Aptz_c23.eps: 
%%Creator: ROOT Version 5.34/18
%%CreationDate: Tue Sep 15 04:05:30 2015
%%EndComments
%%BeginProlog
80 dict begin
/s {stroke} def /l {lineto} def /m {moveto} def /t {translate} def
/r {rotate} def /rl {roll}  def /R {repeat} def
/d {rlineto} def /rm {rmoveto} def /gr {grestore} def /f {eofill} def
/c {setrgbcolor} def /black {0 setgray} def /sd {setdash} def
/cl {closepath} def /sf {scalefont setfont} def /lw {setlinewidth} def
/box {m dup 0 exch d exch 0 d 0 exch neg d cl} def
/NC{systemdict begin initclip end}def/C{NC box clip newpath}def
/bl {box s} def /bf {box f} def /Y { 0 exch d} def /X { 0 d} def 
/K {{pop pop 0 moveto} exch kshow} bind def
/ita {/ang 15 def gsave [1 0 ang dup sin exch cos div 1 0 0] concat} def 
/mp {newpath /y exch def /x exch def} def
/side {[w .77 mul w .23 mul] .385 w mul sd w 0 l currentpoint t -144 r} def
/mr {mp x y w2 0 360 arc} def /m24 {mr s} def /m20 {mr f} def
/mb {mp x y w2 add m w2 neg 0 d 0 w neg d w 0 d 0 w d cl} def
/mt {mp x y w2 add m w2 neg w neg d w 0 d cl} def
/m21 {mb f} def /m25 {mb s} def /m22 {mt f} def /m26{mt s} def
/m23 {mp x y w2 sub m w2 w d w neg 0 d cl f} def
/m27 {mp x y w2 add m w3 neg w2 neg d w3 w2 neg d w3 w2 d cl s} def
/m28 {mp x w2 sub y w2 sub w3 add m w3 0 d  0 w3 neg d w3 0 d 0 w3 d w3 0 d  0 w3 d w3 neg 0 d 0 w3 d w3 neg 0 d 0 w3 neg d w3 neg 0 d cl s } def
/m29 {mp gsave x w2 sub y w2 add w3 sub m currentpoint t 4 {side} repeat cl fill gr} def
/m30 {mp gsave x w2 sub y w2 add w3 sub m currentpoint t 4 {side} repeat cl s gr} def
/m31 {mp x y w2 sub m 0 w d x w2 sub y m w 0 d x w2 sub y w2 add m w w neg d x w2 sub y w2 sub m w w d s} def
/m32 {mp x y w2 sub m w2 w d w neg 0 d cl s} def
/m33 {mp x y w2 add m w3 neg w2 neg d w3 w2 neg d w3 w2 d cl f} def
/m34 {mp x w2 sub y w2 sub w3 add m w3 0 d  0 w3 neg d w3 0 d 0 w3 d w3 0 d  0 w3 d w3 neg 0 d 0 w3 d w3 neg 0 d 0 w3 neg d w3 neg 0 d cl f } def
/m2 {mp x y w2 sub m 0 w d x w2 sub y m w 0 d s} def
/m5 {mp x w2 sub y w2 sub m w w d x w2 sub y w2 add m w w neg d s} def
/reEncode {exch findfont dup length dict begin {1 index /FID eq  {pop pop} {def} ifelse } forall /Encoding exch def currentdict end dup /FontName get exch definefont pop } def [/Times-Bold /Times-Italic /Times-BoldItalic /Helvetica /Helvetica-Oblique
 /Helvetica-Bold /Helvetica-BoldOblique /Courier /Courier-Oblique /Courier-Bold /Courier-BoldOblique /Times-Roman /AvantGarde-Book /AvantGarde-BookOblique /AvantGarde-Demi /AvantGarde-DemiOblique /Bookman-Demi /Bookman-DemiItalic /Bookman-Light
 /Bookman-LightItalic /Helvetica-Narrow /Helvetica-Narrow-Bold /Helvetica-Narrow-BoldOblique /Helvetica-Narrow-Oblique /NewCenturySchlbk-Roman /NewCenturySchlbk-Bold /NewCenturySchlbk-BoldItalic /NewCenturySchlbk-Italic /Palatino-Bold
 /Palatino-BoldItalic /Palatino-Italic /Palatino-Roman ] {ISOLatin1Encoding reEncode } forall
%%EndProlog
%%BeginSetup
%%EndSetup
newpath  gsave  .25 .25 scale  gsave  0 0 t black[  ] 0 sd 3 lw 1 1 1 c 2268 1701 0 0 bf black 1 1 1 c 1837 1344 317 238 bf black 1837 1344 317 238 bl 1 1 1 c 1837 1344 317 238 bf black 1837 1344 317 238 bl 317 238 m 1837 X s
 gsave  2268 1701 0 0 C 1984.25 54.8641 t 0 r /Times-Roman findfont 96.0122 sf 0 0 m ( [ps]) show NC gr 
 gsave  2268 1701 0 0 C 1956.82 32.0041 t 0 r /Times-Roman findfont 64.0081 sf 0 0 m (z) show NC gr 
 gsave  2268 1701 0 0 C 1929.39 54.8641 t 0 r /Times-Roman findfont 96.0122 sf 0 0 m (t) show NC gr  317 279 m -41 Y s 440 259 m -21 Y s 562 259 m -21 Y s 685 259 m -21 Y s 807 259 m -21 Y s 930 279 m -41 Y s 1052 259 m -21 Y s 1175 259 m -21 Y s
 1297 259 m -21 Y s 1420 259 m -21 Y s 1542 279 m -41 Y s 1665 259 m -21 Y s 1787 259 m -21 Y s 1909 259 m -21 Y s 2032 259 m -21 Y s 2154 279 m -41 Y s
 gsave  2268 1701 0 0 C 283.465 146.304 t 0 r /Times-Roman findfont 77.7242 sf 0 0 m (\2555) show NC gr 
 gsave  2268 1701 0 0 C 905.258 146.304 t 0 r /Times-Roman findfont 77.7242 sf 0 0 m (0) show NC gr 
 gsave  2268 1701 0 0 C 1522.48 146.304 t 0 r /Times-Roman findfont 77.7242 sf 0 0 m (5) show NC gr 
 gsave  2268 1701 0 0 C 2112.27 146.304 t 0 r /Times-Roman findfont 77.7242 sf 0 0 m (10) show NC gr  317 1582 m 1837 X s 317 1540 m 42 Y s 440 1561 m 21 Y s 562 1561 m 21 Y s 685 1561 m 21 Y s 807 1561 m 21 Y s 930 1540 m 42 Y s 1052 1561 m 21 Y s
 1175 1561 m 21 Y s 1297 1561 m 21 Y s 1420 1561 m 21 Y s 1542 1540 m 42 Y s 1665 1561 m 21 Y s 1787 1561 m 21 Y s 1909 1561 m 21 Y s 2032 1561 m 21 Y s 2154 1540 m 42 Y s 317 238 m 1344 Y s
 gsave  2268 1701 0 0 C 123.444 617.221 t 90 r /Times-Roman findfont 96.0122 sf 0 0 m (Candidates / \(Bin Width\)) show NC gr  344 238 m -27 X s 344 288 m -27 X s 344 324 m -27 X s 344 352 m -27 X s 344 375 m -27 X s 344 394 m -27 X s 344 410 m -27 X
 s 344 425 m -27 X s 371 438 m -54 X s
 gsave  2268 1701 0 0 C 297.071 405.055 t 0 r  -39 0 t /Times-Roman findfont 77.7242 sf 0 0 m (1) show NC gr  344 524 m -27 X s 344 574 m -27 X s 344 610 m -27 X s 344 638 m -27 X s 344 660 m -27 X s 344 680 m -27 X s 344 696 m -27 X s 344 711 m -27
 X s 371 724 m -54 X s
 gsave  2268 1701 0 0 C 297.071 690.995 t 0 r  -79 0 t /Times-Roman findfont 77.7242 sf 0 0 m (10) show NC gr  344 810 m -27 X s 344 860 m -27 X s 344 896 m -27 X s 344 924 m -27 X s 344 946 m -27 X s 344 966 m -27 X s 344 982 m -27 X s 344 997 m -27
 X s 371 1010 m -54 X s
 gsave  2268 1701 0 0 C 265.177 1005.84 t 0 r /Times-Roman findfont 54.8641 sf 0 0 m (2) show NC gr 
 gsave  2268 1701 0 0 C 187.452 973.838 t 0 r /Times-Roman findfont 77.7242 sf 0 0 m (10) show NC gr  344 1096 m -27 X s 344 1146 m -27 X s 344 1182 m -27 X s 344 1210 m -27 X s 344 1232 m -27 X s 344 1252 m -27 X s 344 1268 m -27 X s 344 1283 m -27
 X s 371 1296 m -54 X s
 gsave  2268 1701 0 0 C 265.177 1298.45 t 0 r /Times-Roman findfont 54.8641 sf 0 0 m (3) show NC gr 
 gsave  2268 1701 0 0 C 187.452 1261.87 t 0 r /Times-Roman findfont 77.7242 sf 0 0 m (10) show NC gr  344 1382 m -27 X s 344 1432 m -27 X s 344 1468 m -27 X s 344 1496 m -27 X s 344 1518 m -27 X s 344 1537 m -27 X s 344 1554 m -27 X s 344 1569 m -27
 X s 371 1582 m -54 X s
 gsave  2268 1701 0 0 C 265.177 1577.34 t 0 r /Times-Roman findfont 54.8641 sf 0 0 m (4) show NC gr 
 gsave  2268 1701 0 0 C 187.452 1545.34 t 0 r /Times-Roman findfont 77.7242 sf 0 0 m (10) show NC gr  2154 238 m 1344 Y s 2127 238 m 27 X s 2127 288 m 27 X s 2127 324 m 27 X s 2127 352 m 27 X s 2127 375 m 27 X s 2127 394 m 27 X s 2127 410 m 27 X s
 2127 425 m 27 X s 2101 438 m 53 X s 2127 524 m 27 X s 2127 574 m 27 X s 2127 610 m 27 X s 2127 638 m 27 X s 2127 660 m 27 X s 2127 680 m 27 X s 2127 696 m 27 X s 2127 711 m 27 X s 2101 724 m 53 X s 2127 810 m 27 X s 2127 860 m 27 X s 2127 896 m 27 X
 s 2127 924 m 27 X s 2127 946 m 27 X s 2127 966 m 27 X s 2127 982 m 27 X s 2127 997 m 27 X s 2101 1010 m 53 X s 2127 1096 m 27 X s 2127 1146 m 27 X s 2127 1182 m 27 X s 2127 1210 m 27 X s 2127 1232 m 27 X s 2127 1252 m 27 X s 2127 1268 m 27 X s 2127
 1283 m 27 X s 2101 1296 m 53 X s 2127 1382 m 27 X s 2127 1432 m 27 X s 2127 1468 m 27 X s 2127 1496 m 27 X s 2127 1518 m 27 X s 2127 1537 m 27 X s 2127 1554 m 27 X s 2127 1569 m 27 X s 2101 1582 m 53 X s 386 238 m -69 X s 317 238 m 9 Y s 386 238 m
 69 X s 455 238 m 9 Y s 386 238 m 125 Y s 377 363 m 19 X s 524 238 m -69 X s 455 238 m 9 Y s 524 238 m 69 X s 593 238 m 9 Y s 524 238 m 125 Y s 515 363 m 18 X s 662 346 m -69 X s 593 337 m 18 Y s 662 346 m 69 X s 731 337 m 18 Y s 662 346 m 148 Y s
 653 494 m 18 X s 662 346 m -108 Y s 653 238 m 18 X s 800 346 m -69 X s 731 337 m 18 Y s 800 346 m 69 X s 869 337 m 18 Y s 800 346 m 148 Y s 791 494 m 18 X s 800 346 m -108 Y s 791 238 m 18 X s 884 774 m -15 X s 869 765 m 18 Y s 884 774 m 15 X s 899
 765 m 18 Y s 884 774 m 54 Y s 875 828 m 18 X s 884 774 m -57 Y s 875 717 m 18 X s 914 1263 m -15 X s 899 1253 m 19 Y s 914 1263 m 16 X s 930 1253 m 19 Y s 914 1263 m 6 Y s 905 1269 m 19 X s 914 1263 m -7 Y s 905 1256 m 19 X s 936 1366 m -6 X s 930
 1357 m 18 Y s 936 1366 m 6 X s 942 1357 m 18 Y s 936 1366 m 7 Y s 927 1373 m 18 X s 936 1366 m -7 Y s 927 1359 m 18 X s 948 1177 m -6 X s 942 1168 m 19 Y s 948 1177 m 6 X s 954 1168 m 19 Y s 948 1177 m 16 Y s 939 1193 m 18 X s 948 1177 m -15 Y s 939
 1162 m 18 X s 960 1073 m -6 X s 954 1064 m 18 Y s 960 1073 m 7 X s 967 1064 m 18 Y s 960 1073 m 24 Y s 951 1097 m 19 X s 960 1073 m -25 Y s 951 1048 m 19 X s 973 1051 m -6 X s 967 1042 m 18 Y s 973 1051 m 6 X s 979 1042 m 18 Y s 973 1051 m 26 Y s
 963 1077 m 19 X s 973 1051 m -27 Y s 963 1024 m 19 X s 985 965 m -6 X s 979 956 m 18 Y s 985 965 m 6 X s 991 956 m 18 Y s 985 965 m 38 Y s 976 1003 m 18 X s 985 965 m -40 Y s 976 925 m 18 X s 997 869 m -6 X s 991 860 m 18 Y s 997 869 m 6 X s 1003
 860 m 18 Y s 997 869 m 58 Y s 988 927 m 18 X s 997 869 m -63 Y s 988 806 m 18 X s 1009 869 m -6 X s 1003 860 m 18 Y s 1009 869 m 6 X s 1015 860 m 18 Y s 1009 869 m 58 Y s 1000 927 m 19 X s 1009 869 m -63 Y s 1000 806 m 19 X s 1022 732 m -7 X s 1015
 723 m 19 Y s 1022 732 m 6 X s 1028 723 m 19 Y s 1022 732 m 105 Y s 1012 837 m 19 X s 1022 732 m -128 Y s 1012 604 m 19 X s 1034 732 m -6 X s 1028 723 m 19 Y s 1034 732 m 6 X s 1040 723 m 19 Y s 1034 732 m 105 Y s 1025 837 m 18 X s 1034 732 m -128 Y
 s 1025 604 m 18 X s 1046 646 m -6 X s 1040 637 m 19 Y s 1046 646 m 6 X s 1052 637 m 19 Y s 1046 646 m 149 Y s 1037 795 m 18 X s 1046 646 m -218 Y s 1037 428 m 18 X s 1068 732 m -16 X s 1052 723 m 19 Y s 1068 732 m 15 X s 1083 723 m 19 Y s 1068 732 m
 65 Y s 1058 797 m 19 X s 1068 732 m -70 Y s 1058 662 m 19 X s 1098 533 m -15 X s 1083 523 m 19 Y s 1098 533 m 15 X s 1113 523 m 19 Y s 1098 533 m 148 Y s 1089 681 m 18 X s 1098 533 m -218 Y s 1089 315 m 18 X s 1129 619 m -16 X s 1113 610 m 18 Y s
 1129 619 m 15 X s 1144 610 m 18 Y s 1129 619 m 104 Y s 1120 723 m 18 X s 1129 619 m -129 Y s 1120 490 m 18 X s 1159 533 m -15 X s 1144 523 m 19 Y s 1159 533 m 16 X s 1175 523 m 19 Y s 1159 533 m 148 Y s 1150 681 m 19 X s 1159 533 m -218 Y s 1150 315
 m 19 X s 1236 360 m -61 X s 1175 351 m 19 Y s 1236 360 m 61 X s 1297 351 m 19 Y s 1236 360 m 149 Y s 1227 509 m 18 X s 1236 360 m -122 Y s 1227 238 m 18 X s 1358 360 m -61 X s 1297 351 m 19 Y s 1358 360 m 62 X s 1420 351 m 19 Y s 1358 360 m 149 Y s
 1349 509 m 19 X s 1358 360 m -122 Y s 1349 238 m 19 X s 1481 238 m -61 X s 1420 238 m 9 Y s 1481 238 m 61 X s 1542 238 m 9 Y s 1481 238 m 140 Y s 1472 378 m 18 X s 1603 238 m -61 X s 1542 238 m 9 Y s 1603 238 m 62 X s 1665 238 m 9 Y s 1603 238 m 140
 Y s 1594 378 m 18 X s 1726 238 m -61 X s 1665 238 m 9 Y s 1726 238 m 61 X s 1787 238 m 9 Y s 1726 238 m 140 Y s 1717 378 m 18 X s 1848 238 m -61 X s 1787 238 m 9 Y s 1848 238 m 61 X s 1909 238 m 9 Y s 1848 238 m 140 Y s 1839 378 m 18 X s 1971 238 m
 -62 X s 1909 238 m 9 Y s 1971 238 m 61 X s 2032 238 m 9 Y s 1971 238 m 140 Y s 1962 378 m 18 X s 2093 238 m -61 X s 2032 238 m 9 Y s 2093 238 m 61 X s 2154 238 m 9 Y s 2093 238 m 140 Y s 2084 378 m 18 X s /w 37 def /w2 {w 2 div} def /w3 {w 3 div}
 def 662 346 800 346 884 774 914 1263 936 1366 948 1177 960 1073 973 1051 985 965 997 869 1009 869 1022 732 1034 732 1046 646 1068 732 1098 533 1129 619 1159 533 1236 360 1358 360 20 { m20} R 0 0.8 0 c 9 lw black 0 0 1 c black 3 lw 0 0 1 c 1 lw <<
 /PatternType 1 /PaintType 2 /TilingType 1 /BBox [ 0 0 100 100 ] /XStep 98 /YStep 4 /PaintProc { begin gsave [1] 0 sd 2 4 m 99 4 l s 1 3 m 98 3 l s 2 2 m 99 2 l s 1 1 m 98 1 l s gr end } >> [ 4.0 0 0 4.0 0 0 ] makepattern /P01 exch def /cs {[/Pattern
 /DeviceRGB] setcolorspace} def /FA {f [/DeviceRGB] setcolorspace} def cs 0 0 1 P01 setcolor 830 238 m 2 17 d 18 157 d 19 171 d 9 93 d 9 98 d 4 51 d 5 52 d 5 54 d 2 27 d 2 29 d 3 31 d 2 33 d 2 39 d 2 44 d 3 51 d 2 55 d 2 56 d 3 51 d 2 41 d 2 24 d 3 3
 d 2 -20 d 2 -37 d 2 -49 d 3 -55 d 2 -56 d 2 -52 d 3 -46 d 2 -40 d 2 -35 d 2 -31 d 3 -29 d 2 -28 d 2 -27 d 5 -52 d 5 -52 d 9 -100 d 18 -184 d 18 -165 d 15 -119 d FA 9 lw 1 0 0 c black 1 0 0 c 865 238 m 4 33 d s 869 271 m 18 183 d 9 99 d 5 51 d 4 53 d
 5 56 d 2 31 d 2 34 d 3 38 d 2 44 d 2 48 d 3 51 d 2 49 d 2 42 d 3 33 d 2 22 d 2 11 d 2 4 d 3 -2 d 2 -6 d 2 -7 d 3 -9 d 4 -20 d 2 -10 d 3 -11 d 2 -11 d 2 -11 d 3 -11 d 2 -11 d 2 -12 d 3 -11 d 2 -12 d 2 -11 d 2 -12 d 3 -12 d 4 -23 d 5 -24 d 5 -24 d 4
 -24 d 5 -24 d 4 -24 d 5 -24 d 4 -24 d 10 -48 d 9 -48 d 9 -49 d 9 -48 d 19 -97 d 18 -97 d 18 -97 d 6 -28 d s 1 1 0 c black 1 1 0 c 897 238 m 4 39 d s 901 277 m 4 52 d 5 55 d 2 30 d 2 33 d 3 36 d 2 42 d 2 46 d 3 49 d 2 47 d 2 43 d 3 35 d 2 24 d 2 16 d
 2 9 d 3 4 d 2 2 d 2 X 3 -1 d 2 -2 d 2 -2 d 5 -5 d 4 -5 d 10 -12 d 9 -11 d 9 -13 d 9 -12 d 9 -12 d 9 -13 d 10 -12 d 9 -13 d 9 -12 d 9 -13 d 9 -12 d 10 -13 d 9 -12 d 9 -13 d 9 -12 d 9 -13 d 19 -24 d 18 -25 d 18 -25 d 19 -25 d 18 -25 d 19 -25 d 18 -25
 d 18 -25 d 19 -25 d 18 -25 d 18 -25 d 19 -25 d 18 -25 d 18 -25 d s 0 1 0 c black 0 1 0 c 722 238 m 18 11 d s 740 249 m 18 12 d 19 11 d 18 12 d 18 11 d 19 12 d 18 11 d 19 11 d 18 11 d 9 5 d 5 3 d 4 1 d 5 2 d 4 X 3 -1 d 2 -3 d 2 -5 d 3 -8 d 2 -15 d 2
 -23 d 3 -32 d 1 -26 d s 0 0 1 c black 0 0 1 c 722 238 m 18 12 d s 740 250 m 18 12 d 19 13 d 18 18 d 18 28 d 19 53 d 18 94 d 19 139 d 9 86 d 9 95 d 4 49 d 5 51 d 5 53 d 2 27 d 2 29 d 3 30 d 2 33 d 2 38 d 2 44 d 3 50 d 2 54 d 2 56 d 3 51 d 2 41 d 2 25
 d 3 5 d 2 -16 d 2 -32 d 2 -41 d 3 -43 d 2 -40 d 2 -34 d 3 -28 d 2 -23 d 2 -20 d 2 -17 d 3 -16 d 2 -16 d 2 -14 d 5 -28 d 5 -26 d 4 -25 d 5 -23 d 9 -45 d 9 -41 d 9 -39 d 9 -35 d 19 -63 d 18 -52 d 19 -43 d 18 -36 d 18 -31 d 19 -29 d 18 -28 d 18 -26 d
 19 -25 d 18 -26 d 19 -25 d 18 -25 d 18 -25 d 19 -25 d 18 -25 d 18 -25 d 19 -25 d 18 -25 d 18 -25 d s black 3 lw 317 238 m 1837 X s 317 279 m -41 Y s 440 259 m -21 Y s 562 259 m -21 Y s 685 259 m -21 Y s 807 259 m -21 Y s 930 279 m -41 Y s 1052 259 m
 -21 Y s 1175 259 m -21 Y s 1297 259 m -21 Y s 1420 259 m -21 Y s 1542 279 m -41 Y s 1665 259 m -21 Y s 1787 259 m -21 Y s 1909 259 m -21 Y s 2032 259 m -21 Y s 2154 279 m -41 Y s 317 1582 m 1837 X s 317 1540 m 42 Y s 440 1561 m 21 Y s 562 1561 m 21
 Y s 685 1561 m 21 Y s 807 1561 m 21 Y s 930 1540 m 42 Y s 1052 1561 m 21 Y s 1175 1561 m 21 Y s 1297 1561 m 21 Y s 1420 1561 m 21 Y s 1542 1540 m 42 Y s 1665 1561 m 21 Y s 1787 1561 m 21 Y s 1909 1561 m 21 Y s 2032 1561 m 21 Y s 2154 1540 m 42 Y s
 317 238 m 1344 Y s 344 238 m -27 X s 344 288 m -27 X s 344 324 m -27 X s 344 352 m -27 X s 344 375 m -27 X s 344 394 m -27 X s 344 410 m -27 X s 344 425 m -27 X s 371 438 m -54 X s 344 524 m -27 X s 344 574 m -27 X s 344 610 m -27 X s 344 638 m -27
 X s 344 660 m -27 X s 344 680 m -27 X s 344 696 m -27 X s 344 711 m -27 X s 371 724 m -54 X s 344 810 m -27 X s 344 860 m -27 X s 344 896 m -27 X s 344 924 m -27 X s 344 946 m -27 X s 344 966 m -27 X s 344 982 m -27 X s 344 997 m -27 X s 371 1010 m
 -54 X s 344 1096 m -27 X s 344 1146 m -27 X s 344 1182 m -27 X s 344 1210 m -27 X s 344 1232 m -27 X s 344 1252 m -27 X s 344 1268 m -27 X s 344 1283 m -27 X s 371 1296 m -54 X s 344 1382 m -27 X s 344 1432 m -27 X s 344 1468 m -27 X s 344 1496 m
 -27 X s 344 1518 m -27 X s 344 1537 m -27 X s 344 1554 m -27 X s 344 1569 m -27 X s 371 1582 m -54 X s 2154 238 m 1344 Y s 2127 238 m 27 X s 2127 288 m 27 X s 2127 324 m 27 X s 2127 352 m 27 X s 2127 375 m 27 X s 2127 394 m 27 X s 2127 410 m 27 X s
 2127 425 m 27 X s 2101 438 m 53 X s 2127 524 m 27 X s 2127 574 m 27 X s 2127 610 m 27 X s 2127 638 m 27 X s 2127 660 m 27 X s 2127 680 m 27 X s 2127 696 m 27 X s 2127 711 m 27 X s 2101 724 m 53 X s 2127 810 m 27 X s 2127 860 m 27 X s 2127 896 m 27 X
 s 2127 924 m 27 X s 2127 946 m 27 X s 2127 966 m 27 X s 2127 982 m 27 X s 2127 997 m 27 X s 2101 1010 m 53 X s 2127 1096 m 27 X s 2127 1146 m 27 X s 2127 1182 m 27 X s 2127 1210 m 27 X s 2127 1232 m 27 X s 2127 1252 m 27 X s 2127 1268 m 27 X s 2127
 1283 m 27 X s 2101 1296 m 53 X s 2127 1382 m 27 X s 2127 1432 m 27 X s 2127 1468 m 27 X s 2127 1496 m 27 X s 2127 1518 m 27 X s 2127 1537 m 27 X s 2127 1554 m 27 X s 2127 1569 m 27 X s 2101 1582 m 53 X s
 gsave  2268 1701 0 0 C 1810.52 1161.29 t 0 r /Times-Roman findfont 59.4361 sf 0 0 m ( = 5 TeV) show NC gr 
 gsave  2268 1701 0 0 C 1755.65 1143 t 0 r /Times-Roman findfont 36.5761 sf 0 0 m (NN) show NC gr 
 gsave  2268 1701 0 0 C 1732.79 1161.29 t 0 r /Times-Roman findfont 59.4361 sf 0 0 m (s) show NC gr  6 lw 1710 1189 m 9 -51 d s 0 lw 1719 1138 m 9 69 d s 1728 1207 m 83 X s
 gsave  2268 1701 0 0 C 1449.33 1161.29 t 0 r /Times-Roman findfont 59.4361 sf 0 0 m (pPb\(Fwd\) ) show NC gr 
 gsave  2268 1701 0 0 C 1449.33 1243.59 t 0 r /Times-Roman findfont 73.1521 sf 0 0 m (Preliminary) show NC gr 
 gsave  2268 1701 0 0 C 1449.33 1316.74 t 0 r /Times-Roman findfont 73.1521 sf 0 0 m (LHCb) show NC gr 
 gsave  2268 1701 0 0 C 1778.51 937.262 t 0 r /Times-Roman findfont 73.1521 sf 0 0 m (2.5) show NC gr 
 gsave  2268 1701 0 0 C 1737.36 937.262 t 0 r /Symbol findfont 73.1521 sf 0 0 m (-) show NC gr 
 gsave  2268 1701 0 0 C 1490.47 937.262 t 0 r /Times-Roman findfont 73.1521 sf 0 0 m (5.0< y <) show NC gr 
 gsave  2268 1701 0 0 C 1449.33 937.262 t 0 r /Symbol findfont 73.1521 sf 0 0 m (-) show NC gr 
 gsave  2268 1701 0 0 C 1513.34 850.394 t 0 r /Times-Roman findfont 73.1521 sf 0 0 m ( < 14 GeV/c) show NC gr 
 gsave  2268 1701 0 0 C 1485.9 813.818 t 0 r /Times-Roman findfont 45.7201 sf 0 0 m (T) show NC gr 
 gsave  2268 1701 0 0 C 1449.33 850.394 t 0 r /Times-Roman findfont 73.1521 sf 0 0 m (p) show NC gr 
 gr  gr showpage
end
%%EOF
