%!PS-Adobe-2.0 EPSF-2.0
%%BoundingBox:  0 0 567 425
%%Title: result/TzFit/Aptz_c03.eps: 
%%Creator: ROOT Version 5.34/18
%%CreationDate: Tue Sep 15 04:05:30 2015
%%EndComments
%%BeginProlog
80 dict begin
/s {stroke} def /l {lineto} def /m {moveto} def /t {translate} def
/r {rotate} def /rl {roll}  def /R {repeat} def
/d {rlineto} def /rm {rmoveto} def /gr {grestore} def /f {eofill} def
/c {setrgbcolor} def /black {0 setgray} def /sd {setdash} def
/cl {closepath} def /sf {scalefont setfont} def /lw {setlinewidth} def
/box {m dup 0 exch d exch 0 d 0 exch neg d cl} def
/NC{systemdict begin initclip end}def/C{NC box clip newpath}def
/bl {box s} def /bf {box f} def /Y { 0 exch d} def /X { 0 d} def 
/K {{pop pop 0 moveto} exch kshow} bind def
/ita {/ang 15 def gsave [1 0 ang dup sin exch cos div 1 0 0] concat} def 
/mp {newpath /y exch def /x exch def} def
/side {[w .77 mul w .23 mul] .385 w mul sd w 0 l currentpoint t -144 r} def
/mr {mp x y w2 0 360 arc} def /m24 {mr s} def /m20 {mr f} def
/mb {mp x y w2 add m w2 neg 0 d 0 w neg d w 0 d 0 w d cl} def
/mt {mp x y w2 add m w2 neg w neg d w 0 d cl} def
/m21 {mb f} def /m25 {mb s} def /m22 {mt f} def /m26{mt s} def
/m23 {mp x y w2 sub m w2 w d w neg 0 d cl f} def
/m27 {mp x y w2 add m w3 neg w2 neg d w3 w2 neg d w3 w2 d cl s} def
/m28 {mp x w2 sub y w2 sub w3 add m w3 0 d  0 w3 neg d w3 0 d 0 w3 d w3 0 d  0 w3 d w3 neg 0 d 0 w3 d w3 neg 0 d 0 w3 neg d w3 neg 0 d cl s } def
/m29 {mp gsave x w2 sub y w2 add w3 sub m currentpoint t 4 {side} repeat cl fill gr} def
/m30 {mp gsave x w2 sub y w2 add w3 sub m currentpoint t 4 {side} repeat cl s gr} def
/m31 {mp x y w2 sub m 0 w d x w2 sub y m w 0 d x w2 sub y w2 add m w w neg d x w2 sub y w2 sub m w w d s} def
/m32 {mp x y w2 sub m w2 w d w neg 0 d cl s} def
/m33 {mp x y w2 add m w3 neg w2 neg d w3 w2 neg d w3 w2 d cl f} def
/m34 {mp x w2 sub y w2 sub w3 add m w3 0 d  0 w3 neg d w3 0 d 0 w3 d w3 0 d  0 w3 d w3 neg 0 d 0 w3 d w3 neg 0 d 0 w3 neg d w3 neg 0 d cl f } def
/m2 {mp x y w2 sub m 0 w d x w2 sub y m w 0 d s} def
/m5 {mp x w2 sub y w2 sub m w w d x w2 sub y w2 add m w w neg d s} def
/reEncode {exch findfont dup length dict begin {1 index /FID eq  {pop pop} {def} ifelse } forall /Encoding exch def currentdict end dup /FontName get exch definefont pop } def [/Times-Bold /Times-Italic /Times-BoldItalic /Helvetica /Helvetica-Oblique
 /Helvetica-Bold /Helvetica-BoldOblique /Courier /Courier-Oblique /Courier-Bold /Courier-BoldOblique /Times-Roman /AvantGarde-Book /AvantGarde-BookOblique /AvantGarde-Demi /AvantGarde-DemiOblique /Bookman-Demi /Bookman-DemiItalic /Bookman-Light
 /Bookman-LightItalic /Helvetica-Narrow /Helvetica-Narrow-Bold /Helvetica-Narrow-BoldOblique /Helvetica-Narrow-Oblique /NewCenturySchlbk-Roman /NewCenturySchlbk-Bold /NewCenturySchlbk-BoldItalic /NewCenturySchlbk-Italic /Palatino-Bold
 /Palatino-BoldItalic /Palatino-Italic /Palatino-Roman ] {ISOLatin1Encoding reEncode } forall
%%EndProlog
%%BeginSetup
%%EndSetup
newpath  gsave  .25 .25 scale  gsave  0 0 t black[  ] 0 sd 3 lw 1 1 1 c 2268 1701 0 0 bf black 1 1 1 c 1837 1344 317 238 bf black 1837 1344 317 238 bl 1 1 1 c 1837 1344 317 238 bf black 1837 1344 317 238 bl 317 238 m 1837 X s
 gsave  2268 1701 0 0 C 2125.98 50.2921 t 0 r /Times-Roman findfont 96.0122 sf 0 0 m (]) show NC gr 
 gsave  2268 1701 0 0 C 2093.98 91.4402 t 0 r /Times-Roman findfont 64.0081 sf 0 0 m (2) show NC gr 
 gsave  2268 1701 0 0 C 1773.94 50.2921 t 0 r /Times-Roman findfont 96.0122 sf 0 0 m ( [MeV/c) show NC gr 
 gsave  2268 1701 0 0 C 1737.36 32.0041 t 0 r /Symbol findfont 64.0081 sf 0 0 m (m) show NC gr 
 gsave  2268 1701 0 0 C 1700.79 32.0041 t 0 r /Symbol findfont 64.0081 sf 0 0 m (m) show NC gr 
 gsave  2268 1701 0 0 C 1623.06 50.2921 t 0 r /Times-Roman findfont 96.0122 sf 0 0 m (m) show NC gr  698 279 m -41 Y s 824 259 m -21 Y s 951 259 m -21 Y s 1078 259 m -21 Y s 1204 259 m -21 Y s 1331 279 m -41 Y s 1458 259 m -21 Y s 1584 259 m -21 Y s
 1711 259 m -21 Y s 1838 259 m -21 Y s 1964 279 m -41 Y s 698 279 m -41 Y s 571 259 m -21 Y s 444 259 m -21 Y s 317 259 m -21 Y s 1964 279 m -41 Y s 2091 259 m -21 Y s
 gsave  2268 1701 0 0 C 617.221 146.304 t 0 r /Times-Roman findfont 77.7242 sf 0 0 m (3600) show NC gr 
 gsave  2268 1701 0 0 C 1252.73 146.304 t 0 r /Times-Roman findfont 77.7242 sf 0 0 m (3700) show NC gr 
 gsave  2268 1701 0 0 C 1883.67 146.304 t 0 r /Times-Roman findfont 77.7242 sf 0 0 m (3800) show NC gr  317 1582 m 1837 X s 698 1540 m 42 Y s 824 1561 m 21 Y s 951 1561 m 21 Y s 1078 1561 m 21 Y s 1204 1561 m 21 Y s 1331 1540 m 42 Y s 1458 1561 m 21
 Y s 1584 1561 m 21 Y s 1711 1561 m 21 Y s 1838 1561 m 21 Y s 1964 1540 m 42 Y s 698 1540 m 42 Y s 571 1561 m 21 Y s 444 1561 m 21 Y s 317 1561 m 21 Y s 1964 1540 m 42 Y s 2091 1561 m 21 Y s 317 238 m 1344 Y s
 gsave  2268 1701 0 0 C 91.4402 1554.48 t 90 r /Times-Roman findfont 96.0122 sf 0 0 m (\)) show NC gr 
 gsave  2268 1701 0 0 C 50.2921 1522.48 t 90 r /Times-Roman findfont 64.0081 sf 0 0 m (2) show NC gr 
 gsave  2268 1701 0 0 C 91.4402 603.505 t 90 r /Times-Roman findfont 96.0122 sf 0 0 m (Candidates / \(10 MeV/c) show NC gr  371 238 m -54 X s 344 284 m -27 X s 344 329 m -27 X s 344 375 m -27 X s 344 420 m -27 X s 371 466 m -54 X s 344 511 m -27 X s
 344 557 m -27 X s 344 602 m -27 X s 344 648 m -27 X s 371 693 m -54 X s 344 739 m -27 X s 344 785 m -27 X s 344 830 m -27 X s 344 876 m -27 X s 371 921 m -54 X s 344 967 m -27 X s 344 1012 m -27 X s 344 1058 m -27 X s 344 1103 m -27 X s 371 1149 m
 -54 X s 344 1194 m -27 X s 344 1240 m -27 X s 344 1285 m -27 X s 344 1331 m -27 X s 371 1376 m -54 X s 371 1376 m -54 X s 344 1422 m -27 X s 344 1468 m -27 X s 344 1513 m -27 X s 344 1559 m -27 X s
 gsave  2268 1701 0 0 C 260.605 214.884 t 0 r /Times-Roman findfont 77.7242 sf 0 0 m (0) show NC gr 
 gsave  2268 1701 0 0 C 224.028 438.913 t 0 r /Times-Roman findfont 77.7242 sf 0 0 m (50) show NC gr 
 gsave  2268 1701 0 0 C 182.88 667.513 t 0 r /Times-Roman findfont 77.7242 sf 0 0 m (100) show NC gr 
 gsave  2268 1701 0 0 C 182.88 896.114 t 0 r /Times-Roman findfont 77.7242 sf 0 0 m (150) show NC gr 
 gsave  2268 1701 0 0 C 182.88 1124.71 t 0 r /Times-Roman findfont 77.7242 sf 0 0 m (200) show NC gr 
 gsave  2268 1701 0 0 C 182.88 1353.31 t 0 r /Times-Roman findfont 77.7242 sf 0 0 m (250) show NC gr  2154 238 m 1344 Y s 2101 238 m 53 X s 2127 284 m 27 X s 2127 329 m 27 X s 2127 375 m 27 X s 2127 420 m 27 X s 2101 466 m 53 X s 2127 511 m 27 X s
 2127 557 m 27 X s 2127 602 m 27 X s 2127 648 m 27 X s 2101 693 m 53 X s 2127 739 m 27 X s 2127 785 m 27 X s 2127 830 m 27 X s 2127 876 m 27 X s 2101 921 m 53 X s 2127 967 m 27 X s 2127 1012 m 27 X s 2127 1058 m 27 X s 2127 1103 m 27 X s 2101 1149 m
 53 X s 2127 1194 m 27 X s 2127 1240 m 27 X s 2127 1285 m 27 X s 2127 1331 m 27 X s 2101 1376 m 53 X s 2101 1376 m 53 X s 2127 1422 m 27 X s 2127 1468 m 27 X s 2127 1513 m 27 X s 2127 1559 m 27 X s 409 1158 m -92 X s 317 1149 m 18 Y s 409 1158 m 92 X
 s 501 1149 m 18 Y s 409 1158 m 67 Y s 400 1225 m 18 X s 409 1158 m -63 Y s 400 1095 m 18 X s 593 1090 m -92 X s 501 1080 m 19 Y s 593 1090 m 92 X s 685 1080 m 19 Y s 593 1090 m 64 Y s 584 1154 m 18 X s 593 1090 m -60 Y s 584 1030 m 18 X s 777 1231 m
 -92 X s 685 1222 m 18 Y s 777 1231 m 92 X s 869 1222 m 18 Y s 777 1231 m 69 Y s 768 1300 m 18 X s 777 1231 m -65 Y s 768 1166 m 18 X s 960 1094 m -91 X s 869 1085 m 18 Y s 960 1094 m 92 X s 1052 1085 m 18 Y s 960 1094 m 65 Y s 951 1159 m 19 X s 960
 1094 m -60 Y s 951 1034 m 19 X s 1144 1272 m -92 X s 1052 1263 m 18 Y s 1144 1272 m 92 X s 1236 1263 m 18 Y s 1144 1272 m 71 Y s 1135 1343 m 18 X s 1144 1272 m -67 Y s 1135 1205 m 18 X s 1328 1354 m -92 X s 1236 1345 m 18 Y s 1328 1354 m 92 X s 1420
 1345 m 18 Y s 1328 1354 m 73 Y s 1319 1427 m 18 X s 1328 1354 m -69 Y s 1319 1285 m 18 X s 1511 1099 m -91 X s 1420 1090 m 18 Y s 1511 1099 m 92 X s 1603 1090 m 18 Y s 1511 1099 m 65 Y s 1502 1164 m 19 X s 1511 1099 m -61 Y s 1502 1038 m 19 X s 1695
 1008 m -92 X s 1603 999 m 18 Y s 1695 1008 m 92 X s 1787 999 m 18 Y s 1695 1008 m 61 Y s 1686 1069 m 18 X s 1695 1008 m -57 Y s 1686 951 m 18 X s 1879 1008 m -92 X s 1787 999 m 18 Y s 1879 1008 m 92 X s 1971 999 m 18 Y s 1879 1008 m 61 Y s 1870 1069
 m 18 X s 1879 1008 m -57 Y s 1870 951 m 18 X s 2062 1062 m -91 X s 1971 1053 m 18 Y s 2062 1062 m 92 X s 2154 1053 m 18 Y s 2062 1062 m 64 Y s 2053 1126 m 19 X s 2062 1062 m -59 Y s 2053 1003 m 19 X s /w 37 def /w2 {w 2 div} def /w3 {w 3 div} def
 409 1158 593 1090 777 1231 960 1094 1144 1272 1328 1354 1511 1099 1695 1008 1879 1008 2062 1062 10 { m20} R 0 0 1 c[ 12 12] 0 sd 9 lw black 0 0 1 c 317 238 m cl s 317 238 m 625 X 18 1 d 19 1 d 18 1 d 18 4 d 10 2 d 9 4 d 9 4 d 9 7 d 9 7 d 10 10 d 9
 11 d 9 15 d 9 16 d 9 20 d 10 22 d 9 25 d 9 27 d 9 29 d 18 61 d 10 31 d 9 29 d 9 28 d 9 24 d 9 20 d 5 8 d 5 6 d 4 6 d 5 4 d 4 2 d 5 1 d 4 -1 d 5 -2 d 5 -4 d 4 -5 d 5 -7 d 4 -8 d 5 -9 d 5 -11 d 4 -11 d 5 -13 d 9 -27 d 18 -60 d 10 -32 d 9 -30 d 9 -29 d
 9 -27 d 9 -25 d 9 -22 d 10 -20 d 9 -17 d 9 -14 d 9 -12 d 9 -9 d 10 -8 d 9 -6 d 9 -4 d 18 -6 d 19 -4 d 18 -1 d 18 -1 d 19 -1 d 624 X s 0 0.8 0 c black 0 0.8 0 c 317 1166 m cl s 317 1166 m 19 -2 d 18 -1 d 19 -2 d 18 -1 d 18 -2 d 19 -1 d 18 -2 d 18 -1
 d 19 -2 d 18 -1 d 19 -2 d 18 -1 d 18 -2 d 19 -1 d 18 -2 d 18 -1 d 19 -2 d 18 -1 d 18 -2 d 19 -1 d 18 -2 d 19 -1 d 18 -2 d 18 -1 d 19 -2 d 18 -1 d 18 -2 d 19 -1 d 18 -2 d 19 -1 d 18 -2 d 18 -1 d 19 -1 d 18 -2 d 18 -1 d 19 -2 d 18 -1 d 18 -2 d 19 -1 d
 18 -2 d 19 -1 d 18 -1 d 18 -2 d 19 -1 d 18 -2 d 18 -1 d 19 -2 d 18 -1 d 19 -1 d 18 -2 d 18 -1 d 19 -2 d 18 -1 d 18 -1 d 19 -2 d 18 -1 d 18 -2 d 19 -1 d 18 -1 d 19 -2 d 18 -1 d 18 -2 d 19 -1 d 18 -1 d 18 -2 d 19 -1 d 18 -1 d 19 -2 d 18 -1 d 18 -2 d
 19 -1 d 18 -1 d 18 -2 d 19 -1 d 18 -1 d 18 -2 d 19 -1 d 18 -1 d 19 -2 d 18 -1 d 18 -1 d 19 -2 d 18 -1 d 18 -1 d 19 -2 d 18 -1 d 19 -1 d 18 -2 d 18 -1 d 19 -1 d 18 -2 d 18 -1 d 19 -1 d 18 -2 d 18 -1 d 19 -1 d 18 -2 d 19 -1 d 18 -1 d 18 -2 d s 1 0 0
 c[  ] 0 sd black 1 0 0 c 317 1166 m cl s 317 1166 m 19 -2 d 18 -1 d 19 -2 d 18 -1 d 18 -2 d 19 -1 d 18 -2 d 18 -1 d 19 -2 d 18 -1 d 19 -2 d 18 -1 d 18 -2 d 19 -1 d 18 -2 d 18 -1 d 19 -2 d 18 -1 d 18 -2 d 19 -1 d 18 -2 d 19 -1 d 18 -2 d 18 -1 d 19 -2
 d 18 -1 d 18 -2 d 19 -1 d 18 -2 d 19 -1 d 18 -2 d 18 -1 d 19 -1 d 18 -2 d 18 -1 d 37 X 18 2 d 10 2 d 9 3 d 9 3 d 9 6 d 9 7 d 10 9 d 9 10 d 9 14 d 9 16 d 9 19 d 10 21 d 9 24 d 9 27 d 9 28 d 18 60 d 10 30 d 9 29 d 9 27 d 9 23 d 9 19 d 5 8 d 5 6 d 4 5
 d 5 3 d 4 2 d 5 1 d 4 -1 d 5 -3 d 5 -4 d 4 -6 d 5 -7 d 4 -8 d 5 -10 d 5 -10 d 4 -12 d 5 -13 d 9 -28 d 18 -62 d 10 -32 d 9 -31 d 9 -30 d 9 -27 d 9 -26 d 9 -23 d 10 -20 d 9 -18 d 9 -15 d 9 -12 d 9 -10 d 10 -9 d 9 -6 d 9 -6 d 18 -7 d 19 -5 d 18 -3 d 18
 -2 d 19 -2 d 18 -1 d 19 -2 d 18 -1 d 18 -2 d 19 -1 d 18 -1 d 18 -2 d 19 -1 d 18 -1 d 18 -2 d 19 -1 d 18 -1 d 19 -2 d 18 -1 d 18 -1 d 19 -2 d 18 -1 d 18 -1 d 19 -2 d 18 -1 d 19 -1 d 18 -2 d 18 -1 d 19 -1 d 18 -2 d 18 -1 d 19 -1 d 18 -2 d 18 -1 d 19
 -1 d 18 -2 d 19 -1 d 18 -1 d 18 -2 d s black 3 lw 317 238 m 1837 X s 698 279 m -41 Y s 824 259 m -21 Y s 951 259 m -21 Y s 1078 259 m -21 Y s 1204 259 m -21 Y s 1331 279 m -41 Y s 1458 259 m -21 Y s 1584 259 m -21 Y s 1711 259 m -21 Y s 1838 259 m
 -21 Y s 1964 279 m -41 Y s 698 279 m -41 Y s 571 259 m -21 Y s 444 259 m -21 Y s 317 259 m -21 Y s 1964 279 m -41 Y s 2091 259 m -21 Y s 317 1582 m 1837 X s 698 1540 m 42 Y s 824 1561 m 21 Y s 951 1561 m 21 Y s 1078 1561 m 21 Y s 1204 1561 m 21 Y s
 1331 1540 m 42 Y s 1458 1561 m 21 Y s 1584 1561 m 21 Y s 1711 1561 m 21 Y s 1838 1561 m 21 Y s 1964 1540 m 42 Y s 698 1540 m 42 Y s 571 1561 m 21 Y s 444 1561 m 21 Y s 317 1561 m 21 Y s 1964 1540 m 42 Y s 2091 1561 m 21 Y s 317 238 m 1344 Y s 371
 238 m -54 X s 344 284 m -27 X s 344 329 m -27 X s 344 375 m -27 X s 344 420 m -27 X s 371 466 m -54 X s 344 511 m -27 X s 344 557 m -27 X s 344 602 m -27 X s 344 648 m -27 X s 371 693 m -54 X s 344 739 m -27 X s 344 785 m -27 X s 344 830 m -27 X s
 344 876 m -27 X s 371 921 m -54 X s 344 967 m -27 X s 344 1012 m -27 X s 344 1058 m -27 X s 344 1103 m -27 X s 371 1149 m -54 X s 344 1194 m -27 X s 344 1240 m -27 X s 344 1285 m -27 X s 344 1331 m -27 X s 371 1376 m -54 X s 371 1376 m -54 X s 344
 1422 m -27 X s 344 1468 m -27 X s 344 1513 m -27 X s 344 1559 m -27 X s 2154 238 m 1344 Y s 2101 238 m 53 X s 2127 284 m 27 X s 2127 329 m 27 X s 2127 375 m 27 X s 2127 420 m 27 X s 2101 466 m 53 X s 2127 511 m 27 X s 2127 557 m 27 X s 2127 602 m 27
 X s 2127 648 m 27 X s 2101 693 m 53 X s 2127 739 m 27 X s 2127 785 m 27 X s 2127 830 m 27 X s 2127 876 m 27 X s 2101 921 m 53 X s 2127 967 m 27 X s 2127 1012 m 27 X s 2127 1058 m 27 X s 2127 1103 m 27 X s 2101 1149 m 53 X s 2127 1194 m 27 X s 2127
 1240 m 27 X s 2127 1285 m 27 X s 2127 1331 m 27 X s 2101 1376 m 53 X s 2101 1376 m 53 X s 2127 1422 m 27 X s 2127 1468 m 27 X s 2127 1513 m 27 X s 2127 1559 m 27 X s
 gsave  2268 1701 0 0 C 859.538 393.193 t 0 r /Times-Roman findfont 59.4361 sf 0 0 m ( = 5 TeV) show NC gr 
 gsave  2268 1701 0 0 C 804.674 374.905 t 0 r /Times-Roman findfont 36.5761 sf 0 0 m (NN) show NC gr 
 gsave  2268 1701 0 0 C 781.814 393.193 t 0 r /Times-Roman findfont 59.4361 sf 0 0 m (s) show NC gr  6 lw 759 421 m 9 -51 d s 0 lw 768 370 m 9 69 d s 777 439 m 83 X s
 gsave  2268 1701 0 0 C 498.349 393.193 t 0 r /Times-Roman findfont 59.4361 sf 0 0 m (pPb\(Fwd\) ) show NC gr 
 gsave  2268 1701 0 0 C 498.349 475.489 t 0 r /Times-Roman findfont 73.1521 sf 0 0 m (Preliminary) show NC gr 
 gsave  2268 1701 0 0 C 498.349 548.641 t 0 r /Times-Roman findfont 73.1521 sf 0 0 m (LHCb) show NC gr 
 gsave  2268 1701 0 0 C 1778.51 512.065 t 0 r /Times-Roman findfont 73.1521 sf 0 0 m (2.5) show NC gr 
 gsave  2268 1701 0 0 C 1737.36 512.065 t 0 r /Symbol findfont 73.1521 sf 0 0 m (-) show NC gr 
 gsave  2268 1701 0 0 C 1490.47 512.065 t 0 r /Times-Roman findfont 73.1521 sf 0 0 m (5.0< y <) show NC gr 
 gsave  2268 1701 0 0 C 1449.33 512.065 t 0 r /Symbol findfont 73.1521 sf 0 0 m (-) show NC gr 
 gsave  2268 1701 0 0 C 1513.34 425.197 t 0 r /Times-Roman findfont 73.1521 sf 0 0 m ( < 14 GeV/c) show NC gr 
 gsave  2268 1701 0 0 C 1485.9 388.621 t 0 r /Times-Roman findfont 45.7201 sf 0 0 m (T) show NC gr 
 gsave  2268 1701 0 0 C 1449.33 425.197 t 0 r /Times-Roman findfont 73.1521 sf 0 0 m (p) show NC gr 
 gr  gr showpage
end
%%EOF
