%!PS-Adobe-2.0 EPSF-2.0
%%BoundingBox:  0 0 567 425
%%Title: result/TzFit/Aptz_c13.eps: 
%%Creator: ROOT Version 5.34/18
%%CreationDate: Tue Sep 15 04:05:30 2015
%%EndComments
%%BeginProlog
80 dict begin
/s {stroke} def /l {lineto} def /m {moveto} def /t {translate} def
/r {rotate} def /rl {roll}  def /R {repeat} def
/d {rlineto} def /rm {rmoveto} def /gr {grestore} def /f {eofill} def
/c {setrgbcolor} def /black {0 setgray} def /sd {setdash} def
/cl {closepath} def /sf {scalefont setfont} def /lw {setlinewidth} def
/box {m dup 0 exch d exch 0 d 0 exch neg d cl} def
/NC{systemdict begin initclip end}def/C{NC box clip newpath}def
/bl {box s} def /bf {box f} def /Y { 0 exch d} def /X { 0 d} def 
/K {{pop pop 0 moveto} exch kshow} bind def
/ita {/ang 15 def gsave [1 0 ang dup sin exch cos div 1 0 0] concat} def 
/mp {newpath /y exch def /x exch def} def
/side {[w .77 mul w .23 mul] .385 w mul sd w 0 l currentpoint t -144 r} def
/mr {mp x y w2 0 360 arc} def /m24 {mr s} def /m20 {mr f} def
/mb {mp x y w2 add m w2 neg 0 d 0 w neg d w 0 d 0 w d cl} def
/mt {mp x y w2 add m w2 neg w neg d w 0 d cl} def
/m21 {mb f} def /m25 {mb s} def /m22 {mt f} def /m26{mt s} def
/m23 {mp x y w2 sub m w2 w d w neg 0 d cl f} def
/m27 {mp x y w2 add m w3 neg w2 neg d w3 w2 neg d w3 w2 d cl s} def
/m28 {mp x w2 sub y w2 sub w3 add m w3 0 d  0 w3 neg d w3 0 d 0 w3 d w3 0 d  0 w3 d w3 neg 0 d 0 w3 d w3 neg 0 d 0 w3 neg d w3 neg 0 d cl s } def
/m29 {mp gsave x w2 sub y w2 add w3 sub m currentpoint t 4 {side} repeat cl fill gr} def
/m30 {mp gsave x w2 sub y w2 add w3 sub m currentpoint t 4 {side} repeat cl s gr} def
/m31 {mp x y w2 sub m 0 w d x w2 sub y m w 0 d x w2 sub y w2 add m w w neg d x w2 sub y w2 sub m w w d s} def
/m32 {mp x y w2 sub m w2 w d w neg 0 d cl s} def
/m33 {mp x y w2 add m w3 neg w2 neg d w3 w2 neg d w3 w2 d cl f} def
/m34 {mp x w2 sub y w2 sub w3 add m w3 0 d  0 w3 neg d w3 0 d 0 w3 d w3 0 d  0 w3 d w3 neg 0 d 0 w3 d w3 neg 0 d 0 w3 neg d w3 neg 0 d cl f } def
/m2 {mp x y w2 sub m 0 w d x w2 sub y m w 0 d s} def
/m5 {mp x w2 sub y w2 sub m w w d x w2 sub y w2 add m w w neg d s} def
/reEncode {exch findfont dup length dict begin {1 index /FID eq  {pop pop} {def} ifelse } forall /Encoding exch def currentdict end dup /FontName get exch definefont pop } def [/Times-Bold /Times-Italic /Times-BoldItalic /Helvetica /Helvetica-Oblique
 /Helvetica-Bold /Helvetica-BoldOblique /Courier /Courier-Oblique /Courier-Bold /Courier-BoldOblique /Times-Roman /AvantGarde-Book /AvantGarde-BookOblique /AvantGarde-Demi /AvantGarde-DemiOblique /Bookman-Demi /Bookman-DemiItalic /Bookman-Light
 /Bookman-LightItalic /Helvetica-Narrow /Helvetica-Narrow-Bold /Helvetica-Narrow-BoldOblique /Helvetica-Narrow-Oblique /NewCenturySchlbk-Roman /NewCenturySchlbk-Bold /NewCenturySchlbk-BoldItalic /NewCenturySchlbk-Italic /Palatino-Bold
 /Palatino-BoldItalic /Palatino-Italic /Palatino-Roman ] {ISOLatin1Encoding reEncode } forall
%%EndProlog
%%BeginSetup
%%EndSetup
newpath  gsave  .25 .25 scale  gsave  0 0 t black[  ] 0 sd 3 lw 1 1 1 c 2268 1701 0 0 bf black 1 1 1 c 1837 1344 317 238 bf black 1837 1344 317 238 bl 1 1 1 c 1837 1344 317 238 bf black 1837 1344 317 238 bl 317 238 m 1837 X s
 gsave  2268 1701 0 0 C 1984.25 54.8641 t 0 r /Times-Roman findfont 96.0122 sf 0 0 m ( [ps]) show NC gr 
 gsave  2268 1701 0 0 C 1956.82 32.0041 t 0 r /Times-Roman findfont 64.0081 sf 0 0 m (z) show NC gr 
 gsave  2268 1701 0 0 C 1929.39 54.8641 t 0 r /Times-Roman findfont 96.0122 sf 0 0 m (t) show NC gr  317 279 m -41 Y s 440 259 m -21 Y s 562 259 m -21 Y s 685 259 m -21 Y s 807 259 m -21 Y s 930 279 m -41 Y s 1052 259 m -21 Y s 1175 259 m -21 Y s
 1297 259 m -21 Y s 1420 259 m -21 Y s 1542 279 m -41 Y s 1665 259 m -21 Y s 1787 259 m -21 Y s 1909 259 m -21 Y s 2032 259 m -21 Y s 2154 279 m -41 Y s
 gsave  2268 1701 0 0 C 283.465 146.304 t 0 r /Times-Roman findfont 77.7242 sf 0 0 m (\2555) show NC gr 
 gsave  2268 1701 0 0 C 905.258 146.304 t 0 r /Times-Roman findfont 77.7242 sf 0 0 m (0) show NC gr 
 gsave  2268 1701 0 0 C 1522.48 146.304 t 0 r /Times-Roman findfont 77.7242 sf 0 0 m (5) show NC gr 
 gsave  2268 1701 0 0 C 2112.27 146.304 t 0 r /Times-Roman findfont 77.7242 sf 0 0 m (10) show NC gr  317 1582 m 1837 X s 317 1540 m 42 Y s 440 1561 m 21 Y s 562 1561 m 21 Y s 685 1561 m 21 Y s 807 1561 m 21 Y s 930 1540 m 42 Y s 1052 1561 m 21 Y s
 1175 1561 m 21 Y s 1297 1561 m 21 Y s 1420 1561 m 21 Y s 1542 1540 m 42 Y s 1665 1561 m 21 Y s 1787 1561 m 21 Y s 1909 1561 m 21 Y s 2032 1561 m 21 Y s 2154 1540 m 42 Y s 317 238 m 1344 Y s
 gsave  2268 1701 0 0 C 123.444 617.221 t 90 r /Times-Roman findfont 96.0122 sf 0 0 m (Candidates / \(Bin Width\)) show NC gr  344 238 m -27 X s 344 285 m -27 X s 344 319 m -27 X s 344 345 m -27 X s 344 366 m -27 X s 344 384 m -27 X s 344 400 m -27 X
 s 344 414 m -27 X s 371 426 m -54 X s
 gsave  2268 1701 0 0 C 297.071 393.022 t 0 r  -39 0 t /Times-Roman findfont 77.7242 sf 0 0 m (1) show NC gr  344 507 m -27 X s 344 554 m -27 X s 344 588 m -27 X s 344 614 m -27 X s 344 635 m -27 X s 344 653 m -27 X s 344 669 m -27 X s 344 682 m -27
 X s 371 695 m -54 X s
 gsave  2268 1701 0 0 C 297.071 661.747 t 0 r  -79 0 t /Times-Roman findfont 77.7242 sf 0 0 m (10) show NC gr  344 776 m -27 X s 344 823 m -27 X s 344 856 m -27 X s 344 882 m -27 X s 344 904 m -27 X s 344 922 m -27 X s 344 937 m -27 X s 344 951 m -27
 X s 371 963 m -54 X s
 gsave  2268 1701 0 0 C 265.177 960.122 t 0 r /Times-Roman findfont 54.8641 sf 0 0 m (2) show NC gr 
 gsave  2268 1701 0 0 C 187.452 928.118 t 0 r /Times-Roman findfont 77.7242 sf 0 0 m (10) show NC gr  344 1044 m -27 X s 344 1092 m -27 X s 344 1125 m -27 X s 344 1151 m -27 X s 344 1172 m -27 X s 344 1190 m -27 X s 344 1206 m -27 X s 344 1220 m -27
 X s 371 1232 m -54 X s
 gsave  2268 1701 0 0 C 265.177 1234.44 t 0 r /Times-Roman findfont 54.8641 sf 0 0 m (3) show NC gr 
 gsave  2268 1701 0 0 C 187.452 1197.87 t 0 r /Times-Roman findfont 77.7242 sf 0 0 m (10) show NC gr  344 1313 m -27 X s 344 1360 m -27 X s 344 1394 m -27 X s 344 1420 m -27 X s 344 1441 m -27 X s 344 1459 m -27 X s 344 1475 m -27 X s 344 1489 m -27
 X s 371 1501 m -54 X s
 gsave  2268 1701 0 0 C 265.177 1499.62 t 0 r /Times-Roman findfont 54.8641 sf 0 0 m (4) show NC gr 
 gsave  2268 1701 0 0 C 187.452 1467.61 t 0 r /Times-Roman findfont 77.7242 sf 0 0 m (10) show NC gr  344 1582 m -27 X s 2154 238 m 1344 Y s 2127 238 m 27 X s 2127 285 m 27 X s 2127 319 m 27 X s 2127 345 m 27 X s 2127 366 m 27 X s 2127 384 m 27 X s
 2127 400 m 27 X s 2127 414 m 27 X s 2101 426 m 53 X s 2127 507 m 27 X s 2127 554 m 27 X s 2127 588 m 27 X s 2127 614 m 27 X s 2127 635 m 27 X s 2127 653 m 27 X s 2127 669 m 27 X s 2127 682 m 27 X s 2101 695 m 53 X s 2127 776 m 27 X s 2127 823 m 27 X
 s 2127 856 m 27 X s 2127 882 m 27 X s 2127 904 m 27 X s 2127 922 m 27 X s 2127 937 m 27 X s 2127 951 m 27 X s 2101 963 m 53 X s 2127 1044 m 27 X s 2127 1092 m 27 X s 2127 1125 m 27 X s 2127 1151 m 27 X s 2127 1172 m 27 X s 2127 1190 m 27 X s 2127
 1206 m 27 X s 2127 1220 m 27 X s 2101 1232 m 53 X s 2127 1313 m 27 X s 2127 1360 m 27 X s 2127 1394 m 27 X s 2127 1420 m 27 X s 2127 1441 m 27 X s 2127 1459 m 27 X s 2127 1475 m 27 X s 2127 1489 m 27 X s 2101 1501 m 53 X s 2127 1582 m 27 X s 386 238
 m -69 X s 317 238 m 9 Y s 386 238 m 69 X s 455 238 m 9 Y s 386 238 m 117 Y s 377 355 m 19 X s 524 238 m -69 X s 455 238 m 9 Y s 524 238 m 69 X s 593 238 m 9 Y s 524 238 m 117 Y s 515 355 m 18 X s 662 339 m -69 X s 593 330 m 18 Y s 662 339 m 69 X s
 731 330 m 18 Y s 662 339 m 140 Y s 653 479 m 18 X s 662 339 m -101 Y s 653 238 m 18 X s 800 468 m -69 X s 731 458 m 19 Y s 800 468 m 69 X s 869 458 m 19 Y s 800 468 m 79 Y s 791 547 m 18 X s 800 468 m -92 Y s 791 376 m 18 X s 884 814 m -15 X s 869
 805 m 18 Y s 884 814 m 15 X s 899 805 m 18 Y s 884 814 m 36 Y s 875 850 m 18 X s 884 814 m -37 Y s 875 777 m 18 X s 914 1295 m -15 X s 899 1286 m 18 Y s 914 1295 m 16 X s 930 1286 m 18 Y s 914 1295 m 4 Y s 905 1299 m 19 X s 914 1295 m -4 Y s 905
 1291 m 19 X s 936 1397 m -6 X s 930 1388 m 18 Y s 936 1397 m 6 X s 942 1388 m 18 Y s 936 1397 m 4 Y s 927 1401 m 18 X s 936 1397 m -4 Y s 927 1393 m 18 X s 948 1222 m -6 X s 942 1213 m 18 Y s 948 1222 m 6 X s 954 1213 m 18 Y s 948 1222 m 9 Y s 939
 1231 m 18 X s 948 1222 m -9 Y s 939 1213 m 18 X s 960 1127 m -6 X s 954 1118 m 18 Y s 960 1127 m 7 X s 967 1118 m 18 Y s 960 1127 m 14 Y s 951 1141 m 19 X s 960 1127 m -14 Y s 951 1113 m 19 X s 973 1063 m -6 X s 967 1054 m 19 Y s 973 1063 m 6 X s
 979 1054 m 19 Y s 973 1063 m 19 Y s 963 1082 m 19 X s 973 1063 m -19 Y s 963 1044 m 19 X s 985 988 m -6 X s 979 979 m 18 Y s 985 988 m 6 X s 991 979 m 18 Y s 985 988 m 26 Y s 976 1014 m 18 X s 985 988 m -27 Y s 976 961 m 18 X s 997 930 m -6 X s 991
 921 m 18 Y s 997 930 m 6 X s 1003 921 m 18 Y s 997 930 m 34 Y s 988 964 m 18 X s 997 930 m -36 Y s 988 894 m 18 X s 1009 921 m -6 X s 1003 912 m 18 Y s 1009 921 m 6 X s 1015 912 m 18 Y s 1009 921 m 36 Y s 1000 957 m 19 X s 1009 921 m -37 Y s 1000
 884 m 19 X s 1022 865 m -7 X s 1015 855 m 19 Y s 1022 865 m 6 X s 1028 855 m 19 Y s 1022 865 m 46 Y s 1012 911 m 19 X s 1022 865 m -50 Y s 1012 815 m 19 X s 1034 865 m -6 X s 1028 855 m 19 Y s 1034 865 m 6 X s 1040 855 m 19 Y s 1034 865 m 46 Y s
 1025 911 m 18 X s 1034 865 m -50 Y s 1025 815 m 18 X s 1046 622 m -6 X s 1040 613 m 18 Y s 1046 622 m 6 X s 1052 613 m 18 Y s 1046 622 m 139 Y s 1037 761 m 18 X s 1046 622 m -205 Y s 1037 417 m 18 X s 1068 784 m -16 X s 1052 774 m 19 Y s 1068 784 m
 15 X s 1083 774 m 19 Y s 1068 784 m 41 Y s 1058 825 m 19 X s 1068 784 m -44 Y s 1058 740 m 19 X s 1098 643 m -15 X s 1083 634 m 18 Y s 1098 643 m 15 X s 1113 634 m 18 Y s 1098 643 m 79 Y s 1089 722 m 18 X s 1098 643 m -92 Y s 1089 551 m 18 X s 1129
 703 m -16 X s 1113 694 m 18 Y s 1129 703 m 15 X s 1144 694 m 18 Y s 1129 703 m 60 Y s 1120 763 m 18 X s 1129 703 m -66 Y s 1120 637 m 18 X s 1159 643 m -15 X s 1144 634 m 18 Y s 1159 643 m 16 X s 1175 634 m 18 Y s 1159 643 m 79 Y s 1150 722 m 19 X s
 1159 643 m -92 Y s 1150 551 m 19 X s 1236 596 m -61 X s 1175 587 m 18 Y s 1236 596 m 61 X s 1297 587 m 18 Y s 1236 596 m 47 Y s 1227 643 m 18 X s 1236 596 m -50 Y s 1227 546 m 18 X s 1358 353 m -61 X s 1297 344 m 18 Y s 1358 353 m 62 X s 1420 344 m
 18 Y s 1358 353 m 139 Y s 1349 492 m 19 X s 1358 353 m -115 Y s 1349 238 m 19 X s 1481 353 m -61 X s 1420 344 m 18 Y s 1481 353 m 61 X s 1542 344 m 18 Y s 1481 353 m 139 Y s 1472 492 m 18 X s 1481 353 m -115 Y s 1472 238 m 18 X s 1603 238 m -61 X s
 1542 238 m 9 Y s 1603 238 m 62 X s 1665 238 m 9 Y s 1603 238 m 131 Y s 1594 369 m 18 X s 1726 238 m -61 X s 1665 238 m 9 Y s 1726 238 m 61 X s 1787 238 m 9 Y s 1726 238 m 131 Y s 1717 369 m 18 X s 1848 238 m -61 X s 1787 238 m 9 Y s 1848 238 m 61 X
 s 1909 238 m 9 Y s 1848 238 m 131 Y s 1839 369 m 18 X s 1971 238 m -62 X s 1909 238 m 9 Y s 1971 238 m 61 X s 2032 238 m 9 Y s 1971 238 m 131 Y s 1962 369 m 18 X s 2093 238 m -61 X s 2032 238 m 9 Y s 2093 238 m 61 X s 2154 238 m 9 Y s 2093 238 m 131
 Y s 2084 369 m 18 X s /w 37 def /w2 {w 2 div} def /w3 {w 3 div} def 662 339 800 468 884 814 914 1295 936 1397 948 1222 960 1127 973 1063 985 988 997 930 1009 921 1022 865 1034 865 1046 622 1068 784 1098 643 1129 703 1159 643 1236 596 1358 353 1481
 353 21 { m20} R 0 0 1 c 9 lw 0 0.8 0 c black 0 0.8 0 c 1417 262 m s 1417 262 m -24 -24 d s 1391 295 m s 1391 295 m -56 -57 d s 1366 327 m s 1366 327 m -89 -89 d s 1341 359 m s 1341 359 m -122 -121 d s 1315 392 m s 1315 392 m -153 -154 d s 1290 424 m
 s 1290 424 m -186 -186 d s 1265 457 m -1 Y s 1265 456 m -219 -218 d s 1240 489 m -1 X s 1239 489 m -250 -251 d s 1214 521 m s 1214 521 m -283 -283 d s 1189 554 m s 1189 554 m -316 -316 d s 1164 587 m -349 -349 d s 1139 620 m -381 -382 d s 1115 654 m
 -415 -416 d s 1093 689 m -278 -278 d s 750 346 m -108 -108 d s 1072 726 m -233 -233 d s 608 262 m -24 -24 d s 1054 766 m -201 -202 d s 1038 807 m -176 -176 d s 1024 851 m -153 -153 d s 1011 895 m -133 -132 d s 999 941 m -114 -114 d s 988 988 m -97
 -97 d s 977 1035 m -79 -80 d s 968 1083 m -65 -64 d s 959 1132 m -51 -50 d s 951 1182 m -38 -39 d s 946 1234 m -30 -30 d s 942 1288 m -23 -23 d s 938 1342 m -17 -17 d s 935 1397 m -11 -11 d s 0 0 1 c black 3 lw 0 0 1 c 1 lw << /PatternType 1
 /PaintType 2 /TilingType 1 /BBox [ 0 0 101 101 ] /XStep 100 /YStep 100 /PaintProc { begin gsave 0 0 m 0 30 l 30 0 l f 0 70 m 0 100 l 30 100 l f 70 100 m 100 100 l 100 70 l f 70 0 m 100 0 l 100 30 l f 50 20 m 20 50 l 50 80 l 80 50 l f 50 80 m 30 100
 l s 20 50 m 0 30 l s 50 20 m 70 0 l s 80 50 m 100 70 l s gr end } >> [ 0.24 0 0 0.24 0 0 ] makepattern /P08 exch def /cs {[/Pattern /DeviceRGB] setcolorspace} def /FA {f [/DeviceRGB] setcolorspace} def cs 0 0 1 P08 setcolor 893 238 m 3 72 d 5 108 d
 2 55 d 2 57 d 3 60 d 2 61 d 2 65 d 2 66 d 3 68 d 2 66 d 2 61 d 3 54 d 2 41 d 2 25 d 3 3 d 2 -18 d 2 -37 d 2 -50 d 3 -59 d 2 -65 d 2 -68 d 3 -67 d 2 -65 d 2 -62 d 2 -60 d 3 -58 d 4 -111 d 7 -142 d FA 9 lw black 915 238 m 2 42 d s 917 280 m 2 66 d 2
 65 d 3 61 d 2 56 d 2 48 d 3 36 d 2 26 d 2 17 d 2 9 d 3 5 d 2 2 d 5 X 2 -2 d 2 -1 d 9 -7 d 10 -8 d 9 -8 d 9 -8 d 9 -7 d 9 -8 d 9 -8 d 10 -8 d 9 -7 d 9 -8 d 9 -8 d 19 -15 d 18 -16 d 18 -15 d 19 -16 d 18 -15 d 18 -16 d 19 -15 d 18 -16 d 19 -15 d 18 -16
 d 18 -15 d 19 -16 d 18 -15 d 18 -16 d 19 -15 d 18 -16 d 18 -15 d 19 -16 d 18 -15 d 19 -16 d 18 -15 d 18 -16 d 5 -4 d s 1 0 0 c black 1 0 0 c 568 238 m 7 4 d s 575 242 m 18 11 d 18 11 d 19 11 d 18 10 d 18 11 d 19 11 d 18 11 d 19 11 d 18 11 d 18 11 d
 19 13 d 18 16 d 18 27 d 19 50 d 18 88 d 19 131 d 9 80 d 9 89 d 4 47 d 5 49 d 5 49 d 2 26 d 2 27 d 3 29 d 2 32 d 2 36 d 2 42 d 3 48 d 2 52 d 2 52 d 3 49 d 2 38 d 2 24 d 3 4 d 2 -15 d 2 -30 d 2 -39 d 3 -41 d 2 -38 d 2 -33 d 3 -27 d 2 -22 d 2 -19 d 2
 -16 d 3 -15 d 2 -14 d 2 -14 d 5 -25 d 5 -24 d 4 -23 d 5 -22 d 9 -41 d 9 -37 d 18 -65 d 19 -54 d 18 -44 d 19 -35 d 18 -31 d 18 -26 d 19 -24 d 18 -23 d 18 -22 d 19 -21 d 18 -21 d 19 -21 d 18 -21 d 18 -21 d 19 -20 d 18 -20 d 18 -20 d 19 -20 d 18 -20 d
 18 -20 d 19 -19 d 18 -20 d 19 -19 d 18 -19 d 18 -19 d 19 -19 d 18 -19 d 18 -19 d 15 -14 d s black 3 lw 317 238 m 1837 X s 317 279 m -41 Y s 440 259 m -21 Y s 562 259 m -21 Y s 685 259 m -21 Y s 807 259 m -21 Y s 930 279 m -41 Y s 1052 259 m -21 Y s
 1175 259 m -21 Y s 1297 259 m -21 Y s 1420 259 m -21 Y s 1542 279 m -41 Y s 1665 259 m -21 Y s 1787 259 m -21 Y s 1909 259 m -21 Y s 2032 259 m -21 Y s 2154 279 m -41 Y s 317 1582 m 1837 X s 317 1540 m 42 Y s 440 1561 m 21 Y s 562 1561 m 21 Y s 685
 1561 m 21 Y s 807 1561 m 21 Y s 930 1540 m 42 Y s 1052 1561 m 21 Y s 1175 1561 m 21 Y s 1297 1561 m 21 Y s 1420 1561 m 21 Y s 1542 1540 m 42 Y s 1665 1561 m 21 Y s 1787 1561 m 21 Y s 1909 1561 m 21 Y s 2032 1561 m 21 Y s 2154 1540 m 42 Y s 317 238 m
 1344 Y s 344 238 m -27 X s 344 285 m -27 X s 344 319 m -27 X s 344 345 m -27 X s 344 366 m -27 X s 344 384 m -27 X s 344 400 m -27 X s 344 414 m -27 X s 371 426 m -54 X s 344 507 m -27 X s 344 554 m -27 X s 344 588 m -27 X s 344 614 m -27 X s 344
 635 m -27 X s 344 653 m -27 X s 344 669 m -27 X s 344 682 m -27 X s 371 695 m -54 X s 344 776 m -27 X s 344 823 m -27 X s 344 856 m -27 X s 344 882 m -27 X s 344 904 m -27 X s 344 922 m -27 X s 344 937 m -27 X s 344 951 m -27 X s 371 963 m -54 X s
 344 1044 m -27 X s 344 1092 m -27 X s 344 1125 m -27 X s 344 1151 m -27 X s 344 1172 m -27 X s 344 1190 m -27 X s 344 1206 m -27 X s 344 1220 m -27 X s 371 1232 m -54 X s 344 1313 m -27 X s 344 1360 m -27 X s 344 1394 m -27 X s 344 1420 m -27 X s
 344 1441 m -27 X s 344 1459 m -27 X s 344 1475 m -27 X s 344 1489 m -27 X s 371 1501 m -54 X s 344 1582 m -27 X s 2154 238 m 1344 Y s 2127 238 m 27 X s 2127 285 m 27 X s 2127 319 m 27 X s 2127 345 m 27 X s 2127 366 m 27 X s 2127 384 m 27 X s 2127
 400 m 27 X s 2127 414 m 27 X s 2101 426 m 53 X s 2127 507 m 27 X s 2127 554 m 27 X s 2127 588 m 27 X s 2127 614 m 27 X s 2127 635 m 27 X s 2127 653 m 27 X s 2127 669 m 27 X s 2127 682 m 27 X s 2101 695 m 53 X s 2127 776 m 27 X s 2127 823 m 27 X s
 2127 856 m 27 X s 2127 882 m 27 X s 2127 904 m 27 X s 2127 922 m 27 X s 2127 937 m 27 X s 2127 951 m 27 X s 2101 963 m 53 X s 2127 1044 m 27 X s 2127 1092 m 27 X s 2127 1125 m 27 X s 2127 1151 m 27 X s 2127 1172 m 27 X s 2127 1190 m 27 X s 2127 1206
 m 27 X s 2127 1220 m 27 X s 2101 1232 m 53 X s 2127 1313 m 27 X s 2127 1360 m 27 X s 2127 1394 m 27 X s 2127 1420 m 27 X s 2127 1441 m 27 X s 2127 1459 m 27 X s 2127 1475 m 27 X s 2127 1489 m 27 X s 2101 1501 m 53 X s 2127 1582 m 27 X s
 gsave  2268 1701 0 0 C 1810.52 1161.29 t 0 r /Times-Roman findfont 59.4361 sf 0 0 m ( = 5 TeV) show NC gr 
 gsave  2268 1701 0 0 C 1755.65 1143 t 0 r /Times-Roman findfont 36.5761 sf 0 0 m (NN) show NC gr 
 gsave  2268 1701 0 0 C 1732.79 1161.29 t 0 r /Times-Roman findfont 59.4361 sf 0 0 m (s) show NC gr  6 lw 1710 1189 m 9 -51 d s 0 lw 1719 1138 m 9 69 d s 1728 1207 m 83 X s
 gsave  2268 1701 0 0 C 1449.33 1161.29 t 0 r /Times-Roman findfont 59.4361 sf 0 0 m (pPb\(Fwd\) ) show NC gr 
 gsave  2268 1701 0 0 C 1449.33 1243.59 t 0 r /Times-Roman findfont 73.1521 sf 0 0 m (Preliminary) show NC gr 
 gsave  2268 1701 0 0 C 1449.33 1316.74 t 0 r /Times-Roman findfont 73.1521 sf 0 0 m (LHCb) show NC gr 
 gsave  2268 1701 0 0 C 1778.51 937.262 t 0 r /Times-Roman findfont 73.1521 sf 0 0 m (2.5) show NC gr 
 gsave  2268 1701 0 0 C 1737.36 937.262 t 0 r /Symbol findfont 73.1521 sf 0 0 m (-) show NC gr 
 gsave  2268 1701 0 0 C 1490.47 937.262 t 0 r /Times-Roman findfont 73.1521 sf 0 0 m (5.0< y <) show NC gr 
 gsave  2268 1701 0 0 C 1449.33 937.262 t 0 r /Symbol findfont 73.1521 sf 0 0 m (-) show NC gr 
 gsave  2268 1701 0 0 C 1513.34 850.394 t 0 r /Times-Roman findfont 73.1521 sf 0 0 m ( < 14 GeV/c) show NC gr 
 gsave  2268 1701 0 0 C 1485.9 813.818 t 0 r /Times-Roman findfont 45.7201 sf 0 0 m (T) show NC gr 
 gsave  2268 1701 0 0 C 1449.33 850.394 t 0 r /Times-Roman findfont 73.1521 sf 0 0 m (p) show NC gr 
 gr  gr showpage
end
%%EOF
