%!PS-Adobe-2.0 EPSF-2.0
%%BoundingBox:  0 0 567 425
%%Title: result/TzFit/pACtz_c03.eps: 
%%Creator: ROOT Version 5.34/18
%%CreationDate: Sun Sep 13 00:48:28 2015
%%EndComments
%%BeginProlog
80 dict begin
/s {stroke} def /l {lineto} def /m {moveto} def /t {translate} def
/r {rotate} def /rl {roll}  def /R {repeat} def
/d {rlineto} def /rm {rmoveto} def /gr {grestore} def /f {eofill} def
/c {setrgbcolor} def /black {0 setgray} def /sd {setdash} def
/cl {closepath} def /sf {scalefont setfont} def /lw {setlinewidth} def
/box {m dup 0 exch d exch 0 d 0 exch neg d cl} def
/NC{systemdict begin initclip end}def/C{NC box clip newpath}def
/bl {box s} def /bf {box f} def /Y { 0 exch d} def /X { 0 d} def 
/K {{pop pop 0 moveto} exch kshow} bind def
/ita {/ang 15 def gsave [1 0 ang dup sin exch cos div 1 0 0] concat} def 
/mp {newpath /y exch def /x exch def} def
/side {[w .77 mul w .23 mul] .385 w mul sd w 0 l currentpoint t -144 r} def
/mr {mp x y w2 0 360 arc} def /m24 {mr s} def /m20 {mr f} def
/mb {mp x y w2 add m w2 neg 0 d 0 w neg d w 0 d 0 w d cl} def
/mt {mp x y w2 add m w2 neg w neg d w 0 d cl} def
/m21 {mb f} def /m25 {mb s} def /m22 {mt f} def /m26{mt s} def
/m23 {mp x y w2 sub m w2 w d w neg 0 d cl f} def
/m27 {mp x y w2 add m w3 neg w2 neg d w3 w2 neg d w3 w2 d cl s} def
/m28 {mp x w2 sub y w2 sub w3 add m w3 0 d  0 w3 neg d w3 0 d 0 w3 d w3 0 d  0 w3 d w3 neg 0 d 0 w3 d w3 neg 0 d 0 w3 neg d w3 neg 0 d cl s } def
/m29 {mp gsave x w2 sub y w2 add w3 sub m currentpoint t 4 {side} repeat cl fill gr} def
/m30 {mp gsave x w2 sub y w2 add w3 sub m currentpoint t 4 {side} repeat cl s gr} def
/m31 {mp x y w2 sub m 0 w d x w2 sub y m w 0 d x w2 sub y w2 add m w w neg d x w2 sub y w2 sub m w w d s} def
/m32 {mp x y w2 sub m w2 w d w neg 0 d cl s} def
/m33 {mp x y w2 add m w3 neg w2 neg d w3 w2 neg d w3 w2 d cl f} def
/m34 {mp x w2 sub y w2 sub w3 add m w3 0 d  0 w3 neg d w3 0 d 0 w3 d w3 0 d  0 w3 d w3 neg 0 d 0 w3 d w3 neg 0 d 0 w3 neg d w3 neg 0 d cl f } def
/m2 {mp x y w2 sub m 0 w d x w2 sub y m w 0 d s} def
/m5 {mp x w2 sub y w2 sub m w w d x w2 sub y w2 add m w w neg d s} def
/reEncode {exch findfont dup length dict begin {1 index /FID eq  {pop pop} {def} ifelse } forall /Encoding exch def currentdict end dup /FontName get exch definefont pop } def [/Times-Bold /Times-Italic /Times-BoldItalic /Helvetica /Helvetica-Oblique
 /Helvetica-Bold /Helvetica-BoldOblique /Courier /Courier-Oblique /Courier-Bold /Courier-BoldOblique /Times-Roman /AvantGarde-Book /AvantGarde-BookOblique /AvantGarde-Demi /AvantGarde-DemiOblique /Bookman-Demi /Bookman-DemiItalic /Bookman-Light
 /Bookman-LightItalic /Helvetica-Narrow /Helvetica-Narrow-Bold /Helvetica-Narrow-BoldOblique /Helvetica-Narrow-Oblique /NewCenturySchlbk-Roman /NewCenturySchlbk-Bold /NewCenturySchlbk-BoldItalic /NewCenturySchlbk-Italic /Palatino-Bold
 /Palatino-BoldItalic /Palatino-Italic /Palatino-Roman ] {ISOLatin1Encoding reEncode } forall
%%EndProlog
%%BeginSetup
%%EndSetup
newpath  gsave  .25 .25 scale  gsave  0 0 t black[  ] 0 sd 3 lw 1 1 1 c 2268 1701 0 0 bf black 1 1 1 c 1837 1344 317 238 bf black 1837 1344 317 238 bl 1 1 1 c 1837 1344 317 238 bf black 1837 1344 317 238 bl 317 238 m 1837 X s
 gsave  2268 1701 0 0 C 2125.98 50.2921 t 0 r /Times-Roman findfont 96.0122 sf 0 0 m (]) show NC gr 
 gsave  2268 1701 0 0 C 2093.98 91.4402 t 0 r /Times-Roman findfont 64.0081 sf 0 0 m (2) show NC gr 
 gsave  2268 1701 0 0 C 1773.94 50.2921 t 0 r /Times-Roman findfont 96.0122 sf 0 0 m ( [MeV/c) show NC gr 
 gsave  2268 1701 0 0 C 1737.36 32.0041 t 0 r /Symbol findfont 64.0081 sf 0 0 m (m) show NC gr 
 gsave  2268 1701 0 0 C 1700.79 32.0041 t 0 r /Symbol findfont 64.0081 sf 0 0 m (m) show NC gr 
 gsave  2268 1701 0 0 C 1623.06 50.2921 t 0 r /Times-Roman findfont 96.0122 sf 0 0 m (m) show NC gr  698 279 m -41 Y s 824 259 m -21 Y s 951 259 m -21 Y s 1078 259 m -21 Y s 1204 259 m -21 Y s 1331 279 m -41 Y s 1458 259 m -21 Y s 1584 259 m -21 Y s
 1711 259 m -21 Y s 1838 259 m -21 Y s 1964 279 m -41 Y s 698 279 m -41 Y s 571 259 m -21 Y s 444 259 m -21 Y s 317 259 m -21 Y s 1964 279 m -41 Y s 2091 259 m -21 Y s
 gsave  2268 1701 0 0 C 617.221 146.304 t 0 r /Times-Roman findfont 77.7242 sf 0 0 m (3600) show NC gr 
 gsave  2268 1701 0 0 C 1252.73 146.304 t 0 r /Times-Roman findfont 77.7242 sf 0 0 m (3700) show NC gr 
 gsave  2268 1701 0 0 C 1883.67 146.304 t 0 r /Times-Roman findfont 77.7242 sf 0 0 m (3800) show NC gr  317 1582 m 1837 X s 698 1540 m 42 Y s 824 1561 m 21 Y s 951 1561 m 21 Y s 1078 1561 m 21 Y s 1204 1561 m 21 Y s 1331 1540 m 42 Y s 1458 1561 m 21
 Y s 1584 1561 m 21 Y s 1711 1561 m 21 Y s 1838 1561 m 21 Y s 1964 1540 m 42 Y s 698 1540 m 42 Y s 571 1561 m 21 Y s 444 1561 m 21 Y s 317 1561 m 21 Y s 1964 1540 m 42 Y s 2091 1561 m 21 Y s 317 238 m 1344 Y s
 gsave  2268 1701 0 0 C 91.4402 1554.48 t 90 r /Times-Roman findfont 96.0122 sf 0 0 m (\)) show NC gr 
 gsave  2268 1701 0 0 C 50.2921 1522.48 t 90 r /Times-Roman findfont 64.0081 sf 0 0 m (2) show NC gr 
 gsave  2268 1701 0 0 C 91.4402 603.505 t 90 r /Times-Roman findfont 96.0122 sf 0 0 m (Candidates / \(10 MeV/c) show NC gr  371 238 m -54 X s 344 283 m -27 X s 344 328 m -27 X s 344 373 m -27 X s 344 418 m -27 X s 371 464 m -54 X s 344 509 m -27 X s
 344 554 m -27 X s 344 599 m -27 X s 344 644 m -27 X s 371 689 m -54 X s 344 734 m -27 X s 344 779 m -27 X s 344 824 m -27 X s 344 869 m -27 X s 371 914 m -54 X s 344 959 m -27 X s 344 1005 m -27 X s 344 1050 m -27 X s 344 1095 m -27 X s 371 1140 m
 -54 X s 344 1185 m -27 X s 344 1230 m -27 X s 344 1275 m -27 X s 344 1320 m -27 X s 371 1365 m -54 X s 371 1365 m -54 X s 344 1410 m -27 X s 344 1455 m -27 X s 344 1500 m -27 X s 344 1546 m -27 X s
 gsave  2268 1701 0 0 C 260.605 214.884 t 0 r /Times-Roman findfont 77.7242 sf 0 0 m (0) show NC gr 
 gsave  2268 1701 0 0 C 182.88 438.913 t 0 r /Times-Roman findfont 77.7242 sf 0 0 m (100) show NC gr 
 gsave  2268 1701 0 0 C 182.88 662.941 t 0 r /Times-Roman findfont 77.7242 sf 0 0 m (200) show NC gr 
 gsave  2268 1701 0 0 C 182.88 886.97 t 0 r /Times-Roman findfont 77.7242 sf 0 0 m (300) show NC gr 
 gsave  2268 1701 0 0 C 182.88 1115.57 t 0 r /Times-Roman findfont 77.7242 sf 0 0 m (400) show NC gr 
 gsave  2268 1701 0 0 C 182.88 1339.6 t 0 r /Times-Roman findfont 77.7242 sf 0 0 m (500) show NC gr  2154 238 m 1344 Y s 2101 238 m 53 X s 2127 283 m 27 X s 2127 328 m 27 X s 2127 373 m 27 X s 2127 418 m 27 X s 2101 464 m 53 X s 2127 509 m 27 X s
 2127 554 m 27 X s 2127 599 m 27 X s 2127 644 m 27 X s 2101 689 m 53 X s 2127 734 m 27 X s 2127 779 m 27 X s 2127 824 m 27 X s 2127 869 m 27 X s 2101 914 m 53 X s 2127 959 m 27 X s 2127 1005 m 27 X s 2127 1050 m 27 X s 2127 1095 m 27 X s 2101 1140 m
 53 X s 2127 1185 m 27 X s 2127 1230 m 27 X s 2127 1275 m 27 X s 2127 1320 m 27 X s 2101 1365 m 53 X s 2101 1365 m 53 X s 2127 1410 m 27 X s 2127 1455 m 27 X s 2127 1500 m 27 X s 2127 1546 m 27 X s 409 675 m -92 X s 317 666 m 19 Y s 409 675 m 92 X s
 501 666 m 19 Y s 409 675 m 33 Y s 400 708 m 18 X s 409 675 m -30 Y s 400 645 m 18 X s 593 766 m -92 X s 501 756 m 19 Y s 593 766 m 92 X s 685 756 m 19 Y s 593 766 m 35 Y s 584 801 m 18 X s 593 766 m -34 Y s 584 732 m 18 X s 777 745 m -92 X s 685 736
 m 18 Y s 777 745 m 92 X s 869 736 m 18 Y s 777 745 m 35 Y s 768 780 m 18 X s 777 745 m -32 Y s 768 713 m 18 X s 960 763 m -91 X s 869 754 m 18 Y s 960 763 m 92 X s 1052 754 m 18 Y s 960 763 m 36 Y s 951 799 m 19 X s 960 763 m -33 Y s 951 730 m 19 X
 s 1144 899 m -92 X s 1052 889 m 19 Y s 1144 899 m 92 X s 1236 889 m 19 Y s 1144 899 m 39 Y s 1135 938 m 18 X s 1144 899 m -38 Y s 1135 861 m 18 X s 1328 973 m -92 X s 1236 964 m 18 Y s 1328 973 m 92 X s 1420 964 m 18 Y s 1328 973 m 42 Y s 1319 1015
 m 18 X s 1328 973 m -40 Y s 1319 933 m 18 X s 1511 687 m -91 X s 1420 678 m 18 Y s 1511 687 m 92 X s 1603 678 m 18 Y s 1511 687 m 33 Y s 1502 720 m 19 X s 1511 687 m -31 Y s 1502 656 m 19 X s 1695 696 m -92 X s 1603 687 m 18 Y s 1695 696 m 92 X s
 1787 687 m 18 Y s 1695 696 m 33 Y s 1686 729 m 18 X s 1695 696 m -31 Y s 1686 665 m 18 X s 1879 673 m -92 X s 1787 664 m 18 Y s 1879 673 m 92 X s 1971 664 m 18 Y s 1879 673 m 33 Y s 1870 706 m 18 X s 1879 673 m -30 Y s 1870 643 m 18 X s 2062 644 m
 -91 X s 1971 635 m 18 Y s 2062 644 m 92 X s 2154 635 m 18 Y s 2062 644 m 31 Y s 2053 675 m 19 X s 2062 644 m -29 Y s 2053 615 m 19 X s /w 37 def /w2 {w 2 div} def /w3 {w 3 div} def 409 675 593 766 777 745 960 763 1144 899 1328 973 1511 687 1695 696
 1879 673 2062 644 10 { m20} R 0 0 1 c[ 12 12] 0 sd 9 lw black 0 0 1 c 317 241 m cl s 317 241 m 203 X 18 1 d 110 X 18 1 d 56 X 18 1 d 37 X 18 1 d 18 X 19 1 d 18 X 19 1 d 18 1 d 18 1 d 19 1 d 18 1 d 18 2 d 19 3 d 18 4 d 18 6 d 19 11 d 18 15 d 19 18 d
 18 22 d 18 26 d 19 28 d 18 30 d 18 31 d 19 30 d 18 27 d 19 24 d 9 12 d 4 8 d 3 5 d 2 7 d 2 10 d 2 18 d 3 39 d 2 62 d 2 81 d 3 93 d 2 90 d 2 71 d 3 34 d 2 -10 d 2 -52 d 2 -82 d 3 -94 d 2 -88 d 2 -73 d 3 -53 d 2 -35 d 2 -21 d 3 -11 d 2 -6 d 4 -6 d 5
 -4 d 9 -8 d 9 -10 d 19 -24 d 18 -28 d 18 -30 d 19 -30 d 18 -29 d 19 -26 d 18 -23 d 18 -19 d 19 -16 d 18 -12 d 18 -9 d 19 -7 d 18 -5 d 19 -3 d 18 -2 d 18 -2 d 19 -1 d 18 X 18 -1 d 496 X s 0 0.8 0 c black 0 0.8 0 c 317 742 m cl s 317 742 m 19 -1 d 18
 -1 d 19 X 18 -1 d 18 -1 d 19 -1 d 18 -1 d 18 -1 d 19 -1 d 18 -1 d 19 -1 d 18 -1 d 18 X 19 -1 d 18 -1 d 18 -1 d 19 -1 d 18 -1 d 18 -1 d 19 -1 d 18 X 19 -1 d 18 -1 d 18 -1 d 19 -1 d 18 -1 d 18 -1 d 19 -1 d 18 X 19 -1 d 18 -1 d 18 -1 d 19 -1 d 18 -1 d
 18 -1 d 19 X 18 -1 d 18 -1 d 19 -1 d 18 -1 d 19 -1 d 18 -1 d 18 X 19 -1 d 18 -1 d 18 -1 d 19 -1 d 18 -1 d 19 X 18 -1 d 18 -1 d 19 -1 d 18 -1 d 18 -1 d 19 X 18 -1 d 18 -1 d 19 -1 d 18 -1 d 19 X 18 -1 d 18 -1 d 19 -1 d 18 -1 d 18 X 19 -1 d 18 -1 d 19
 -1 d 18 -1 d 18 -1 d 19 X 18 -1 d 18 -1 d 19 -1 d 18 -1 d 18 X 19 -1 d 18 -1 d 19 -1 d 18 X 18 -1 d 19 -1 d 18 -1 d 18 -1 d 19 X 18 -1 d 19 -1 d 18 -1 d 18 X 19 -1 d 18 -1 d 18 -1 d 19 -1 d 18 X 18 -1 d 19 -1 d 18 -1 d 19 X 18 -1 d 18 -1 d s 1 0 0
 c[  ] 0 sd black 1 0 0 c 317 745 m cl s 317 745 m 19 -1 d 18 -1 d 19 -1 d 18 -1 d 18 X 19 -1 d 18 -1 d 18 -1 d 19 -1 d 18 X 19 -1 d 18 -1 d 18 -1 d 19 -1 d 18 X 18 -1 d 19 -1 d 18 X 18 -1 d 19 -1 d 18 X 19 -1 d 18 -1 d 18 X 19 -1 d 18 X 18 -1 d 37 X
 19 -1 d 18 X 18 1 d 19 X 18 1 d 18 1 d 19 2 d 18 3 d 18 5 d 19 10 d 18 14 d 19 17 d 18 22 d 18 24 d 19 28 d 18 29 d 18 30 d 19 29 d 18 26 d 19 23 d 9 12 d 4 8 d 5 12 d 2 9 d 2 18 d 3 39 d 2 62 d 2 81 d 3 93 d 2 90 d 2 70 d 3 35 d 2 -11 d 2 -52 d 2
 -82 d 3 -93 d 2 -89 d 2 -73 d 3 -53 d 2 -35 d 2 -21 d 3 -12 d 2 -6 d 4 -6 d 5 -4 d 18 -19 d 19 -25 d 18 -28 d 18 -31 d 19 -31 d 18 -29 d 19 -27 d 18 -24 d 18 -20 d 19 -17 d 18 -13 d 18 -10 d 19 -8 d 18 -5 d 19 -4 d 18 -3 d 18 -2 d 19 -2 d 18 -1 d 18
 -2 d 19 -1 d 18 X 18 -1 d 19 -1 d 18 -1 d 19 -1 d 18 X 18 -1 d 19 -1 d 18 -1 d 18 -1 d 19 X 18 -1 d 19 -1 d 18 -1 d 18 X 19 -1 d 18 -1 d 18 -1 d 19 -1 d 18 X 18 -1 d 19 -1 d 18 -1 d 19 X 18 -1 d 18 -1 d s black 3 lw 317 238 m 1837 X s 698 279 m -41
 Y s 824 259 m -21 Y s 951 259 m -21 Y s 1078 259 m -21 Y s 1204 259 m -21 Y s 1331 279 m -41 Y s 1458 259 m -21 Y s 1584 259 m -21 Y s 1711 259 m -21 Y s 1838 259 m -21 Y s 1964 279 m -41 Y s 698 279 m -41 Y s 571 259 m -21 Y s 444 259 m -21 Y s 317
 259 m -21 Y s 1964 279 m -41 Y s 2091 259 m -21 Y s 317 1582 m 1837 X s 698 1540 m 42 Y s 824 1561 m 21 Y s 951 1561 m 21 Y s 1078 1561 m 21 Y s 1204 1561 m 21 Y s 1331 1540 m 42 Y s 1458 1561 m 21 Y s 1584 1561 m 21 Y s 1711 1561 m 21 Y s 1838 1561
 m 21 Y s 1964 1540 m 42 Y s 698 1540 m 42 Y s 571 1561 m 21 Y s 444 1561 m 21 Y s 317 1561 m 21 Y s 1964 1540 m 42 Y s 2091 1561 m 21 Y s 317 238 m 1344 Y s 371 238 m -54 X s 344 283 m -27 X s 344 328 m -27 X s 344 373 m -27 X s 344 418 m -27 X s
 371 464 m -54 X s 344 509 m -27 X s 344 554 m -27 X s 344 599 m -27 X s 344 644 m -27 X s 371 689 m -54 X s 344 734 m -27 X s 344 779 m -27 X s 344 824 m -27 X s 344 869 m -27 X s 371 914 m -54 X s 344 959 m -27 X s 344 1005 m -27 X s 344 1050 m -27
 X s 344 1095 m -27 X s 371 1140 m -54 X s 344 1185 m -27 X s 344 1230 m -27 X s 344 1275 m -27 X s 344 1320 m -27 X s 371 1365 m -54 X s 371 1365 m -54 X s 344 1410 m -27 X s 344 1455 m -27 X s 344 1500 m -27 X s 344 1546 m -27 X s 2154 238 m 1344 Y
 s 2101 238 m 53 X s 2127 283 m 27 X s 2127 328 m 27 X s 2127 373 m 27 X s 2127 418 m 27 X s 2101 464 m 53 X s 2127 509 m 27 X s 2127 554 m 27 X s 2127 599 m 27 X s 2127 644 m 27 X s 2101 689 m 53 X s 2127 734 m 27 X s 2127 779 m 27 X s 2127 824 m 27
 X s 2127 869 m 27 X s 2101 914 m 53 X s 2127 959 m 27 X s 2127 1005 m 27 X s 2127 1050 m 27 X s 2127 1095 m 27 X s 2101 1140 m 53 X s 2127 1185 m 27 X s 2127 1230 m 27 X s 2127 1275 m 27 X s 2127 1320 m 27 X s 2101 1365 m 53 X s 2101 1365 m 53 X s
 2127 1410 m 27 X s 2127 1455 m 27 X s 2127 1500 m 27 X s 2127 1546 m 27 X s
 gsave  2268 1701 0 0 C 859.538 393.193 t 0 r /Times-Roman findfont 59.4361 sf 0 0 m ( = 5 TeV) show NC gr 
 gsave  2268 1701 0 0 C 804.674 374.905 t 0 r /Times-Roman findfont 36.5761 sf 0 0 m (NN) show NC gr 
 gsave  2268 1701 0 0 C 781.814 393.193 t 0 r /Times-Roman findfont 59.4361 sf 0 0 m (s) show NC gr  6 lw 759 421 m 9 -51 d s 0 lw 768 370 m 9 69 d s 777 439 m 83 X s
 gsave  2268 1701 0 0 C 498.349 393.193 t 0 r /Times-Roman findfont 59.4361 sf 0 0 m (pPb\(Fwd\) ) show NC gr 
 gsave  2268 1701 0 0 C 498.349 475.489 t 0 r /Times-Roman findfont 73.1521 sf 0 0 m (Preliminary) show NC gr 
 gsave  2268 1701 0 0 C 498.349 548.641 t 0 r /Times-Roman findfont 73.1521 sf 0 0 m (LHCb) show NC gr 
 gsave  2268 1701 0 0 C 1449.33 512.065 t 0 r /Times-Roman findfont 73.1521 sf 0 0 m (2.5< y <4.0) show NC gr 
 gsave  2268 1701 0 0 C 1513.34 425.197 t 0 r /Times-Roman findfont 73.1521 sf 0 0 m ( < 14 GeV/c) show NC gr 
 gsave  2268 1701 0 0 C 1485.9 388.621 t 0 r /Times-Roman findfont 45.7201 sf 0 0 m (T) show NC gr 
 gsave  2268 1701 0 0 C 1449.33 425.197 t 0 r /Times-Roman findfont 73.1521 sf 0 0 m (p) show NC gr 
 gr  gr showpage
end
%%EOF
