%!PS-Adobe-2.0 EPSF-2.0
%%BoundingBox:  0 0 567 425
%%Title: result/TzFit/pAtz_c13.eps: 
%%Creator: ROOT Version 5.34/18
%%CreationDate: Tue Sep 15 04:02:26 2015
%%EndComments
%%BeginProlog
80 dict begin
/s {stroke} def /l {lineto} def /m {moveto} def /t {translate} def
/r {rotate} def /rl {roll}  def /R {repeat} def
/d {rlineto} def /rm {rmoveto} def /gr {grestore} def /f {eofill} def
/c {setrgbcolor} def /black {0 setgray} def /sd {setdash} def
/cl {closepath} def /sf {scalefont setfont} def /lw {setlinewidth} def
/box {m dup 0 exch d exch 0 d 0 exch neg d cl} def
/NC{systemdict begin initclip end}def/C{NC box clip newpath}def
/bl {box s} def /bf {box f} def /Y { 0 exch d} def /X { 0 d} def 
/K {{pop pop 0 moveto} exch kshow} bind def
/ita {/ang 15 def gsave [1 0 ang dup sin exch cos div 1 0 0] concat} def 
/mp {newpath /y exch def /x exch def} def
/side {[w .77 mul w .23 mul] .385 w mul sd w 0 l currentpoint t -144 r} def
/mr {mp x y w2 0 360 arc} def /m24 {mr s} def /m20 {mr f} def
/mb {mp x y w2 add m w2 neg 0 d 0 w neg d w 0 d 0 w d cl} def
/mt {mp x y w2 add m w2 neg w neg d w 0 d cl} def
/m21 {mb f} def /m25 {mb s} def /m22 {mt f} def /m26{mt s} def
/m23 {mp x y w2 sub m w2 w d w neg 0 d cl f} def
/m27 {mp x y w2 add m w3 neg w2 neg d w3 w2 neg d w3 w2 d cl s} def
/m28 {mp x w2 sub y w2 sub w3 add m w3 0 d  0 w3 neg d w3 0 d 0 w3 d w3 0 d  0 w3 d w3 neg 0 d 0 w3 d w3 neg 0 d 0 w3 neg d w3 neg 0 d cl s } def
/m29 {mp gsave x w2 sub y w2 add w3 sub m currentpoint t 4 {side} repeat cl fill gr} def
/m30 {mp gsave x w2 sub y w2 add w3 sub m currentpoint t 4 {side} repeat cl s gr} def
/m31 {mp x y w2 sub m 0 w d x w2 sub y m w 0 d x w2 sub y w2 add m w w neg d x w2 sub y w2 sub m w w d s} def
/m32 {mp x y w2 sub m w2 w d w neg 0 d cl s} def
/m33 {mp x y w2 add m w3 neg w2 neg d w3 w2 neg d w3 w2 d cl f} def
/m34 {mp x w2 sub y w2 sub w3 add m w3 0 d  0 w3 neg d w3 0 d 0 w3 d w3 0 d  0 w3 d w3 neg 0 d 0 w3 d w3 neg 0 d 0 w3 neg d w3 neg 0 d cl f } def
/m2 {mp x y w2 sub m 0 w d x w2 sub y m w 0 d s} def
/m5 {mp x w2 sub y w2 sub m w w d x w2 sub y w2 add m w w neg d s} def
/reEncode {exch findfont dup length dict begin {1 index /FID eq  {pop pop} {def} ifelse } forall /Encoding exch def currentdict end dup /FontName get exch definefont pop } def [/Times-Bold /Times-Italic /Times-BoldItalic /Helvetica /Helvetica-Oblique
 /Helvetica-Bold /Helvetica-BoldOblique /Courier /Courier-Oblique /Courier-Bold /Courier-BoldOblique /Times-Roman /AvantGarde-Book /AvantGarde-BookOblique /AvantGarde-Demi /AvantGarde-DemiOblique /Bookman-Demi /Bookman-DemiItalic /Bookman-Light
 /Bookman-LightItalic /Helvetica-Narrow /Helvetica-Narrow-Bold /Helvetica-Narrow-BoldOblique /Helvetica-Narrow-Oblique /NewCenturySchlbk-Roman /NewCenturySchlbk-Bold /NewCenturySchlbk-BoldItalic /NewCenturySchlbk-Italic /Palatino-Bold
 /Palatino-BoldItalic /Palatino-Italic /Palatino-Roman ] {ISOLatin1Encoding reEncode } forall
%%EndProlog
%%BeginSetup
%%EndSetup
newpath  gsave  .25 .25 scale  gsave  0 0 t black[  ] 0 sd 3 lw 1 1 1 c 2268 1701 0 0 bf black 1 1 1 c 1837 1344 317 238 bf black 1837 1344 317 238 bl 1 1 1 c 1837 1344 317 238 bf black 1837 1344 317 238 bl 317 238 m 1837 X s
 gsave  2268 1701 0 0 C 1984.25 54.8641 t 0 r /Times-Roman findfont 96.0122 sf 0 0 m ( [ps]) show NC gr 
 gsave  2268 1701 0 0 C 1956.82 32.0041 t 0 r /Times-Roman findfont 64.0081 sf 0 0 m (z) show NC gr 
 gsave  2268 1701 0 0 C 1929.39 54.8641 t 0 r /Times-Roman findfont 96.0122 sf 0 0 m (t) show NC gr  317 279 m -41 Y s 440 259 m -21 Y s 562 259 m -21 Y s 685 259 m -21 Y s 807 259 m -21 Y s 930 279 m -41 Y s 1052 259 m -21 Y s 1175 259 m -21 Y s
 1297 259 m -21 Y s 1420 259 m -21 Y s 1542 279 m -41 Y s 1665 259 m -21 Y s 1787 259 m -21 Y s 1909 259 m -21 Y s 2032 259 m -21 Y s 2154 279 m -41 Y s
 gsave  2268 1701 0 0 C 283.465 146.304 t 0 r /Times-Roman findfont 77.7242 sf 0 0 m (\2555) show NC gr 
 gsave  2268 1701 0 0 C 905.258 146.304 t 0 r /Times-Roman findfont 77.7242 sf 0 0 m (0) show NC gr 
 gsave  2268 1701 0 0 C 1522.48 146.304 t 0 r /Times-Roman findfont 77.7242 sf 0 0 m (5) show NC gr 
 gsave  2268 1701 0 0 C 2112.27 146.304 t 0 r /Times-Roman findfont 77.7242 sf 0 0 m (10) show NC gr  317 1582 m 1837 X s 317 1540 m 42 Y s 440 1561 m 21 Y s 562 1561 m 21 Y s 685 1561 m 21 Y s 807 1561 m 21 Y s 930 1540 m 42 Y s 1052 1561 m 21 Y s
 1175 1561 m 21 Y s 1297 1561 m 21 Y s 1420 1561 m 21 Y s 1542 1540 m 42 Y s 1665 1561 m 21 Y s 1787 1561 m 21 Y s 1909 1561 m 21 Y s 2032 1561 m 21 Y s 2154 1540 m 42 Y s 317 238 m 1344 Y s
 gsave  2268 1701 0 0 C 123.444 617.221 t 90 r /Times-Roman findfont 96.0122 sf 0 0 m (Candidates / \(Bin Width\)) show NC gr  344 238 m -27 X s 344 285 m -27 X s 344 319 m -27 X s 344 345 m -27 X s 344 366 m -27 X s 344 384 m -27 X s 344 400 m -27 X
 s 344 414 m -27 X s 371 426 m -54 X s
 gsave  2268 1701 0 0 C 297.071 393.022 t 0 r  -39 0 t /Times-Roman findfont 77.7242 sf 0 0 m (1) show NC gr  344 507 m -27 X s 344 554 m -27 X s 344 588 m -27 X s 344 614 m -27 X s 344 635 m -27 X s 344 653 m -27 X s 344 669 m -27 X s 344 682 m -27
 X s 371 695 m -54 X s
 gsave  2268 1701 0 0 C 297.071 661.747 t 0 r  -79 0 t /Times-Roman findfont 77.7242 sf 0 0 m (10) show NC gr  344 776 m -27 X s 344 823 m -27 X s 344 856 m -27 X s 344 882 m -27 X s 344 904 m -27 X s 344 922 m -27 X s 344 937 m -27 X s 344 951 m -27
 X s 371 963 m -54 X s
 gsave  2268 1701 0 0 C 265.177 960.122 t 0 r /Times-Roman findfont 54.8641 sf 0 0 m (2) show NC gr 
 gsave  2268 1701 0 0 C 187.452 928.118 t 0 r /Times-Roman findfont 77.7242 sf 0 0 m (10) show NC gr  344 1044 m -27 X s 344 1092 m -27 X s 344 1125 m -27 X s 344 1151 m -27 X s 344 1172 m -27 X s 344 1190 m -27 X s 344 1206 m -27 X s 344 1220 m -27
 X s 371 1232 m -54 X s
 gsave  2268 1701 0 0 C 265.177 1234.44 t 0 r /Times-Roman findfont 54.8641 sf 0 0 m (3) show NC gr 
 gsave  2268 1701 0 0 C 187.452 1197.87 t 0 r /Times-Roman findfont 77.7242 sf 0 0 m (10) show NC gr  344 1313 m -27 X s 344 1360 m -27 X s 344 1394 m -27 X s 344 1420 m -27 X s 344 1441 m -27 X s 344 1459 m -27 X s 344 1475 m -27 X s 344 1489 m -27
 X s 371 1501 m -54 X s
 gsave  2268 1701 0 0 C 265.177 1499.62 t 0 r /Times-Roman findfont 54.8641 sf 0 0 m (4) show NC gr 
 gsave  2268 1701 0 0 C 187.452 1467.61 t 0 r /Times-Roman findfont 77.7242 sf 0 0 m (10) show NC gr  344 1582 m -27 X s 2154 238 m 1344 Y s 2127 238 m 27 X s 2127 285 m 27 X s 2127 319 m 27 X s 2127 345 m 27 X s 2127 366 m 27 X s 2127 384 m 27 X s
 2127 400 m 27 X s 2127 414 m 27 X s 2101 426 m 53 X s 2127 507 m 27 X s 2127 554 m 27 X s 2127 588 m 27 X s 2127 614 m 27 X s 2127 635 m 27 X s 2127 653 m 27 X s 2127 669 m 27 X s 2127 682 m 27 X s 2101 695 m 53 X s 2127 776 m 27 X s 2127 823 m 27 X
 s 2127 856 m 27 X s 2127 882 m 27 X s 2127 904 m 27 X s 2127 922 m 27 X s 2127 937 m 27 X s 2127 951 m 27 X s 2101 963 m 53 X s 2127 1044 m 27 X s 2127 1092 m 27 X s 2127 1125 m 27 X s 2127 1151 m 27 X s 2127 1172 m 27 X s 2127 1190 m 27 X s 2127
 1206 m 27 X s 2127 1220 m 27 X s 2101 1232 m 53 X s 2127 1313 m 27 X s 2127 1360 m 27 X s 2127 1394 m 27 X s 2127 1420 m 27 X s 2127 1441 m 27 X s 2127 1459 m 27 X s 2127 1475 m 27 X s 2127 1489 m 27 X s 2101 1501 m 53 X s 2127 1582 m 27 X s 386 238
 m -69 X s 317 238 m 9 Y s 386 238 m 69 X s 455 238 m 9 Y s 386 238 m 117 Y s 377 355 m 19 X s 524 238 m -69 X s 455 238 m 9 Y s 524 238 m 69 X s 593 238 m 9 Y s 524 238 m 117 Y s 515 355 m 18 X s 662 468 m -69 X s 593 458 m 19 Y s 662 468 m 69 X s
 731 458 m 19 Y s 662 468 m 79 Y s 653 547 m 18 X s 662 468 m -92 Y s 653 376 m 18 X s 800 639 m -69 X s 731 630 m 18 Y s 800 639 m 69 X s 869 630 m 18 Y s 800 639 m 36 Y s 791 675 m 18 X s 800 639 m -38 Y s 791 601 m 18 X s 884 936 m -15 X s 869 927
 m 18 Y s 884 936 m 15 X s 899 927 m 18 Y s 884 936 m 21 Y s 875 957 m 18 X s 884 936 m -21 Y s 875 915 m 18 X s 914 1371 m -15 X s 899 1362 m 18 Y s 914 1371 m 16 X s 930 1362 m 18 Y s 914 1371 m 3 Y s 905 1374 m 19 X s 914 1371 m -3 Y s 905 1368 m
 19 X s 936 1475 m -6 X s 930 1465 m 19 Y s 936 1475 m 6 X s 942 1465 m 19 Y s 936 1475 m 3 Y s 927 1478 m 18 X s 936 1475 m -3 Y s 927 1472 m 18 X s 948 1317 m -6 X s 942 1307 m 19 Y s 948 1317 m 6 X s 954 1307 m 19 Y s 948 1317 m 6 Y s 939 1323 m
 18 X s 948 1317 m -6 Y s 939 1311 m 18 X s 960 1229 m -6 X s 954 1219 m 19 Y s 960 1229 m 7 X s 967 1219 m 19 Y s 960 1229 m 8 Y s 951 1237 m 19 X s 960 1229 m -9 Y s 951 1220 m 19 X s 973 1135 m -6 X s 967 1126 m 18 Y s 973 1135 m 6 X s 979 1126 m
 18 Y s 973 1135 m 13 Y s 963 1148 m 19 X s 973 1135 m -14 Y s 963 1121 m 19 X s 985 1063 m -6 X s 979 1054 m 19 Y s 985 1063 m 6 X s 991 1054 m 19 Y s 985 1063 m 19 Y s 976 1082 m 18 X s 985 1063 m -19 Y s 976 1044 m 18 X s 997 1069 m -6 X s 991
 1060 m 18 Y s 997 1069 m 6 X s 1003 1060 m 18 Y s 997 1069 m 18 Y s 988 1087 m 18 X s 997 1069 m -19 Y s 988 1050 m 18 X s 1009 988 m -6 X s 1003 979 m 18 Y s 1009 988 m 6 X s 1015 979 m 18 Y s 1009 988 m 26 Y s 1000 1014 m 19 X s 1009 988 m -27 Y s
 1000 961 m 19 X s 1022 997 m -7 X s 1015 988 m 19 Y s 1022 997 m 6 X s 1028 988 m 19 Y s 1022 997 m 26 Y s 1012 1023 m 19 X s 1022 997 m -25 Y s 1012 972 m 19 X s 1034 977 m -6 X s 1028 968 m 18 Y s 1034 977 m 6 X s 1040 968 m 18 Y s 1034 977 m 28 Y
 s 1025 1005 m 18 X s 1034 977 m -28 Y s 1025 949 m 18 X s 1046 971 m -6 X s 1040 962 m 19 Y s 1046 971 m 6 X s 1052 962 m 19 Y s 1046 971 m 29 Y s 1037 1000 m 18 X s 1046 971 m -29 Y s 1037 942 m 18 X s 1068 908 m -16 X s 1052 899 m 18 Y s 1068 908
 m 15 X s 1083 899 m 18 Y s 1068 908 m 23 Y s 1058 931 m 19 X s 1068 908 m -24 Y s 1058 884 m 19 X s 1098 838 m -15 X s 1083 829 m 19 Y s 1098 838 m 15 X s 1113 829 m 19 Y s 1098 838 m 33 Y s 1089 871 m 18 X s 1098 838 m -33 Y s 1089 805 m 18 X s
 1129 881 m -16 X s 1113 872 m 18 Y s 1129 881 m 15 X s 1144 872 m 18 Y s 1129 881 m 26 Y s 1120 907 m 18 X s 1129 881 m -27 Y s 1120 854 m 18 X s 1159 846 m -15 X s 1144 836 m 19 Y s 1159 846 m 16 X s 1175 836 m 19 Y s 1159 846 m 31 Y s 1150 877 m
 19 X s 1159 846 m -33 Y s 1150 813 m 19 X s 1236 733 m -61 X s 1175 724 m 18 Y s 1236 733 m 61 X s 1297 724 m 18 Y s 1236 733 m 25 Y s 1227 758 m 18 X s 1236 733 m -25 Y s 1227 708 m 18 X s 1358 643 m -61 X s 1297 634 m 18 Y s 1358 643 m 62 X s 1420
 634 m 18 Y s 1358 643 m 38 Y s 1349 681 m 19 X s 1358 643 m -39 Y s 1349 604 m 19 X s 1481 541 m -61 X s 1420 532 m 18 Y s 1481 541 m 61 X s 1542 532 m 18 Y s 1481 541 m 60 Y s 1472 601 m 18 X s 1481 541 m -66 Y s 1472 475 m 18 X s 1603 541 m -61 X
 s 1542 532 m 18 Y s 1603 541 m 62 X s 1665 532 m 18 Y s 1603 541 m 60 Y s 1594 601 m 18 X s 1603 541 m -66 Y s 1594 475 m 18 X s 1726 481 m -61 X s 1665 472 m 18 Y s 1726 481 m 61 X s 1787 472 m 18 Y s 1726 481 m 80 Y s 1717 561 m 18 X s 1726 481 m
 -91 Y s 1717 390 m 18 X s 1848 434 m -61 X s 1787 425 m 18 Y s 1848 434 m 61 X s 1909 425 m 18 Y s 1848 434 m 98 Y s 1839 532 m 18 X s 1848 434 m -121 Y s 1839 313 m 18 X s 1971 353 m -62 X s 1909 344 m 18 Y s 1971 353 m 61 X s 2032 344 m 18 Y s
 1971 353 m 139 Y s 1962 492 m 18 X s 1971 353 m -115 Y s 1962 238 m 18 X s 2093 238 m -61 X s 2032 238 m 9 Y s 2093 238 m 61 X s 2154 238 m 9 Y s 2093 238 m 131 Y s 2084 369 m 18 X s /w 37 def /w2 {w 2 div} def /w3 {w 3 div} def 662 468 800 639 884
 936 914 1371 936 1475 948 1317 960 1229 973 1135 985 1063 997 1069 1009 988 1022 997 1034 977 1046 971 1068 908 1098 838 1129 881 1159 846 1236 733 1358 643 1481 541 1603 541 1726 481 1848 434 1971 353 25 { m20} R 0 0 1 c 9 lw 0 0.8 0 c black 0 0.8
 0 c 1932 258 m s 1932 258 m -20 -20 d s 1896 280 m s 1896 280 m -42 -42 d s 1861 303 m s 1861 303 m -64 -65 d s 1826 325 m s 1826 325 m -87 -87 d s 1791 348 m s 1791 348 m -110 -110 d s 1756 370 m s 1756 370 m -132 -132 d s 1721 393 m s 1721 393 m
 -155 -155 d s 1686 416 m s 1686 416 m -178 -178 d s 1650 438 m s 1650 438 m -200 -200 d s 1615 461 m -222 -223 d s 1580 483 m -245 -245 d s 1545 506 m -268 -268 d s 1510 528 m -291 -290 d s 1475 551 m -313 -313 d s 1439 574 m -335 -336 d s 1404 596
 m -358 -358 d s 1369 619 m -380 -381 d s 1334 641 m -403 -403 d s 1299 664 m -426 -426 d s 1264 686 m -449 -448 d s 1229 709 m -471 -471 d s 1194 732 m -494 -494 d s 1160 755 m -496 -495 d s 1127 780 m -431 -430 d s 1098 809 m -370 -370 d s 1073 842
 m -313 -313 d s 1052 879 m -261 -261 d s 1036 920 m -213 -213 d s 1021 963 m -169 -168 d s 1008 1008 m -133 -133 d s 995 1053 m -108 -108 d s 984 1099 m -89 -89 d s 973 1146 m -72 -72 d s 964 1195 m -59 -59 d s 956 1244 m -46 -46 d s 949 1296 m -35
 -36 d s 944 1348 m -26 -26 d s 940 1402 m -19 -19 d s 936 1456 m -12 -12 d s 931 1508 m -2 -2 d s 0 0 1 c black 3 lw 0 0 1 c 1 lw << /PatternType 1 /PaintType 2 /TilingType 1 /BBox [ 0 0 101 101 ] /XStep 100 /YStep 100 /PaintProc { begin gsave 0 0 m
 0 30 l 30 0 l f 0 70 m 0 100 l 30 100 l f 70 100 m 100 100 l 100 70 l f 70 0 m 100 0 l 100 30 l f 50 20 m 20 50 l 50 80 l 80 50 l f 50 80 m 30 100 l s 20 50 m 0 30 l s 50 20 m 70 0 l s 80 50 m 100 70 l s gr end } >> [ 0.24 0 0 0.24 0 0 ] makepattern
 /P08 exch def /cs {[/Pattern /DeviceRGB] setcolorspace} def /FA {f [/DeviceRGB] setcolorspace} def cs 0 0 1 P08 setcolor 891 238 m 5 114 d 5 123 d 4 131 d 3 68 d 2 71 d 2 75 d 2 79 d 3 80 d 2 80 d 2 76 d 3 65 d 2 49 d 2 23 d 3 -6 d 2 -36 d 2 -57 d 2
 -70 d 3 -79 d 2 -80 d 2 -80 d 3 -77 d 2 -73 d 2 -70 d 5 -133 d 4 -125 d 7 -148 d FA 9 lw black 911 238 m 1 22 d s 912 260 m 2 73 d 3 76 d 2 78 d 2 79 d 3 74 d 2 66 d 2 54 d 3 39 d 2 24 d 2 14 d 2 6 d 3 2 d 2 1 d 2 -1 d 3 -1 d 4 -3 d 9 -6 d 10 -6 d 9
 -6 d 9 -6 d 9 -6 d 18 -13 d 19 -12 d 18 -13 d 19 -12 d 18 -13 d 18 -12 d 19 -13 d 18 -12 d 18 -12 d 19 -13 d 18 -12 d 19 -13 d 18 -12 d 18 -13 d 19 -12 d 18 -13 d 18 -12 d 19 -13 d 18 -12 d 18 -12 d 19 -13 d 18 -12 d 19 -13 d 18 -12 d 18 -13 d 19
 -12 d 18 -13 d 18 -12 d 19 -12 d 18 -13 d 19 -12 d 18 -13 d 18 -12 d 19 -13 d 18 -12 d 18 -13 d 19 -12 d 18 -13 d 18 -12 d 19 -12 d 18 -13 d 19 -12 d 18 -13 d 18 -12 d 19 -13 d 18 -12 d s 1 0 0 c black 1 0 0 c 656 238 m 10 28 d s 666 266 m 19 52 d
 18 52 d 19 52 d 18 51 d 18 52 d 19 52 d 18 52 d 18 52 d 19 52 d 18 54 d 19 61 d 9 40 d 9 54 d 4 36 d 5 44 d 2 25 d 3 28 d 2 29 d 2 31 d 3 33 d 2 34 d 2 36 d 2 37 d 3 40 d 2 42 d 2 46 d 3 47 d 2 40 d 2 28 d 3 8 d 2 -15 d 2 -30 d 2 -37 d 3 -36 d 2 -32
 d 2 -27 d 3 -25 d 2 -21 d 2 -20 d 2 -18 d 3 -17 d 2 -15 d 2 -15 d 3 -13 d 2 -12 d 5 -23 d 4 -21 d 5 -19 d 9 -36 d 9 -33 d 9 -31 d 9 -27 d 19 -47 d 18 -37 d 19 -28 d 18 -21 d 18 -18 d 19 -15 d 18 -14 d 18 -13 d 19 -13 d 18 -12 d 19 -12 d 18 -12 d 18
 -12 d 19 -12 d 18 -12 d 18 -13 d 19 -12 d 18 -12 d 18 -12 d 19 -12 d 18 -12 d 19 -12 d 18 -12 d 18 -12 d 19 -12 d 18 -12 d 18 -12 d 19 -12 d 18 -12 d 19 -12 d 18 -12 d 18 -12 d 19 -12 d 18 -12 d 18 -12 d 19 -12 d 18 -12 d 18 -12 d 19 -12 d 18 -12 d
 19 -12 d 18 -12 d 18 -12 d 19 -12 d 18 -12 d 18 -12 d 19 -12 d 18 -12 d 19 -12 d 18 -12 d 18 -12 d 19 -12 d 18 -12 d 18 -13 d 19 -12 d 8 -5 d s black 3 lw 317 238 m 1837 X s 317 279 m -41 Y s 440 259 m -21 Y s 562 259 m -21 Y s 685 259 m -21 Y s 807
 259 m -21 Y s 930 279 m -41 Y s 1052 259 m -21 Y s 1175 259 m -21 Y s 1297 259 m -21 Y s 1420 259 m -21 Y s 1542 279 m -41 Y s 1665 259 m -21 Y s 1787 259 m -21 Y s 1909 259 m -21 Y s 2032 259 m -21 Y s 2154 279 m -41 Y s 317 1582 m 1837 X s 317
 1540 m 42 Y s 440 1561 m 21 Y s 562 1561 m 21 Y s 685 1561 m 21 Y s 807 1561 m 21 Y s 930 1540 m 42 Y s 1052 1561 m 21 Y s 1175 1561 m 21 Y s 1297 1561 m 21 Y s 1420 1561 m 21 Y s 1542 1540 m 42 Y s 1665 1561 m 21 Y s 1787 1561 m 21 Y s 1909 1561 m
 21 Y s 2032 1561 m 21 Y s 2154 1540 m 42 Y s 317 238 m 1344 Y s 344 238 m -27 X s 344 285 m -27 X s 344 319 m -27 X s 344 345 m -27 X s 344 366 m -27 X s 344 384 m -27 X s 344 400 m -27 X s 344 414 m -27 X s 371 426 m -54 X s 344 507 m -27 X s 344
 554 m -27 X s 344 588 m -27 X s 344 614 m -27 X s 344 635 m -27 X s 344 653 m -27 X s 344 669 m -27 X s 344 682 m -27 X s 371 695 m -54 X s 344 776 m -27 X s 344 823 m -27 X s 344 856 m -27 X s 344 882 m -27 X s 344 904 m -27 X s 344 922 m -27 X s
 344 937 m -27 X s 344 951 m -27 X s 371 963 m -54 X s 344 1044 m -27 X s 344 1092 m -27 X s 344 1125 m -27 X s 344 1151 m -27 X s 344 1172 m -27 X s 344 1190 m -27 X s 344 1206 m -27 X s 344 1220 m -27 X s 371 1232 m -54 X s 344 1313 m -27 X s 344
 1360 m -27 X s 344 1394 m -27 X s 344 1420 m -27 X s 344 1441 m -27 X s 344 1459 m -27 X s 344 1475 m -27 X s 344 1489 m -27 X s 371 1501 m -54 X s 344 1582 m -27 X s 2154 238 m 1344 Y s 2127 238 m 27 X s 2127 285 m 27 X s 2127 319 m 27 X s 2127 345
 m 27 X s 2127 366 m 27 X s 2127 384 m 27 X s 2127 400 m 27 X s 2127 414 m 27 X s 2101 426 m 53 X s 2127 507 m 27 X s 2127 554 m 27 X s 2127 588 m 27 X s 2127 614 m 27 X s 2127 635 m 27 X s 2127 653 m 27 X s 2127 669 m 27 X s 2127 682 m 27 X s 2101
 695 m 53 X s 2127 776 m 27 X s 2127 823 m 27 X s 2127 856 m 27 X s 2127 882 m 27 X s 2127 904 m 27 X s 2127 922 m 27 X s 2127 937 m 27 X s 2127 951 m 27 X s 2101 963 m 53 X s 2127 1044 m 27 X s 2127 1092 m 27 X s 2127 1125 m 27 X s 2127 1151 m 27 X
 s 2127 1172 m 27 X s 2127 1190 m 27 X s 2127 1206 m 27 X s 2127 1220 m 27 X s 2101 1232 m 53 X s 2127 1313 m 27 X s 2127 1360 m 27 X s 2127 1394 m 27 X s 2127 1420 m 27 X s 2127 1441 m 27 X s 2127 1459 m 27 X s 2127 1475 m 27 X s 2127 1489 m 27 X s
 2101 1501 m 53 X s 2127 1582 m 27 X s
 gsave  2268 1701 0 0 C 1810.52 1161.29 t 0 r /Times-Roman findfont 59.4361 sf 0 0 m ( = 5 TeV) show NC gr 
 gsave  2268 1701 0 0 C 1755.65 1143 t 0 r /Times-Roman findfont 36.5761 sf 0 0 m (NN) show NC gr 
 gsave  2268 1701 0 0 C 1732.79 1161.29 t 0 r /Times-Roman findfont 59.4361 sf 0 0 m (s) show NC gr  6 lw 1710 1189 m 9 -51 d s 0 lw 1719 1138 m 9 69 d s 1728 1207 m 83 X s
 gsave  2268 1701 0 0 C 1449.33 1161.29 t 0 r /Times-Roman findfont 59.4361 sf 0 0 m (pPb\(Fwd\) ) show NC gr 
 gsave  2268 1701 0 0 C 1449.33 1243.59 t 0 r /Times-Roman findfont 73.1521 sf 0 0 m (Preliminary) show NC gr 
 gsave  2268 1701 0 0 C 1449.33 1316.74 t 0 r /Times-Roman findfont 73.1521 sf 0 0 m (LHCb) show NC gr 
 gsave  2268 1701 0 0 C 1449.33 937.262 t 0 r /Times-Roman findfont 73.1521 sf 0 0 m (1.5< y <4.0) show NC gr 
 gsave  2268 1701 0 0 C 1513.34 850.394 t 0 r /Times-Roman findfont 73.1521 sf 0 0 m ( < 14 GeV/c) show NC gr 
 gsave  2268 1701 0 0 C 1485.9 813.818 t 0 r /Times-Roman findfont 45.7201 sf 0 0 m (T) show NC gr 
 gsave  2268 1701 0 0 C 1449.33 850.394 t 0 r /Times-Roman findfont 73.1521 sf 0 0 m (p) show NC gr 
 gr  gr showpage
end
%%EOF
