%!PS-Adobe-2.0 EPSF-2.0
%%BoundingBox:  0 0 567 425
%%Title: result/TzFit/pAtz_c03.eps: 
%%Creator: ROOT Version 5.34/18
%%CreationDate: Tue Sep 15 04:02:25 2015
%%EndComments
%%BeginProlog
80 dict begin
/s {stroke} def /l {lineto} def /m {moveto} def /t {translate} def
/r {rotate} def /rl {roll}  def /R {repeat} def
/d {rlineto} def /rm {rmoveto} def /gr {grestore} def /f {eofill} def
/c {setrgbcolor} def /black {0 setgray} def /sd {setdash} def
/cl {closepath} def /sf {scalefont setfont} def /lw {setlinewidth} def
/box {m dup 0 exch d exch 0 d 0 exch neg d cl} def
/NC{systemdict begin initclip end}def/C{NC box clip newpath}def
/bl {box s} def /bf {box f} def /Y { 0 exch d} def /X { 0 d} def 
/K {{pop pop 0 moveto} exch kshow} bind def
/ita {/ang 15 def gsave [1 0 ang dup sin exch cos div 1 0 0] concat} def 
/mp {newpath /y exch def /x exch def} def
/side {[w .77 mul w .23 mul] .385 w mul sd w 0 l currentpoint t -144 r} def
/mr {mp x y w2 0 360 arc} def /m24 {mr s} def /m20 {mr f} def
/mb {mp x y w2 add m w2 neg 0 d 0 w neg d w 0 d 0 w d cl} def
/mt {mp x y w2 add m w2 neg w neg d w 0 d cl} def
/m21 {mb f} def /m25 {mb s} def /m22 {mt f} def /m26{mt s} def
/m23 {mp x y w2 sub m w2 w d w neg 0 d cl f} def
/m27 {mp x y w2 add m w3 neg w2 neg d w3 w2 neg d w3 w2 d cl s} def
/m28 {mp x w2 sub y w2 sub w3 add m w3 0 d  0 w3 neg d w3 0 d 0 w3 d w3 0 d  0 w3 d w3 neg 0 d 0 w3 d w3 neg 0 d 0 w3 neg d w3 neg 0 d cl s } def
/m29 {mp gsave x w2 sub y w2 add w3 sub m currentpoint t 4 {side} repeat cl fill gr} def
/m30 {mp gsave x w2 sub y w2 add w3 sub m currentpoint t 4 {side} repeat cl s gr} def
/m31 {mp x y w2 sub m 0 w d x w2 sub y m w 0 d x w2 sub y w2 add m w w neg d x w2 sub y w2 sub m w w d s} def
/m32 {mp x y w2 sub m w2 w d w neg 0 d cl s} def
/m33 {mp x y w2 add m w3 neg w2 neg d w3 w2 neg d w3 w2 d cl f} def
/m34 {mp x w2 sub y w2 sub w3 add m w3 0 d  0 w3 neg d w3 0 d 0 w3 d w3 0 d  0 w3 d w3 neg 0 d 0 w3 d w3 neg 0 d 0 w3 neg d w3 neg 0 d cl f } def
/m2 {mp x y w2 sub m 0 w d x w2 sub y m w 0 d s} def
/m5 {mp x w2 sub y w2 sub m w w d x w2 sub y w2 add m w w neg d s} def
/reEncode {exch findfont dup length dict begin {1 index /FID eq  {pop pop} {def} ifelse } forall /Encoding exch def currentdict end dup /FontName get exch definefont pop } def [/Times-Bold /Times-Italic /Times-BoldItalic /Helvetica /Helvetica-Oblique
 /Helvetica-Bold /Helvetica-BoldOblique /Courier /Courier-Oblique /Courier-Bold /Courier-BoldOblique /Times-Roman /AvantGarde-Book /AvantGarde-BookOblique /AvantGarde-Demi /AvantGarde-DemiOblique /Bookman-Demi /Bookman-DemiItalic /Bookman-Light
 /Bookman-LightItalic /Helvetica-Narrow /Helvetica-Narrow-Bold /Helvetica-Narrow-BoldOblique /Helvetica-Narrow-Oblique /NewCenturySchlbk-Roman /NewCenturySchlbk-Bold /NewCenturySchlbk-BoldItalic /NewCenturySchlbk-Italic /Palatino-Bold
 /Palatino-BoldItalic /Palatino-Italic /Palatino-Roman ] {ISOLatin1Encoding reEncode } forall
%%EndProlog
%%BeginSetup
%%EndSetup
newpath  gsave  .25 .25 scale  gsave  0 0 t black[  ] 0 sd 3 lw 1 1 1 c 2268 1701 0 0 bf black 1 1 1 c 1837 1344 317 238 bf black 1837 1344 317 238 bl 1 1 1 c 1837 1344 317 238 bf black 1837 1344 317 238 bl 317 238 m 1837 X s
 gsave  2268 1701 0 0 C 2125.98 50.2921 t 0 r /Times-Roman findfont 96.0122 sf 0 0 m (]) show NC gr 
 gsave  2268 1701 0 0 C 2093.98 91.4402 t 0 r /Times-Roman findfont 64.0081 sf 0 0 m (2) show NC gr 
 gsave  2268 1701 0 0 C 1773.94 50.2921 t 0 r /Times-Roman findfont 96.0122 sf 0 0 m ( [MeV/c) show NC gr 
 gsave  2268 1701 0 0 C 1737.36 32.0041 t 0 r /Symbol findfont 64.0081 sf 0 0 m (m) show NC gr 
 gsave  2268 1701 0 0 C 1700.79 32.0041 t 0 r /Symbol findfont 64.0081 sf 0 0 m (m) show NC gr 
 gsave  2268 1701 0 0 C 1623.06 50.2921 t 0 r /Times-Roman findfont 96.0122 sf 0 0 m (m) show NC gr  698 279 m -41 Y s 824 259 m -21 Y s 951 259 m -21 Y s 1078 259 m -21 Y s 1204 259 m -21 Y s 1331 279 m -41 Y s 1458 259 m -21 Y s 1584 259 m -21 Y s
 1711 259 m -21 Y s 1838 259 m -21 Y s 1964 279 m -41 Y s 698 279 m -41 Y s 571 259 m -21 Y s 444 259 m -21 Y s 317 259 m -21 Y s 1964 279 m -41 Y s 2091 259 m -21 Y s
 gsave  2268 1701 0 0 C 617.221 146.304 t 0 r /Times-Roman findfont 77.7242 sf 0 0 m (3600) show NC gr 
 gsave  2268 1701 0 0 C 1252.73 146.304 t 0 r /Times-Roman findfont 77.7242 sf 0 0 m (3700) show NC gr 
 gsave  2268 1701 0 0 C 1883.67 146.304 t 0 r /Times-Roman findfont 77.7242 sf 0 0 m (3800) show NC gr  317 1582 m 1837 X s 698 1540 m 42 Y s 824 1561 m 21 Y s 951 1561 m 21 Y s 1078 1561 m 21 Y s 1204 1561 m 21 Y s 1331 1540 m 42 Y s 1458 1561 m 21
 Y s 1584 1561 m 21 Y s 1711 1561 m 21 Y s 1838 1561 m 21 Y s 1964 1540 m 42 Y s 698 1540 m 42 Y s 571 1561 m 21 Y s 444 1561 m 21 Y s 317 1561 m 21 Y s 1964 1540 m 42 Y s 2091 1561 m 21 Y s 317 238 m 1344 Y s
 gsave  2268 1701 0 0 C 91.4402 1554.48 t 90 r /Times-Roman findfont 96.0122 sf 0 0 m (\)) show NC gr 
 gsave  2268 1701 0 0 C 50.2921 1522.48 t 90 r /Times-Roman findfont 64.0081 sf 0 0 m (2) show NC gr 
 gsave  2268 1701 0 0 C 91.4402 603.505 t 90 r /Times-Roman findfont 96.0122 sf 0 0 m (Candidates / \(10 MeV/c) show NC gr  371 238 m -54 X s 344 275 m -27 X s 344 311 m -27 X s 344 347 m -27 X s 344 384 m -27 X s 371 420 m -54 X s 344 457 m -27 X s
 344 493 m -27 X s 344 530 m -27 X s 344 566 m -27 X s 371 603 m -54 X s 344 639 m -27 X s 344 676 m -27 X s 344 712 m -27 X s 344 748 m -27 X s 371 785 m -54 X s 344 821 m -27 X s 344 858 m -27 X s 344 894 m -27 X s 344 931 m -27 X s 371 967 m -54 X
 s 344 1004 m -27 X s 344 1040 m -27 X s 344 1076 m -27 X s 344 1113 m -27 X s 371 1149 m -54 X s 344 1186 m -27 X s 344 1222 m -27 X s 344 1259 m -27 X s 344 1295 m -27 X s 371 1332 m -54 X s 344 1368 m -27 X s 344 1405 m -27 X s 344 1441 m -27 X s
 344 1477 m -27 X s 371 1514 m -54 X s 371 1514 m -54 X s 344 1550 m -27 X s
 gsave  2268 1701 0 0 C 260.605 214.884 t 0 r /Times-Roman findfont 77.7242 sf 0 0 m (0) show NC gr 
 gsave  2268 1701 0 0 C 182.88 393.193 t 0 r /Times-Roman findfont 77.7242 sf 0 0 m (100) show NC gr 
 gsave  2268 1701 0 0 C 182.88 576.073 t 0 r /Times-Roman findfont 77.7242 sf 0 0 m (200) show NC gr 
 gsave  2268 1701 0 0 C 182.88 758.953 t 0 r /Times-Roman findfont 77.7242 sf 0 0 m (300) show NC gr 
 gsave  2268 1701 0 0 C 182.88 941.834 t 0 r /Times-Roman findfont 77.7242 sf 0 0 m (400) show NC gr 
 gsave  2268 1701 0 0 C 182.88 1124.71 t 0 r /Times-Roman findfont 77.7242 sf 0 0 m (500) show NC gr 
 gsave  2268 1701 0 0 C 182.88 1307.59 t 0 r /Times-Roman findfont 77.7242 sf 0 0 m (600) show NC gr 
 gsave  2268 1701 0 0 C 182.88 1490.47 t 0 r /Times-Roman findfont 77.7242 sf 0 0 m (700) show NC gr  2154 238 m 1344 Y s 2101 238 m 53 X s 2127 275 m 27 X s 2127 311 m 27 X s 2127 347 m 27 X s 2127 384 m 27 X s 2101 420 m 53 X s 2127 457 m 27 X s
 2127 493 m 27 X s 2127 530 m 27 X s 2127 566 m 27 X s 2101 603 m 53 X s 2127 639 m 27 X s 2127 676 m 27 X s 2127 712 m 27 X s 2127 748 m 27 X s 2101 785 m 53 X s 2127 821 m 27 X s 2127 858 m 27 X s 2127 894 m 27 X s 2127 931 m 27 X s 2101 967 m 53 X
 s 2127 1004 m 27 X s 2127 1040 m 27 X s 2127 1076 m 27 X s 2127 1113 m 27 X s 2101 1149 m 53 X s 2127 1186 m 27 X s 2127 1222 m 27 X s 2127 1259 m 27 X s 2127 1295 m 27 X s 2101 1332 m 53 X s 2127 1368 m 27 X s 2127 1405 m 27 X s 2127 1441 m 27 X s
 2127 1477 m 27 X s 2101 1514 m 53 X s 2101 1514 m 53 X s 2127 1550 m 27 X s 409 891 m -92 X s 317 881 m 19 Y s 409 891 m 92 X s 501 881 m 19 Y s 409 891 m 35 Y s 400 926 m 18 X s 409 891 m -34 Y s 400 857 m 18 X s 593 954 m -92 X s 501 945 m 18 Y s
 593 954 m 92 X s 685 945 m 18 Y s 593 954 m 37 Y s 584 991 m 18 X s 593 954 m -35 Y s 584 919 m 18 X s 777 943 m -92 X s 685 934 m 19 Y s 777 943 m 92 X s 869 934 m 19 Y s 777 943 m 37 Y s 768 980 m 18 X s 777 943 m -35 Y s 768 908 m 18 X s 960 982
 m -91 X s 869 973 m 18 Y s 960 982 m 92 X s 1052 973 m 18 Y s 960 982 m 37 Y s 951 1019 m 19 X s 960 982 m -36 Y s 951 946 m 19 X s 1144 1199 m -92 X s 1052 1189 m 19 Y s 1144 1199 m 92 X s 1236 1189 m 19 Y s 1144 1199 m 42 Y s 1135 1241 m 18 X s
 1144 1199 m -41 Y s 1135 1158 m 18 X s 1328 1284 m -92 X s 1236 1275 m 18 Y s 1328 1284 m 92 X s 1420 1275 m 18 Y s 1328 1284 m 45 Y s 1319 1329 m 18 X s 1328 1284 m -43 Y s 1319 1241 m 18 X s 1511 880 m -91 X s 1420 870 m 19 Y s 1511 880 m 92 X s
 1603 870 m 19 Y s 1511 880 m 35 Y s 1502 915 m 19 X s 1511 880 m -34 Y s 1502 846 m 19 X s 1695 914 m -92 X s 1603 905 m 18 Y s 1695 914 m 92 X s 1787 905 m 18 Y s 1695 914 m 36 Y s 1686 950 m 18 X s 1695 914 m -34 Y s 1686 880 m 18 X s 1879 887 m
 -92 X s 1787 878 m 18 Y s 1879 887 m 92 X s 1971 878 m 18 Y s 1879 887 m 35 Y s 1870 922 m 18 X s 1879 887 m -34 Y s 1870 853 m 18 X s 2062 819 m -91 X s 1971 810 m 19 Y s 2062 819 m 92 X s 2154 810 m 19 Y s 2062 819 m 34 Y s 2053 853 m 19 X s 2062
 819 m -31 Y s 2053 788 m 19 X s /w 37 def /w2 {w 2 div} def /w3 {w 3 div} def 409 891 593 954 777 943 960 982 1144 1199 1328 1284 1511 880 1695 914 1879 887 2062 819 10 { m20} R 0 0 1 c[ 12 12] 0 sd 9 lw black 0 0 1 c 317 238 m cl s 317 238 m 588 X
 19 1 d 18 1 d 18 1 d 19 3 d 18 6 d 9 4 d 9 5 d 10 7 d 9 8 d 9 10 d 9 13 d 9 15 d 10 18 d 9 20 d 9 25 d 9 27 d 9 30 d 10 34 d 9 35 d 18 78 d 18 80 d 10 40 d 9 36 d 9 33 d 9 29 d 9 24 d 5 9 d 5 8 d 4 6 d 5 5 d 4 2 d 5 1 d 4 -1 d 5 -2 d 5 -5 d 4 -6 d 5
 -8 d 4 -9 d 5 -11 d 5 -13 d 4 -13 d 5 -16 d 9 -32 d 9 -37 d 9 -39 d 19 -80 d 9 -40 d 9 -38 d 9 -36 d 9 -34 d 10 -30 d 9 -27 d 9 -25 d 9 -20 d 9 -18 d 10 -15 d 9 -13 d 9 -10 d 9 -8 d 9 -7 d 19 -9 d 18 -6 d 18 -3 d 19 -1 d 18 -1 d 19 -1 d 587 X s 0
 0.8 0 c black 0 0.8 0 c 317 951 m cl s 317 951 m 19 -1 d 18 -1 d 19 -1 d 18 -1 d 18 -1 d 19 -1 d 18 -1 d 18 -1 d 19 -1 d 18 -1 d 19 -1 d 18 -1 d 18 -1 d 19 -1 d 18 -1 d 18 -1 d 19 -1 d 18 -1 d 18 X 19 -1 d 18 -1 d 19 -1 d 18 -1 d 18 -1 d 19 -1 d 18
 -1 d 18 -1 d 19 -1 d 18 -1 d 19 -1 d 18 -1 d 18 -1 d 19 -1 d 18 -1 d 18 X 19 -1 d 18 -1 d 18 -1 d 19 -1 d 18 -1 d 19 -1 d 18 -1 d 18 -1 d 19 -1 d 18 -1 d 18 -1 d 19 X 18 -1 d 19 -1 d 18 -1 d 18 -1 d 19 -1 d 18 -1 d 18 -1 d 19 -1 d 18 -1 d 18 -1 d 19
 X 18 -1 d 19 -1 d 18 -1 d 18 -1 d 19 -1 d 18 -1 d 18 -1 d 19 -1 d 18 X 19 -1 d 18 -1 d 18 -1 d 19 -1 d 18 -1 d 18 -1 d 19 -1 d 18 -1 d 18 X 19 -1 d 18 -1 d 19 -1 d 18 -1 d 18 -1 d 19 -1 d 18 X 18 -1 d 19 -1 d 18 -1 d 19 -1 d 18 -1 d 18 -1 d 19 -1 d
 18 X 18 -1 d 19 -1 d 18 -1 d 18 -1 d 19 -1 d 18 -1 d 19 X 18 -1 d 18 -1 d s 1 0 0 c[  ] 0 sd black 1 0 0 c 317 951 m cl s 317 951 m 19 -1 d 18 -1 d 19 -1 d 18 -1 d 18 -1 d 19 -1 d 18 -1 d 18 -1 d 19 -1 d 18 -1 d 19 -1 d 18 -1 d 18 -1 d 19 -1 d 18 -1
 d 18 -1 d 19 -1 d 18 -1 d 18 X 19 -1 d 18 -1 d 19 -1 d 18 -1 d 18 -1 d 19 -1 d 18 -1 d 18 -1 d 19 -1 d 18 -1 d 19 -1 d 18 -1 d 18 X 19 -1 d 18 X 18 1 d 19 2 d 18 4 d 9 4 d 9 5 d 10 6 d 9 8 d 9 9 d 9 13 d 9 14 d 10 18 d 9 20 d 9 24 d 9 26 d 9 30 d 10
 33 d 9 36 d 18 76 d 18 80 d 10 38 d 9 36 d 9 33 d 9 28 d 9 24 d 5 9 d 5 7 d 4 6 d 5 5 d 4 2 d 5 1 d 4 -1 d 5 -3 d 5 -5 d 4 -6 d 5 -8 d 4 -10 d 5 -11 d 5 -13 d 4 -14 d 5 -15 d 9 -33 d 18 -77 d 19 -81 d 9 -41 d 9 -38 d 9 -37 d 9 -33 d 10 -31 d 9 -28 d
 9 -24 d 9 -22 d 9 -18 d 10 -16 d 9 -13 d 9 -11 d 9 -8 d 9 -7 d 19 -10 d 18 -7 d 18 -4 d 19 -2 d 18 -2 d 19 -1 d 18 -1 d 18 -1 d 19 -1 d 18 -1 d 18 -1 d 19 -1 d 18 -1 d 18 X 19 -1 d 18 -1 d 19 -1 d 18 -1 d 18 -1 d 19 -1 d 18 X 18 -1 d 19 -1 d 18 -1 d
 19 -1 d 18 -1 d 18 -1 d 19 -1 d 18 X 18 -1 d 19 -1 d 18 -1 d 18 -1 d 19 -1 d 18 -1 d 19 X 18 -1 d 18 -1 d s black 3 lw 317 238 m 1837 X s 698 279 m -41 Y s 824 259 m -21 Y s 951 259 m -21 Y s 1078 259 m -21 Y s 1204 259 m -21 Y s 1331 279 m -41 Y s
 1458 259 m -21 Y s 1584 259 m -21 Y s 1711 259 m -21 Y s 1838 259 m -21 Y s 1964 279 m -41 Y s 698 279 m -41 Y s 571 259 m -21 Y s 444 259 m -21 Y s 317 259 m -21 Y s 1964 279 m -41 Y s 2091 259 m -21 Y s 317 1582 m 1837 X s 698 1540 m 42 Y s 824
 1561 m 21 Y s 951 1561 m 21 Y s 1078 1561 m 21 Y s 1204 1561 m 21 Y s 1331 1540 m 42 Y s 1458 1561 m 21 Y s 1584 1561 m 21 Y s 1711 1561 m 21 Y s 1838 1561 m 21 Y s 1964 1540 m 42 Y s 698 1540 m 42 Y s 571 1561 m 21 Y s 444 1561 m 21 Y s 317 1561 m
 21 Y s 1964 1540 m 42 Y s 2091 1561 m 21 Y s 317 238 m 1344 Y s 371 238 m -54 X s 344 275 m -27 X s 344 311 m -27 X s 344 347 m -27 X s 344 384 m -27 X s 371 420 m -54 X s 344 457 m -27 X s 344 493 m -27 X s 344 530 m -27 X s 344 566 m -27 X s 371
 603 m -54 X s 344 639 m -27 X s 344 676 m -27 X s 344 712 m -27 X s 344 748 m -27 X s 371 785 m -54 X s 344 821 m -27 X s 344 858 m -27 X s 344 894 m -27 X s 344 931 m -27 X s 371 967 m -54 X s 344 1004 m -27 X s 344 1040 m -27 X s 344 1076 m -27 X
 s 344 1113 m -27 X s 371 1149 m -54 X s 344 1186 m -27 X s 344 1222 m -27 X s 344 1259 m -27 X s 344 1295 m -27 X s 371 1332 m -54 X s 344 1368 m -27 X s 344 1405 m -27 X s 344 1441 m -27 X s 344 1477 m -27 X s 371 1514 m -54 X s 371 1514 m -54 X s
 344 1550 m -27 X s 2154 238 m 1344 Y s 2101 238 m 53 X s 2127 275 m 27 X s 2127 311 m 27 X s 2127 347 m 27 X s 2127 384 m 27 X s 2101 420 m 53 X s 2127 457 m 27 X s 2127 493 m 27 X s 2127 530 m 27 X s 2127 566 m 27 X s 2101 603 m 53 X s 2127 639 m
 27 X s 2127 676 m 27 X s 2127 712 m 27 X s 2127 748 m 27 X s 2101 785 m 53 X s 2127 821 m 27 X s 2127 858 m 27 X s 2127 894 m 27 X s 2127 931 m 27 X s 2101 967 m 53 X s 2127 1004 m 27 X s 2127 1040 m 27 X s 2127 1076 m 27 X s 2127 1113 m 27 X s 2101
 1149 m 53 X s 2127 1186 m 27 X s 2127 1222 m 27 X s 2127 1259 m 27 X s 2127 1295 m 27 X s 2101 1332 m 53 X s 2127 1368 m 27 X s 2127 1405 m 27 X s 2127 1441 m 27 X s 2127 1477 m 27 X s 2101 1514 m 53 X s 2101 1514 m 53 X s 2127 1550 m 27 X s
 gsave  2268 1701 0 0 C 859.538 393.193 t 0 r /Times-Roman findfont 59.4361 sf 0 0 m ( = 5 TeV) show NC gr 
 gsave  2268 1701 0 0 C 804.674 374.905 t 0 r /Times-Roman findfont 36.5761 sf 0 0 m (NN) show NC gr 
 gsave  2268 1701 0 0 C 781.814 393.193 t 0 r /Times-Roman findfont 59.4361 sf 0 0 m (s) show NC gr  6 lw 759 421 m 9 -51 d s 0 lw 768 370 m 9 69 d s 777 439 m 83 X s
 gsave  2268 1701 0 0 C 498.349 393.193 t 0 r /Times-Roman findfont 59.4361 sf 0 0 m (pPb\(Fwd\) ) show NC gr 
 gsave  2268 1701 0 0 C 498.349 475.489 t 0 r /Times-Roman findfont 73.1521 sf 0 0 m (Preliminary) show NC gr 
 gsave  2268 1701 0 0 C 498.349 548.641 t 0 r /Times-Roman findfont 73.1521 sf 0 0 m (LHCb) show NC gr 
 gsave  2268 1701 0 0 C 1449.33 512.065 t 0 r /Times-Roman findfont 73.1521 sf 0 0 m (1.5< y <4.0) show NC gr 
 gsave  2268 1701 0 0 C 1513.34 425.197 t 0 r /Times-Roman findfont 73.1521 sf 0 0 m ( < 14 GeV/c) show NC gr 
 gsave  2268 1701 0 0 C 1485.9 388.621 t 0 r /Times-Roman findfont 45.7201 sf 0 0 m (T) show NC gr 
 gsave  2268 1701 0 0 C 1449.33 425.197 t 0 r /Times-Roman findfont 73.1521 sf 0 0 m (p) show NC gr 
 gr  gr showpage
end
%%EOF
