%!PS-Adobe-2.0 EPSF-2.0
%%BoundingBox:  0 0 567 425
%%Title: result/TzFit/pAtz_c23.eps: 
%%Creator: ROOT Version 5.34/18
%%CreationDate: Tue Sep 15 04:02:26 2015
%%EndComments
%%BeginProlog
80 dict begin
/s {stroke} def /l {lineto} def /m {moveto} def /t {translate} def
/r {rotate} def /rl {roll}  def /R {repeat} def
/d {rlineto} def /rm {rmoveto} def /gr {grestore} def /f {eofill} def
/c {setrgbcolor} def /black {0 setgray} def /sd {setdash} def
/cl {closepath} def /sf {scalefont setfont} def /lw {setlinewidth} def
/box {m dup 0 exch d exch 0 d 0 exch neg d cl} def
/NC{systemdict begin initclip end}def/C{NC box clip newpath}def
/bl {box s} def /bf {box f} def /Y { 0 exch d} def /X { 0 d} def 
/K {{pop pop 0 moveto} exch kshow} bind def
/ita {/ang 15 def gsave [1 0 ang dup sin exch cos div 1 0 0] concat} def 
/mp {newpath /y exch def /x exch def} def
/side {[w .77 mul w .23 mul] .385 w mul sd w 0 l currentpoint t -144 r} def
/mr {mp x y w2 0 360 arc} def /m24 {mr s} def /m20 {mr f} def
/mb {mp x y w2 add m w2 neg 0 d 0 w neg d w 0 d 0 w d cl} def
/mt {mp x y w2 add m w2 neg w neg d w 0 d cl} def
/m21 {mb f} def /m25 {mb s} def /m22 {mt f} def /m26{mt s} def
/m23 {mp x y w2 sub m w2 w d w neg 0 d cl f} def
/m27 {mp x y w2 add m w3 neg w2 neg d w3 w2 neg d w3 w2 d cl s} def
/m28 {mp x w2 sub y w2 sub w3 add m w3 0 d  0 w3 neg d w3 0 d 0 w3 d w3 0 d  0 w3 d w3 neg 0 d 0 w3 d w3 neg 0 d 0 w3 neg d w3 neg 0 d cl s } def
/m29 {mp gsave x w2 sub y w2 add w3 sub m currentpoint t 4 {side} repeat cl fill gr} def
/m30 {mp gsave x w2 sub y w2 add w3 sub m currentpoint t 4 {side} repeat cl s gr} def
/m31 {mp x y w2 sub m 0 w d x w2 sub y m w 0 d x w2 sub y w2 add m w w neg d x w2 sub y w2 sub m w w d s} def
/m32 {mp x y w2 sub m w2 w d w neg 0 d cl s} def
/m33 {mp x y w2 add m w3 neg w2 neg d w3 w2 neg d w3 w2 d cl f} def
/m34 {mp x w2 sub y w2 sub w3 add m w3 0 d  0 w3 neg d w3 0 d 0 w3 d w3 0 d  0 w3 d w3 neg 0 d 0 w3 d w3 neg 0 d 0 w3 neg d w3 neg 0 d cl f } def
/m2 {mp x y w2 sub m 0 w d x w2 sub y m w 0 d s} def
/m5 {mp x w2 sub y w2 sub m w w d x w2 sub y w2 add m w w neg d s} def
/reEncode {exch findfont dup length dict begin {1 index /FID eq  {pop pop} {def} ifelse } forall /Encoding exch def currentdict end dup /FontName get exch definefont pop } def [/Times-Bold /Times-Italic /Times-BoldItalic /Helvetica /Helvetica-Oblique
 /Helvetica-Bold /Helvetica-BoldOblique /Courier /Courier-Oblique /Courier-Bold /Courier-BoldOblique /Times-Roman /AvantGarde-Book /AvantGarde-BookOblique /AvantGarde-Demi /AvantGarde-DemiOblique /Bookman-Demi /Bookman-DemiItalic /Bookman-Light
 /Bookman-LightItalic /Helvetica-Narrow /Helvetica-Narrow-Bold /Helvetica-Narrow-BoldOblique /Helvetica-Narrow-Oblique /NewCenturySchlbk-Roman /NewCenturySchlbk-Bold /NewCenturySchlbk-BoldItalic /NewCenturySchlbk-Italic /Palatino-Bold
 /Palatino-BoldItalic /Palatino-Italic /Palatino-Roman ] {ISOLatin1Encoding reEncode } forall
%%EndProlog
%%BeginSetup
%%EndSetup
newpath  gsave  .25 .25 scale  gsave  0 0 t black[  ] 0 sd 3 lw 1 1 1 c 2268 1701 0 0 bf black 1 1 1 c 1837 1344 317 238 bf black 1837 1344 317 238 bl 1 1 1 c 1837 1344 317 238 bf black 1837 1344 317 238 bl 317 238 m 1837 X s
 gsave  2268 1701 0 0 C 1984.25 54.8641 t 0 r /Times-Roman findfont 96.0122 sf 0 0 m ( [ps]) show NC gr 
 gsave  2268 1701 0 0 C 1956.82 32.0041 t 0 r /Times-Roman findfont 64.0081 sf 0 0 m (z) show NC gr 
 gsave  2268 1701 0 0 C 1929.39 54.8641 t 0 r /Times-Roman findfont 96.0122 sf 0 0 m (t) show NC gr  317 279 m -41 Y s 440 259 m -21 Y s 562 259 m -21 Y s 685 259 m -21 Y s 807 259 m -21 Y s 930 279 m -41 Y s 1052 259 m -21 Y s 1175 259 m -21 Y s
 1297 259 m -21 Y s 1420 259 m -21 Y s 1542 279 m -41 Y s 1665 259 m -21 Y s 1787 259 m -21 Y s 1909 259 m -21 Y s 2032 259 m -21 Y s 2154 279 m -41 Y s
 gsave  2268 1701 0 0 C 283.465 146.304 t 0 r /Times-Roman findfont 77.7242 sf 0 0 m (\2555) show NC gr 
 gsave  2268 1701 0 0 C 905.258 146.304 t 0 r /Times-Roman findfont 77.7242 sf 0 0 m (0) show NC gr 
 gsave  2268 1701 0 0 C 1522.48 146.304 t 0 r /Times-Roman findfont 77.7242 sf 0 0 m (5) show NC gr 
 gsave  2268 1701 0 0 C 2112.27 146.304 t 0 r /Times-Roman findfont 77.7242 sf 0 0 m (10) show NC gr  317 1582 m 1837 X s 317 1540 m 42 Y s 440 1561 m 21 Y s 562 1561 m 21 Y s 685 1561 m 21 Y s 807 1561 m 21 Y s 930 1540 m 42 Y s 1052 1561 m 21 Y s
 1175 1561 m 21 Y s 1297 1561 m 21 Y s 1420 1561 m 21 Y s 1542 1540 m 42 Y s 1665 1561 m 21 Y s 1787 1561 m 21 Y s 1909 1561 m 21 Y s 2032 1561 m 21 Y s 2154 1540 m 42 Y s 317 238 m 1344 Y s
 gsave  2268 1701 0 0 C 123.444 617.221 t 90 r /Times-Roman findfont 96.0122 sf 0 0 m (Candidates / \(Bin Width\)) show NC gr  344 238 m -27 X s 344 288 m -27 X s 344 324 m -27 X s 344 352 m -27 X s 344 375 m -27 X s 344 394 m -27 X s 344 410 m -27 X
 s 344 425 m -27 X s 371 438 m -54 X s
 gsave  2268 1701 0 0 C 297.071 405.055 t 0 r  -39 0 t /Times-Roman findfont 77.7242 sf 0 0 m (1) show NC gr  344 524 m -27 X s 344 574 m -27 X s 344 610 m -27 X s 344 638 m -27 X s 344 660 m -27 X s 344 680 m -27 X s 344 696 m -27 X s 344 711 m -27
 X s 371 724 m -54 X s
 gsave  2268 1701 0 0 C 297.071 690.995 t 0 r  -79 0 t /Times-Roman findfont 77.7242 sf 0 0 m (10) show NC gr  344 810 m -27 X s 344 860 m -27 X s 344 896 m -27 X s 344 924 m -27 X s 344 946 m -27 X s 344 966 m -27 X s 344 982 m -27 X s 344 997 m -27
 X s 371 1010 m -54 X s
 gsave  2268 1701 0 0 C 265.177 1005.84 t 0 r /Times-Roman findfont 54.8641 sf 0 0 m (2) show NC gr 
 gsave  2268 1701 0 0 C 187.452 973.838 t 0 r /Times-Roman findfont 77.7242 sf 0 0 m (10) show NC gr  344 1096 m -27 X s 344 1146 m -27 X s 344 1182 m -27 X s 344 1210 m -27 X s 344 1232 m -27 X s 344 1252 m -27 X s 344 1268 m -27 X s 344 1283 m -27
 X s 371 1296 m -54 X s
 gsave  2268 1701 0 0 C 265.177 1298.45 t 0 r /Times-Roman findfont 54.8641 sf 0 0 m (3) show NC gr 
 gsave  2268 1701 0 0 C 187.452 1261.87 t 0 r /Times-Roman findfont 77.7242 sf 0 0 m (10) show NC gr  344 1382 m -27 X s 344 1432 m -27 X s 344 1468 m -27 X s 344 1496 m -27 X s 344 1518 m -27 X s 344 1537 m -27 X s 344 1554 m -27 X s 344 1569 m -27
 X s 371 1582 m -54 X s
 gsave  2268 1701 0 0 C 265.177 1577.34 t 0 r /Times-Roman findfont 54.8641 sf 0 0 m (4) show NC gr 
 gsave  2268 1701 0 0 C 187.452 1545.34 t 0 r /Times-Roman findfont 77.7242 sf 0 0 m (10) show NC gr  2154 238 m 1344 Y s 2127 238 m 27 X s 2127 288 m 27 X s 2127 324 m 27 X s 2127 352 m 27 X s 2127 375 m 27 X s 2127 394 m 27 X s 2127 410 m 27 X s
 2127 425 m 27 X s 2101 438 m 53 X s 2127 524 m 27 X s 2127 574 m 27 X s 2127 610 m 27 X s 2127 638 m 27 X s 2127 660 m 27 X s 2127 680 m 27 X s 2127 696 m 27 X s 2127 711 m 27 X s 2101 724 m 53 X s 2127 810 m 27 X s 2127 860 m 27 X s 2127 896 m 27 X
 s 2127 924 m 27 X s 2127 946 m 27 X s 2127 966 m 27 X s 2127 982 m 27 X s 2127 997 m 27 X s 2101 1010 m 53 X s 2127 1096 m 27 X s 2127 1146 m 27 X s 2127 1182 m 27 X s 2127 1210 m 27 X s 2127 1232 m 27 X s 2127 1252 m 27 X s 2127 1268 m 27 X s 2127
 1283 m 27 X s 2101 1296 m 53 X s 2127 1382 m 27 X s 2127 1432 m 27 X s 2127 1468 m 27 X s 2127 1496 m 27 X s 2127 1518 m 27 X s 2127 1537 m 27 X s 2127 1554 m 27 X s 2127 1569 m 27 X s 2101 1582 m 53 X s 386 238 m -69 X s 317 238 m 9 Y s 386 238 m
 69 X s 455 238 m 9 Y s 386 238 m 125 Y s 377 363 m 19 X s 524 238 m -69 X s 455 238 m 9 Y s 524 238 m 69 X s 593 238 m 9 Y s 524 238 m 125 Y s 515 363 m 18 X s 662 432 m -69 X s 593 423 m 18 Y s 662 432 m 69 X s 731 423 m 18 Y s 662 432 m 104 Y s
 653 536 m 18 X s 662 432 m -129 Y s 653 303 m 18 X s 800 568 m -69 X s 731 559 m 18 Y s 800 568 m 69 X s 869 559 m 18 Y s 800 568 m 58 Y s 791 626 m 18 X s 800 568 m -62 Y s 791 506 m 18 X s 884 869 m -15 X s 869 860 m 18 Y s 884 869 m 15 X s 899
 860 m 18 Y s 884 869 m 35 Y s 875 904 m 18 X s 884 869 m -37 Y s 875 832 m 18 X s 914 1329 m -15 X s 899 1320 m 18 Y s 914 1329 m 16 X s 930 1320 m 18 Y s 914 1329 m 5 Y s 905 1334 m 19 X s 914 1329 m -5 Y s 905 1324 m 19 X s 936 1441 m -6 X s 930
 1432 m 18 Y s 936 1441 m 6 X s 942 1432 m 18 Y s 936 1441 m 5 Y s 927 1446 m 18 X s 936 1441 m -5 Y s 927 1436 m 18 X s 948 1293 m -6 X s 942 1284 m 18 Y s 948 1293 m 6 X s 954 1284 m 18 Y s 948 1293 m 10 Y s 939 1303 m 18 X s 948 1293 m -9 Y s 939
 1284 m 18 X s 960 1192 m -6 X s 954 1183 m 18 Y s 960 1192 m 7 X s 967 1183 m 18 Y s 960 1192 m 15 Y s 951 1207 m 19 X s 960 1192 m -14 Y s 951 1178 m 19 X s 973 1081 m -6 X s 967 1071 m 19 Y s 973 1081 m 6 X s 979 1071 m 19 Y s 973 1081 m 23 Y s
 963 1104 m 19 X s 973 1081 m -24 Y s 963 1057 m 19 X s 985 991 m -6 X s 979 982 m 18 Y s 985 991 m 6 X s 991 982 m 18 Y s 985 991 m 34 Y s 976 1025 m 18 X s 985 991 m -36 Y s 976 955 m 18 X s 997 1005 m -6 X s 991 996 m 18 Y s 997 1005 m 6 X s 1003
 996 m 18 Y s 997 1005 m 32 Y s 988 1037 m 18 X s 997 1005 m -33 Y s 988 972 m 18 X s 1009 944 m -6 X s 1003 935 m 18 Y s 1009 944 m 6 X s 1015 935 m 18 Y s 1009 944 m 42 Y s 1000 986 m 19 X s 1009 944 m -44 Y s 1000 900 m 19 X s 1022 944 m -7 X s
 1015 935 m 18 Y s 1022 944 m 6 X s 1028 935 m 18 Y s 1022 944 m 42 Y s 1012 986 m 19 X s 1022 944 m -44 Y s 1012 900 m 19 X s 1034 888 m -6 X s 1028 879 m 18 Y s 1034 888 m 6 X s 1040 879 m 18 Y s 1034 888 m 54 Y s 1025 942 m 18 X s 1034 888 m -57 Y
 s 1025 831 m 18 X s 1046 869 m -6 X s 1040 860 m 18 Y s 1046 869 m 6 X s 1052 860 m 18 Y s 1046 869 m 58 Y s 1037 927 m 18 X s 1046 869 m -63 Y s 1037 806 m 18 X s 1068 830 m -16 X s 1052 821 m 19 Y s 1068 830 m 15 X s 1083 821 m 19 Y s 1068 830 m
 42 Y s 1058 872 m 19 X s 1068 830 m -43 Y s 1058 787 m 19 X s 1098 705 m -15 X s 1083 696 m 18 Y s 1098 705 m 15 X s 1113 696 m 18 Y s 1098 705 m 72 Y s 1089 777 m 18 X s 1098 705 m -81 Y s 1089 624 m 18 X s 1129 774 m -16 X s 1113 765 m 18 Y s 1129
 774 m 15 X s 1144 765 m 18 Y s 1129 774 m 54 Y s 1120 828 m 18 X s 1129 774 m -57 Y s 1120 717 m 18 X s 1159 669 m -15 X s 1144 660 m 18 Y s 1159 669 m 16 X s 1175 660 m 18 Y s 1159 669 m 84 Y s 1150 753 m 19 X s 1159 669 m -98 Y s 1150 571 m 19 X s
 1236 560 m -61 X s 1175 551 m 18 Y s 1236 560 m 61 X s 1297 551 m 18 Y s 1236 560 m 64 Y s 1227 624 m 18 X s 1236 560 m -70 Y s 1227 490 m 18 X s 1358 560 m -61 X s 1297 551 m 18 Y s 1358 560 m 62 X s 1420 551 m 18 Y s 1358 560 m 64 Y s 1349 624 m
 19 X s 1358 560 m -70 Y s 1349 490 m 19 X s 1481 360 m -61 X s 1420 351 m 19 Y s 1481 360 m 61 X s 1542 351 m 19 Y s 1481 360 m 149 Y s 1472 509 m 18 X s 1481 360 m -122 Y s 1472 238 m 18 X s 1603 447 m -61 X s 1542 437 m 19 Y s 1603 447 m 62 X s
 1665 437 m 19 Y s 1603 447 m 104 Y s 1594 551 m 18 X s 1603 447 m -129 Y s 1594 318 m 18 X s 1726 360 m -61 X s 1665 351 m 19 Y s 1726 360 m 61 X s 1787 351 m 19 Y s 1726 360 m 149 Y s 1717 509 m 18 X s 1726 360 m -122 Y s 1717 238 m 18 X s 1848 238
 m -61 X s 1787 238 m 9 Y s 1848 238 m 61 X s 1909 238 m 9 Y s 1848 238 m 140 Y s 1839 378 m 18 X s 1971 360 m -62 X s 1909 351 m 19 Y s 1971 360 m 61 X s 2032 351 m 19 Y s 1971 360 m 149 Y s 1962 509 m 18 X s 1971 360 m -122 Y s 1962 238 m 18 X s
 2093 238 m -61 X s 2032 238 m 9 Y s 2093 238 m 61 X s 2154 238 m 9 Y s 2093 238 m 140 Y s 2084 378 m 18 X s /w 37 def /w2 {w 2 div} def /w3 {w 3 div} def 662 432 800 568 884 869 914 1329 936 1441 948 1293 960 1192 973 1081 985 991 997 1005 1009 944
 1022 944 1034 888 1046 869 1068 830 1098 705 1129 774 1159 669 1236 560 1358 560 1481 360 1603 447 1726 360 23 { m20} R 1971 360 m20 0 0.8 0 c 9 lw black 0 0 1 c black 3 lw 0 0 1 c 1 lw << /PatternType 1 /PaintType 2 /TilingType 1 /BBox [ 0 0 100
 100 ] /XStep 98 /YStep 4 /PaintProc { begin gsave [1] 0 sd 2 4 m 99 4 l s 1 3 m 98 3 l s 2 2 m 99 2 l s 1 1 m 98 1 l s gr end } >> [ 4.0 0 0 4.0 0 0 ] makepattern /P01 exch def /cs {[/Pattern /DeviceRGB] setcolorspace} def /FA {f [/DeviceRGB]
 setcolorspace} def cs 0 0 1 P01 setcolor 848 238 m 2 28 d 19 231 d 9 125 d 9 133 d 4 71 d 5 75 d 2 38 d 3 40 d 2 39 d 2 40 d 3 40 d 2 40 d 2 41 d 2 41 d 3 42 d 2 45 d 2 47 d 3 48 d 2 43 d 2 30 d 3 8 d 2 -17 d 2 -36 d 2 -46 d 3 -48 d 2 -46 d 2 -44 d
 3 -42 d 2 -40 d 2 -41 d 2 -40 d 3 -40 d 2 -40 d 2 -39 d 3 -39 d 2 -38 d 5 -74 d 9 -138 d 18 -249 d 16 -188 d FA 9 lw 1 0 0 c black 1 0 0 c 872 238 m 15 197 d s 887 435 m 9 138 d 5 73 d 4 76 d 3 39 d 2 40 d 2 39 d 2 40 d 3 41 d 2 42 d 2 43 d 3 45 d 2
 45 d 2 42 d 3 35 d 2 24 d 2 13 d 2 5 d 3 -1 d 2 -3 d 18 -69 d 3 -10 d 2 -11 d 2 -10 d 3 -11 d 2 -11 d 2 -11 d 2 -10 d 3 -11 d 2 -11 d 2 -11 d 5 -22 d 5 -22 d 4 -22 d 5 -22 d 4 -23 d 5 -22 d 4 -22 d 10 -44 d 9 -44 d 9 -45 d 9 -44 d 19 -89 d 18 -88 d
 18 -89 d 19 -89 d 18 -88 d 5 -22 d s 1 1 0 c black 1 1 0 c 901 238 m 4 72 d s 905 310 m 3 39 d 2 39 d 2 39 d 2 40 d 3 40 d 2 41 d 2 43 d 3 44 d 2 45 d 2 42 d 3 36 d 2 27 d 2 17 d 2 11 d 3 6 d 2 4 d 2 1 d 3 1 d 4 X 5 -1 d 4 -3 d 19 -11 d 18 -13 d 18
 -12 d 19 -13 d 18 -12 d 19 -13 d 18 -12 d 18 -13 d 19 -13 d 18 -12 d 18 -13 d 19 -12 d 18 -13 d 19 -12 d 18 -13 d 18 -12 d 19 -13 d 18 -13 d 18 -12 d 19 -13 d 18 -12 d 18 -13 d 19 -12 d 18 -13 d 19 -12 d 18 -13 d 18 -12 d 19 -13 d 18 -13 d 18 -12 d
 19 -13 d 18 -12 d 19 -13 d 18 -12 d 18 -13 d 19 -12 d 18 -13 d 18 -13 d 19 -12 d 18 -13 d 18 -12 d 19 -13 d 18 -12 d 19 -13 d 18 -12 d 18 -13 d 11 -7 d s 0 1 0 c black 0 1 0 c 690 238 m 13 40 d s 703 278 m 19 55 d 18 55 d 18 56 d 19 55 d 9 27 d 9 28
 d 9 27 d 9 28 d 10 27 d 9 28 d 4 14 d 5 13 d 5 14 d 4 14 d 5 14 d 4 13 d 5 14 d 5 14 d 4 14 d 5 13 d 4 14 d 5 13 d 4 14 d 5 13 d 5 13 d 4 12 d 5 11 d 2 5 d 2 4 d 3 4 d 2 1 d 2 X 3 -4 d 2 -10 d 2 -19 d 5 -67 d 2 -44 d 2 -45 d 3 -44 d 2 -42 d 2 -41 d
 3 -41 d 2 -39 d 2 -40 d 2 -39 d 3 -39 d 4 -75 d 5 -78 d s 0 0 1 c black 0 0 1 c 690 238 m 13 40 d s 703 278 m 19 55 d 18 56 d 18 55 d 19 55 d 18 55 d 18 55 d 19 56 d 18 57 d 19 66 d 9 41 d 9 58 d 4 38 d 5 47 d 2 26 d 3 29 d 2 31 d 2 33 d 3 35 d 2 36
 d 2 36 d 2 38 d 3 40 d 2 43 d 2 46 d 3 46 d 2 43 d 2 30 d 3 10 d 2 -14 d 2 -29 d 2 -37 d 3 -37 d 2 -32 d 2 -29 d 3 -25 d 2 -23 d 2 -22 d 2 -19 d 3 -18 d 2 -17 d 2 -16 d 3 -14 d 2 -14 d 5 -25 d 4 -23 d 5 -22 d 9 -42 d 9 -38 d 9 -36 d 9 -34 d 19 -60 d
 18 -47 d 19 -37 d 18 -28 d 18 -22 d 19 -18 d 18 -15 d 18 -15 d 19 -13 d 18 -13 d 19 -13 d 18 -13 d 18 -12 d 19 -13 d 18 -12 d 18 -13 d 19 -13 d 18 -12 d 18 -13 d 19 -12 d 18 -13 d 19 -12 d 18 -13 d 18 -12 d 19 -13 d 18 -13 d 18 -12 d 19 -13 d 18 -12
 d 19 -13 d 18 -12 d 18 -13 d 19 -12 d 18 -13 d 18 -13 d 19 -12 d 18 -13 d 18 -12 d 19 -13 d 18 -12 d 19 -13 d 18 -12 d 18 -13 d 11 -7 d s black 3 lw 317 238 m 1837 X s 317 279 m -41 Y s 440 259 m -21 Y s 562 259 m -21 Y s 685 259 m -21 Y s 807 259 m
 -21 Y s 930 279 m -41 Y s 1052 259 m -21 Y s 1175 259 m -21 Y s 1297 259 m -21 Y s 1420 259 m -21 Y s 1542 279 m -41 Y s 1665 259 m -21 Y s 1787 259 m -21 Y s 1909 259 m -21 Y s 2032 259 m -21 Y s 2154 279 m -41 Y s 317 1582 m 1837 X s 317 1540 m 42
 Y s 440 1561 m 21 Y s 562 1561 m 21 Y s 685 1561 m 21 Y s 807 1561 m 21 Y s 930 1540 m 42 Y s 1052 1561 m 21 Y s 1175 1561 m 21 Y s 1297 1561 m 21 Y s 1420 1561 m 21 Y s 1542 1540 m 42 Y s 1665 1561 m 21 Y s 1787 1561 m 21 Y s 1909 1561 m 21 Y s
 2032 1561 m 21 Y s 2154 1540 m 42 Y s 317 238 m 1344 Y s 344 238 m -27 X s 344 288 m -27 X s 344 324 m -27 X s 344 352 m -27 X s 344 375 m -27 X s 344 394 m -27 X s 344 410 m -27 X s 344 425 m -27 X s 371 438 m -54 X s 344 524 m -27 X s 344 574 m
 -27 X s 344 610 m -27 X s 344 638 m -27 X s 344 660 m -27 X s 344 680 m -27 X s 344 696 m -27 X s 344 711 m -27 X s 371 724 m -54 X s 344 810 m -27 X s 344 860 m -27 X s 344 896 m -27 X s 344 924 m -27 X s 344 946 m -27 X s 344 966 m -27 X s 344 982
 m -27 X s 344 997 m -27 X s 371 1010 m -54 X s 344 1096 m -27 X s 344 1146 m -27 X s 344 1182 m -27 X s 344 1210 m -27 X s 344 1232 m -27 X s 344 1252 m -27 X s 344 1268 m -27 X s 344 1283 m -27 X s 371 1296 m -54 X s 344 1382 m -27 X s 344 1432 m
 -27 X s 344 1468 m -27 X s 344 1496 m -27 X s 344 1518 m -27 X s 344 1537 m -27 X s 344 1554 m -27 X s 344 1569 m -27 X s 371 1582 m -54 X s 2154 238 m 1344 Y s 2127 238 m 27 X s 2127 288 m 27 X s 2127 324 m 27 X s 2127 352 m 27 X s 2127 375 m 27 X
 s 2127 394 m 27 X s 2127 410 m 27 X s 2127 425 m 27 X s 2101 438 m 53 X s 2127 524 m 27 X s 2127 574 m 27 X s 2127 610 m 27 X s 2127 638 m 27 X s 2127 660 m 27 X s 2127 680 m 27 X s 2127 696 m 27 X s 2127 711 m 27 X s 2101 724 m 53 X s 2127 810 m 27
 X s 2127 860 m 27 X s 2127 896 m 27 X s 2127 924 m 27 X s 2127 946 m 27 X s 2127 966 m 27 X s 2127 982 m 27 X s 2127 997 m 27 X s 2101 1010 m 53 X s 2127 1096 m 27 X s 2127 1146 m 27 X s 2127 1182 m 27 X s 2127 1210 m 27 X s 2127 1232 m 27 X s 2127
 1252 m 27 X s 2127 1268 m 27 X s 2127 1283 m 27 X s 2101 1296 m 53 X s 2127 1382 m 27 X s 2127 1432 m 27 X s 2127 1468 m 27 X s 2127 1496 m 27 X s 2127 1518 m 27 X s 2127 1537 m 27 X s 2127 1554 m 27 X s 2127 1569 m 27 X s 2101 1582 m 53 X s
 gsave  2268 1701 0 0 C 1810.52 1161.29 t 0 r /Times-Roman findfont 59.4361 sf 0 0 m ( = 5 TeV) show NC gr 
 gsave  2268 1701 0 0 C 1755.65 1143 t 0 r /Times-Roman findfont 36.5761 sf 0 0 m (NN) show NC gr 
 gsave  2268 1701 0 0 C 1732.79 1161.29 t 0 r /Times-Roman findfont 59.4361 sf 0 0 m (s) show NC gr  6 lw 1710 1189 m 9 -51 d s 0 lw 1719 1138 m 9 69 d s 1728 1207 m 83 X s
 gsave  2268 1701 0 0 C 1449.33 1161.29 t 0 r /Times-Roman findfont 59.4361 sf 0 0 m (pPb\(Fwd\) ) show NC gr 
 gsave  2268 1701 0 0 C 1449.33 1243.59 t 0 r /Times-Roman findfont 73.1521 sf 0 0 m (Preliminary) show NC gr 
 gsave  2268 1701 0 0 C 1449.33 1316.74 t 0 r /Times-Roman findfont 73.1521 sf 0 0 m (LHCb) show NC gr 
 gsave  2268 1701 0 0 C 1449.33 937.262 t 0 r /Times-Roman findfont 73.1521 sf 0 0 m (1.5< y <4.0) show NC gr 
 gsave  2268 1701 0 0 C 1513.34 850.394 t 0 r /Times-Roman findfont 73.1521 sf 0 0 m ( < 14 GeV/c) show NC gr 
 gsave  2268 1701 0 0 C 1485.9 813.818 t 0 r /Times-Roman findfont 45.7201 sf 0 0 m (T) show NC gr 
 gsave  2268 1701 0 0 C 1449.33 850.394 t 0 r /Times-Roman findfont 73.1521 sf 0 0 m (p) show NC gr 
 gr  gr showpage
end
%%EOF
