%!PS-Adobe-2.0 EPSF-2.0
%%BoundingBox:  0 0 567 425
%%Title: ../result/Rec/ApD_psip_receff_2D.eps: 
%%Creator: ROOT Version 5.34/25
%%CreationDate: Wed Sep  2 19:51:09 2015
%%EndComments
%%BeginProlog
80 dict begin
/s {stroke} def /l {lineto} def /m {moveto} def /t {translate} def
/r {rotate} def /rl {roll}  def /R {repeat} def
/d {rlineto} def /rm {rmoveto} def /gr {grestore} def /f {eofill} def
/c {setrgbcolor} def /black {0 setgray} def /sd {setdash} def
/cl {closepath} def /sf {scalefont setfont} def /lw {setlinewidth} def
/box {m dup 0 exch d exch 0 d 0 exch neg d cl} def
/NC{systemdict begin initclip end}def/C{NC box clip newpath}def
/bl {box s} def /bf {box f} def /Y { 0 exch d} def /X { 0 d} def 
/K {{pop pop 0 moveto} exch kshow} bind def
/ita {/ang 15 def gsave [1 0 ang dup sin exch cos div 1 0 0] concat} def 
/mp {newpath /y exch def /x exch def} def
/side {[w .77 mul w .23 mul] .385 w mul sd w 0 l currentpoint t -144 r} def
/mr {mp x y w2 0 360 arc} def /m24 {mr s} def /m20 {mr f} def
/mb {mp x y w2 add m w2 neg 0 d 0 w neg d w 0 d 0 w d cl} def
/mt {mp x y w2 add m w2 neg w neg d w 0 d cl} def
/m21 {mb f} def /m25 {mb s} def /m22 {mt f} def /m26{mt s} def
/m23 {mp x y w2 sub m w2 w d w neg 0 d cl f} def
/m27 {mp x y w2 add m w3 neg w2 neg d w3 w2 neg d w3 w2 d cl s} def
/m28 {mp x w2 sub y w2 sub w3 add m w3 0 d  0 w3 neg d w3 0 d 0 w3 d w3 0 d  0 w3 d w3 neg 0 d 0 w3 d w3 neg 0 d 0 w3 neg d w3 neg 0 d cl s } def
/m29 {mp gsave x w2 sub y w2 add w3 sub m currentpoint t 4 {side} repeat cl fill gr} def
/m30 {mp gsave x w2 sub y w2 add w3 sub m currentpoint t 4 {side} repeat cl s gr} def
/m31 {mp x y w2 sub m 0 w d x w2 sub y m w 0 d x w2 sub y w2 add m w w neg d x w2 sub y w2 sub m w w d s} def
/m32 {mp x y w2 sub m w2 w d w neg 0 d cl s} def
/m33 {mp x y w2 add m w3 neg w2 neg d w3 w2 neg d w3 w2 d cl f} def
/m34 {mp x w2 sub y w2 sub w3 add m w3 0 d  0 w3 neg d w3 0 d 0 w3 d w3 0 d  0 w3 d w3 neg 0 d 0 w3 d w3 neg 0 d 0 w3 neg d w3 neg 0 d cl f } def
/m2 {mp x y w2 sub m 0 w d x w2 sub y m w 0 d s} def
/m5 {mp x w2 sub y w2 sub m w w d x w2 sub y w2 add m w w neg d s} def
/reEncode {exch findfont dup length dict begin {1 index /FID eq  {pop pop} {def} ifelse } forall /Encoding exch def currentdict end dup /FontName get exch definefont pop } def [/Times-Bold /Times-Italic /Times-BoldItalic /Helvetica /Helvetica-Oblique
 /Helvetica-Bold /Helvetica-BoldOblique /Courier /Courier-Oblique /Courier-Bold /Courier-BoldOblique /Times-Roman /AvantGarde-Book /AvantGarde-BookOblique /AvantGarde-Demi /AvantGarde-DemiOblique /Bookman-Demi /Bookman-DemiItalic /Bookman-Light
 /Bookman-LightItalic /Helvetica-Narrow /Helvetica-Narrow-Bold /Helvetica-Narrow-BoldOblique /Helvetica-Narrow-Oblique /NewCenturySchlbk-Roman /NewCenturySchlbk-Bold /NewCenturySchlbk-BoldItalic /NewCenturySchlbk-Italic /Palatino-Bold
 /Palatino-BoldItalic /Palatino-Italic /Palatino-Roman ] {ISOLatin1Encoding reEncode } forall
%%EndProlog
%%BeginSetup
%%EndSetup
newpath  gsave  .25 .25 scale  gsave  0 0 t black[  ] 0 sd 6 lw 1 1 1 c 2268 1701 0 0 bf black 1 1 1 c 1837 1344 317 238 bf black 1837 1344 317 238 bl 1 1 1 c 1837 1344 317 238 bf black 1837 1344 317 238 bl 1 1 1 c black 317 722 m 48 X s 401 722 m 48
 X s 3 lw /w 37 def /w2 {w 2 div} def /w3 {w 3 div} def 383 722 m20 6 lw 449 702 m 47 X s 533 702 m 47 X s 3 lw 514 702 m20 6 lw 580 629 m 47 X s 664 629 m 47 X s 3 lw 645 629 m20 6 lw 711 585 m 47 X s 795 585 m 47 X s 3 lw 777 585 m20 6 lw 842 613 m
 48 X s 926 613 m 47 X s 3 lw 908 613 m20 6 lw 973 645 m 48 X s 1057 645 m 48 X s 3 lw 1039 645 m20 6 lw 1105 694 m 47 X s 1189 694 m 47 X s 3 lw 1170 694 m20 6 lw 1236 726 m 47 X s 1320 726 m 47 X s 3 lw 1302 726 m20 6 lw 1367 761 m 113 X s 1517 761
 m 113 X s 3 lw 1498 761 m20 6 lw 1630 839 m 244 X s 1910 839 m 244 X s 3 lw 1892 839 m20 6 lw 317 238 m 1837 X s
 gsave  2268 1701 0 0 C 1796.8 64.0081 t 0 r /Helvetica-Bold findfont 96.0122 sf 0 0 m ( [GeV/c]) show NC gr 
 gsave  2268 1701 0 0 C 1755.65 13.716 t 0 r /Helvetica-Bold findfont 64.0081 sf 0 0 m (T) show NC gr 
 gsave  2268 1701 0 0 C 1696.22 64.0081 t 0 r /Helvetica-Bold findfont 96.0122 sf 0 0 m (p) show NC gr  317 279 m -41 Y s 449 259 m -21 Y s 580 259 m -21 Y s 711 259 m -21 Y s 842 259 m -21 Y s 973 279 m -41 Y s 1105 259 m -21 Y s 1236 259 m -21 Y s
 1367 259 m -21 Y s 1498 259 m -21 Y s 1630 279 m -41 Y s 1630 279 m -41 Y s 1761 259 m -21 Y s 1892 259 m -21 Y s 2023 259 m -21 Y s
 gsave  2268 1701 0 0 C 292.609 146.304 t 0 r /Helvetica-Bold findfont 77.7242 sf 0 0 m (0) show NC gr 
 gsave  2268 1701 0 0 C 946.406 146.304 t 0 r /Helvetica-Bold findfont 77.7242 sf 0 0 m (5) show NC gr 
 gsave  2268 1701 0 0 C 1581.92 146.304 t 0 r /Helvetica-Bold findfont 77.7242 sf 0 0 m (10) show NC gr  317 1582 m 1837 X s 317 1540 m 42 Y s 449 1561 m 21 Y s 580 1561 m 21 Y s 711 1561 m 21 Y s 842 1561 m 21 Y s 973 1540 m 42 Y s 1105 1561 m 21 Y
 s 1236 1561 m 21 Y s 1367 1561 m 21 Y s 1498 1561 m 21 Y s 1630 1540 m 42 Y s 1630 1540 m 42 Y s 1761 1561 m 21 Y s 1892 1561 m 21 Y s 2023 1561 m 21 Y s 317 238 m 1344 Y s 371 238 m -54 X s 344 297 m -27 X s 344 355 m -27 X s 344 413 m -27 X s 371
 472 m -54 X s 344 530 m -27 X s 344 589 m -27 X s 344 647 m -27 X s 371 705 m -54 X s 344 764 m -27 X s 344 822 m -27 X s 344 881 m -27 X s 371 939 m -54 X s 344 998 m -27 X s 344 1056 m -27 X s 344 1114 m -27 X s 371 1173 m -54 X s 344 1231 m -27 X
 s 344 1290 m -27 X s 344 1348 m -27 X s 371 1406 m -54 X s 371 1406 m -54 X s 344 1465 m -27 X s 344 1523 m -27 X s
 gsave  2268 1701 0 0 C 260.605 210.312 t 0 r /Helvetica-Bold findfont 77.7242 sf 0 0 m (0) show NC gr 
 gsave  2268 1701 0 0 C 196.596 443.485 t 0 r /Helvetica-Bold findfont 77.7242 sf 0 0 m (0.2) show NC gr 
 gsave  2268 1701 0 0 C 192.024 676.657 t 0 r /Helvetica-Bold findfont 77.7242 sf 0 0 m (0.4) show NC gr 
 gsave  2268 1701 0 0 C 196.596 909.83 t 0 r /Helvetica-Bold findfont 77.7242 sf 0 0 m (0.6) show NC gr 
 gsave  2268 1701 0 0 C 192.024 1143 t 0 r /Helvetica-Bold findfont 77.7242 sf 0 0 m (0.8) show NC gr 
 gsave  2268 1701 0 0 C 269.749 1376.17 t 0 r /Helvetica-Bold findfont 77.7242 sf 0 0 m (1) show NC gr  2154 238 m 1344 Y s 2101 238 m 53 X s 2127 297 m 27 X s 2127 355 m 27 X s 2127 413 m 27 X s 2101 472 m 53 X s 2127 530 m 27 X s 2127 589 m 27 X s
 2127 647 m 27 X s 2101 705 m 53 X s 2127 764 m 27 X s 2127 822 m 27 X s 2127 881 m 27 X s 2101 939 m 53 X s 2127 998 m 27 X s 2127 1056 m 27 X s 2127 1114 m 27 X s 2101 1173 m 53 X s 2127 1231 m 27 X s 2127 1290 m 27 X s 2127 1348 m 27 X s 2101 1406
 m 53 X s 2101 1406 m 53 X s 2127 1465 m 27 X s 2127 1523 m 27 X s 1 0 0 c 1 1 1 c 1 0 0 c 317 969 m 48 X s 401 969 m 48 X s 3 lw 383 969 m21 6 lw 449 894 m 47 X s 533 894 m 47 X s 3 lw 514 894 m21 6 lw 580 787 m 47 X s 664 787 m 47 X s 3 lw 645 787
 m21 6 lw 711 775 m 47 X s 795 775 m 47 X s 3 lw 777 775 m21 6 lw 842 829 m 48 X s 926 829 m 47 X s 3 lw 908 829 m21 6 lw 973 889 m 48 X s 1057 889 m 48 X s 3 lw 1039 889 m21 6 lw 1105 921 m 47 X s 1189 921 m 47 X s 3 lw 1170 921 m21 6 lw 1236 919 m
 47 X s 1320 919 m 47 X s 3 lw 1302 919 m21 6 lw 1367 983 m 113 X s 1517 983 m 113 X s 3 lw 1498 983 m21 6 lw 1630 1013 m 244 X s 1910 1013 m 244 X s 3 lw 1892 1013 m21 6 lw 0 1 0 c 1 1 1 c 0 1 0 c 317 961 m 48 X s 401 961 m 48 X s 3 lw 383 961 m22 6
 lw 449 906 m 47 X s 533 906 m 47 X s 3 lw 514 906 m22 6 lw 580 819 m 47 X s 664 819 m 47 X s 3 lw 645 819 m22 6 lw 711 810 m 47 X s 795 810 m 47 X s 3 lw 777 810 m22 6 lw 842 858 m 48 X s 926 858 m 47 X s 3 lw 908 858 m22 6 lw 973 889 m 48 X s 1057
 889 m 48 X s 3 lw 1039 889 m22 6 lw 1105 929 m 47 X s 1189 929 m 47 X s 3 lw 1170 929 m22 6 lw 1236 947 m 47 X s 1320 947 m 47 X s 3 lw 1302 947 m22 6 lw 1367 981 m 113 X s 1517 981 m 113 X s 3 lw 1498 981 m22 6 lw 1630 1049 m 244 X s 1910 1049 m
 244 X s 3 lw 1892 1049 m22 6 lw 0 0 1 c 1 1 1 c 0 0 1 c 317 859 m 48 X s 401 859 m 48 X s 3 lw 383 859 m23 6 lw 449 804 m 47 X s 533 804 m 47 X s 3 lw 514 804 m23 6 lw 580 735 m 47 X s 664 735 m 47 X s 3 lw 645 735 m23 6 lw 711 729 m 47 X s 795 729
 m 47 X s 3 lw 777 729 m23 6 lw 842 787 m 48 X s 926 787 m 47 X s 3 lw 908 787 m23 6 lw 973 824 m 48 X s 1057 824 m 48 X s 3 lw 1039 824 m23 6 lw 1105 866 m 47 X s 1189 866 m 47 X s 3 lw 1170 866 m23 6 lw 1236 925 m 47 X s 1320 925 m 47 X s 3 lw 1302
 925 m23 6 lw 1367 937 m 113 X s 1517 937 m 113 X s 3 lw 1498 937 m23 6 lw 1630 989 m 244 X s 1910 989 m 244 X s 3 lw 1892 989 m23 6 lw 1 0 1 c 1 1 1 c 1 0 1 c 317 638 m 48 X s 401 638 m 48 X s 3 lw 383 638 m24 6 lw 449 608 m 47 X s 533 608 m 47 X s
 3 lw 514 608 m24 6 lw 580 530 m 47 X s 664 530 m 47 X s 3 lw 645 530 m24 6 lw 711 498 m 47 X s 795 498 m 47 X s 3 lw 777 498 m24 6 lw 842 520 m 48 X s 926 520 m 47 X s 3 lw 908 520 m24 6 lw 973 551 m 48 X s 1057 551 m 48 X s 3 lw 1039 551 m24 6 lw
 1105 607 m 47 X s 1189 607 m 47 X s 3 lw 1170 607 m24 6 lw 1236 628 m 47 X s 1320 628 m 47 X s 3 lw 1302 628 m24 6 lw 1367 692 m 113 X s 1517 692 m 113 X s 3 lw 1498 692 m24 6 lw 1630 751 m 244 X s 1910 751 m 244 X s 3 lw 1892 751 m24 6 lw black 1 1
 1 c 454 425 1655 272 bf black
 gsave  2268 1701 0 0 C 1764.8 640.081 t 0 r /Helvetica-Bold findfont 68.5801 sf 0 0 m (2.5<y<3.0) show NC gr  3 lw 1712 655 m20 6 lw
 gsave  2268 1701 0 0 C 1764.8 553.213 t 0 r /Helvetica-Bold findfont 68.5801 sf 0 0 m (3.0<y<3.5) show NC gr  1 0 0 c 3 lw 1712 570 m21 6 lw black
 gsave  2268 1701 0 0 C 1764.8 466.345 t 0 r /Helvetica-Bold findfont 68.5801 sf 0 0 m (3.5<y<4.0) show NC gr  0 1 0 c 3 lw 1712 485 m22 6 lw black
 gsave  2268 1701 0 0 C 1764.8 384.049 t 0 r /Helvetica-Bold findfont 68.5801 sf 0 0 m (4.0<y<4.5) show NC gr  0 0 1 c 3 lw 1712 400 m23 6 lw black
 gsave  2268 1701 0 0 C 1764.8 297.181 t 0 r /Helvetica-Bold findfont 68.5801 sf 0 0 m (4.5<y<5.0) show NC gr  1 0 1 c 3 lw 1712 315 m24 6 lw black
 gsave  2268 1701 0 0 C 859.538 1289.31 t 0 r /Helvetica-Bold findfont 64.0081 sf 0 0 m ( = 5 TeV) show NC gr 
 gsave  2268 1701 0 0 C 800.102 1266.45 t 0 r /Helvetica-Bold findfont 41.1481 sf 0 0 m (NN) show NC gr 
 gsave  2268 1701 0 0 C 763.526 1289.31 t 0 r /Helvetica-Bold findfont 64.0081 sf 0 0 m (s) show NC gr  736 1326 m 9 -60 d s 0 lw 745 1266 m 9 78 d s 754 1344 m 106 X s
 gsave  2268 1701 0 0 C 406.909 1289.31 t 0 r /Helvetica-Bold findfont 64.0081 sf 0 0 m (pPb\(Bwd\) ) show NC gr 
 gsave  2268 1701 0 0 C 406.909 1380.75 t 0 r /Helvetica-Bold findfont 77.7242 sf 0 0 m (Preliminary) show NC gr 
 gsave  2268 1701 0 0 C 406.909 1467.61 t 0 r /Helvetica-Bold findfont 77.7242 sf 0 0 m (LHCb) show NC gr 
 gr  gr showpage
end
%%EOF
