%!PS-Adobe-2.0 EPSF-2.0
%%BoundingBox:  0 0 567 425
%%Title: ../result/CNM/R_FB_pt.eps: 
%%Creator: ROOT Version 5.34/18
%%CreationDate: Wed Sep 23 01:07:46 2015
%%EndComments
%%BeginProlog
80 dict begin
/s {stroke} def /l {lineto} def /m {moveto} def /t {translate} def
/r {rotate} def /rl {roll}  def /R {repeat} def
/d {rlineto} def /rm {rmoveto} def /gr {grestore} def /f {eofill} def
/c {setrgbcolor} def /black {0 setgray} def /sd {setdash} def
/cl {closepath} def /sf {scalefont setfont} def /lw {setlinewidth} def
/box {m dup 0 exch d exch 0 d 0 exch neg d cl} def
/NC{systemdict begin initclip end}def/C{NC box clip newpath}def
/bl {box s} def /bf {box f} def /Y { 0 exch d} def /X { 0 d} def 
/K {{pop pop 0 moveto} exch kshow} bind def
/ita {/ang 15 def gsave [1 0 ang dup sin exch cos div 1 0 0] concat} def 
/mp {newpath /y exch def /x exch def} def
/side {[w .77 mul w .23 mul] .385 w mul sd w 0 l currentpoint t -144 r} def
/mr {mp x y w2 0 360 arc} def /m24 {mr s} def /m20 {mr f} def
/mb {mp x y w2 add m w2 neg 0 d 0 w neg d w 0 d 0 w d cl} def
/mt {mp x y w2 add m w2 neg w neg d w 0 d cl} def
/m21 {mb f} def /m25 {mb s} def /m22 {mt f} def /m26{mt s} def
/m23 {mp x y w2 sub m w2 w d w neg 0 d cl f} def
/m27 {mp x y w2 add m w3 neg w2 neg d w3 w2 neg d w3 w2 d cl s} def
/m28 {mp x w2 sub y w2 sub w3 add m w3 0 d  0 w3 neg d w3 0 d 0 w3 d w3 0 d  0 w3 d w3 neg 0 d 0 w3 d w3 neg 0 d 0 w3 neg d w3 neg 0 d cl s } def
/m29 {mp gsave x w2 sub y w2 add w3 sub m currentpoint t 4 {side} repeat cl fill gr} def
/m30 {mp gsave x w2 sub y w2 add w3 sub m currentpoint t 4 {side} repeat cl s gr} def
/m31 {mp x y w2 sub m 0 w d x w2 sub y m w 0 d x w2 sub y w2 add m w w neg d x w2 sub y w2 sub m w w d s} def
/m32 {mp x y w2 sub m w2 w d w neg 0 d cl s} def
/m33 {mp x y w2 add m w3 neg w2 neg d w3 w2 neg d w3 w2 d cl f} def
/m34 {mp x w2 sub y w2 sub w3 add m w3 0 d  0 w3 neg d w3 0 d 0 w3 d w3 0 d  0 w3 d w3 neg 0 d 0 w3 d w3 neg 0 d 0 w3 neg d w3 neg 0 d cl f } def
/m2 {mp x y w2 sub m 0 w d x w2 sub y m w 0 d s} def
/m5 {mp x w2 sub y w2 sub m w w d x w2 sub y w2 add m w w neg d s} def
/reEncode {exch findfont dup length dict begin {1 index /FID eq  {pop pop} {def} ifelse } forall /Encoding exch def currentdict end dup /FontName get exch definefont pop } def [/Times-Bold /Times-Italic /Times-BoldItalic /Helvetica /Helvetica-Oblique
 /Helvetica-Bold /Helvetica-BoldOblique /Courier /Courier-Oblique /Courier-Bold /Courier-BoldOblique /Times-Roman /AvantGarde-Book /AvantGarde-BookOblique /AvantGarde-Demi /AvantGarde-DemiOblique /Bookman-Demi /Bookman-DemiItalic /Bookman-Light
 /Bookman-LightItalic /Helvetica-Narrow /Helvetica-Narrow-Bold /Helvetica-Narrow-BoldOblique /Helvetica-Narrow-Oblique /NewCenturySchlbk-Roman /NewCenturySchlbk-Bold /NewCenturySchlbk-BoldItalic /NewCenturySchlbk-Italic /Palatino-Bold
 /Palatino-BoldItalic /Palatino-Italic /Palatino-Roman ] {ISOLatin1Encoding reEncode } forall
%%EndProlog
%%BeginSetup
%%EndSetup
newpath  gsave  .25 .25 scale  gsave  0 0 t black[  ] 0 sd 6 lw 1 1 1 c 2268 1701 0 0 bf black 1 1 1 c 1837 1344 317 238 bf black 1837 1344 317 238 bl 1 1 1 c 1837 1344 317 238 bf black 1837 1344 317 238 bl 317 238 m 1837 X s
 gsave  2268 1701 0 0 C 1810.52 64.0081 t 0 r /Helvetica findfont 96.0122 sf 0 0 m ( [GeV/c]) show NC gr 
 gsave  2268 1701 0 0 C 1769.37 13.716 t 0 r /Helvetica findfont 64.0081 sf 0 0 m (T) show NC gr 
 gsave  2268 1701 0 0 C 1709.93 64.0081 t 0 r /Times-Italic findfont 96.0122 sf 0 0 m (p) show NC gr  317 279 m -41 Y s 449 259 m -21 Y s 580 259 m -21 Y s 711 259 m -21 Y s 842 259 m -21 Y s 973 279 m -41 Y s 1105 259 m -21 Y s 1236 259 m -21 Y s
 1367 259 m -21 Y s 1498 259 m -21 Y s 1630 279 m -41 Y s 1630 279 m -41 Y s 1761 259 m -21 Y s 1892 259 m -21 Y s 2023 259 m -21 Y s
 gsave  2268 1701 0 0 C 292.609 146.304 t 0 r /Helvetica findfont 77.7242 sf 0 0 m (0) show NC gr 
 gsave  2268 1701 0 0 C 946.406 146.304 t 0 r /Helvetica findfont 77.7242 sf 0 0 m (5) show NC gr 
 gsave  2268 1701 0 0 C 1581.92 146.304 t 0 r /Helvetica findfont 77.7242 sf 0 0 m (10) show NC gr  317 1582 m 1837 X s 317 1540 m 42 Y s 449 1561 m 21 Y s 580 1561 m 21 Y s 711 1561 m 21 Y s 842 1561 m 21 Y s 973 1540 m 42 Y s 1105 1561 m 21 Y s
 1236 1561 m 21 Y s 1367 1561 m 21 Y s 1498 1561 m 21 Y s 1630 1540 m 42 Y s 1630 1540 m 42 Y s 1761 1561 m 21 Y s 1892 1561 m 21 Y s 2023 1561 m 21 Y s 317 238 m 1344 Y s
 gsave  2268 1701 0 0 C 146.304 1499.62 t 90 r /Helvetica findfont 64.0081 sf 0 0 m (FB) show NC gr 
 gsave  2268 1701 0 0 C 114.3 1435.61 t 90 r /Times-Italic findfont 96.0122 sf 0 0 m (R) show NC gr  371 315 m -54 X s 344 353 m -27 X s 344 392 m -27 X s 344 430 m -27 X s 344 468 m -27 X s 371 507 m -54 X s 344 545 m -27 X s 344 584 m -27 X s 344
 622 m -27 X s 344 660 m -27 X s 371 699 m -54 X s 344 737 m -27 X s 344 776 m -27 X s 344 814 m -27 X s 344 852 m -27 X s 371 891 m -54 X s 344 929 m -27 X s 344 968 m -27 X s 344 1006 m -27 X s 344 1044 m -27 X s 371 1083 m -54 X s 344 1121 m -27 X
 s 344 1159 m -27 X s 344 1198 m -27 X s 344 1236 m -27 X s 371 1275 m -54 X s 344 1313 m -27 X s 344 1351 m -27 X s 344 1390 m -27 X s 344 1428 m -27 X s 371 1467 m -54 X s 371 315 m -54 X s 344 276 m -27 X s 344 238 m -27 X s 371 1467 m -54 X s 344
 1505 m -27 X s 344 1543 m -27 X s
 gsave  2268 1701 0 0 C 169.164 283.465 t 0 r /Helvetica findfont 77.7242 sf 0 0 m (\2550.5) show NC gr 
 gsave  2268 1701 0 0 C 260.605 475.489 t 0 r /Helvetica findfont 77.7242 sf 0 0 m (0) show NC gr 
 gsave  2268 1701 0 0 C 196.596 667.513 t 0 r /Helvetica findfont 77.7242 sf 0 0 m (0.5) show NC gr 
 gsave  2268 1701 0 0 C 274.321 859.538 t 0 r /Helvetica findfont 77.7242 sf 0 0 m (1) show NC gr 
 gsave  2268 1701 0 0 C 196.596 1051.56 t 0 r /Helvetica findfont 77.7242 sf 0 0 m (1.5) show NC gr 
 gsave  2268 1701 0 0 C 260.605 1243.59 t 0 r /Helvetica findfont 77.7242 sf 0 0 m (2) show NC gr 
 gsave  2268 1701 0 0 C 196.596 1435.61 t 0 r /Helvetica findfont 77.7242 sf 0 0 m (2.5) show NC gr  2154 238 m 1344 Y s 2101 315 m 53 X s 2127 353 m 27 X s 2127 392 m 27 X s 2127 430 m 27 X s 2127 468 m 27 X s 2101 507 m 53 X s 2127 545 m 27 X s
 2127 584 m 27 X s 2127 622 m 27 X s 2127 660 m 27 X s 2101 699 m 53 X s 2127 737 m 27 X s 2127 776 m 27 X s 2127 814 m 27 X s 2127 852 m 27 X s 2101 891 m 53 X s 2127 929 m 27 X s 2127 968 m 27 X s 2127 1006 m 27 X s 2127 1044 m 27 X s 2101 1083 m
 53 X s 2127 1121 m 27 X s 2127 1159 m 27 X s 2127 1198 m 27 X s 2127 1236 m 27 X s 2101 1275 m 53 X s 2127 1313 m 27 X s 2127 1351 m 27 X s 2127 1390 m 27 X s 2127 1428 m 27 X s 2101 1467 m 53 X s 2101 315 m 53 X s 2127 276 m 27 X s 2127 238 m 27 X
 s 2101 1467 m 53 X s 2127 1505 m 27 X s 2127 1543 m 27 X s 3 lw /w 37 def /w2 {w 2 div} def /w3 {w 3 div} def 449 838 645 935 842 874 1105 998 1695 973 5 { m20} R 6 lw 430 838 m -113 X s 317 820 m 37 Y s 467 838 m 113 X s 580 820 m 37 Y s 449 857 m
 207 Y s 430 1064 m 37 X s 449 820 m -207 Y s 430 613 m 37 X s 627 935 m -47 X s 580 917 m 37 Y s 664 935 m 47 X s 711 917 m 37 Y s 645 954 m 247 Y s 627 1201 m 37 X s 645 917 m -247 Y s 627 670 m 37 X s 824 874 m -113 X s 711 856 m 36 Y s 861 874 m
 112 X s 973 856 m 36 Y s 842 892 m 169 Y s 824 1061 m 37 X s 842 856 m -169 Y s 824 687 m 37 X s 1086 998 m -113 X s 973 979 m 37 Y s 1123 998 m 113 X s 1236 979 m 37 Y s 1105 1016 m 239 Y s 1086 1255 m 37 X s 1105 979 m -239 Y s 1086 740 m 37 X s
 1677 973 m -441 X s 1236 955 m 37 Y s 1713 973 m 441 X s 2154 955 m 37 Y s 1695 992 m 234 Y s 1677 1226 m 36 X s 1695 955 m -234 Y s 1677 721 m 36 X s 0.999 0.999 0.999 c 907 170 1179 1361 bf black
 gsave  2268 1701 0 0 C 1810.52 1472.19 t 0 r /Times-Roman findfont 64.0081 sf 0 0 m ( ) show NC gr 
 gsave  2268 1701 0 0 C 1705.36 1472.19 t 0 r /Times-Italic findfont 64.0081 sf 0 0 m (\(2S\)) show NC gr 
 gsave  2268 1701 0 0 C 1659.64 1472.19 t 0 r /Symbol findfont 64.0081 sf 0 0 m (y) show NC gr 
 gsave  2268 1701 0 0 C 1403.61 1472.19 t 0 r /Times-Roman findfont 64.0081 sf 0 0 m (Inclusive ) show NC gr  1213 1488 m 159 X s 1293 1463 m 51 Y s 3 lw 1293 1488 m20 6 lw
 gsave  2268 1701 0 0 C 1764.8 1385.32 t 0 r /Times-Roman findfont 64.0081 sf 0 0 m ( ) show NC gr 
 gsave  2268 1701 0 0 C 1719.08 1385.32 t 0 r /Symbol findfont 64.0081 sf 0 0 m (y) show NC gr 
 gsave  2268 1701 0 0 C 1659.64 1385.32 t 0 r /Times-Italic findfont 64.0081 sf 0 0 m (J/) show NC gr 
 gsave  2268 1701 0 0 C 1403.61 1385.32 t 0 r /Times-Roman findfont 64.0081 sf 0 0 m (Inclusive ) show NC gr  1 0 0 c 1213 1403 m 159 X s 1293 1378 m 51 Y s 3 lw 1293 1403 m21 6 lw black
 gsave  2268 1701 0 0 C 726.949 1367.03 t 0 r /Helvetica findfont 77.7242 sf 0 0 m ( = 5 TeV) show NC gr 
 gsave  2268 1701 0 0 C 644.653 1339.6 t 0 r /Times-Italic findfont 54.8641 sf 0 0 m (NN) show NC gr 
 gsave  2268 1701 0 0 C 612.649 1367.03 t 0 r /Times-Italic findfont 77.7242 sf 0 0 m (s) show NC gr  581 1404 m 13 -69 d s 0 lw 594 1335 m 10 87 d s 604 1422 m 123 X s
 gsave  2268 1701 0 0 C 406.909 1367.03 t 0 r /Helvetica findfont 77.7242 sf 0 0 m (pPb ) show NC gr 
 gsave  2268 1701 0 0 C 406.909 1463.04 t 0 r /Helvetica findfont 77.7242 sf 0 0 m (LHCb preliminary) show NC gr 
 gsave  2268 1701 0 0 C 1490.47 1275.59 t 0 r /Helvetica findfont 77.7242 sf 0 0 m (| < 4.0) show NC gr 
 gsave  2268 1701 0 0 C 1453.9 1275.59 t 0 r /Times-Italic findfont 77.7242 sf 0 0 m (y) show NC gr 
 gsave  2268 1701 0 0 C 1243.59 1275.59 t 0 r /Helvetica findfont 77.7242 sf 0 0 m (2.5 < |) show NC gr  0.8 0.8 0.8 c[ 12 12] 0 sd 6 lw 317 891 m 1837 X s 0 1 1 c[  ] 0 sd 0 lw 3 lw 1 lw << /PatternType 1 /PaintType 2 /TilingType 1 /BBox [ 0 0 100
 100 ] /XStep 100 /YStep 100 /PaintProc { begin gsave 50 0 m 50 100 l s gr end } >> [ 0.12 0 0 0.12 0 0 ] makepattern /P06 exch def /cs {[/Pattern /DeviceRGB] setcolorspace} def /FA {f [/DeviceRGB] setcolorspace} def cs 0 1 1 P06 setcolor 514 770 m
 131 42 d 132 -5 d 131 2 d 131 -1 d 131 7 d 132 -5 d 131 17 d 131 -3 d 131 9 d 131 -6 d 132 14 d 131 7 d 54 Y -131 -15 d -132 3 d -131 -22 d -131 17 d -131 -11 d -131 -1 d -132 -3 d -131 5 d -131 -12 d -131 8 d -132 -15 d -131 -2 d FA 0 lw 0 0.8 0 c
 6 lw black 0 0.8 0 c 317 674 m 27 1 d 26 3 d 26 4 d 26 7 d 27 8 d 26 10 d 26 12 d 26 13 d 27 14 d 26 15 d 26 16 d 26 15 d 27 16 d 26 15 d 26 15 d 26 13 d 27 12 d 26 11 d 26 10 d 26 8 d 27 6 d 26 6 d 26 4 d 26 3 d 26 2 d 27 2 d 78 X 27 -1 d 26 -2 d
 26 -1 d 26 -2 d 27 -2 d 26 -2 d 26 -2 d 26 -3 d 27 -2 d 26 -2 d 26 -2 d 26 -2 d 27 -3 d 26 -2 d 26 -2 d 26 -2 d 27 -2 d 26 -2 d 26 -2 d 26 -1 d 27 -2 d 26 -2 d 26 -1 d 26 -2 d 26 -1 d 27 -2 d 26 -1 d 26 -1 d 26 -1 d 27 -2 d 26 -1 d 26 -1 d 26 -1 d
 27 -1 d 26 -1 d 26 -1 d 26 -1 d 27 -1 d 26 X 26 -1 d 26 -1 d s 0 0 1 c[ 20 12 4 12] 0 sd black 0 0 1 c 317 676 m 27 1 d 26 2 d 26 4 d 26 5 d 27 6 d 26 7 d 26 9 d 26 9 d 27 9 d 26 10 d 26 10 d 26 9 d 27 9 d 26 9 d 26 8 d 26 7 d 27 6 d 26 5 d 26 4 d
 26 4 d 27 3 d 26 2 d 26 1 d 79 X 26 -1 d 26 X 26 -1 d 27 -2 d 26 -2 d 26 -1 d 26 -2 d 27 -2 d 26 -1 d 26 -2 d 26 -1 d 27 -2 d 26 -2 d 26 -1 d 26 -2 d 27 -1 d 26 -2 d 26 -1 d 26 -1 d 27 -1 d 26 -2 d 26 -1 d 26 X 27 -1 d 26 -1 d 26 -1 d 52 X 27 -1 d
 26 X 26 -1 d 26 -1 d 27 X 26 -1 d 26 X 26 -1 d 53 X 26 -1 d 131 X s black[  ] 0 sd 0.999 0.999 0.999 c 953 323 408 272 bf black
 gsave  2268 1701 0 0 C 644.653 521.209 t 0 r /Times-Roman findfont 59.4361 sf 0 0 m (EPS09 NLO) show NC gr  0 1 1 c 3 lw cs 0 1 1 P06 setcolor 444 504 m 167 X 75 Y -167 X FA 6 lw 0 1 1 c 0 lw 444 579 m 167 X s 444 504 m 167 X s 611 504 m 75 Y s 444
 504 m 75 Y s black
 gsave  2268 1701 0 0 C 644.653 411.481 t 0 r /Times-Roman findfont 59.4361 sf 0 0 m (E. loss) show NC gr  0 0.8 0 c 6 lw 444 434 m 167 X s black
 gsave  2268 1701 0 0 C 644.653 301.753 t 0 r /Times-Roman findfont 59.4361 sf 0 0 m (E. loss + EPS09 NLO) show NC gr  0 0 1 c[ 20 12 4 12] 0 sd 444 326 m 167 X s 1 0 0 c[  ] 0 sd 365 749 m -48 X s 401 749 m 48 X s 383 767 m 5 Y s 383 730 m -4 Y s
 496 741 m -47 X s 533 741 m 47 X s 627 745 m -47 X s 664 745 m 47 X s 758 772 m -47 X s 795 772 m 47 X s 890 799 m -48 X s 926 799 m 47 X s 908 817 m 1 Y s 908 780 m -1 Y s 1021 795 m -48 X s 1057 795 m 48 X s 1039 813 m 9 Y s 1039 776 m -8 Y s 1152
 806 m -47 X s 1189 806 m 47 X s 1170 825 m 16 Y s 1170 788 m -16 Y s 1316 841 m -80 X s 1353 841 m 80 X s 1334 859 m 24 Y s 1334 823 m -24 Y s 1775 768 m -342 X s 1812 768 m 342 X s 1794 786 m 16 Y s 1794 750 m -17 Y s 365 749 m -48 X s 317 730 m 37
 Y s 401 749 m 48 X s 449 730 m 37 Y s 383 767 m 9 Y s 365 776 m 36 X s 383 730 m -8 Y s 365 722 m 36 X s 496 741 m -47 X s 449 723 m 36 Y s 533 741 m 47 X s 580 723 m 36 Y s 514 759 m 4 Y s 496 763 m 37 X s 514 723 m -4 Y s 496 719 m 37 X s 627 745
 m -47 X s 580 727 m 36 Y s 664 745 m 47 X s 711 727 m 36 Y s 645 763 m 3 Y s 627 766 m 37 X s 645 727 m -3 Y s 627 724 m 37 X s 758 772 m -47 X s 711 753 m 37 Y s 795 772 m 47 X s 842 753 m 37 Y s 777 790 m 2 Y s 758 792 m 37 X s 777 753 m -2 Y s
 758 751 m 37 X s 890 799 m -48 X s 842 780 m 37 Y s 926 799 m 47 X s 973 780 m 37 Y s 908 817 m 7 Y s 890 824 m 36 X s 908 780 m -7 Y s 890 773 m 36 X s 1021 795 m -48 X s 973 776 m 37 Y s 1057 795 m 48 X s 1105 776 m 37 Y s 1039 813 m 15 Y s 1021
 828 m 36 X s 1039 776 m -14 Y s 1021 762 m 36 X s 1152 806 m -47 X s 1105 788 m 37 Y s 1189 806 m 47 X s 1236 788 m 37 Y s 1170 825 m 21 Y s 1152 846 m 37 X s 1170 788 m -21 Y s 1152 767 m 37 X s 1316 841 m -80 X s 1236 823 m 36 Y s 1353 841 m 80 X
 s 1433 823 m 36 Y s 1334 859 m 28 Y s 1316 887 m 37 X s 1334 823 m -29 Y s 1316 794 m 37 X s 1775 768 m -342 X s 1433 750 m 36 Y s 1812 768 m 342 X s 2154 750 m 36 Y s 1794 786 m 20 Y s 1775 806 m 37 X s 1794 750 m -20 Y s 1775 730 m 37 X s black 1
 0 0 c 3 lw 383 749 514 741 645 745 777 772 908 799 1039 795 1170 806 1334 841 1794 768 9 { m21} R 6 lw black 430 838 m -113 X s 317 820 m 37 Y s 467 838 m 113 X s 580 820 m 37 Y s 449 857 m 207 Y s 430 1064 m 37 X s 449 820 m -207 Y s 430 613 m 37 X
 s 627 935 m -47 X s 580 917 m 37 Y s 664 935 m 47 X s 711 917 m 37 Y s 645 954 m 247 Y s 627 1201 m 37 X s 645 917 m -247 Y s 627 670 m 37 X s 824 874 m -113 X s 711 856 m 36 Y s 861 874 m 112 X s 973 856 m 36 Y s 842 892 m 169 Y s 824 1061 m 37 X s
 842 856 m -169 Y s 824 687 m 37 X s 1086 998 m -113 X s 973 979 m 37 Y s 1123 998 m 113 X s 1236 979 m 37 Y s 1105 1016 m 239 Y s 1086 1255 m 37 X s 1105 979 m -239 Y s 1086 740 m 37 X s 1677 973 m -441 X s 1236 955 m 37 Y s 1713 973 m 441 X s 2154
 955 m 37 Y s 1695 992 m 234 Y s 1677 1226 m 36 X s 1695 955 m -234 Y s 1677 721 m 36 X s 3 lw 449 838 645 935 842 874 1105 998 1695 973 5 { m20} R 6 lw 430 838 m -113 X s 467 838 m 113 X s 449 857 m 214 Y s 449 820 m -215 Y s 627 935 m -47 X s 664
 935 m 47 X s 645 954 m 251 Y s 645 917 m -251 Y s 824 874 m -113 X s 861 874 m 112 X s 842 892 m 194 Y s 842 856 m -194 Y s 1086 998 m -113 X s 1123 998 m 113 X s 1105 1016 m 273 Y s 1105 979 m -273 Y s 1677 973 m -441 X s 1713 973 m 441 X s 1695
 992 m 239 Y s 1695 955 m -239 Y s
 gr  gr showpage
end
%%EOF
