%!PS-Adobe-2.0 EPSF-2.0
%%BoundingBox:  0 0 567 425
%%Title: ../result/CNM/R_pA_b.eps: 
%%Creator: ROOT Version 5.34/18
%%CreationDate: Wed Sep 23 01:14:37 2015
%%EndComments
%%BeginProlog
80 dict begin
/s {stroke} def /l {lineto} def /m {moveto} def /t {translate} def
/r {rotate} def /rl {roll}  def /R {repeat} def
/d {rlineto} def /rm {rmoveto} def /gr {grestore} def /f {eofill} def
/c {setrgbcolor} def /black {0 setgray} def /sd {setdash} def
/cl {closepath} def /sf {scalefont setfont} def /lw {setlinewidth} def
/box {m dup 0 exch d exch 0 d 0 exch neg d cl} def
/NC{systemdict begin initclip end}def/C{NC box clip newpath}def
/bl {box s} def /bf {box f} def /Y { 0 exch d} def /X { 0 d} def 
/K {{pop pop 0 moveto} exch kshow} bind def
/ita {/ang 15 def gsave [1 0 ang dup sin exch cos div 1 0 0] concat} def 
/mp {newpath /y exch def /x exch def} def
/side {[w .77 mul w .23 mul] .385 w mul sd w 0 l currentpoint t -144 r} def
/mr {mp x y w2 0 360 arc} def /m24 {mr s} def /m20 {mr f} def
/mb {mp x y w2 add m w2 neg 0 d 0 w neg d w 0 d 0 w d cl} def
/mt {mp x y w2 add m w2 neg w neg d w 0 d cl} def
/m21 {mb f} def /m25 {mb s} def /m22 {mt f} def /m26{mt s} def
/m23 {mp x y w2 sub m w2 w d w neg 0 d cl f} def
/m27 {mp x y w2 add m w3 neg w2 neg d w3 w2 neg d w3 w2 d cl s} def
/m28 {mp x w2 sub y w2 sub w3 add m w3 0 d  0 w3 neg d w3 0 d 0 w3 d w3 0 d  0 w3 d w3 neg 0 d 0 w3 d w3 neg 0 d 0 w3 neg d w3 neg 0 d cl s } def
/m29 {mp gsave x w2 sub y w2 add w3 sub m currentpoint t 4 {side} repeat cl fill gr} def
/m30 {mp gsave x w2 sub y w2 add w3 sub m currentpoint t 4 {side} repeat cl s gr} def
/m31 {mp x y w2 sub m 0 w d x w2 sub y m w 0 d x w2 sub y w2 add m w w neg d x w2 sub y w2 sub m w w d s} def
/m32 {mp x y w2 sub m w2 w d w neg 0 d cl s} def
/m33 {mp x y w2 add m w3 neg w2 neg d w3 w2 neg d w3 w2 d cl f} def
/m34 {mp x w2 sub y w2 sub w3 add m w3 0 d  0 w3 neg d w3 0 d 0 w3 d w3 0 d  0 w3 d w3 neg 0 d 0 w3 d w3 neg 0 d 0 w3 neg d w3 neg 0 d cl f } def
/m2 {mp x y w2 sub m 0 w d x w2 sub y m w 0 d s} def
/m5 {mp x w2 sub y w2 sub m w w d x w2 sub y w2 add m w w neg d s} def
/reEncode {exch findfont dup length dict begin {1 index /FID eq  {pop pop} {def} ifelse } forall /Encoding exch def currentdict end dup /FontName get exch definefont pop } def [/Times-Bold /Times-Italic /Times-BoldItalic /Helvetica /Helvetica-Oblique
 /Helvetica-Bold /Helvetica-BoldOblique /Courier /Courier-Oblique /Courier-Bold /Courier-BoldOblique /Times-Roman /AvantGarde-Book /AvantGarde-BookOblique /AvantGarde-Demi /AvantGarde-DemiOblique /Bookman-Demi /Bookman-DemiItalic /Bookman-Light
 /Bookman-LightItalic /Helvetica-Narrow /Helvetica-Narrow-Bold /Helvetica-Narrow-BoldOblique /Helvetica-Narrow-Oblique /NewCenturySchlbk-Roman /NewCenturySchlbk-Bold /NewCenturySchlbk-BoldItalic /NewCenturySchlbk-Italic /Palatino-Bold
 /Palatino-BoldItalic /Palatino-Italic /Palatino-Roman ] {ISOLatin1Encoding reEncode } forall
%%EndProlog
%%BeginSetup
%%EndSetup
newpath  gsave  .25 .25 scale  gsave  0 0 t black[  ] 0 sd 9 lw 1 1 1 c 2268 1701 0 0 bf black 6 lw 1 1 1 c 1837 1344 317 238 bf black 1837 1344 317 238 bl 1 1 1 c 1837 1344 317 238 bf black 1837 1344 317 238 bl 9 lw 317 238 m 1837 X s
 gsave  2268 1701 0 0 C 2107.7 64.0081 t 0 r /Times-Italic findfont 96.0122 sf 0 0 m (y) show NC gr  501 279 m -41 Y s 593 259 m -21 Y s 685 259 m -21 Y s 777 259 m -21 Y s 869 279 m -41 Y s 960 259 m -21 Y s 1052 259 m -21 Y s 1144 259 m -21 Y s
 1236 279 m -41 Y s 1328 259 m -21 Y s 1420 259 m -21 Y s 1511 259 m -21 Y s 1603 279 m -41 Y s 1695 259 m -21 Y s 1787 259 m -21 Y s 1879 259 m -21 Y s 1971 279 m -41 Y s 501 279 m -41 Y s 409 259 m -21 Y s 317 259 m -21 Y s 1971 279 m -41 Y s 2062
 259 m -21 Y s 2154 259 m -21 Y s
 gsave  2268 1701 0 0 C 461.773 146.304 t 0 r /Helvetica findfont 77.7242 sf 0 0 m (\2554) show NC gr 
 gsave  2268 1701 0 0 C 827.534 146.304 t 0 r /Helvetica findfont 77.7242 sf 0 0 m (\2552) show NC gr 
 gsave  2268 1701 0 0 C 1211.58 146.304 t 0 r /Helvetica findfont 77.7242 sf 0 0 m (0) show NC gr 
 gsave  2268 1701 0 0 C 1577.34 146.304 t 0 r /Helvetica findfont 77.7242 sf 0 0 m (2) show NC gr 
 gsave  2268 1701 0 0 C 1947.68 146.304 t 0 r /Helvetica findfont 77.7242 sf 0 0 m (4) show NC gr  317 1582 m 1837 X s 501 1540 m 42 Y s 593 1561 m 21 Y s 685 1561 m 21 Y s 777 1561 m 21 Y s 869 1540 m 42 Y s 960 1561 m 21 Y s 1052 1561 m 21 Y s 1144
 1561 m 21 Y s 1236 1540 m 42 Y s 1328 1561 m 21 Y s 1420 1561 m 21 Y s 1511 1561 m 21 Y s 1603 1540 m 42 Y s 1695 1561 m 21 Y s 1787 1561 m 21 Y s 1879 1561 m 21 Y s 1971 1540 m 42 Y s 501 1540 m 42 Y s 409 1561 m 21 Y s 317 1561 m 21 Y s 1971 1540
 m 42 Y s 2062 1561 m 21 Y s 2154 1561 m 21 Y s 317 238 m 1344 Y s
 gsave  2268 1701 0 0 C 137.16 1467.61 t 90 r /Helvetica findfont 64.0081 sf 0 0 m (pPb) show NC gr 
 gsave  2268 1701 0 0 C 105.156 1403.61 t 90 r /Times-Italic findfont 96.0122 sf 0 0 m (R) show NC gr  371 238 m -54 X s 344 272 m -27 X s 344 305 m -27 X s 344 339 m -27 X s 371 372 m -54 X s 344 406 m -27 X s 344 440 m -27 X s 344 473 m -27 X s 371
 507 m -54 X s 344 540 m -27 X s 344 574 m -27 X s 344 608 m -27 X s 371 641 m -54 X s 344 675 m -27 X s 344 708 m -27 X s 344 742 m -27 X s 371 776 m -54 X s 344 809 m -27 X s 344 843 m -27 X s 344 876 m -27 X s 371 910 m -54 X s 344 944 m -27 X s
 344 977 m -27 X s 344 1011 m -27 X s 371 1044 m -54 X s 344 1078 m -27 X s 344 1111 m -27 X s 344 1145 m -27 X s 371 1179 m -54 X s 344 1212 m -27 X s 344 1246 m -27 X s 344 1279 m -27 X s 371 1313 m -54 X s 344 1347 m -27 X s 344 1380 m -27 X s 344
 1414 m -27 X s 371 1447 m -54 X s 344 1481 m -27 X s 344 1515 m -27 X s 344 1548 m -27 X s 371 1582 m -54 X s
 gsave  2268 1701 0 0 C 260.605 210.312 t 0 r /Helvetica findfont 77.7242 sf 0 0 m (0) show NC gr 
 gsave  2268 1701 0 0 C 196.596 342.901 t 0 r /Helvetica findfont 77.7242 sf 0 0 m (0.2) show NC gr 
 gsave  2268 1701 0 0 C 192.024 475.489 t 0 r /Helvetica findfont 77.7242 sf 0 0 m (0.4) show NC gr 
 gsave  2268 1701 0 0 C 196.596 612.649 t 0 r /Helvetica findfont 77.7242 sf 0 0 m (0.6) show NC gr 
 gsave  2268 1701 0 0 C 196.596 745.237 t 0 r /Helvetica findfont 77.7242 sf 0 0 m (0.8) show NC gr 
 gsave  2268 1701 0 0 C 274.321 882.398 t 0 r /Helvetica findfont 77.7242 sf 0 0 m (1) show NC gr 
 gsave  2268 1701 0 0 C 196.596 1014.99 t 0 r /Helvetica findfont 77.7242 sf 0 0 m (1.2) show NC gr 
 gsave  2268 1701 0 0 C 192.024 1147.57 t 0 r /Helvetica findfont 77.7242 sf 0 0 m (1.4) show NC gr 
 gsave  2268 1701 0 0 C 196.596 1284.73 t 0 r /Helvetica findfont 77.7242 sf 0 0 m (1.6) show NC gr 
 gsave  2268 1701 0 0 C 196.596 1417.32 t 0 r /Helvetica findfont 77.7242 sf 0 0 m (1.8) show NC gr 
 gsave  2268 1701 0 0 C 260.605 1549.91 t 0 r /Helvetica findfont 77.7242 sf 0 0 m (2) show NC gr  2154 238 m 1344 Y s 2101 238 m 53 X s 2127 272 m 27 X s 2127 305 m 27 X s 2127 339 m 27 X s 2101 372 m 53 X s 2127 406 m 27 X s 2127 440 m 27 X s 2127
 473 m 27 X s 2101 507 m 53 X s 2127 540 m 27 X s 2127 574 m 27 X s 2127 608 m 27 X s 2101 641 m 53 X s 2127 675 m 27 X s 2127 708 m 27 X s 2127 742 m 27 X s 2101 776 m 53 X s 2127 809 m 27 X s 2127 843 m 27 X s 2127 876 m 27 X s 2101 910 m 53 X s
 2127 944 m 27 X s 2127 977 m 27 X s 2127 1011 m 27 X s 2101 1044 m 53 X s 2127 1078 m 27 X s 2127 1111 m 27 X s 2127 1145 m 27 X s 2101 1179 m 53 X s 2127 1212 m 27 X s 2127 1246 m 27 X s 2127 1279 m 27 X s 2101 1313 m 53 X s 2127 1347 m 27 X s 2127
 1380 m 27 X s 2127 1414 m 27 X s 2101 1447 m 53 X s 2127 1481 m 27 X s 2127 1515 m 27 X s 2127 1548 m 27 X s 2101 1582 m 53 X s 3 lw /w 55 def /w2 {w 2 div} def /w3 {w 3 div} def 1833 907 639 671 2 { m20} R 9 lw 1805 907 m -110 X s 1695 888 m 37 Y s
 1860 907 m 111 X s 1971 888 m 37 Y s 1833 934 m 119 Y s 1815 1053 m 36 X s 1833 879 m -119 Y s 1815 760 m 36 X s 611 671 m -110 X s 501 653 m 36 Y s 666 671 m 111 X s 777 653 m 36 Y s 639 698 m 192 Y s 621 890 m 36 X s 639 643 m -191 Y s 621 452 m
 36 X s 0.8 0.78 0.67 c 0 lw 3 lw 1 lw << /PatternType 1 /PaintType 2 /TilingType 1 /BBox [ 0 0 101 101 ] /XStep 100 /YStep 100 /PaintProc { begin gsave 0 0 m 0 30 l 30 0 l f 0 70 m 0 100 l 30 100 l f 70 100 m 100 100 l 100 70 l f 70 0 m 100 0 l 100
 30 l f 50 20 m 20 50 l 50 80 l 80 50 l f 50 80 m 30 100 l s 20 50 m 0 30 l s 50 20 m 70 0 l s 80 50 m 100 70 l s gr end } >> [ 0.24 0 0 0.24 0 0 ] makepattern /P08 exch def /cs {[/Pattern /DeviceRGB] setcolorspace} def /FA {f [/DeviceRGB]
 setcolorspace} def cs 0.8 0.78 0.67 P08 setcolor 317 1000 m 92 34 d 92 11 d 92 -22 d 92 -35 d 92 -45 d 92 -47 d 91 -38 d 92 -40 d 92 -24 d 92 -28 d 92 -19 d 92 -22 d 91 -12 d 92 -16 d 92 -10 d 92 -11 d 92 -10 d 92 -3 d 91 -6 d 189 Y -91 -3 d -92 3 d
 -92 3 d -92 3 d -92 7 d -92 3 d -91 1 d -92 10 d -92 7 d -92 8 d -92 10 d -92 11 d -91 10 d -92 19 d -92 6 d -92 7 d -92 4 d -92 -9 d -92 -21 d FA 0 lw 1 0.6 0 c[ 80 20] 0 sd 9 lw black 1 0.4 1 c 1 0.6 0 c 317 931 m 92 X 92 -6 d 92 -3 d 92 -13 d 92
 -20 d 92 -20 d 91 -22 d 92 -20 d 92 -12 d 92 -12 d 92 -14 d 92 X 91 -14 d 92 -4 d 92 -7 d 92 -9 d 92 -5 d 92 -6 d 91 -1 d s 1 0 0 c[  ] 0 sd 611 895 m -110 X s 501 877 m 36 Y s 666 895 m 111 X s 777 877 m 36 Y s 639 923 m 10 Y s 621 933 m 36 X s 639
 868 m -10 Y s 621 858 m 36 X s 1805 792 m -110 X s 1695 774 m 37 Y s 1860 792 m 111 X s 1971 774 m 37 Y s black 1 0 0 c 3 lw 639 895 1833 792 2 { m25} R 9 lw 611 895 m -110 X s 666 895 m 111 X s 639 923 m 55 Y s 639 868 m -56 Y s 1805 792 m -110 X s
 1860 792 m 111 X s 1833 820 m 29 Y s 1833 765 m -29 Y s black 1805 907 m -110 X s 1860 907 m 111 X s 1833 934 m 172 Y s 1833 879 m -172 Y s 611 671 m -110 X s 666 671 m 111 X s 639 698 m 206 Y s 639 643 m -205 Y s 1805 907 m -110 X s 1695 888 m 37 Y
 s 1860 907 m 111 X s 1971 888 m 37 Y s 1833 934 m 119 Y s 1815 1053 m 36 X s 1833 879 m -119 Y s 1815 760 m 36 X s 611 671 m -110 X s 501 653 m 36 Y s 666 671 m 111 X s 777 653 m 36 Y s 639 698 m 192 Y s 621 890 m 36 X s 639 643 m -191 Y s 621 452 m
 36 X s 3 lw 1833 907 639 671 2 { m20} R 9 lw 0.999 0.999 0.999 c 1066 170 1020 425 bf black
 gsave  2268 1701 0 0 C 1284.73 534.925 t 0 r /Times-Roman findfont 64.0081 sf 0 0 m (EPS09 LO) show NC gr  0.8 0.78 0.67 c 3 lw cs 0.8 0.78 0.67 P08 setcolor 1060 523 m 187 X 60 Y -187 X FA 9 lw 0.8 0.78 0.67 c 0 lw 1060 583 m 187 X s 1060 523 m 187
 X s 1247 523 m 60 Y s 1060 523 m 60 Y s black
 gsave  2268 1701 0 0 C 1284.73 452.629 t 0 r /Times-Roman findfont 64.0081 sf 0 0 m (nDSg LO) show NC gr  1 0.6 0 c[ 80 20] 0 sd 9 lw 1060 468 m 187 X s black[  ] 0 sd 0.999 0.999 0.999 c 1066 170 1020 1361 bf black
 gsave  2268 1701 0 0 C 1787.66 1472.19 t 0 r /Times-Italic findfont 64.0081 sf 0 0 m (b) show NC gr 
 gsave  2268 1701 0 0 C 1627.64 1472.19 t 0 r /Times-Roman findfont 64.0081 sf 0 0 m ( from ) show NC gr 
 gsave  2268 1701 0 0 C 1522.48 1472.19 t 0 r /Times-Italic findfont 64.0081 sf 0 0 m (\(2S\)) show NC gr 
 gsave  2268 1701 0 0 C 1476.76 1472.19 t 0 r /Symbol findfont 64.0081 sf 0 0 m (y) show NC gr 
 gsave  2268 1701 0 0 C 1284.73 1472.19 t 0 r /Times-Roman findfont 64.0081 sf 0 0 m (LHCb, ) show NC gr  1060 1488 m 187 X s 1154 1463 m 51 Y s 3 lw 1154 1488 m20 9 lw
 gsave  2268 1701 0 0 C 1773.94 1385.32 t 0 r /Times-Roman findfont 64.0081 sf 0 0 m (  ) show NC gr 
 gsave  2268 1701 0 0 C 1741.94 1385.32 t 0 r /Times-Italic findfont 64.0081 sf 0 0 m (b) show NC gr 
 gsave  2268 1701 0 0 C 1581.92 1385.32 t 0 r /Times-Roman findfont 64.0081 sf 0 0 m ( from ) show NC gr 
 gsave  2268 1701 0 0 C 1536.2 1385.32 t 0 r /Symbol findfont 64.0081 sf 0 0 m (y) show NC gr 
 gsave  2268 1701 0 0 C 1476.76 1385.32 t 0 r /Times-Italic findfont 64.0081 sf 0 0 m (J/) show NC gr 
 gsave  2268 1701 0 0 C 1284.73 1385.32 t 0 r /Times-Roman findfont 64.0081 sf 0 0 m (LHCb, ) show NC gr  1 0 0 c 1060 1403 m 187 X s 1154 1378 m 51 Y s 3 lw 1154 1403 m25 9 lw black
 gsave  2268 1701 0 0 C 726.949 1284.73 t 0 r /Helvetica findfont 77.7242 sf 0 0 m ( = 5 TeV) show NC gr 
 gsave  2268 1701 0 0 C 644.653 1257.3 t 0 r /Times-Italic findfont 54.8641 sf 0 0 m (NN) show NC gr 
 gsave  2268 1701 0 0 C 612.649 1284.73 t 0 r /Times-Italic findfont 77.7242 sf 0 0 m (s) show NC gr  6 lw 581 1321 m 13 -68 d s 0 lw 594 1253 m 10 87 d s 604 1340 m 123 X s
 gsave  2268 1701 0 0 C 406.909 1284.73 t 0 r /Helvetica findfont 77.7242 sf 0 0 m (pPb ) show NC gr 
 gsave  2268 1701 0 0 C 406.909 1380.75 t 0 r /Helvetica findfont 77.7242 sf 0 0 m (Preliminary) show NC gr 
 gsave  2268 1701 0 0 C 406.909 1467.61 t 0 r /Helvetica findfont 77.7242 sf 0 0 m (LHCb) show NC gr  0.8 0.8 0.8 c[ 12 12] 0 sd 9 lw 317 910 m 1837 X s black
 gsave  2268 1701 0 0 C 475.489 306.325 t 0 r /Helvetica findfont 73.1521 sf 0 0 m ( < 14 GeV/c) show NC gr 
 gsave  2268 1701 0 0 C 448.057 269.749 t 0 r /Helvetica findfont 45.7201 sf 0 0 m (T) show NC gr 
 gsave  2268 1701 0 0 C 406.909 306.325 t 0 r /Times-Italic findfont 73.1521 sf 0 0 m (p) show NC gr 
 gr  gr showpage
end
%%EOF
