%!PS-Adobe-2.0 EPSF-2.0
%%BoundingBox:  0 0 567 425
%%Title: ../result/CNM/RFB_y.eps: myCB
%%Creator: ROOT Version 5.34/18
%%CreationDate: Wed Sep 23 01:07:33 2015
%%EndComments
%%BeginProlog
80 dict begin
/s {stroke} def /l {lineto} def /m {moveto} def /t {translate} def
/r {rotate} def /rl {roll}  def /R {repeat} def
/d {rlineto} def /rm {rmoveto} def /gr {grestore} def /f {eofill} def
/c {setrgbcolor} def /black {0 setgray} def /sd {setdash} def
/cl {closepath} def /sf {scalefont setfont} def /lw {setlinewidth} def
/box {m dup 0 exch d exch 0 d 0 exch neg d cl} def
/NC{systemdict begin initclip end}def/C{NC box clip newpath}def
/bl {box s} def /bf {box f} def /Y { 0 exch d} def /X { 0 d} def 
/K {{pop pop 0 moveto} exch kshow} bind def
/ita {/ang 15 def gsave [1 0 ang dup sin exch cos div 1 0 0] concat} def 
/mp {newpath /y exch def /x exch def} def
/side {[w .77 mul w .23 mul] .385 w mul sd w 0 l currentpoint t -144 r} def
/mr {mp x y w2 0 360 arc} def /m24 {mr s} def /m20 {mr f} def
/mb {mp x y w2 add m w2 neg 0 d 0 w neg d w 0 d 0 w d cl} def
/mt {mp x y w2 add m w2 neg w neg d w 0 d cl} def
/m21 {mb f} def /m25 {mb s} def /m22 {mt f} def /m26{mt s} def
/m23 {mp x y w2 sub m w2 w d w neg 0 d cl f} def
/m27 {mp x y w2 add m w3 neg w2 neg d w3 w2 neg d w3 w2 d cl s} def
/m28 {mp x w2 sub y w2 sub w3 add m w3 0 d  0 w3 neg d w3 0 d 0 w3 d w3 0 d  0 w3 d w3 neg 0 d 0 w3 d w3 neg 0 d 0 w3 neg d w3 neg 0 d cl s } def
/m29 {mp gsave x w2 sub y w2 add w3 sub m currentpoint t 4 {side} repeat cl fill gr} def
/m30 {mp gsave x w2 sub y w2 add w3 sub m currentpoint t 4 {side} repeat cl s gr} def
/m31 {mp x y w2 sub m 0 w d x w2 sub y m w 0 d x w2 sub y w2 add m w w neg d x w2 sub y w2 sub m w w d s} def
/m32 {mp x y w2 sub m w2 w d w neg 0 d cl s} def
/m33 {mp x y w2 add m w3 neg w2 neg d w3 w2 neg d w3 w2 d cl f} def
/m34 {mp x w2 sub y w2 sub w3 add m w3 0 d  0 w3 neg d w3 0 d 0 w3 d w3 0 d  0 w3 d w3 neg 0 d 0 w3 d w3 neg 0 d 0 w3 neg d w3 neg 0 d cl f } def
/m2 {mp x y w2 sub m 0 w d x w2 sub y m w 0 d s} def
/m5 {mp x w2 sub y w2 sub m w w d x w2 sub y w2 add m w w neg d s} def
/reEncode {exch findfont dup length dict begin {1 index /FID eq  {pop pop} {def} ifelse } forall /Encoding exch def currentdict end dup /FontName get exch definefont pop } def [/Times-Bold /Times-Italic /Times-BoldItalic /Helvetica /Helvetica-Oblique
 /Helvetica-Bold /Helvetica-BoldOblique /Courier /Courier-Oblique /Courier-Bold /Courier-BoldOblique /Times-Roman /AvantGarde-Book /AvantGarde-BookOblique /AvantGarde-Demi /AvantGarde-DemiOblique /Bookman-Demi /Bookman-DemiItalic /Bookman-Light
 /Bookman-LightItalic /Helvetica-Narrow /Helvetica-Narrow-Bold /Helvetica-Narrow-BoldOblique /Helvetica-Narrow-Oblique /NewCenturySchlbk-Roman /NewCenturySchlbk-Bold /NewCenturySchlbk-BoldItalic /NewCenturySchlbk-Italic /Palatino-Bold
 /Palatino-BoldItalic /Palatino-Italic /Palatino-Roman ] {ISOLatin1Encoding reEncode } forall
%%EndProlog
%%BeginSetup
%%EndSetup
newpath  gsave  .25 .25 scale  gsave  0 0 t black[  ] 0 sd 6 lw 1 1 1 c 2268 1701 0 0 bf black 1 1 1 c 1837 1344 317 238 bf black 1837 1344 317 238 bl 1 1 1 c 1837 1344 317 238 bf black 1837 1344 317 238 bl 317 238 m 1837 X s
 gsave  2268 1701 0 0 C 2135.13 50.2921 t 0 r /Helvetica findfont 96.0122 sf 0 0 m (|) show NC gr 
 gsave  2268 1701 0 0 C 2089.41 50.2921 t 0 r /Times-Italic findfont 96.0122 sf 0 0 m (y) show NC gr 
 gsave  2268 1701 0 0 C 2071.12 50.2921 t 0 r /Helvetica findfont 96.0122 sf 0 0 m (|) show NC gr  317 279 m -41 Y s 391 259 m -21 Y s 464 259 m -21 Y s 538 259 m -21 Y s 611 259 m -21 Y s 685 279 m -41 Y s 758 259 m -21 Y s 832 259 m -21 Y s 905 259
 m -21 Y s 979 259 m -21 Y s 1052 279 m -41 Y s 1126 259 m -21 Y s 1199 259 m -21 Y s 1273 259 m -21 Y s 1346 259 m -21 Y s 1420 279 m -41 Y s 1493 259 m -21 Y s 1567 259 m -21 Y s 1640 259 m -21 Y s 1713 259 m -21 Y s 1787 279 m -41 Y s 1860 259 m
 -21 Y s 1934 259 m -21 Y s 2007 259 m -21 Y s 2081 259 m -21 Y s 2154 279 m -41 Y s
 gsave  2268 1701 0 0 C 292.609 146.304 t 0 r /Helvetica findfont 77.7242 sf 0 0 m (0) show NC gr 
 gsave  2268 1701 0 0 C 667.513 146.304 t 0 r /Helvetica findfont 77.7242 sf 0 0 m (1) show NC gr 
 gsave  2268 1701 0 0 C 1028.7 146.304 t 0 r /Helvetica findfont 77.7242 sf 0 0 m (2) show NC gr 
 gsave  2268 1701 0 0 C 1394.46 146.304 t 0 r /Helvetica findfont 77.7242 sf 0 0 m (3) show NC gr 
 gsave  2268 1701 0 0 C 1760.22 146.304 t 0 r /Helvetica findfont 77.7242 sf 0 0 m (4) show NC gr 
 gsave  2268 1701 0 0 C 2130.56 146.304 t 0 r /Helvetica findfont 77.7242 sf 0 0 m (5) show NC gr  317 1582 m 1837 X s 317 1540 m 42 Y s 391 1561 m 21 Y s 464 1561 m 21 Y s 538 1561 m 21 Y s 611 1561 m 21 Y s 685 1540 m 42 Y s 758 1561 m 21 Y s 832
 1561 m 21 Y s 905 1561 m 21 Y s 979 1561 m 21 Y s 1052 1540 m 42 Y s 1126 1561 m 21 Y s 1199 1561 m 21 Y s 1273 1561 m 21 Y s 1346 1561 m 21 Y s 1420 1540 m 42 Y s 1493 1561 m 21 Y s 1567 1561 m 21 Y s 1640 1561 m 21 Y s 1713 1561 m 21 Y s 1787 1540
 m 42 Y s 1860 1561 m 21 Y s 1934 1561 m 21 Y s 2007 1561 m 21 Y s 2081 1561 m 21 Y s 2154 1540 m 42 Y s 317 238 m 1344 Y s
 gsave  2268 1701 0 0 C 146.304 1499.62 t 90 r /Helvetica findfont 64.0081 sf 0 0 m (FB) show NC gr 
 gsave  2268 1701 0 0 C 114.3 1435.61 t 90 r /Times-Italic findfont 96.0122 sf 0 0 m (R) show NC gr  371 322 m -54 X s 344 364 m -27 X s 344 406 m -27 X s 344 448 m -27 X s 344 490 m -27 X s 371 532 m -54 X s 344 574 m -27 X s 344 616 m -27 X s 344
 658 m -27 X s 344 700 m -27 X s 371 742 m -54 X s 344 784 m -27 X s 344 826 m -27 X s 344 868 m -27 X s 344 910 m -27 X s 371 952 m -54 X s 344 994 m -27 X s 344 1036 m -27 X s 344 1078 m -27 X s 344 1120 m -27 X s 371 1162 m -54 X s 344 1204 m -27
 X s 344 1246 m -27 X s 344 1288 m -27 X s 344 1330 m -27 X s 371 1372 m -54 X s 344 1414 m -27 X s 344 1456 m -27 X s 344 1498 m -27 X s 344 1540 m -27 X s 371 1582 m -54 X s 371 322 m -54 X s 344 280 m -27 X s
 gsave  2268 1701 0 0 C 169.164 292.609 t 0 r /Helvetica findfont 77.7242 sf 0 0 m (\2550.5) show NC gr 
 gsave  2268 1701 0 0 C 260.605 502.921 t 0 r /Helvetica findfont 77.7242 sf 0 0 m (0) show NC gr 
 gsave  2268 1701 0 0 C 196.596 713.233 t 0 r /Helvetica findfont 77.7242 sf 0 0 m (0.5) show NC gr 
 gsave  2268 1701 0 0 C 274.321 923.546 t 0 r /Helvetica findfont 77.7242 sf 0 0 m (1) show NC gr 
 gsave  2268 1701 0 0 C 196.596 1133.86 t 0 r /Helvetica findfont 77.7242 sf 0 0 m (1.5) show NC gr 
 gsave  2268 1701 0 0 C 260.605 1344.17 t 0 r /Helvetica findfont 77.7242 sf 0 0 m (2) show NC gr 
 gsave  2268 1701 0 0 C 196.596 1549.91 t 0 r /Helvetica findfont 77.7242 sf 0 0 m (2.5) show NC gr  2154 238 m 1344 Y s 2101 322 m 53 X s 2127 364 m 27 X s 2127 406 m 27 X s 2127 448 m 27 X s 2127 490 m 27 X s 2101 532 m 53 X s 2127 574 m 27 X s
 2127 616 m 27 X s 2127 658 m 27 X s 2127 700 m 27 X s 2101 742 m 53 X s 2127 784 m 27 X s 2127 826 m 27 X s 2127 868 m 27 X s 2127 910 m 27 X s 2101 952 m 53 X s 2127 994 m 27 X s 2127 1036 m 27 X s 2127 1078 m 27 X s 2127 1120 m 27 X s 2101 1162 m
 53 X s 2127 1204 m 27 X s 2127 1246 m 27 X s 2127 1288 m 27 X s 2127 1330 m 27 X s 2101 1372 m 53 X s 2127 1414 m 27 X s 2127 1456 m 27 X s 2127 1498 m 27 X s 2127 1540 m 27 X s 2101 1582 m 53 X s 2101 322 m 53 X s 2127 280 m 27 X s 3 lw /w 37 def
 /w2 {w 2 div} def /w3 {w 3 div} def 1511 923 m20 6 lw 1493 923 m -257 X s 1236 904 m 37 Y s 1530 923 m 257 X s 1787 904 m 37 Y s 1511 941 m 91 Y s 1493 1032 m 37 X s 1511 904 m -91 Y s 1493 813 m 37 X s 0.8 0.8 0.8 c[ 12 12] 0 sd 317 952 m 1837 X s
 black
 gsave  2268 1701 0 0 C 726.949 1284.73 t 0 r /Helvetica findfont 77.7242 sf 0 0 m ( = 5 TeV) show NC gr 
 gsave  2268 1701 0 0 C 644.653 1257.3 t 0 r /Times-Italic findfont 54.8641 sf 0 0 m (NN) show NC gr 
 gsave  2268 1701 0 0 C 612.649 1284.73 t 0 r /Times-Italic findfont 77.7242 sf 0 0 m (s) show NC gr [  ] 0 sd 581 1321 m 13 -68 d s 0 lw 594 1253 m 10 87 d s 604 1340 m 123 X s
 gsave  2268 1701 0 0 C 406.909 1284.73 t 0 r /Helvetica findfont 77.7242 sf 0 0 m (pPb ) show NC gr 
 gsave  2268 1701 0 0 C 406.909 1380.75 t 0 r /Helvetica findfont 77.7242 sf 0 0 m (LHCb preliminary) show NC gr  6 lw 0.999 0.999 0.999 c 884 425 386 272 bf black
 gsave  2268 1701 0 0 C 603.505 640.081 t 0 r /Times-Roman findfont 64.0081 sf 0 0 m (EPS09 LO) show NC gr  0.8 0.78 0.67 c 3 lw 1 lw << /PatternType 1 /PaintType 2 /TilingType 1 /BBox [ 0 0 101 101 ] /XStep 100 /YStep 100 /PaintProc { begin gsave 0
 0 m 0 30 l 30 0 l f 0 70 m 0 100 l 30 100 l f 70 100 m 100 100 l 100 70 l f 70 0 m 100 0 l 100 30 l f 50 20 m 20 50 l 50 80 l 80 50 l f 50 80 m 30 100 l s 20 50 m 0 30 l s 50 20 m 70 0 l s 80 50 m 100 70 l s gr end } >> [ 0.24 0 0 0.24 0 0 ]
 makepattern /P08 exch def /cs {[/Pattern /DeviceRGB] setcolorspace} def /FA {f [/DeviceRGB] setcolorspace} def cs 0.8 0.78 0.67 P08 setcolor 419 625 m 154 X 60 Y -154 X FA 6 lw 0.8 0.78 0.67 c 0 lw 419 685 m 154 X s 419 625 m 154 X s 573 625 m 60 Y
 s 419 625 m 60 Y s black
 gsave  2268 1701 0 0 C 603.505 553.213 t 0 r /Times-Roman findfont 64.0081 sf 0 0 m (EPS09 NLO) show NC gr  0 1 1 c 3 lw 1 lw << /PatternType 1 /PaintType 2 /TilingType 1 /BBox [ 0 0 100 100 ] /XStep 100 /YStep 100 /PaintProc { begin gsave 0 50 m
 100 50 l s gr end } >> [ 0.12 0 0 0.12 0 0 ] makepattern /P07 exch def cs 0 1 1 P07 setcolor 419 540 m 154 X 60 Y -154 X FA 0 lw 0 1 1 c 419 600 m 154 X s 419 540 m 154 X s 573 540 m 60 Y s 419 540 m 60 Y s black
 gsave  2268 1701 0 0 C 603.505 466.345 t 0 r /Times-Roman findfont 64.0081 sf 0 0 m (nDSg LO) show NC gr  1 0.6 0 c[ 80 20] 0 sd 6 lw 419 485 m 154 X s black
 gsave  2268 1701 0 0 C 603.505 384.049 t 0 r /Times-Roman findfont 64.0081 sf 0 0 m (E. loss) show NC gr  0 0.8 0 c[  ] 0 sd 419 400 m 154 X s black
 gsave  2268 1701 0 0 C 603.505 297.181 t 0 r /Times-Roman findfont 64.0081 sf 0 0 m (E. loss + EPS09 NLO) show NC gr  0 0 1 c[ 20 12 4 12] 0 sd 419 315 m 154 X s black[  ] 0 sd 0.999 0.999 0.999 c 658 204 1315 1327 bf black
 gsave  2268 1701 0 0 C 1883.67 1458.47 t 0 r /Times-Roman findfont 64.0081 sf 0 0 m ( ) show NC gr 
 gsave  2268 1701 0 0 C 1778.51 1458.47 t 0 r /Times-Italic findfont 64.0081 sf 0 0 m (\(2S\)) show NC gr 
 gsave  2268 1701 0 0 C 1732.79 1458.47 t 0 r /Symbol findfont 64.0081 sf 0 0 m (y) show NC gr 
 gsave  2268 1701 0 0 C 1476.76 1458.47 t 0 r /Times-Roman findfont 64.0081 sf 0 0 m (Inclusive ) show NC gr  1340 1480 m 115 X s 1397 1449 m 61 Y s 3 lw 1397 1480 m20 6 lw
 gsave  2268 1701 0 0 C 1837.95 1357.89 t 0 r /Times-Roman findfont 64.0081 sf 0 0 m ( ) show NC gr 
 gsave  2268 1701 0 0 C 1792.23 1357.89 t 0 r /Symbol findfont 64.0081 sf 0 0 m (y) show NC gr 
 gsave  2268 1701 0 0 C 1732.79 1357.89 t 0 r /Times-Italic findfont 64.0081 sf 0 0 m (J/) show NC gr 
 gsave  2268 1701 0 0 C 1476.76 1357.89 t 0 r /Times-Roman findfont 64.0081 sf 0 0 m (Inclusive ) show NC gr  1 0 0 c 1340 1378 m 115 X s 1397 1347 m 61 Y s 3 lw 1397 1378 m21 6 lw black
 gsave  2268 1701 0 0 C 1449.33 1225.3 t 0 r /Helvetica findfont 73.1521 sf 0 0 m ( < 14 GeV/c) show NC gr 
 gsave  2268 1701 0 0 C 1421.89 1188.72 t 0 r /Helvetica findfont 45.7201 sf 0 0 m (T) show NC gr 
 gsave  2268 1701 0 0 C 1380.75 1225.3 t 0 r /Times-Italic findfont 73.1521 sf 0 0 m (p) show NC gr  0.8 0.78 0.67 c 0 lw 3 lw cs 0.8 0.78 0.67 P08 setcolor 409 940 m 184 -28 d 184 -28 d 183 -34 d 184 -29 d 184 -32 d 183 -31 d 184 -31 d 184 -17 d 183
 -10 d 161 Y -183 6 d -184 8 d -184 14 d -183 16 d -184 5 d -184 11 d -183 13 d -184 7 d -184 10 d FA 0 lw 0 1 1 c 3 lw cs 0 1 1 P07 setcolor 409 950 m 184 -4 d 184 -4 d 183 -5 d 184 -5 d 184 -7 d 183 -8 d 184 -9 d 184 -10 d 183 -4 d -111 Y -183 11 d
 -184 27 d -184 27 d -183 26 d -184 21 d -184 15 d -183 13 d -184 12 d -184 12 d FA 0 lw 1 0.6 0 c[ 80 20] 0 sd 6 lw black 1 0 1 c 1 0.6 0 c 409 939 m 184 -8 d 184 -5 d 183 -14 d 184 -17 d 184 -15 d 183 -19 d 184 -27 d 184 -14 d 183 -2 d s 0 0.8 0 c[
  ] 0 sd black 0 0.8 0 c 317 952 m 37 -3 d 37 -2 d 37 -3 d 36 -2 d 37 -3 d 37 -3 d 37 -2 d 36 -3 d 37 -3 d 37 -2 d 37 -3 d 36 -3 d 37 -3 d 37 -3 d 37 -3 d 36 -3 d 37 -3 d 37 -4 d 36 -3 d 37 -4 d 37 -3 d 37 -4 d 36 -4 d 37 -5 d 37 -4 d 37 -5 d 36 -5 d
 37 -5 d 37 -5 d 37 -5 d 36 -6 d 37 -6 d 37 -7 d 37 -7 d 36 -7 d 37 -8 d 37 -9 d 36 -9 d 37 -9 d 37 -11 d 37 -10 d 36 -12 d 37 -11 d 37 -13 d 37 -12 d 36 -13 d 37 -13 d 37 -14 d 37 -13 d s 0 0 1 c[ 20 12 4 12] 0 sd black 0 0.4 0 c 0 0 1 c 317 952 m
 37 -3 d 37 -3 d 37 -3 d 36 -3 d 37 -3 d 37 -3 d 37 -3 d 36 -3 d 37 -3 d 37 -3 d 37 -3 d 36 -4 d 37 -3 d 37 -3 d 37 -4 d 36 -4 d 37 -4 d 37 -4 d 36 -4 d 37 -5 d 37 -4 d 37 -6 d 36 -5 d 37 -6 d 37 -6 d 37 -7 d 36 -7 d 37 -7 d 37 -7 d 37 -8 d 36 -9 d
 37 -8 d 37 -9 d 37 -10 d 36 -10 d 37 -11 d 37 -10 d 36 -12 d 37 -11 d 37 -11 d 37 -12 d 36 -11 d 37 -11 d 37 -11 d 37 -11 d 36 -11 d 37 -10 d 37 -10 d 37 -9 d s 1 0 0 c[  ] 0 sd 1309 843 m -73 X s 1236 824 m 37 Y s 1346 843 m 74 X s 1420 824 m 37 Y
 s 1328 861 m 19 Y s 1309 880 m 37 X s 1328 824 m -18 Y s 1309 806 m 37 X s 1493 801 m -73 X s 1420 782 m 37 Y s 1530 801 m 73 X s 1603 782 m 37 Y s 1511 819 m s 1493 819 m 37 X s 1511 782 m s 1493 782 m 37 X s 1677 805 m -74 X s 1603 787 m 36 Y s
 1713 805 m 74 X s 1787 787 m 36 Y s 1695 823 m 3 Y s 1677 826 m 36 X s 1695 787 m -3 Y s 1677 784 m 36 X s black 1 0 0 c 3 lw 1328 843 1511 801 1695 805 3 { m21} R 6 lw 1309 843 m -73 X s 1346 843 m 74 X s 1328 861 m 3 Y s 1328 824 m -2 Y s 1493 801
 m -73 X s 1530 801 m 73 X s 1677 805 m -74 X s 1713 805 m 74 X s black 1493 923 m -257 X s 1236 904 m 37 Y s 1530 923 m 257 X s 1787 904 m 37 Y s 1511 941 m 91 Y s 1493 1032 m 37 X s 1511 904 m -91 Y s 1493 813 m 37 X s 3 lw 1511 923 m20 6 lw 1493
 923 m -257 X s 1530 923 m 257 X s 1511 941 m 96 Y s 1511 904 m -96 Y s
 gr  gr showpage
end
%%EOF
