%!PS-Adobe-2.0 EPSF-2.0
%%BoundingBox:  0 0 567 425
%%Title: ../result/Acc/Ap_geneff_2D.eps: 
%%Creator: ROOT Version 5.34/25
%%CreationDate: Tue Aug 25 21:12:17 2015
%%EndComments
%%BeginProlog
80 dict begin
/s {stroke} def /l {lineto} def /m {moveto} def /t {translate} def
/r {rotate} def /rl {roll}  def /R {repeat} def
/d {rlineto} def /rm {rmoveto} def /gr {grestore} def /f {eofill} def
/c {setrgbcolor} def /black {0 setgray} def /sd {setdash} def
/cl {closepath} def /sf {scalefont setfont} def /lw {setlinewidth} def
/box {m dup 0 exch d exch 0 d 0 exch neg d cl} def
/NC{systemdict begin initclip end}def/C{NC box clip newpath}def
/bl {box s} def /bf {box f} def /Y { 0 exch d} def /X { 0 d} def 
/K {{pop pop 0 moveto} exch kshow} bind def
/ita {/ang 15 def gsave [1 0 ang dup sin exch cos div 1 0 0] concat} def 
/mp {newpath /y exch def /x exch def} def
/side {[w .77 mul w .23 mul] .385 w mul sd w 0 l currentpoint t -144 r} def
/mr {mp x y w2 0 360 arc} def /m24 {mr s} def /m20 {mr f} def
/mb {mp x y w2 add m w2 neg 0 d 0 w neg d w 0 d 0 w d cl} def
/mt {mp x y w2 add m w2 neg w neg d w 0 d cl} def
/m21 {mb f} def /m25 {mb s} def /m22 {mt f} def /m26{mt s} def
/m23 {mp x y w2 sub m w2 w d w neg 0 d cl f} def
/m27 {mp x y w2 add m w3 neg w2 neg d w3 w2 neg d w3 w2 d cl s} def
/m28 {mp x w2 sub y w2 sub w3 add m w3 0 d  0 w3 neg d w3 0 d 0 w3 d w3 0 d  0 w3 d w3 neg 0 d 0 w3 d w3 neg 0 d 0 w3 neg d w3 neg 0 d cl s } def
/m29 {mp gsave x w2 sub y w2 add w3 sub m currentpoint t 4 {side} repeat cl fill gr} def
/m30 {mp gsave x w2 sub y w2 add w3 sub m currentpoint t 4 {side} repeat cl s gr} def
/m31 {mp x y w2 sub m 0 w d x w2 sub y m w 0 d x w2 sub y w2 add m w w neg d x w2 sub y w2 sub m w w d s} def
/m32 {mp x y w2 sub m w2 w d w neg 0 d cl s} def
/m33 {mp x y w2 add m w3 neg w2 neg d w3 w2 neg d w3 w2 d cl f} def
/m34 {mp x w2 sub y w2 sub w3 add m w3 0 d  0 w3 neg d w3 0 d 0 w3 d w3 0 d  0 w3 d w3 neg 0 d 0 w3 d w3 neg 0 d 0 w3 neg d w3 neg 0 d cl f } def
/m2 {mp x y w2 sub m 0 w d x w2 sub y m w 0 d s} def
/m5 {mp x w2 sub y w2 sub m w w d x w2 sub y w2 add m w w neg d s} def
/reEncode {exch findfont dup length dict begin {1 index /FID eq  {pop pop} {def} ifelse } forall /Encoding exch def currentdict end dup /FontName get exch definefont pop } def [/Times-Bold /Times-Italic /Times-BoldItalic /Helvetica /Helvetica-Oblique
 /Helvetica-Bold /Helvetica-BoldOblique /Courier /Courier-Oblique /Courier-Bold /Courier-BoldOblique /Times-Roman /AvantGarde-Book /AvantGarde-BookOblique /AvantGarde-Demi /AvantGarde-DemiOblique /Bookman-Demi /Bookman-DemiItalic /Bookman-Light
 /Bookman-LightItalic /Helvetica-Narrow /Helvetica-Narrow-Bold /Helvetica-Narrow-BoldOblique /Helvetica-Narrow-Oblique /NewCenturySchlbk-Roman /NewCenturySchlbk-Bold /NewCenturySchlbk-BoldItalic /NewCenturySchlbk-Italic /Palatino-Bold
 /Palatino-BoldItalic /Palatino-Italic /Palatino-Roman ] {ISOLatin1Encoding reEncode } forall
%%EndProlog
%%BeginSetup
%%EndSetup
newpath  gsave  .25 .25 scale  gsave  0 0 t black[  ] 0 sd 6 lw 1 1 1 c 2268 1701 0 0 bf black 1 1 1 c 1633 1344 317 238 bf black 1633 1344 317 238 bl 1 1 1 c 1633 1344 317 238 bf black 1633 1344 317 238 bl 1 1 1 c 0.413333 1 0 c 117 269 317 238 bf
 117 269 434 238 bf 0.6 1 0 c 116 269 551 238 bf 117 269 667 238 bf 0.88 1 0 c 117 269 784 238 bf 1 0.933333 0 c 116 269 901 238 bf 117 269 1017 238 bf 116 269 1134 238 bf 1 0.653333 0 c 234 269 1250 238 bf 1 0.186667 0 c 466 269 1484 238 bf 1
 0.653333 0 c 117 269 317 507 bf 117 269 434 507 bf 1 0.466667 0 c 116 269 551 507 bf 117 269 667 507 bf 117 269 784 507 bf 1 0.186667 0 c 116 269 901 507 bf 117 269 1017 507 bf 116 269 1134 507 bf 1 0 0 c 234 269 1250 507 bf 466 269 1484 507 bf 1
 0.186667 0 c 117 268 317 776 bf 117 268 434 776 bf 116 268 551 776 bf 117 268 667 776 bf 1 0 0 c 117 268 784 776 bf 116 268 901 776 bf 117 268 1017 776 bf 116 268 1134 776 bf 234 268 1250 776 bf 466 268 1484 776 bf 1 0.186667 0 c 117 269 317 1044 bf
 117 269 434 1044 bf 116 269 551 1044 bf 117 269 667 1044 bf 1 0 0 c 117 269 784 1044 bf 116 269 901 1044 bf 117 269 1017 1044 bf 1 0.186667 0 c 116 269 1134 1044 bf 1 0 0 c 234 269 1250 1044 bf 466 269 1484 1044 bf 0.88 1 0 c 117 269 317 1313 bf 1
 0.933333 0 c 117 269 434 1313 bf 116 269 551 1313 bf 1 0.653333 0 c 117 269 667 1313 bf 117 269 784 1313 bf 1 0.186667 0 c 116 269 901 1313 bf 1 0 0 c 117 269 1017 1313 bf 116 269 1134 1313 bf 234 269 1250 1313 bf 1 1 1 c black 317 238 m 1633 X s
 gsave  2268 1701 0 0 C 1591.06 64.0081 t 0 r /Helvetica-Bold findfont 96.0122 sf 0 0 m ( [GeV/c]) show NC gr 
 gsave  2268 1701 0 0 C 1549.91 13.716 t 0 r /Helvetica-Bold findfont 64.0081 sf 0 0 m (T) show NC gr 
 gsave  2268 1701 0 0 C 1490.47 64.0081 t 0 r /Helvetica-Bold findfont 96.0122 sf 0 0 m (p) show NC gr  317 275 m -37 Y s 434 256 m -18 Y s 551 256 m -18 Y s 667 256 m -18 Y s 784 256 m -18 Y s 901 275 m -37 Y s 1017 256 m -18 Y s 1134 256 m -18 Y s
 1250 256 m -18 Y s 1367 256 m -18 Y s 1484 275 m -37 Y s 1484 275 m -37 Y s 1600 256 m -18 Y s 1717 256 m -18 Y s 1834 256 m -18 Y s 1950 256 m -18 Y s
 gsave  2268 1701 0 0 C 292.609 146.304 t 0 r /Helvetica-Bold findfont 77.7242 sf 0 0 m (0) show NC gr 
 gsave  2268 1701 0 0 C 873.254 146.304 t 0 r /Helvetica-Bold findfont 77.7242 sf 0 0 m (5) show NC gr 
 gsave  2268 1701 0 0 C 1435.61 146.304 t 0 r /Helvetica-Bold findfont 77.7242 sf 0 0 m (10) show NC gr  317 1582 m 1633 X s 317 1545 m 37 Y s 434 1563 m 19 Y s 551 1563 m 19 Y s 667 1563 m 19 Y s 784 1563 m 19 Y s 901 1545 m 37 Y s 1017 1563 m 19 Y
 s 1134 1563 m 19 Y s 1250 1563 m 19 Y s 1367 1563 m 19 Y s 1484 1545 m 37 Y s 1484 1545 m 37 Y s 1600 1563 m 19 Y s 1717 1563 m 19 Y s 1834 1563 m 19 Y s 1950 1563 m 19 Y s 317 238 m 1344 Y s
 gsave  2268 1701 0 0 C 114.3 1527.05 t 90 r /Helvetica-Bold findfont 96.0122 sf 0 0 m (y) show NC gr  371 238 m -54 X s 344 292 m -27 X s 344 346 m -27 X s 344 399 m -27 X s 344 453 m -27 X s 371 507 m -54 X s 344 561 m -27 X s 344 614 m -27 X s 344
 668 m -27 X s 344 722 m -27 X s 371 776 m -54 X s 344 829 m -27 X s 344 883 m -27 X s 344 937 m -27 X s 344 991 m -27 X s 371 1044 m -54 X s 344 1098 m -27 X s 344 1152 m -27 X s 344 1206 m -27 X s 344 1259 m -27 X s 371 1313 m -54 X s 344 1367 m
 -27 X s 344 1420 m -27 X s 344 1474 m -27 X s 344 1528 m -27 X s 371 1582 m -54 X s
 gsave  2268 1701 0 0 C 196.596 210.312 t 0 r /Helvetica-Bold findfont 77.7242 sf 0 0 m (2.5) show NC gr 
 gsave  2268 1701 0 0 C 260.605 475.489 t 0 r /Helvetica-Bold findfont 77.7242 sf 0 0 m (3) show NC gr 
 gsave  2268 1701 0 0 C 196.596 745.237 t 0 r /Helvetica-Bold findfont 77.7242 sf 0 0 m (3.5) show NC gr 
 gsave  2268 1701 0 0 C 260.605 1014.99 t 0 r /Helvetica-Bold findfont 77.7242 sf 0 0 m (4) show NC gr 
 gsave  2268 1701 0 0 C 196.596 1284.73 t 0 r /Helvetica-Bold findfont 77.7242 sf 0 0 m (4.5) show NC gr 
 gsave  2268 1701 0 0 C 260.605 1549.91 t 0 r /Helvetica-Bold findfont 77.7242 sf 0 0 m (5) show NC gr  1950 238 m 1344 Y s 1896 238 m 54 X s 1923 292 m 27 X s 1923 346 m 27 X s 1923 399 m 27 X s 1923 453 m 27 X s 1896 507 m 54 X s 1923 561 m 27 X s
 1923 614 m 27 X s 1923 668 m 27 X s 1923 722 m 27 X s 1896 776 m 54 X s 1923 829 m 27 X s 1923 883 m 27 X s 1923 937 m 27 X s 1923 991 m 27 X s 1896 1044 m 54 X s 1923 1098 m 27 X s 1923 1152 m 27 X s 1923 1206 m 27 X s 1923 1259 m 27 X s 1896 1313
 m 54 X s 1923 1367 m 27 X s 1923 1420 m 27 X s 1923 1474 m 27 X s 1923 1528 m 27 X s 1896 1582 m 54 X s 0.386667 0 1 c 102 67 1962 238 bf 0.2 0 1 c 102 67 1962 305 bf 0 0.0800001 1 c 102 68 1962 372 bf 0 0.266667 1 c 102 67 1962 440 bf 0 0.546666 1
 c 102 67 1962 507 bf 0 0.733333 1 c 102 67 1962 574 bf 0 1 0.986667 c 102 67 1962 641 bf 0 1 0.8 c 102 68 1962 708 bf 0 1 0.52 c 102 67 1962 776 bf 0 1 0.333333 c 102 67 1962 843 bf 0 1 0.0533333 c 102 67 1962 910 bf 0.133333 1 0 c 102 67 1962 977
 bf 0.413333 1 0 c 102 67 1962 1044 bf 0.6 1 0 c 102 68 1962 1111 bf 0.88 1 0 c 102 67 1962 1179 bf 1 0.933333 0 c 102 67 1962 1246 bf 1 0.653333 0 c 102 67 1962 1313 bf 1 0.466667 0 c 102 67 1962 1380 bf 1 0.186667 0 c 102 68 1962 1447 bf 1 0 0 c
 102 67 1962 1515 bf black 2064 238 m 1344 Y s 2010 238 m 54 X s 2010 372 m 54 X s 2010 507 m 54 X s 2010 641 m 54 X s 2010 776 m 54 X s 2010 910 m 54 X s 2010 1044 m 54 X s 2010 1179 m 54 X s 2010 1313 m 54 X s 2010 1447 m 54 X s 2010 1582 m 54 X s
 gsave  2268 1701 0 0 C 2071.12 210.312 t 0 r /Helvetica-Bold findfont 77.7242 sf 0 0 m (0) show NC gr 
 gsave  2268 1701 0 0 C 2071.12 342.901 t 0 r /Helvetica-Bold findfont 77.7242 sf 0 0 m (0.1) show NC gr 
 gsave  2268 1701 0 0 C 2071.12 475.489 t 0 r /Helvetica-Bold findfont 77.7242 sf 0 0 m (0.2) show NC gr 
 gsave  2268 1701 0 0 C 2071.12 612.649 t 0 r /Helvetica-Bold findfont 77.7242 sf 0 0 m (0.3) show NC gr 
 gsave  2268 1701 0 0 C 2071.12 745.237 t 0 r /Helvetica-Bold findfont 77.7242 sf 0 0 m (0.4) show NC gr 
 gsave  2268 1701 0 0 C 2071.12 882.398 t 0 r /Helvetica-Bold findfont 77.7242 sf 0 0 m (0.5) show NC gr 
 gsave  2268 1701 0 0 C 2071.12 1014.99 t 0 r /Helvetica-Bold findfont 77.7242 sf 0 0 m (0.6) show NC gr 
 gsave  2268 1701 0 0 C 2071.12 1147.57 t 0 r /Helvetica-Bold findfont 77.7242 sf 0 0 m (0.7) show NC gr 
 gsave  2268 1701 0 0 C 2071.12 1284.73 t 0 r /Helvetica-Bold findfont 77.7242 sf 0 0 m (0.8) show NC gr 
 gsave  2268 1701 0 0 C 2071.12 1417.32 t 0 r /Helvetica-Bold findfont 77.7242 sf 0 0 m (0.9) show NC gr 
 gsave  2268 1701 0 0 C 2071.12 1549.91 t 0 r /Helvetica-Bold findfont 77.7242 sf 0 0 m (1) show NC gr 
 gr  gr showpage
end
%%EOF
