%!PS-Adobe-2.0 EPSF-2.0
%%BoundingBox:  0 0 567 384
%%Title: ../result/Acc/comparison1.eps: c1
%%Creator: ROOT Version 5.34/25
%%CreationDate: Tue Aug 25 10:08:15 2015
%%EndComments
%%BeginProlog
80 dict begin
/s {stroke} def /l {lineto} def /m {moveto} def /t {translate} def
/r {rotate} def /rl {roll}  def /R {repeat} def
/d {rlineto} def /rm {rmoveto} def /gr {grestore} def /f {eofill} def
/c {setrgbcolor} def /black {0 setgray} def /sd {setdash} def
/cl {closepath} def /sf {scalefont setfont} def /lw {setlinewidth} def
/box {m dup 0 exch d exch 0 d 0 exch neg d cl} def
/NC{systemdict begin initclip end}def/C{NC box clip newpath}def
/bl {box s} def /bf {box f} def /Y { 0 exch d} def /X { 0 d} def 
/K {{pop pop 0 moveto} exch kshow} bind def
/ita {/ang 15 def gsave [1 0 ang dup sin exch cos div 1 0 0] concat} def 
/mp {newpath /y exch def /x exch def} def
/side {[w .77 mul w .23 mul] .385 w mul sd w 0 l currentpoint t -144 r} def
/mr {mp x y w2 0 360 arc} def /m24 {mr s} def /m20 {mr f} def
/mb {mp x y w2 add m w2 neg 0 d 0 w neg d w 0 d 0 w d cl} def
/mt {mp x y w2 add m w2 neg w neg d w 0 d cl} def
/m21 {mb f} def /m25 {mb s} def /m22 {mt f} def /m26{mt s} def
/m23 {mp x y w2 sub m w2 w d w neg 0 d cl f} def
/m27 {mp x y w2 add m w3 neg w2 neg d w3 w2 neg d w3 w2 d cl s} def
/m28 {mp x w2 sub y w2 sub w3 add m w3 0 d  0 w3 neg d w3 0 d 0 w3 d w3 0 d  0 w3 d w3 neg 0 d 0 w3 d w3 neg 0 d 0 w3 neg d w3 neg 0 d cl s } def
/m29 {mp gsave x w2 sub y w2 add w3 sub m currentpoint t 4 {side} repeat cl fill gr} def
/m30 {mp gsave x w2 sub y w2 add w3 sub m currentpoint t 4 {side} repeat cl s gr} def
/m31 {mp x y w2 sub m 0 w d x w2 sub y m w 0 d x w2 sub y w2 add m w w neg d x w2 sub y w2 sub m w w d s} def
/m32 {mp x y w2 sub m w2 w d w neg 0 d cl s} def
/m33 {mp x y w2 add m w3 neg w2 neg d w3 w2 neg d w3 w2 d cl f} def
/m34 {mp x w2 sub y w2 sub w3 add m w3 0 d  0 w3 neg d w3 0 d 0 w3 d w3 0 d  0 w3 d w3 neg 0 d 0 w3 d w3 neg 0 d 0 w3 neg d w3 neg 0 d cl f } def
/m2 {mp x y w2 sub m 0 w d x w2 sub y m w 0 d s} def
/m5 {mp x w2 sub y w2 sub m w w d x w2 sub y w2 add m w w neg d s} def
/reEncode {exch findfont dup length dict begin {1 index /FID eq  {pop pop} {def} ifelse } forall /Encoding exch def currentdict end dup /FontName get exch definefont pop } def [/Times-Bold /Times-Italic /Times-BoldItalic /Helvetica /Helvetica-Oblique
 /Helvetica-Bold /Helvetica-BoldOblique /Courier /Courier-Oblique /Courier-Bold /Courier-BoldOblique /Times-Roman /AvantGarde-Book /AvantGarde-BookOblique /AvantGarde-Demi /AvantGarde-DemiOblique /Bookman-Demi /Bookman-DemiItalic /Bookman-Light
 /Bookman-LightItalic /Helvetica-Narrow /Helvetica-Narrow-Bold /Helvetica-Narrow-BoldOblique /Helvetica-Narrow-Oblique /NewCenturySchlbk-Roman /NewCenturySchlbk-Bold /NewCenturySchlbk-BoldItalic /NewCenturySchlbk-Italic /Palatino-Bold
 /Palatino-BoldItalic /Palatino-Italic /Palatino-Roman ] {ISOLatin1Encoding reEncode } forall
%%EndProlog
%%BeginSetup
%%EndSetup
newpath  gsave  .25 .25 scale  gsave  0 0 t black[  ] 0 sd 3 lw 1 1 1 c 2268 1538 0 0 bf black 1 1 1 c 1814 1230 227 154 bf black 1814 1230 227 154 bl 1 1 1 c 1814 1230 227 154 bf black 1814 1230 227 154 bl 1 1 1 c 0.88 1 0 c 129 246 227 154 bf 0 1
 0.333333 c 130 246 356 154 bf 0 0.266667 1 c 130 246 486 154 bf 0 1 0.986667 c 129 246 616 154 bf 0 1 0.333333 c 130 246 745 154 bf 0.88 1 0 c 129 246 875 154 bf 0 0.266667 1 c 130 246 1004 154 bf 0.386667 0 1 c 129 246 1134 154 bf 0 1 0.52 c 260
 246 1263 154 bf 1 0.653333 0 c 518 246 1523 154 bf 0 1 0.8 c 129 246 227 400 bf 0 1 0.333333 c 130 246 356 400 bf 0.413333 1 0 c 130 246 486 400 bf 0.133333 1 0 c 129 246 616 400 bf 130 246 745 400 bf 0 1 0.0533333 c 129 246 875 400 bf 0 0.733333 1
 c 130 246 1004 400 bf 0.2 0 1 c 129 246 1134 400 bf 0 0.0800001 1 c 260 246 1263 400 bf 0 1 0.0533333 c 518 246 1523 400 bf 0 1 0.52 c 129 246 227 646 bf 0 1 0.0533333 c 130 246 356 646 bf 0 1 0.333333 c 130 246 486 646 bf 0 1 0.52 c 129 246 616 646
 bf 0 1 0.986667 c 130 246 745 646 bf 129 246 875 646 bf 0 1 0.8 c 130 246 1004 646 bf 0 0.266667 1 c 129 246 1134 646 bf 0.413333 1 0 c 260 246 1263 646 bf 0 0.733333 1 c 518 246 1523 646 bf 0 1 0.0533333 c 129 246 227 892 bf 0 1 0.333333 c 130 246
 356 892 bf 0 1 0.52 c 130 246 486 892 bf 0.413333 1 0 c 129 246 616 892 bf 0.133333 1 0 c 130 246 745 892 bf 1 0.933333 0 c 129 246 875 892 bf 0 1 0.0533333 c 130 246 1004 892 bf 0 0.546666 1 c 129 246 1134 892 bf 0 1 0.52 c 260 246 1263 892 bf 0.6
 1 0 c 518 246 1523 892 bf 0 1 0.333333 c 129 246 227 1138 bf 0.88 1 0 c 130 246 356 1138 bf 1 0.653333 0 c 130 246 486 1138 bf 0 1 0.0533333 c 129 246 616 1138 bf 0.6 1 0 c 130 246 745 1138 bf 0.88 1 0 c 129 246 875 1138 bf 0.6 1 0 c 130 246 1004
 1138 bf 1 0 0 c 129 246 1134 1138 bf 1 0.466667 0 c 260 246 1263 1138 bf 0 1 0.333333 c 518 246 1523 1138 bf 1 1 1 c black 227 154 m 1814 X s 227 191 m -37 Y s 292 172 m -18 Y s 356 172 m -18 Y s 421 172 m -18 Y s 486 191 m -37 Y s 551 172 m -18 Y s
 616 172 m -18 Y s 680 172 m -18 Y s 745 191 m -37 Y s 810 172 m -18 Y s 875 172 m -18 Y s 939 172 m -18 Y s 1004 191 m -37 Y s 1069 172 m -18 Y s 1134 172 m -18 Y s 1199 172 m -18 Y s 1263 191 m -37 Y s 1328 172 m -18 Y s 1393 172 m -18 Y s 1458 172
 m -18 Y s 1523 191 m -37 Y s 1587 172 m -18 Y s 1652 172 m -18 Y s 1717 172 m -18 Y s 1782 191 m -37 Y s 1847 172 m -18 Y s 1911 172 m -18 Y s 1976 172 m -18 Y s 2041 191 m -37 Y s
 gsave  2268 1538 0 0 C 211.784 104.263 t 0 r /Helvetica findfont 48.8732 sf 0 0 m (0) show NC gr 
 gsave  2268 1538 0 0 C 472.441 104.263 t 0 r /Helvetica findfont 48.8732 sf 0 0 m (2) show NC gr 
 gsave  2268 1538 0 0 C 729.84 104.263 t 0 r /Helvetica findfont 48.8732 sf 0 0 m (4) show NC gr 
 gsave  2268 1538 0 0 C 990.497 104.263 t 0 r /Helvetica findfont 48.8732 sf 0 0 m (6) show NC gr 
 gsave  2268 1538 0 0 C 1247.9 104.263 t 0 r /Helvetica findfont 48.8732 sf 0 0 m (8) show NC gr 
 gsave  2268 1538 0 0 C 1495.52 104.263 t 0 r /Helvetica findfont 48.8732 sf 0 0 m (10) show NC gr 
 gsave  2268 1538 0 0 C 1749.66 104.263 t 0 r /Helvetica findfont 48.8732 sf 0 0 m (12) show NC gr 
 gsave  2268 1538 0 0 C 2010.32 104.263 t 0 r /Helvetica findfont 48.8732 sf 0 0 m (14) show NC gr  227 154 m 1230 Y s 281 154 m -54 X s 254 203 m -27 X s 254 252 m -27 X s 254 301 m -27 X s 254 351 m -27 X s 281 400 m -54 X s 254 449 m -27 X s 254
 498 m -27 X s 254 547 m -27 X s 254 597 m -27 X s 281 646 m -54 X s 254 695 m -27 X s 254 744 m -27 X s 254 794 m -27 X s 254 843 m -27 X s 281 892 m -54 X s 254 941 m -27 X s 254 990 m -27 X s 254 1040 m -27 X s 254 1089 m -27 X s 281 1138 m -54 X
 s 254 1187 m -27 X s 254 1236 m -27 X s 254 1286 m -27 X s 254 1335 m -27 X s 281 1384 m -54 X s
 gsave  2268 1538 0 0 C 146.62 136.845 t 0 r /Helvetica findfont 48.8732 sf 0 0 m (1.5) show NC gr 
 gsave  2268 1538 0 0 C 188.976 381.211 t 0 r /Helvetica findfont 48.8732 sf 0 0 m (2) show NC gr 
 gsave  2268 1538 0 0 C 146.62 628.835 t 0 r /Helvetica findfont 48.8732 sf 0 0 m (2.5) show NC gr 
 gsave  2268 1538 0 0 C 188.976 873.201 t 0 r /Helvetica findfont 48.8732 sf 0 0 m (3) show NC gr 
 gsave  2268 1538 0 0 C 146.62 1120.83 t 0 r /Helvetica findfont 48.8732 sf 0 0 m (3.5) show NC gr 
 gsave  2268 1538 0 0 C 188.976 1365.19 t 0 r /Helvetica findfont 48.8732 sf 0 0 m (4) show NC gr  0.386667 0 1 c 102 61 2052 154 bf 0.2 0 1 c 102 62 2052 215 bf 0 0.0800001 1 c 102 61 2052 277 bf 0 0.266667 1 c 102 62 2052 338 bf 0 0.546666 1 c 102
 61 2052 400 bf 0 0.733333 1 c 102 62 2052 461 bf 0 1 0.986667 c 102 61 2052 523 bf 0 1 0.8 c 102 62 2052 584 bf 0 1 0.52 c 102 61 2052 646 bf 0 1 0.333333 c 102 62 2052 707 bf 0 1 0.0533333 c 102 61 2052 769 bf 0.133333 1 0 c 102 62 2052 830 bf
 0.413333 1 0 c 102 61 2052 892 bf 0.6 1 0 c 102 62 2052 953 bf 0.88 1 0 c 102 62 2052 1015 bf 1 0.933333 0 c 102 61 2052 1077 bf 1 0.653333 0 c 102 62 2052 1138 bf 1 0.466667 0 c 102 61 2052 1200 bf 1 0.186667 0 c 102 62 2052 1261 bf 1 0 0 c 102 61
 2052 1323 bf black 2154 154 m 1230 Y s 2100 240 m 54 X s 2100 483 m 54 X s 2100 725 m 54 X s 2100 968 m 54 X s 2100 1211 m 54 X s 2100 240 m 54 X s 2100 1211 m 54 X s
 gsave  2268 1538 0 0 C 2163.45 221.559 t 0 r /Helvetica findfont 48.8732 sf 0 0 m (0.96) show NC gr 
 gsave  2268 1538 0 0 C 2163.45 465.924 t 0 r /Helvetica findfont 48.8732 sf 0 0 m (0.98) show NC gr 
 gsave  2268 1538 0 0 C 2163.45 707.032 t 0 r /Helvetica findfont 48.8732 sf 0 0 m (1) show NC gr 
 gsave  2268 1538 0 0 C 2163.45 951.398 t 0 r /Helvetica findfont 48.8732 sf 0 0 m (1.02) show NC gr 
 gsave  2268 1538 0 0 C 2163.45 1192.51 t 0 r /Helvetica findfont 48.8732 sf 0 0 m (1.04) show NC gr  1 1 1 c black
 gsave  2268 1538 0 0 C 834.103 1466.2 t 0 r /Helvetica findfont 74.9389 sf 0 0 m (Efficiency ratio pA) show NC gr 
 gr  gr showpage
end
%%EOF
